ID range vs continent name:
	100000: world

statics
	100054 units/dev_tools/level_tools/dev_nav_blocker_1x1m/001 (-350.0, 250.0, -97.5)
	100055 units/dev_tools/level_tools/dev_nav_blocker_1x1m/002 (250.0, 250.0, -97.5)
	100057 units/dev_tools/level_tools/dev_nav_blocker_1x1m/003 (350.0, -250.0, -97.5)
	100091 units/dev_tools/level_tools/dev_nav_blocker_1x1m/004 (250.0, 350.0, -97.5)
	100059 units/dev_tools/level_tools/dev_nav_blocker_1x1m/005 (150.0, -350.0, -97.5)
	100058 units/dev_tools/level_tools/dev_nav_blocker_1x1m/006 (50.0, -450.0, -97.5)
	100060 units/dev_tools/level_tools/dev_nav_blocker_1x1m/007 (-50.0, -450.0, -97.5)
	100061 units/dev_tools/level_tools/dev_nav_blocker_1x1m/008 (-150.0, -450.0, -97.5)
	100087 units/dev_tools/level_tools/dev_nav_blocker_1x1m/009 (-250.0, -350.0, -97.5)
	100088 units/dev_tools/level_tools/dev_nav_blocker_1x1m/010 (-450.0, -250.0, -97.5)
	100089 units/dev_tools/level_tools/dev_nav_blocker_1x1m/011 (250.0, -350.0, -97.5)
	100090 units/dev_tools/level_tools/dev_nav_blocker_1x1m/012 (-350.0, -350.0, -97.5)
	100092 units/dev_tools/level_tools/dev_nav_blocker_1x1m/013 (350.0, 250.0, -97.5)
	100093 units/dev_tools/level_tools/dev_nav_blocker_1x1m/014 (250.0, 150.0, -97.5)
	100094 units/dev_tools/level_tools/dev_nav_blocker_1x1m/015 (150.0, 250.0, -97.5)
	100095 units/dev_tools/level_tools/dev_nav_blocker_1x1m/016 (-250.0, 250.0, -97.5)
	100096 units/dev_tools/level_tools/dev_nav_blocker_1x1m/017 (-350.0, 150.0, -97.5)
	100097 units/dev_tools/level_tools/dev_nav_blocker_1x1m/018 (-450.0, 250.0, -97.5)
	100098 units/dev_tools/level_tools/dev_nav_blocker_1x1m/019 (-350.0, 350.0, -97.5)
