﻿´startup´ MissionScriptElement 100000
	EXECUTE ON STARTUP
	on_executed
		´delay´ (delay 1)
´delay´ MissionScriptElement 100001
	on_executed
		´seq_setup´ (delay 0)
		´unit_disabler´ (delay 0)
´test(disabled_by_default)´ MissionScriptElement 100002
	EXECUTE ON STARTUP
	DISABLED
	on_executed
		´point_spawn_player_001´ (delay 0)
		´test_delay´ (delay 3)
		´input_show_interact_WP´ (delay 1)
		´func_equipment_001´ (delay 0)
´point_spawn_player_001´ ElementPlayerSpawner 100003
	position 0.0, -200.0, 0.0
	rotation 0.0, 0.0, 0.0, -1.0
	state standard
´test_delay´ MissionScriptElement 100004
´seq_setup´ ElementUnitSequence 100005
	position 600.0, 100.0, 0.0
	rotation 0.0, 0.0, 0.0, -1.0
	trigger_list
´unit_disabler´ ElementDisableUnit 100006
	position 600.0, 0.0, 0.0
	rotation 0.0, 0.0, 0.0, -1.0
	unit_ids
´input_show_interact_WP´ ElementInstanceInput 100007
	event show_interact_WP
	on_executed
		´WP_interact_generic´ (delay 0)
		´comment_consider_it_done´ (delay 5)
		´enable_area_player_here_with_blowtorch´ (delay 0)
´point_interaction_001´ ElementInteraction 100009
	DISABLED
	host_only False
	override_timer 3
	position -39.0, -1.0, 87.0
	rotation 0.0, 0.0, 0.0, -1.0
	tweak_data_id hold_blow_torch
	on_executed
		´end001´ (delay 0) (alternative interacted)
		´start001´ (delay 0) (alternative start)
		´interrupt001´ (delay 0) (alternative interupt)
´point_interaction_002´ ElementInteraction 100010
	DISABLED
	host_only False
	override_timer 3
	position 47.0, -1.0, 87.0
	rotation 0.0, 0.0, 0.0, -1.0
	tweak_data_id hold_blow_torch
	on_executed
		´start002´ (delay 0) (alternative start)
		´end002´ (delay 0) (alternative interacted)
		´interrupt002´ (delay 0) (alternative interupt)
´point_interaction_003´ ElementInteraction 100011
	DISABLED
	host_only False
	override_timer 3
	position 47.0, -1.0, 240.0
	rotation 0.0, 0.0, 0.0, -1.0
	tweak_data_id hold_blow_torch
	on_executed
		´start004´ (delay 0) (alternative start)
		´end004´ (delay 0) (alternative interacted)
		´interrupt004´ (delay 0) (alternative interupt)
´point_interaction_004´ ElementInteraction 100012
	DISABLED
	host_only False
	override_timer 3
	position -35.0, -1.0, 238.0
	rotation 0.0, 0.0, 0.0, -1.0
	tweak_data_id hold_blow_torch
	on_executed
		´start003´ (delay 0) (alternative start)
		´end003´ (delay 0) (alternative interacted)
		´interrupt003´ (delay 0) (alternative interupt)
´func_equipment_001´ ElementEquipment 100013
	amount 1
	equipment blow_torch
	position 1400.0, 100.0, 0.0
	rotation 0.0, 0.0, 0.0, -1.0
´env_effect_play_001´ ElementPlayEffect 100014
	base_time 0
	effect effects/payday2/particles/equipment/welding_effect_blowtorch
	max_amount 0
	position -39.0, -1.0, 87.0
	random_time 0
	rotation -0.707107, 0.0, 0.0, -0.707107
	screen_space False
´env_effect_play_002´ ElementPlayEffect 100015
	base_time 0
	effect effects/payday2/particles/equipment/welding_effect_blowtorch
	max_amount 0
	position 47.0, -1.0, 87.0
	random_time 0
	rotation -0.707107, 0.0, 0.0, -0.707107
	screen_space False
´env_effect_play_003´ ElementPlayEffect 100016
	base_time 0
	effect effects/payday2/particles/equipment/welding_effect_blowtorch
	max_amount 0
	position -35.0, -1.0, 238.0
	random_time 0
	rotation -0.707107, 0.0, 0.0, -0.707107
	screen_space False
´env_effect_play_004´ ElementPlayEffect 100017
	base_time 0
	effect effects/payday2/particles/equipment/welding_effect_blowtorch
	max_amount 0
	position 47.0, -1.0, 240.0
	random_time 0
	rotation -0.707107, 0.0, 0.0, -0.707107
	screen_space False
´sound_blowtorch_end001´ ElementPlaySound 100019
	append_prefix False
	elements
	interrupt True
	position -39.0, -1.0, 87.0
	rotation -0.707107, 0.0, 0.0, -0.707107
	sound_event bar_blowtorch_end
	use_instigator False
´env_effect_stop_001´ ElementStopEffect 100020
	elements
		1 ´env_effect_play_001´
	operation kill
	position -100.0, -125.0, 100.0
	rotation 0.0, 0.0, 0.0, -1.0
	on_executed
		´sound_blowtorch_end001´ (delay 0)
´end001´ MissionScriptElement 100021
	on_executed
		´env_effect_stop_001´ (delay 0)
		´remove_WP_interact001´ (delay 0)
		´4´ (delay 0)
´start001´ MissionScriptElement 100023
	TRIGGER TIMES 1
	on_executed
		´env_effect_play_001´ (delay 0)
´interrupt001´ MissionScriptElement 100024
	on_executed
		´env_effect_stop_001´ (delay 0)
		´logic_toggle_001´ (delay 0.01)
´logic_toggle_001´ ElementToggle 100025
	elements
		1 ´start001´
	set_trigger_times 1
	toggle on
´sound_blowtorch_end002´ ElementPlaySound 100026
	append_prefix False
	elements
	interrupt True
	position 47.0, -1.0, 87.0
	rotation -0.707107, 0.0, 0.0, -0.707107
	sound_event bar_blowtorch_end
	use_instigator False
´sound_blowtorch_end003´ ElementPlaySound 100027
	append_prefix False
	elements
	interrupt True
	position -35.0, -1.0, 238.0
	rotation -0.707107, 0.0, 0.0, -0.707107
	sound_event bar_blowtorch_end
	use_instigator False
´sound_blowtorch_end004´ ElementPlaySound 100029
	append_prefix False
	elements
	interrupt True
	position 47.0, -1.0, 240.0
	rotation -0.707107, 0.0, 0.0, -0.707107
	sound_event bar_blowtorch_end
	use_instigator False
´interrupt002´ MissionScriptElement 100031
	on_executed
		´env_effect_stop_002´ (delay 0)
		´logic_toggle_002´ (delay 0.01)
´end002´ MissionScriptElement 100032
	on_executed
		´remove_WP_interact002´ (delay 0)
		´env_effect_stop_002´ (delay 0)
		´4´ (delay 0)
´start002´ MissionScriptElement 100033
	TRIGGER TIMES 1
	on_executed
		´env_effect_play_002´ (delay 0)
´start003´ MissionScriptElement 100034
	TRIGGER TIMES 1
	on_executed
		´env_effect_play_003´ (delay 0)
´end003´ MissionScriptElement 100035
	on_executed
		´remove_WP_interact003´ (delay 0)
		´env_effect_stop_003´ (delay 0)
		´4´ (delay 0)
´interrupt003´ MissionScriptElement 100036
	on_executed
		´env_effect_stop_003´ (delay 0)
		´logic_toggle_003´ (delay 0.01)
´start004´ MissionScriptElement 100037
	TRIGGER TIMES 1
	on_executed
		´env_effect_play_004´ (delay 0)
´end004´ MissionScriptElement 100038
	on_executed
		´remove_WP_interact004´ (delay 0)
		´env_effect_stop_004´ (delay 0)
		´4´ (delay 0)
´interrupt004´ MissionScriptElement 100039
	on_executed
		´env_effect_stop_004´ (delay 0)
		´logic_toggle_004´ (delay 0.01)
´area_player_here_with_blowtorch´ ElementAreaTrigger 100040
	DISABLED
	TRIGGER TIMES 1
	amount 1
	depth 400
	height 500
	instigator player
	instigator_name 
	interval 0.1
	position 0.0, -100.0, 100.0
	radius 250
	rotation 0.0, 0.0, 0.0, -1.0
	rules_element_ids
		1 ´rule_blowtorch´
	shape_type box
	spawn_unit_elements
	trigger_on on_enter
	use_disabled_shapes False
	width 524
	on_executed
		´disable_WP_generic_interact´ (delay 0)
		´enable_interactions´ (delay 2)
		´logic_toggle_006´ (delay 0)
		´remove_WP_interact_generic´ (delay 1.5)
´rule_blowtorch´ ElementInstigatorRule 100041
	instigator player
	invert False
	rules
		player
			mission_equipment
				1 blow_torch
´WP_interact_generic´ ElementWaypoint 100042
	icon pd2_generic_look
	only_in_civilian False
	only_on_instigator False
	position 0.0, -25.0, 150.0
	rotation 0.0, 0.0, 0.0, -1.0
	text_id debug_none
	on_executed
		´point_debug_002´ (delay 0)
´remove_WP_interact_generic´ ElementOperator 100043
	elements
		1 ´WP_interact_generic´
	operation remove
´WP_interact001´ ElementWaypoint 100044
	icon pd2_generic_interact
	only_in_civilian False
	only_on_instigator False
	position -39.0, -1.0, 87.0
	rotation -0.707107, 0.0, 0.0, -0.707107
	text_id debug_none
´WP_interact002´ ElementWaypoint 100045
	icon pd2_generic_interact
	only_in_civilian False
	only_on_instigator False
	position 47.0, -1.0, 87.0
	rotation -0.707107, 0.0, 0.0, -0.707107
	text_id debug_none
´WP_interact003´ ElementWaypoint 100046
	icon pd2_generic_interact
	only_in_civilian False
	only_on_instigator False
	position -35.0, -1.0, 238.0
	rotation -0.707107, 0.0, 0.0, -0.707107
	text_id debug_none
´WP_interact004´ ElementWaypoint 100047
	icon pd2_generic_interact
	only_in_civilian False
	only_on_instigator False
	position 47.0, -1.0, 240.0
	rotation -0.707107, 0.0, 0.0, -0.707107
	text_id debug_none
´remove_WP_interact001´ ElementOperator 100048
	elements
		1 ´WP_interact001´
	operation remove
´remove_WP_interact002´ ElementOperator 100049
	elements
		1 ´WP_interact002´
	operation remove
´remove_WP_interact003´ ElementOperator 100050
	elements
		1 ´WP_interact003´
	operation remove
´remove_WP_interact004´ ElementOperator 100051
	elements
		1 ´WP_interact004´
	operation remove
´env_effect_stop_002´ ElementStopEffect 100052
	elements
		1 ´env_effect_play_002´
	operation kill
	position 150.0, -125.0, 100.0
	rotation 0.0, 0.0, 0.0, -1.0
	on_executed
		´sound_blowtorch_end002´ (delay 0)
´logic_toggle_002´ ElementToggle 100053
	elements
		1 ´start002´
	set_trigger_times 1
	toggle on
´env_effect_stop_003´ ElementStopEffect 100054
	elements
		1 ´env_effect_play_003´
	operation kill
	position -100.0, -125.0, 225.0
	rotation 0.0, 0.0, 0.0, -1.0
	on_executed
		´sound_blowtorch_end003´ (delay 0)
´logic_toggle_003´ ElementToggle 100055
	elements
		1 ´start003´
	set_trigger_times 1
	toggle on
´env_effect_stop_004´ ElementStopEffect 100056
	elements
		1 ´env_effect_play_004´
	operation kill
	position 150.0, -125.0, 225.0
	rotation 0.0, 0.0, 0.0, -1.0
	on_executed
		´sound_blowtorch_end004´ (delay 0)
´logic_toggle_004´ ElementToggle 100057
	elements
		1 ´start004´
	set_trigger_times 1
	toggle on
´disable_WP_generic_interact´ ElementToggle 100058
	elements
		1 ´WP_interact_generic´
	set_trigger_times -1
	toggle off
´4´ ElementCounter 100059
	counter_target 4
	digital_gui_unit_ids
	on_executed
		´all_done´ (delay 0)
´all_done´ MissionScriptElement 100060
	on_executed
		´output_done_all_blowtorch_interactions´ (delay 0)
		´point_debug_001´ (delay 0)
		´comment_all_done´ (delay 0.5)
		´func_sequence_001´ (delay 0)
´output_done_all_blowtorch_interactions´ ElementInstanceOutput 100061
	event done_all_blowtorch_interactions
´point_debug_001´ ElementDebug 100018
	as_subtitle False
	debug_string GOOD
	show_instigator False
´comment_consider_it_done´ ElementTeammateComment 100008
	close_to_element True
	comment v01
	position 0.0, -150.0, 0.0
	radius 0
	rotation 0.0, 0.0, 0.0, -1.0
	use_instigator False
´comment_all_done´ ElementTeammateComment 100022
	close_to_element True
	comment v08
	position 0.0, -50.0, 0.0
	radius 0
	rotation 0.0, 0.0, 0.0, -1.0
	use_instigator False
´enable_area_player_here_with_blowtorch´ ElementToggle 100062
	elements
		1 ´area_player_here_with_blowtorch´ DISABLED
	set_trigger_times -1
	toggle on
´point_debug_002´ ElementDebug 100063
	as_subtitle False
	debug_string WP_interact_generic
	show_instigator False
´enable_interactions´ ElementToggle 100028
	elements
		1 ´point_interaction_001´ DISABLED
		2 ´point_interaction_002´ DISABLED
		3 ´point_interaction_003´ DISABLED
		4 ´point_interaction_004´ DISABLED
	set_trigger_times -1
	toggle on
	on_executed
		´WP_interact001´ (delay 0)
		´WP_interact002´ (delay 0)
		´WP_interact003´ (delay 0)
		´WP_interact004´ (delay 0)
		´comment_consider_open_it_up´ (delay 2-3) DISABLED
´logic_toggle_006´ ElementToggle 100065
	elements
		1 ´WP_interact_generic´
	set_trigger_times -1
	toggle off
´comment_consider_open_it_up´ ElementTeammateComment 100066
	DISABLED
	close_to_element True
	comment v16
	position 0.0, -67.0, 75.0
	radius 0
	rotation 0.0, 0.0, 0.0, -1.0
	use_instigator False
´trigger_global_event_001´ ElementGlobalEventTrigger 100067
	TRIGGER TIMES 1
	global_event police_called
	position 1100.0, 200.0, 0.0
	rotation 0.0, 0.0, 0.0, -1.0
	on_executed
		´logic_toggle_005´ (delay 0)
´logic_toggle_005´ ElementToggle 100068
	elements
		1 ´comment_consider_open_it_up´ DISABLED
	set_trigger_times -1
	toggle on
´func_sequence_001´ ElementUnitSequence 100069
	position 1000.0, 0.0, 2.5
	rotation 0.0, 0.0, 0.0, -1.0
	trigger_list
		1
			id 1
			name run_sequence
			notify_unit_id units/pd2_dlc_sah/architecture/sah_int/sah_vault_glass/001 (475.0, 3349.0, 102.0)
			notify_unit_sequence state_open
			time 0
