﻿´activate´ ElementInstanceInput 100001
	Upon mission event "Activate random meat":
		Execute 1:
			´var001´
			´var002´
			´var003´
			´var004´
´var001´ ElementUnitSequence 100003
	Execute sequence: "pick_var_1" - units/pd2_dlc_dinner/props/prop_hanging_meat/din_hanging_meat_02/001 (0.0, 0.0, 0.0)
´var002´ ElementUnitSequence 100004
	Execute sequence: "pick_var_2" - units/pd2_dlc_dinner/props/prop_hanging_meat/din_hanging_meat_02/001 (0.0, 0.0, 0.0)
´var003´ ElementUnitSequence 100005
	Execute sequence: "pick_var_3" - units/pd2_dlc_dinner/props/prop_hanging_meat/din_hanging_meat_02/001 (0.0, 0.0, 0.0)
´var004´ ElementUnitSequence 100000
	Execute sequence: "pick_var_4" - units/pd2_dlc_dinner/props/prop_hanging_meat/din_hanging_meat_02/001 (0.0, 0.0, 0.0)
