ID range vs continent name:
	100000: world

statics
	100123 units/dev_tools/level_tools/dev_ai_vis_blocker_005x1x2m/001 (400.0, -4475.0, 829.0)
	100124 units/dev_tools/level_tools/dev_ai_vis_blocker_005x1x2m/002 (300.0, -4475.0, 829.0)
	100125 units/dev_tools/level_tools/dev_ai_vis_blocker_005x1x2m/003 (100.0, -4475.0, 829.0)
	100126 units/dev_tools/level_tools/dev_ai_vis_blocker_005x1x2m/004 (200.0, -4475.0, 829.0)
	100127 units/dev_tools/level_tools/dev_ai_vis_blocker_005x1x2m/005 (800.0, -4475.0, 829.0)
	100128 units/dev_tools/level_tools/dev_ai_vis_blocker_005x1x2m/006 (700.0, -4475.0, 829.0)
	100129 units/dev_tools/level_tools/dev_ai_vis_blocker_005x1x2m/007 (600.0, -4475.0, 829.0)
	100130 units/dev_tools/level_tools/dev_ai_vis_blocker_005x1x2m/008 (500.0, -4475.0, 829.0)
	100131 units/dev_tools/level_tools/dev_ai_vis_blocker_005x1x2m/009 (875.0, -4475.0, 829.0)
	100132 units/dev_tools/level_tools/dev_ai_vis_blocker_005x1x2m/010 (75.0, -4475.0, 829.0)
	100149 units/dev_tools/level_tools/dev_ai_vis_blocker_005x1x2m/011 (1155.0, -4000.0, 482.187)
	100134 units/dev_tools/level_tools/dev_ai_vis_blocker_005x1x2m/012 (875.0, -4775.0, 829.0)
	100135 units/dev_tools/level_tools/dev_ai_vis_blocker_005x1x2m/013 (875.0, -4675.0, 829.0)
	100136 units/dev_tools/level_tools/dev_ai_vis_blocker_005x1x2m/014 (875.0, -4575.0, 829.0)
	100133 units/dev_tools/level_tools/dev_ai_vis_blocker_005x1x2m/015 (875.0, -5075.0, 829.0)
	100137 units/dev_tools/level_tools/dev_ai_vis_blocker_005x1x2m/016 (875.0, -4975.0, 829.0)
	100138 units/dev_tools/level_tools/dev_ai_vis_blocker_005x1x2m/017 (875.0, -4875.0, 829.0)
	100139 units/dev_tools/level_tools/dev_ai_vis_blocker_005x1x2m/018 (-24.9999, -4575.0, 829.0)
	100140 units/dev_tools/level_tools/dev_ai_vis_blocker_005x1x2m/019 (875.0, -5275.0, 829.0)
	100141 units/dev_tools/level_tools/dev_ai_vis_blocker_005x1x2m/020 (875.0, -5175.0, 829.0)
	100142 units/dev_tools/level_tools/dev_ai_vis_blocker_005x1x2m/021 (-24.9999, -4675.0, 829.0)
	100143 units/dev_tools/level_tools/dev_ai_vis_blocker_005x1x2m/022 (-24.9999, -4875.0, 829.0)
	100144 units/dev_tools/level_tools/dev_ai_vis_blocker_005x1x2m/023 (-24.9999, -4775.0, 829.0)
	100145 units/dev_tools/level_tools/dev_ai_vis_blocker_005x1x2m/024 (-24.9999, -4975.0, 829.0)
	100146 units/dev_tools/level_tools/dev_ai_vis_blocker_005x1x2m/025 (-24.9999, -5075.0, 829.0)
	100147 units/dev_tools/level_tools/dev_ai_vis_blocker_005x1x2m/026 (-24.9999, -5275.0, 829.0)
	100148 units/dev_tools/level_tools/dev_ai_vis_blocker_005x1x2m/027 (-24.9999, -5175.0, 829.0)
	100150 units/dev_tools/level_tools/dev_ai_vis_blocker_005x1x2m/028 (1155.0, -4100.0, 482.187)
	100151 units/dev_tools/level_tools/dev_ai_vis_blocker_005x1x2m/029 (1155.0, -4200.0, 482.187)
	100152 units/dev_tools/level_tools/dev_ai_vis_blocker_005x1x2m/030 (1155.0, -4300.0, 482.187)
	100153 units/dev_tools/level_tools/dev_ai_vis_blocker_005x1x2m/031 (1155.0, -3900.0, 482.187)
	100154 units/dev_tools/level_tools/dev_ai_vis_blocker_005x1x2m/032 (1255.0, -3900.0, 482.187)
	100119 units/dev_tools/level_tools/dev_nav_blocker_1x3m/001 (1170.0, -3903.0, 482.187)
	100120 units/dev_tools/level_tools/dev_nav_blocker_1x3m/002 (1245.0, -3903.0, 482.187)
	100121 units/dev_tools/level_tools/dev_nav_blocker_1x3m/003 (1245.0, -4278.0, 482.187)
	100122 units/dev_tools/level_tools/dev_nav_blocker_1x3m/004 (1170.0, -4278.0, 482.187)
	100054 units/dev_tools/level_tools/dev_nav_blocker_1x3m/019 (4304.05, -4402.78, 914.466)
	100057 units/dev_tools/level_tools/dev_nav_blocker_1x3m/020 (4396.76, -4440.24, 914.466)
	100058 units/dev_tools/level_tools/dev_nav_blocker_1x3m/021 (4204.06, -4404.53, 914.466)
	100059 units/dev_tools/level_tools/dev_nav_blocker_1x3m/022 (4476.63, -4500.42, 914.466)
	100060 units/dev_tools/level_tools/dev_nav_blocker_1x3m/023 (4110.09, -4438.73, 914.466)
	100061 units/dev_tools/level_tools/dev_nav_blocker_1x3m/024 (4522.03, -4589.52, 914.466)
	100062 units/dev_tools/level_tools/dev_nav_blocker_1x3m/025 (4033.49, -4503.01, 914.466)
	100063 units/dev_tools/level_tools/dev_nav_blocker_1x3m/026 (4537.67, -4688.29, 914.466)
	100064 units/dev_tools/level_tools/dev_nav_blocker_1x3m/027 (3980.49, -4587.81, 914.466)
	100066 units/dev_tools/level_tools/dev_nav_blocker_1x3m/028 (4520.3, -4786.77, 914.466)
	100067 units/dev_tools/level_tools/dev_nav_blocker_1x3m/029 (3968.76, -4666.16, 914.466)
	100069 units/dev_tools/level_tools/dev_nav_blocker_1x3m/030 (4465.84, -4870.64, 914.466)
	100070 units/dev_tools/level_tools/dev_nav_blocker_1x3m/031 (3980.95, -4765.42, 914.466)
	100071 units/dev_tools/level_tools/dev_nav_blocker_1x3m/032 (4388.13, -4933.57, 914.466)
	100072 units/dev_tools/level_tools/dev_nav_blocker_1x3m/033 (4027.89, -4853.71, 914.466)
	100073 units/dev_tools/level_tools/dev_nav_blocker_1x3m/034 (4293.02, -4964.47, 914.466)
	100074 units/dev_tools/level_tools/dev_nav_blocker_1x3m/035 (4101.03, -4921.91, 914.466)
	100075 units/dev_tools/level_tools/dev_nav_blocker_1x3m/036 (4193.08, -4960.98, 914.466)
	100115 units/dev_tools/level_tools/dev_nav_blocker_2x3m/001 (1170.0, -4103.0, 482.187)
	100116 units/dev_tools/level_tools/dev_nav_blocker_2x3m/002 (1333.0, -4103.0, 482.187)
	100117 units/dev_tools/level_tools/dev_nav_blocker_2x3m/003 (1170.0, -4303.0, 482.187)
	100118 units/dev_tools/level_tools/dev_nav_blocker_2x3m/004 (1333.0, -4303.0, 482.187)
	100108 units/dev_tools/level_tools/dev_nav_blocker_4x3m/007 (0.0, -4500.0, 1030.0)
	100109 units/dev_tools/level_tools/dev_nav_blocker_4x3m/008 (0.0, -4900.0, 1030.0)
	100110 units/dev_tools/level_tools/dev_nav_blocker_4x3m/009 (850.0, -4900.0, 1030.0)
	100111 units/dev_tools/level_tools/dev_nav_blocker_4x3m/010 (850.0, -4500.0, 1030.0)
	100112 units/dev_tools/level_tools/dev_nav_blocker_4x3m/011 (850.0, -4500.0, 1030.0)
	100113 units/dev_tools/level_tools/dev_nav_blocker_4x3m/012 (450.0, -4500.0, 1030.0)
	100114 units/dev_tools/level_tools/dev_nav_blocker_4x3m/013 (375.0, -4500.0, 1030.0)
	100009 units/payday2/architecture/lcm_b_ext_vtile1_4x4m_a/003 (1254.0, -5326.0, 1.99976)
	100010 units/payday2/architecture/lcm_b_ext_vtile1_4x4m_a/004 (854.002, -5326.0, 1.99976)
	100106 units/payday2/architecture/mkp_int_floor_4x4m_a/050 (442.0, -5300.0, 989.0)
	100107 units/payday2/architecture/mkp_int_floor_4x4m_a/051 (442.0, -4900.0, 989.0)
	100065 units/payday2/architecture/mkp_int_floor_4x4m_a/052 (4221.13, -4696.4, 914.466)
	100068 units/payday2/architecture/mkp_int_floor_4x4m_a/053 (3846.2, -4656.99, 914.466)
	100076 units/payday2/architecture/mkp_int_floor_4x4m_a/054 (4186.74, -5023.59, 914.466)
	100077 units/payday2/architecture/mkp_int_floor_4x4m_a/055 (3811.81, -4984.19, 914.466)
	100078 units/payday2/architecture/mkp_int_floor_4x4m_a/056 (-3900.0, -2927.0, 800.0)
	100079 units/payday2/architecture/mkp_int_floor_4x4m_a/057 (-3900.0, -3327.0, 800.0)
	100080 units/payday2/architecture/mkp_int_floor_4x4m_a/058 (-3900.0, -3727.0, 800.0)
	100081 units/payday2/architecture/mkp_int_floor_4x4m_a/059 (-4300.0, -3727.0, 800.0)
	100082 units/payday2/architecture/mkp_int_floor_4x4m_a/060 (-4300.0, -3327.0, 800.0)
	100083 units/payday2/architecture/mkp_int_floor_4x4m_a/061 (0.0, -5300.0, 989.0)
	100084 units/payday2/architecture/mkp_int_floor_4x4m_a/062 (400.0, -5300.0, 989.0)
	100085 units/payday2/architecture/mkp_int_floor_4x4m_a/063 (400.0, -4900.0, 989.0)
	100086 units/payday2/architecture/mkp_int_floor_4x4m_a/064 (0.0, -4900.0, 989.0)
