ID range vs continent name:
	100000: world

statics
	100042 units/dev_tools/level_tools/dev_nav_blocker_vehicle_sedan/001 (-737.144, -299.844, -19.3167)
	100049 units/dev_tools/level_tools/dev_nav_blocker_vehicle_sedan/002 (1454.74, -2600.97, -19.3207)
	100050 units/dev_tools/level_tools/dev_nav_blocker_vehicle_sedan/003 (-803.271, -1999.9, -21.2402)
	100051 units/dev_tools/level_tools/dev_nav_blocker_vehicle_sedan/004 (-827.959, -2124.48, -20.8359)
	100011 units/payday2/vehicles/anim_vehicle_van_swat (-750.0, -22425.0, -20.0)
		1
			clipping_values 10000.0, -10000.0, 0.0
			color 1.0, 1.0, 1.0
			enabled False
			falloff_exponent 1
			far_range 2000
			multiplier identity
			name ls_left
			near_range 0
			spot_angle_end 40.0728
			spot_angle_start 40.0728
		2
			clipping_values 10000.0, -10000.0, 0.0
			color 1.0, 1.0, 1.0
			enabled False
			falloff_exponent 1
			far_range 2000
			multiplier identity
			name ls_right
			near_range 0
			spot_angle_end 40.0728
			spot_angle_start 40.0728
		3
			clipping_values 10000.0, -10000.0, 0.0
			color 1.0, 1.0, 1.0
			enabled False
			falloff_exponent 1
			far_range 1000
			multiplier identity
			name ls_t_left
			near_range 0
			spot_angle_end 40.0728
			spot_angle_start 40.0728
		4
			clipping_values 10000.0, -10000.0, 0.0
			color 1.0, 1.0, 1.0
			enabled False
			falloff_exponent 1
			far_range 1000
			multiplier identity
			name ls_t_right
			near_range 0
			spot_angle_end 40.0728
			spot_angle_start 40.0728
	100010 units/pd2_dlc_spa/vehicles/str_vehicle_car_police_new_york/arrive01 (-4349.0, 3273.0, 0.0)
		1
			clipping_values 10000.0, -10000.0, 0.0
			color 0.118, 0.5149, 1.0
			enabled False
			falloff_exponent 4
			far_range 350
			multiplier reddot
			name li_light_blue
			near_range 0
			spot_angle_end 0
			spot_angle_start 0
		2
			clipping_values 10000.0, -10000.0, 0.0
			color 1.0, 0.118, 0.118
			enabled False
			falloff_exponent 4
			far_range 350
			multiplier none
			name li_light_red
			near_range 0
			spot_angle_end 0
			spot_angle_start 0
	100013 units/pd2_dlc_spa/vehicles/str_vehicle_car_police_new_york/arrive02 (18457.0, -2801.0, 0.0)
		1
			clipping_values 10000.0, -10000.0, 0.0
			color 0.118, 0.5149, 1.0
			enabled False
			falloff_exponent 4
			far_range 350
			multiplier reddot
			name li_light_blue
			near_range 0
			spot_angle_end 0
			spot_angle_start 0
		2
			clipping_values 10000.0, -10000.0, 0.0
			color 1.0, 0.118, 0.118
			enabled False
			falloff_exponent 4
			far_range 350
			multiplier none
			name li_light_red
			near_range 0
			spot_angle_end 0
			spot_angle_start 0
