﻿´used´ ElementUnitSequenceTrigger 100013
	TRIGGER TIMES 1
	Upon sequence "interact" - units/pd2_dlc_fish/props/lxy_prop_tape_recorder/001 (11.0, 0.0, 0.0):
		Play audio "Play_pot_fish_01" at position (15.0, 0.0, 35.0)
