ID range vs continent name:
	100000: world

statics
	100004 units/payday2/architecture/ind/level/ind_ext_fence_1m/001 (0.0, 0.0, 0.0)
	100002 units/payday2/architecture/ind/level/ind_ext_fence_door/001 (0.0, -113.0, 0.0)
		mesh_variation deactivate_door
	100003 units/payday2/architecture/ind/level/ind_ext_fence_door/002 (0.0, 112.0, 0.0)
		mesh_variation deactivate_door
	100007 units/payday2/equipment/gen_interactable_drill_small_no_jam/001 (12.0, 102.0, 69.912)
