﻿´used´ ElementUnitSequenceTrigger 100006
	TRIGGER TIMES 1
	sequence_list
		1
			guis_id 1
			sequence load
			unit_id units/pd2_dlc_dark/pickups/drk_prop_thermal_paste/001 (-68.7808, 34.0, 2.57381)
		2
			guis_id 2
			sequence load
			unit_id units/pd2_dlc_dark/pickups/drk_prop_thermal_paste/002 (-51.2216, 44.0, 1.8158)
		3
			guis_id 3
			sequence load
			unit_id units/pd2_dlc_dark/pickups/drk_prop_thermal_paste/003 (-52.4934, 26.7415, 1.8409)
		4
			guis_id 4
			sequence load
			unit_id units/pd2_dlc_dark/pickups/drk_prop_thermal_paste/004 (-63.3078, 47.0, 1.9109)
	on_executed
		´link´ (delay 0)
´link´ MissionScriptElement 100007
	on_executed
		´thermal_found´ (delay 0)
		´point_debug_001´ (delay 0)
´thermal_found´ ElementInstanceOutput 100008
	event thermal_found
´enable´ ElementUnitSequence 100011
	position 300.0, -100.0, 0.0
	rotation 0.0, 0.0, 0.0, -1.0
	trigger_list
		1
			id 1
			name run_sequence
			notify_unit_id units/pd2_dlc_dark/pickups/drk_prop_thermal_paste/001 (-68.7808, 34.0, 2.57381)
			notify_unit_sequence show
			time 0
		2
			id 2
			name run_sequence
			notify_unit_id units/pd2_dlc_dark/pickups/drk_prop_thermal_paste/002 (-51.2216, 44.0, 1.8158)
			notify_unit_sequence show
			time 0
		3
			id 3
			name run_sequence
			notify_unit_id units/pd2_dlc_dark/pickups/drk_prop_thermal_paste/003 (-52.4934, 26.7415, 1.8409)
			notify_unit_sequence show
			time 0
		4
			id 4
			name run_sequence
			notify_unit_id units/pd2_dlc_dark/pickups/drk_prop_thermal_paste/004 (-63.3078, 47.0, 1.9109)
			notify_unit_sequence show
			time 0
´point_debug_001´ ElementDebug 100004
	as_subtitle False
	debug_string thermal_found
	show_instigator False
´auto_start´ MissionScriptElement 100014
	EXECUTE ON STARTUP
	on_executed
		´disable_all´ (delay 0)
		´hide´ (delay 0)
´hide´ ElementUnitSequence 100016
	position 400.0, -200.0, 0.0
	rotation 0.0, 0.0, 0.0, -1.0
	trigger_list
		1
			id 1
			name run_sequence
			notify_unit_id units/pd2_dlc_dark/pickups/drk_prop_thermal_paste/001 (-68.7808, 34.0, 2.57381)
			notify_unit_sequence hide
			time 0
		2
			id 2
			name run_sequence
			notify_unit_id units/pd2_dlc_dark/pickups/drk_prop_thermal_paste/002 (-51.2216, 44.0, 1.8158)
			notify_unit_sequence hide
			time 0
		3
			id 3
			name run_sequence
			notify_unit_id units/pd2_dlc_dark/pickups/drk_prop_thermal_paste/003 (-52.4934, 26.7415, 1.8409)
			notify_unit_sequence hide
			time 0
		4
			id 4
			name run_sequence
			notify_unit_id units/pd2_dlc_dark/pickups/drk_prop_thermal_paste/001 (-68.7808, 34.0, 2.57381)
			notify_unit_sequence disable_interaction
			time 0
		5
			id 5
			name run_sequence
			notify_unit_id units/pd2_dlc_dark/pickups/drk_prop_thermal_paste/002 (-51.2216, 44.0, 1.8158)
			notify_unit_sequence disable_interaction
			time 0
		6
			id 6
			name run_sequence
			notify_unit_id units/pd2_dlc_dark/pickups/drk_prop_thermal_paste/003 (-52.4934, 26.7415, 1.8409)
			notify_unit_sequence disable_interaction
			time 0
		7
			id 7
			name run_sequence
			notify_unit_id units/pd2_dlc_dark/pickups/drk_prop_thermal_paste/004 (-63.3078, 47.0, 1.9109)
			notify_unit_sequence hide
			time 0
		8
			id 8
			name run_sequence
			notify_unit_id units/pd2_dlc_dark/pickups/drk_prop_thermal_paste/004 (-63.3078, 47.0, 1.9109)
			notify_unit_sequence disable_interaction
			time 0
´disable_all´ ElementDisableUnit 100002
	position 400.0, -250.0, 0.0
	rotation 0.0, 0.0, 0.0, -1.0
	unit_ids
		1 units/pd2_indiana/props/mus_prop_construction_saw/001 (0.0, 40.0, 0.0)
		2 units/dev_tools/level_tools/dev_ai_vis_blocker_001x2x2m/001 (-100.0, 150.0, 0.0)
		3 units/dev_tools/level_tools/dev_ai_vis_blocker_001x2x2m/004 (100.0, 0.0, -75.0)
		4 units/pd2_dlc_dinner/props/din_barrel/001 (70.0, 39.0, 0.0)
		5 units/pd2_dlc_dark/props/drk_prop_safety_light/002 (75.3881, 32.908, 108.0)
		6 units/pd2_dlc_dark/props/drk_prop_labpipe_50cm/001 (-31.0, 40.0, 87.0)
		7 units/payday2/props/ind_prop_construction_light_flood/001 (126.113, 41.6666, -9.0)
		8 units/pd2_dlc_holly/river/props/lxa_prop_hobo_plasticcrate/001 (-60.0, 40.0, 0.0)
		9 core/units/light_omni/001 (57.0711, 52.3726, 136.0)
´unhide´ ElementInstanceInput 100003
	event unhide
	on_executed
		´link_2´ (delay 0)
´link_2´ MissionScriptElement 100027
	on_executed
		´enable_all´ (delay 0)
		´spawn_ai´ (delay 0)
´enable_all´ ElementEnableUnit 100028
	position 300.0, -200.0, 0.0
	rotation 0.0, 0.0, 0.0, -1.0
	unit_ids
		1 units/pd2_indiana/props/mus_prop_construction_saw/001 (0.0, 40.0, 0.0)
		2 units/dev_tools/level_tools/dev_ai_vis_blocker_001x2x2m/001 (-100.0, 150.0, 0.0)
		3 units/dev_tools/level_tools/dev_ai_vis_blocker_001x2x2m/004 (100.0, 0.0, -75.0)
		4 units/pd2_dlc_dinner/props/din_barrel/001 (70.0, 39.0, 0.0)
		5 units/pd2_dlc_dark/props/drk_prop_safety_light/002 (75.3881, 32.908, 108.0)
		6 units/pd2_dlc_dark/props/drk_prop_labpipe_50cm/001 (-31.0, 40.0, 87.0)
		7 units/payday2/props/ind_prop_construction_light_flood/001 (126.113, 41.6666, -9.0)
		8 units/pd2_dlc_holly/river/props/lxa_prop_hobo_plasticcrate/001 (-60.0, 40.0, 0.0)
		9 core/units/light_omni/001 (57.0711, 52.3726, 136.0)
	on_executed
		´On´ (delay 0)
´buzz´ ElementPlaySound 100000
	append_prefix False
	elements
	interrupt True
	position 5.0, 32.0, 90.0
	rotation 0.0, 0.0, 0.0, -1.0
	sound_event table_saw
	use_instigator False
´buzz-stop´ ElementPlaySound 100010
	append_prefix False
	elements
	interrupt True
	position -300.0, -100.0, 0.0
	rotation 0.0, 0.0, 0.0, -1.0
	sound_event table_saw_stop_global
	use_instigator False
	on_executed
		´off´ (delay 0)
´env_effect_play_001´ ElementPlayEffect 100012
	base_time 0
	effect effects/payday2/particles/electric/saw_sparks_small
	max_amount 0
	position 2.0, 38.3151, 92.696
	random_time 0
	rotation 0.410619, 0.116707, -0.575666, -0.69741
	screen_space False
´func_whisper_state_001´ ElementWhisperState 100017
	EXECUTE ON STARTUP
	position 350.0, 200.0, 0.0
	rotation 0.0, 0.0, 0.0, -1.0
	state True
´spawn_ai´ MissionScriptElement 100031
	on_executed
		´env_effect_play_001´ (delay 0)
		´buzz´ (delay 0)
		´ai_spawn_civilian_002´ (delay 0)
´Death´ ElementEnemyDummyTrigger 100037
	elements
		1 ´ai_spawn_civilian_002´
	event death
	position -300.0, -250.0, 0.0
	rotation 0.0, 0.0, 0.0, -1.0
	on_executed
		´Stop - Saw´ (delay 0)
´Stop - Saw´ MissionScriptElement 100038
	on_executed
		´env_effect_stop_001´ (delay 0)
´env_effect_stop_001´ ElementStopEffect 100040
	elements
		1 ´env_effect_play_001´
	operation kill
	position -300.0, -150.0, 0.0
	rotation 0.0, 0.0, 0.0, -1.0
	on_executed
		´buzz-stop´ (delay 0)
´Alerted´ ElementEnemyDummyTrigger 100041
	TRIGGER TIMES 1
	elements
		1 ´ai_spawn_civilian_002´
	event alerted
	position -250.0, -250.0, 0.0
	rotation 0.0, 0.0, 0.0, -1.0
	on_executed
		´Stop - Saw´ (delay 0)
´off´ ElementToggle 100020
	elements
	set_trigger_times -1
	toggle off
	on_executed
		´remove_vis´ (delay 0)
´Alarm´ ElementInstanceInput 100035
	event Alarm_Sounded
	on_executed
		´Stop - Saw´ (delay 0)
´remove_vis´ ElementDisableUnit 100045
	position -300.0, 0.0, 0.0
	rotation 0.0, 0.0, 0.0, -1.0
	unit_ids
		1 units/dev_tools/level_tools/dev_ai_vis_blocker_001x2x2m/001 (-100.0, 150.0, 0.0)
		2 units/dev_tools/level_tools/dev_ai_vis_blocker_001x2x2m/004 (100.0, 0.0, -75.0)
	on_executed
		´exit´ (delay 0)
´inside´ ElementAreaReportTrigger 100033
	amount 1
	depth 500
	height 500
	instigator player
	instigator_name 
	interval 0.1
	position -300.0, 200.0, 0.0
	radius 250
	rotation 0.0, 0.0, 0.0, -1.0
	shape_type box
	spawn_unit_elements
	use_disabled_shapes False
	use_shape_element_ids
		1 ´point_shape_001´
	width 500
	on_executed
		´link_3´ (delay 0) (alternative enter) DISABLED
´empty´ ElementAreaReportTrigger 100050
	amount 1
	depth 500
	height 500
	instigator player
	instigator_name 
	interval 0.1
	position -350.0, 200.0, 0.0
	radius 250
	rotation 0.0, 0.0, 0.0, -1.0
	shape_type box
	spawn_unit_elements
	use_disabled_shapes False
	use_shape_element_ids
		1 ´point_shape_001´
	width 500
	on_executed
		´link_4´ (delay 0) (alternative empty) DISABLED
´link_3´ MissionScriptElement 100052
	DISABLED
	on_executed
		´enable_2´ (delay 0)
´link_4´ MissionScriptElement 100053
	DISABLED
	on_executed
		´disable´ (delay 0)
´enable_2´ ElementUnitSequence 100054
	position -300.0, 300.0, 0.0
	rotation 0.0, 0.0, 0.0, -1.0
	trigger_list
		1
			id 1
			name run_sequence
			notify_unit_id units/pd2_dlc_dark/pickups/drk_prop_thermal_paste/001 (-68.7808, 34.0, 2.57381)
			notify_unit_sequence enable_interaction
			time 0
		2
			id 2
			name run_sequence
			notify_unit_id units/pd2_dlc_dark/pickups/drk_prop_thermal_paste/002 (-51.2216, 44.0, 1.8158)
			notify_unit_sequence enable_interaction
			time 0
		3
			id 3
			name run_sequence
			notify_unit_id units/pd2_dlc_dark/pickups/drk_prop_thermal_paste/003 (-52.4934, 26.7415, 1.8409)
			notify_unit_sequence enable_interaction
			time 0
		4
			id 4
			name run_sequence
			notify_unit_id units/pd2_dlc_dark/pickups/drk_prop_thermal_paste/004 (-63.3078, 47.0, 1.9109)
			notify_unit_sequence enable_interaction
			time 0
´disable´ ElementUnitSequence 100055
	position -350.0, 300.0, 0.0
	rotation 0.0, 0.0, 0.0, -1.0
	trigger_list
		1
			id 1
			name run_sequence
			notify_unit_id units/pd2_dlc_dark/pickups/drk_prop_thermal_paste/001 (-68.7808, 34.0, 2.57381)
			notify_unit_sequence disable_interaction
			time 0
		2
			id 2
			name run_sequence
			notify_unit_id units/pd2_dlc_dark/pickups/drk_prop_thermal_paste/002 (-51.2216, 44.0, 1.8158)
			notify_unit_sequence disable_interaction
			time 0
		3
			id 3
			name run_sequence
			notify_unit_id units/pd2_dlc_dark/pickups/drk_prop_thermal_paste/003 (-52.4934, 26.7415, 1.8409)
			notify_unit_sequence disable_interaction
			time 0
		4
			id 4
			name run_sequence
			notify_unit_id units/pd2_dlc_dark/pickups/drk_prop_thermal_paste/004 (-63.3078, 47.0, 1.9109)
			notify_unit_sequence disable_interaction
			time 0
´On´ ElementToggle 100056
	elements
		1 ´link_3´ DISABLED
		2 ´link_4´ DISABLED
	set_trigger_times -1
	toggle on
	on_executed
		´enable´ (delay 0)
´point_shape_001´ ElementShape 100022
	depth 500
	height 230
	position 0.0, 75.0, 100.0
	radius 287.5
	rotation 0.0, 0.0, 0.0, -1.0
	shape_type cylinder
	width 400
´exit´ MissionScriptElement 100021
´ai_spawn_civilian_002´ ElementSpawnCivilian 100042
	enemy units/payday2/characters/civ_male_worker_docks_1/civ_male_worker_docks_1
	force_pickup none
	position -3.05176e-05, 100.0, 0.0
	rotation 0.0, 0.0, 1.0, 1.19209e-07
	state cm_sp_saw
	team default
