ID range vs continent name:
	100000: world

statics
	100010 units/dev_tools/level_tools/dev_door_blocker_1x1x3/001 (-125.0, -50.0, 0.0)
	100015 units/dev_tools/level_tools/dev_nav_splitter_1x3m/001 (-25.0, 0.0, 0.0)
	100016 units/pd2_dlc_vit/equipment/vit_interactable_door_wooden_white/001 (0.0, 2.0, 0.0)
		mesh_variation open
