ID range vs continent name:
	100000: world

statics
	100032 units/pd2_dlc_berry/props/bry_prop_crate_wood_murkywater/001 (3.8466e-06, 94.0, 44.004)
	100000 units/pd2_dlc_mad/props/mad_prop_military_laptop/001 (0.0, 0.0, 81.0)
