ID range vs continent name:
	100000: world

statics
	100025 units/dev_tools/level_tools/dev_bag_collision_1x1m/001 (55.0, -159.0, 106.0)
	100024 units/dev_tools/level_tools/dev_collision_1x1m/001 (55.0, -35.0, 131.0)
	100008 units/world/architecture/secret_stash/props/secret_stash_vent_7/001 (-50.0002, 0.0, 125.0)
	100007 units/world/architecture/secret_stash/props/secret_stash_vent_7_shaft/001 (60.0, 0.0, 236.0)
