ID range vs continent name:
	100000: world

statics
	100001 units/payday2/props/mop/com_prop_janitor_sign_wetfloor_standing/001 (0.0, 0.0, 0.0)
		disable_on_ai_graph True
	100006 units/pd2_dlc_berry/props/bry_prop_vault_lamp/001 (4.25209e-07, 1.0, 76.0)
	100013 units/pd2_dlc_berry/props/bry_prop_vault_lamp/002 (-9.21848e-07, 1.0, 76.0)
	100002 units/world/architecture/street/decals/ground/decal_ground_middle_puddle/001 (6.0, -4.0, 0.0)
