ID range vs continent name:
	100000: world

statics
	100058 units/pd2_dlc_vit/props/computer_monitor/vit_interactable_hack_gui_01/001 (0.0, 5.0, 88.0)
	100191 units/pd2_dlc_vit/props/computer_monitor/vit_interactable_hack_gui_02/001 (0.0, 5.0, 90.0)
	100192 units/pd2_dlc_vit/props/computer_monitor/vit_interactable_hack_gui_03/001 (0.0, 5.0, 90.0)
	100183 units/pd2_dlc_vit/props/vit_interactable_computer_monitor/001 (0.0, 5.0, 88.0)
	100009 units/world/architecture/secret_stash/props/secret_stash_hack_keyboard_interaction/001 (-1.0, -28.0, 87.0)
		mesh_variation disable_interaction
