ID range vs continent name:
	100000: world

statics
	100009 units/dev_tools/level_tools/dev_door_blocker_1x2x3/001 (100.0, -50.0, 0.0)
	100028 units/payday2/props/are_int_double_door/001 (-100.0, 0.0, -2.5)
		mesh_variation open_door
	100008 units/pd2_dlc_jolly/equipment/gen_plant_c4/001 (2.7135, 8.0, 112.096)
		mesh_variation state_vis_hide
