ID range vs continent name:
	100000: world

statics
	100007 units/dev_tools/level_tools/dev_door_blocker_1x2x3/001 (100.0, -50.0, 0.0)
	100013 units/payday2/equipment/gen_interactable_drill_small_no_jam/001 (44.0, 21.0, 87.0)
		mesh_variation activate
	100001 units/payday2/props/are_int_single_door/001 (59.0, 25.0, 0.0)
		mesh_variation open_door
