ID range vs continent name:
	100000: world

statics
	100065 units/dev_tools/level_tools/dev_collision_4x3m/001 (200.0, 0.0, 0.0)
	100069 units/pd2_dlc_bph/props/bph_prop_window_barred/001 (155.0, 0.0, 95.0)
	100041 units/pd2_dlc_cro/thermite_interactable/bottom (0.0, 0.0, 128.0)
		mesh_variation disable
	100039 units/pd2_dlc_cro/thermite_interactable/top (0.0, 0.0, 222.0)
		mesh_variation disable
	100008 units/pd2_dlc_jolly/equipment/gen_plant_c4/001 (179.395, 0.0, 133.59)
		mesh_variation state_vis_hide
	100009 units/pd2_dlc_jolly/equipment/gen_plant_c4/002 (-21.873, -6.10352e-05, 267.236)
		mesh_variation state_vis_hide
	100010 units/pd2_dlc_jolly/equipment/gen_plant_c4/003 (-126.973, 6.10352e-05, 68.0261)
		mesh_variation state_vis_hide
