ID range vs continent name:
	100000: world

statics
	100002 units/payday2/props/gen_prop_burnt_evidence/001 (0.0, 0.0, 0.0)
	100004 units/payday2/props/gen_prop_burnt_evidence/002 (-3.0, 4.0, -31.0)
	100007 units/pd2_dlc_cro/ind_fire_barrel_full_01/001 (-22.0, 2.0, -101.0)
