ID range vs continent name:
	100000: world

statics
	100009 units/dev_tools/level_tools/navigation_blocker/001 (-13.0, 3.00002, -15.1688)
	100010 units/dev_tools/level_tools/navigation_blocker/002 (-13.0, 203.0, -15.1688)
	100000 units/pd2_dlc_cro/eus_train_door_cargo/001 (200.0, 0.0, 0.0)
