ID range vs continent name:
	100000: world

statics
	100003 units/payday2/props/gen_prop_square_goal_marker_7x55/001 (10224.0, -7669.29, 575.0)
	100000 units/pd2_dlc_cro/vehicles/cessna_206/air_interactable_vehicle_cessna_206/001 (20.9063, -198.904, 0.0)
		mesh_variation hide
