﻿´startup´ MissionScriptElement 100000
	EXECUTE ON STARTUP
	on_executed
		´delay´ (delay 1)
´delay´ MissionScriptElement 100001
	on_executed
		´seq_setup´ (delay 0)
		´unit_disabler´ (delay 0)
´test(disabled_by_default)´ MissionScriptElement 100002
	EXECUTE ON STARTUP
	DISABLED
	on_executed
		´point_spawn_player_001´ (delay 0)
		´test_delay´ (delay 2)
´point_spawn_player_001´ ElementPlayerSpawner 100003
	position 0.0, -375.0, 0.0
	rotation 0.0, 0.0, 0.0, -1.0
	state standard
´test_delay´ MissionScriptElement 100004
	on_executed
		´input_show_room´ (delay 0)
´seq_setup´ ElementUnitSequence 100005
	position 600.0, 100.0, 0.0
	rotation 0.0, 0.0, 0.0, -1.0
	trigger_list
		1
			id 1
			name run_sequence
			notify_unit_id units/payday2/props/com_prop_mall_bathroom_door/001 (-121.0, 1.0, 0.0)
			notify_unit_sequence hide
			time 0
´unit_disabler´ ElementDisableUnit 100006
	position 600.0, 0.0, 0.0
	rotation 0.0, 0.0, 0.0, -1.0
	unit_ids
		1 units/payday2/props/com_prop_mall_bathroom_door/001 (-121.0, 1.0, 0.0)
		2 units/pd2_dlc_tag/architecture/main_mesh/tag_int_room_inst_05_restroom/room_inst_05_001 (-200.0, 0.0, 0.0)
		3 units/world/props/gym/stn_prop_sink/001 (-170.0, 23.0, 0.0)
		4 units/world/props/gym/stn_prop_toiletbooth/001 (375.0, 325.0, 0.0)
		5 units/world/props/gym/stn_prop_toiletbooth/003 (375.0, 125.0, 0.0)
		6 units/pd2_dlc_tag/props/tag_prop_light_ceiling_tiled/001 (32.0, 231.0, 375.0)
		7 units/lights/light_omni_shadow_projection_01/001 (25.0, 225.0, 318.0)
´input_show_room´ ElementInstanceInput 100007
	event show_room
	on_executed
		´relay´ (delay 0)
´relay´ MissionScriptElement 100029
	on_executed
		´enable_all_stuff´ (delay 0)
		´show_door´ (delay 0)
´enable_all_stuff´ ElementEnableUnit 100030
	position 900.0, 0.0, 0.0
	rotation 0.0, 0.0, 0.0, -1.0
	unit_ids
		1 units/payday2/props/com_prop_mall_bathroom_door/001 (-121.0, 1.0, 0.0)
		2 units/pd2_dlc_tag/architecture/main_mesh/tag_int_room_inst_05_restroom/room_inst_05_001 (-200.0, 0.0, 0.0)
		3 units/world/props/gym/stn_prop_sink/001 (-170.0, 23.0, 0.0)
		4 units/world/props/gym/stn_prop_toiletbooth/001 (375.0, 325.0, 0.0)
		5 units/world/props/gym/stn_prop_toiletbooth/003 (375.0, 125.0, 0.0)
		6 units/pd2_dlc_tag/props/tag_prop_light_ceiling_tiled/001 (32.0, 231.0, 375.0)
		7 units/lights/light_omni_shadow_projection_01/001 (25.0, 225.0, 318.0)
´trigger_area_001´ ElementAreaTrigger 100011
	DISABLED
	TRIGGER TIMES 1
	amount 1
	depth 500
	height 500
	instigator player
	instigator_name 
	interval 0.1
	position -50.0, -125.0, 0.0
	radius 250
	rotation 0.0, 0.0, -0.707107, -0.707107
	shape_type box
	spawn_unit_elements
	trigger_on on_enter
	use_disabled_shapes False
	width 310
	on_executed
		´gar_tag_16´ (delay 1-2)
´gar_tag_16´ ElementPlaySound 100014
	append_prefix False
	elements
	interrupt True
	position -65.0, 17.0, 125.0
	rotation 0.0, 0.0, 0.0, -1.0
	sound_event Play_gar_tag_16
	use_instigator False
´input_enable_area´ ElementInstanceInput 100016
	event enable_area
	on_executed
		´enable_area´ (delay 0)
´enable_area´ ElementToggle 100017
	elements
		1 ´trigger_area_001´ DISABLED
	set_trigger_times -1
	toggle on
´input_animate_door´ ElementInstanceInput 100018
	event animate_door
	on_executed
		´open_door´ (delay 0)
´open_door´ ElementUnitSequence 100019
	position 1100.0, 100.0, 0.0
	rotation 0.0, 0.0, 0.0, -1.0
	trigger_list
		1
			id 1
			name run_sequence
			notify_unit_id units/payday2/props/com_prop_mall_bathroom_door/001 (-121.0, 1.0, 0.0)
			notify_unit_sequence anim_open_door
			time 0
	on_executed
		´close_door´ (delay 1)
´close_door´ ElementUnitSequence 100020
	position 1100.0, 0.0, 0.0
	rotation 0.0, 0.0, 0.0, -1.0
	trigger_list
		1
			id 1
			name run_sequence
			notify_unit_id units/payday2/props/com_prop_mall_bathroom_door/001 (-121.0, 1.0, 0.0)
			notify_unit_sequence anim_close_door
			time 0
´show_door´ ElementUnitSequence 100021
	position 900.0, -100.0, 0.0
	rotation 0.0, 0.0, 0.0, -1.0
	trigger_list
		1
			id 1
			name run_sequence
			notify_unit_id units/payday2/props/com_prop_mall_bathroom_door/001 (-121.0, 1.0, 0.0)
			notify_unit_sequence show
			time 0
