ID range vs continent name:
	100000: world

statics
	100049 units/dev_tools/level_tools/dev_door_blocker_1x2x3/001 (-49.0, -99.0, -4.975)
	100051 units/pd2_dlc_wwh/props/wwh_prop_pump_generator/001 (0.0, 0.0, 0.0)
