ID range vs continent name:
	100000: world

statics
	100060 units/dev_tools/level_tools/dev_collision_1x1m/001 (-175.0, -175.0, 0.0)
	100062 units/dev_tools/level_tools/dev_collision_1x1m/002 (-175.0, -175.0, 0.0)
	100064 units/dev_tools/level_tools/dev_collision_1x1m/003 (-225.0, -175.0, 0.0)
	100069 units/dev_tools/level_tools/dev_collision_1x1m/004 (-175.0, -100.0, 0.0)
	100071 units/dev_tools/level_tools/dev_collision_1x1m/005 (-200.0, -100.0, 0.0)
	100073 units/dev_tools/level_tools/dev_collision_1x1m/006 (-175.0, -175.0, 70.0)
	100075 units/dev_tools/level_tools/dev_collision_1x1m/007 (-175.0, -175.0, 70.0)
	100077 units/dev_tools/level_tools/dev_collision_1x1m/008 (-175.0, -100.0, 70.0)
	100079 units/dev_tools/level_tools/dev_collision_1x1m/009 (-225.0, -175.0, 70.0)
	100081 units/dev_tools/level_tools/dev_collision_1x1m/010 (-200.0, -100.0, 70.0)
	100088 units/dev_tools/level_tools/dev_collision_1x1m/011 (-175.0, -125.0, 70.0)
	100089 units/dev_tools/level_tools/dev_collision_1x1m/012 (-200.0, -125.0, 70.0)
	100090 units/dev_tools/level_tools/dev_collision_1x1m/013 (-175.0, -150.0, 70.0)
	100091 units/dev_tools/level_tools/dev_collision_1x1m/014 (-200.0, -150.0, 70.0)
	100092 units/dev_tools/level_tools/dev_collision_1x1m/015 (-150.0, -200.0, 70.0)
	100093 units/dev_tools/level_tools/dev_collision_1x1m/016 (-225.0, -200.0, 70.0)
	100130 units/dev_tools/level_tools/dev_collision_1x1m/017 (-150.0, -200.0, 0.0)
	100131 units/dev_tools/level_tools/dev_collision_1x1m/018 (-225.0, -200.0, 0.0)
	100013 units/payday2/props/off_prop_generic_shelf_wire_b/S1_off_prop_generic_shelf_wire_b_001 (-264.0, -511.0, 0.0)
		delayed_load True
		disable_shadows True
		hide_on_projection_light True
	100054 units/payday2/props/off_prop_generic_shelf_wire_b/S2_off_prop_generic_shelf_wire_b_002 (-264.0, -511.0, 0.0)
		delayed_load True
		disable_shadows True
		hide_on_projection_light True
	100066 units/payday2/props/off_prop_generic_shelf_wire_b/S3_off_prop_generic_shelf_wire_b_003 (-264.0, -511.0, 0.0)
		delayed_load True
		disable_shadows True
		hide_on_projection_light True
	100076 units/payday2/props/set/ind_prop_warehouse_box_b/S1_ind_prop_warehouse_box_b_001 (250.0, -122.0, 108.0)
		delayed_load True
		disable_shadows True
		hide_on_projection_light True
	100080 units/payday2/props/set/ind_prop_warehouse_box_b/S1_ind_prop_warehouse_box_b_002 (50.0, -28.9999, 0.0)
		delayed_load True
		disable_shadows True
		hide_on_projection_light True
	100102 units/payday2/props/set/ind_prop_warehouse_box_b/S2_ind_prop_warehouse_box_b_007 (250.0, -122.0, 108.0)
		delayed_load True
		disable_shadows True
		hide_on_projection_light True
	100078 units/payday2/props/set/ind_prop_warehouse_box_d/S1_ind_prop_warehouse_box_d_001 (200.0, -36.0, 0.0)
		delayed_load True
		disable_shadows True
		hide_on_projection_light True
	100085 units/payday2/props/set/ind_prop_warehouse_box_d/S1_ind_prop_warehouse_box_d_002 (225.0, -1125.0, 2.5)
		delayed_load True
		disable_shadows True
		hide_on_projection_light True
	100099 units/payday2/props/set/ind_prop_warehouse_box_d/S2_ind_prop_warehouse_box_d_003 (225.0, -1125.0, 2.5)
		delayed_load True
		disable_shadows True
		hide_on_projection_light True
	100107 units/payday2/props/set/ind_prop_warehouse_box_d/S2_ind_prop_warehouse_box_d_005 (200.0, -35.9998, 0.0)
		delayed_load True
		disable_shadows True
		hide_on_projection_light True
	100074 units/payday2/props/set/ind_prop_warehouse_box_e/S1_ind_prop_warehouse_box_e_001 (257.0, -305.0, 108.0)
		delayed_load True
		disable_shadows True
		hide_on_projection_light True
	100082 units/payday2/props/set/ind_prop_warehouse_box_e/S1_ind_prop_warehouse_box_e_002 (50.0, -26.9998, 54.0)
		delayed_load True
		disable_shadows True
		hide_on_projection_light True
	100098 units/payday2/props/set/ind_prop_warehouse_box_e/S1_ind_prop_warehouse_box_e_003 (-269.0, -1064.0, 108.0)
		delayed_load True
		disable_shadows True
		hide_on_projection_light True
	100104 units/payday2/props/set/ind_prop_warehouse_box_e/S2_ind_prop_warehouse_box_e_010 (257.0, -305.0, 108.0)
		delayed_load True
		disable_shadows True
		hide_on_projection_light True
	100083 units/payday2/props/set/ind_prop_warehouse_box_f/S1_ind_prop_warehouse_box_f_001 (200.0, -36.0, 54.0)
		delayed_load True
		disable_shadows True
		hide_on_projection_light True
	100084 units/payday2/props/set/ind_prop_warehouse_box_f/S1_ind_prop_warehouse_box_f_002 (256.0, -316.0, 138.0)
		delayed_load True
		disable_shadows True
		hide_on_projection_light True
	100086 units/payday2/props/set/ind_prop_warehouse_box_f/S1_ind_prop_warehouse_box_f_003 (225.0, -1127.0, 56.5)
		delayed_load True
		disable_shadows True
		hide_on_projection_light True
	100097 units/payday2/props/set/ind_prop_warehouse_box_f/S1_ind_prop_warehouse_box_f_004 (-270.0, -988.0, -9.15527e-05)
		delayed_load True
		disable_shadows True
		hide_on_projection_light True
	100100 units/payday2/props/set/ind_prop_warehouse_box_f/S2_ind_prop_warehouse_box_f_005 (225.0, -1127.0, 56.5)
		delayed_load True
		disable_shadows True
		hide_on_projection_light True
	100103 units/payday2/props/set/ind_prop_warehouse_box_f/S2_ind_prop_warehouse_box_f_011 (256.0, -316.0, 138.0)
		delayed_load True
		disable_shadows True
		hide_on_projection_light True
	100108 units/payday2/props/set/ind_prop_warehouse_box_f/S2_ind_prop_warehouse_box_f_012 (200.0, -35.9998, 54.0)
		delayed_load True
		disable_shadows True
		hide_on_projection_light True
	100072 units/payday2/props/set/ind_prop_warehouse_box_stack_4/S1_ind_prop_warehouse_box_stack_4_001 (247.0, -305.0, -9.15527e-05)
		delayed_load True
		disable_shadows True
		hide_on_projection_light True
	100096 units/payday2/props/set/ind_prop_warehouse_box_stack_4/S1_ind_prop_warehouse_box_stack_4_002 (-259.0, -1064.0, -9.15527e-05)
		delayed_load True
		disable_shadows True
		hide_on_projection_light True
	100028 units/payday2/props/set/ind_prop_warehouse_box_stack_4/S2_ind_prop_warehouse_box_stack_4_007 (247.0, -305.0, -9.15527e-05)
		delayed_load True
		disable_shadows True
		hide_on_projection_light True
	100070 units/payday2/props/set/ind_prop_warehouse_box_stack_8/S1_ind_prop_warehouse_box_stack_8_001 (234.0, -150.0, -9.15527e-05)
		delayed_load True
		disable_shadows True
		hide_on_projection_light True
	100029 units/payday2/props/set/ind_prop_warehouse_box_stack_8/S2_ind_prop_warehouse_box_stack_8_004 (234.0, -150.0, -9.15527e-05)
		delayed_load True
		disable_shadows True
		hide_on_projection_light True
	100041 units/pd2_dlc_cage/props/ind_prop_cardealership_waterbottle/S1_ind_prop_cardealership_waterbottle_001 (-264.0, -561.0, 101.0)
		delayed_load True
		disable_shadows True
		hide_on_projection_light True
	100042 units/pd2_dlc_cage/props/ind_prop_cardealership_waterbottle/S1_ind_prop_cardealership_waterbottle_002 (-283.0, -549.0, 101.0)
		delayed_load True
		disable_shadows True
		hide_on_projection_light True
	100043 units/pd2_dlc_cage/props/ind_prop_cardealership_waterbottle/S1_ind_prop_cardealership_waterbottle_003 (-277.0, -561.0, 101.0)
		delayed_load True
		disable_shadows True
		hide_on_projection_light True
	100044 units/pd2_dlc_cage/props/ind_prop_cardealership_waterbottle/S1_ind_prop_cardealership_waterbottle_004 (-264.0, -530.0, 104.0)
		delayed_load True
		disable_shadows True
		hide_on_projection_light True
	100087 units/pd2_dlc_cage/props/ind_prop_cardealership_waterbottle/S1_ind_prop_cardealership_waterbottle_013 (212.0, -1110.0, 98.5)
		delayed_load True
		disable_shadows True
		hide_on_projection_light True
	100094 units/pd2_dlc_cage/props/ind_prop_cardealership_waterbottle/S1_ind_prop_cardealership_waterbottle_014 (35.0002, -527.0, -9.15527e-05)
		delayed_load True
		disable_shadows True
		hide_on_projection_light True
	100095 units/pd2_dlc_cage/props/ind_prop_cardealership_waterbottle/S1_ind_prop_cardealership_waterbottle_015 (50.0, -500.0, 3.99991)
		delayed_load True
		disable_shadows True
		hide_on_projection_light True
	100049 units/pd2_dlc_cage/props/ind_prop_cardealership_waterbottle/S2_ind_prop_cardealership_waterbottle_005 (-264.0, -530.0, 104.0)
		delayed_load True
		disable_shadows True
		hide_on_projection_light True
	100050 units/pd2_dlc_cage/props/ind_prop_cardealership_waterbottle/S2_ind_prop_cardealership_waterbottle_006 (-264.0, -561.0, 101.0)
		delayed_load True
		disable_shadows True
		hide_on_projection_light True
	100051 units/pd2_dlc_cage/props/ind_prop_cardealership_waterbottle/S2_ind_prop_cardealership_waterbottle_007 (-277.0, -561.0, 101.0)
		delayed_load True
		disable_shadows True
		hide_on_projection_light True
	100052 units/pd2_dlc_cage/props/ind_prop_cardealership_waterbottle/S2_ind_prop_cardealership_waterbottle_008 (-283.0, -549.0, 101.0)
		delayed_load True
		disable_shadows True
		hide_on_projection_light True
	100110 units/pd2_dlc_cage/props/ind_prop_cardealership_waterbottle/S2_ind_prop_cardealership_waterbottle_016 (35.0002, -527.0, -9.15527e-05)
		delayed_load True
		disable_shadows True
		hide_on_projection_light True
	100123 units/pd2_dlc_cage/props/ind_prop_cardealership_waterbottle/S2_ind_prop_cardealership_waterbottle_017 (50.0001, -500.0, 3.99991)
		delayed_load True
		disable_shadows True
		hide_on_projection_light True
	100101 units/pd2_dlc_cage/props/ind_prop_cardealership_waterbottle/S2_ind_prop_cardealership_waterbottle_018 (212.0, -1110.0, 98.5)
		delayed_load True
		disable_shadows True
		hide_on_projection_light True
	100021 units/pd2_dlc_cage/props/ind_prop_cardealership_waterbottle/S3_ind_prop_cardealership_waterbottle_001 (124.0, -503.0, 0.0)
		delayed_load True
		disable_shadows True
		hide_on_projection_light True
	100022 units/pd2_dlc_cage/props/ind_prop_cardealership_waterbottle/S3_ind_prop_cardealership_waterbottle_002 (-123.0, -548.0, 0.0)
		delayed_load True
		disable_shadows True
		hide_on_projection_light True
	100058 units/pd2_dlc_cage/props/ind_prop_cardealership_waterbottle/S3_ind_prop_cardealership_waterbottle_009 (-264.0, -530.0, 104.0)
		delayed_load True
		disable_shadows True
		hide_on_projection_light True
	100059 units/pd2_dlc_cage/props/ind_prop_cardealership_waterbottle/S3_ind_prop_cardealership_waterbottle_010 (-264.0, -561.0, 101.0)
		delayed_load True
		disable_shadows True
		hide_on_projection_light True
	100061 units/pd2_dlc_cage/props/ind_prop_cardealership_waterbottle/S3_ind_prop_cardealership_waterbottle_011 (-277.0, -561.0, 101.0)
		delayed_load True
		disable_shadows True
		hide_on_projection_light True
	100063 units/pd2_dlc_cage/props/ind_prop_cardealership_waterbottle/S3_ind_prop_cardealership_waterbottle_012 (-283.0, -549.0, 101.0)
		delayed_load True
		disable_shadows True
		hide_on_projection_light True
	100016 units/pd2_dlc_chill/architecture/chl_d_int_floor_rubber_2x2m/S2chl_d_int_floor_rubber_2x2m_001 (100.0, -400.0, 0.5)
		delayed_load True
		disable_shadows True
		hide_on_projection_light True
	100037 units/pd2_dlc_chill/architecture/chl_d_int_floor_rubber_2x2m/S2chl_d_int_floor_rubber_2x2m_002 (100.0, -200.0, 0.5)
		delayed_load True
		disable_shadows True
		hide_on_projection_light True
	100038 units/pd2_dlc_chill/architecture/chl_d_int_floor_rubber_2x2m/S2chl_d_int_floor_rubber_2x2m_003 (-100.0, -200.0, 0.5)
		delayed_load True
		disable_shadows True
		hide_on_projection_light True
	100039 units/pd2_dlc_chill/architecture/chl_d_int_floor_rubber_2x2m/S2chl_d_int_floor_rubber_2x2m_004 (-100.0, -400.0, 0.5)
		delayed_load True
		disable_shadows True
		hide_on_projection_light True
	100047 units/pd2_dlc_chill/architecture/chl_d_int_floor_rubber_2x2m/S2chl_d_int_floor_rubber_2x2m_005 (-300.0, -200.0, 0.5)
		delayed_load True
		disable_shadows True
		hide_on_projection_light True
	100068 units/pd2_dlc_chill/architecture/chl_d_int_floor_rubber_2x2m/S2chl_d_int_floor_rubber_2x2m_006 (-300.0, -400.0, 0.5)
		delayed_load True
		disable_shadows True
		hide_on_projection_light True
	100105 units/pd2_dlc_chill/architecture/chl_d_int_floor_rubber_2x2m/S3chl_d_int_floor_rubber_2x2m_007 (100.0, -1175.0, 0.5)
		delayed_load True
		disable_shadows True
		hide_on_projection_light True
	100106 units/pd2_dlc_chill/architecture/chl_d_int_floor_rubber_2x2m/S3chl_d_int_floor_rubber_2x2m_008 (-99.9999, -1175.0, 0.5)
		delayed_load True
		disable_shadows True
		hide_on_projection_light True
	100111 units/pd2_dlc_chill/architecture/chl_d_int_floor_rubber_2x2m/S3chl_d_int_floor_rubber_2x2m_009 (-300.0, -1175.0, 0.5)
		delayed_load True
		disable_shadows True
		hide_on_projection_light True
	100112 units/pd2_dlc_chill/architecture/chl_d_int_floor_rubber_2x2m/S3chl_d_int_floor_rubber_2x2m_010 (-300.0, -975.0, 0.5)
		delayed_load True
		disable_shadows True
		hide_on_projection_light True
	100113 units/pd2_dlc_chill/architecture/chl_d_int_floor_rubber_2x2m/S3chl_d_int_floor_rubber_2x2m_011 (-99.9999, -975.0, 0.5)
		delayed_load True
		disable_shadows True
		hide_on_projection_light True
	100114 units/pd2_dlc_chill/architecture/chl_d_int_floor_rubber_2x2m/S3chl_d_int_floor_rubber_2x2m_012 (100.0, -975.0, 0.5)
		delayed_load True
		disable_shadows True
		hide_on_projection_light True
	100115 units/pd2_dlc_chill/architecture/chl_d_int_floor_rubber_2x2m/S3chl_d_int_floor_rubber_2x2m_013 (-300.0, -775.0, 0.5)
		delayed_load True
		disable_shadows True
		hide_on_projection_light True
	100116 units/pd2_dlc_chill/architecture/chl_d_int_floor_rubber_2x2m/S3chl_d_int_floor_rubber_2x2m_014 (-99.9999, -775.0, 0.5)
		delayed_load True
		disable_shadows True
		hide_on_projection_light True
	100117 units/pd2_dlc_chill/architecture/chl_d_int_floor_rubber_2x2m/S3chl_d_int_floor_rubber_2x2m_015 (100.0, -775.0, 0.5)
		delayed_load True
		disable_shadows True
		hide_on_projection_light True
	100118 units/pd2_dlc_chill/architecture/chl_d_int_floor_rubber_2x2m/S3chl_d_int_floor_rubber_2x2m_016 (-300.0, -575.0, 0.5)
		delayed_load True
		disable_shadows True
		hide_on_projection_light True
	100119 units/pd2_dlc_chill/architecture/chl_d_int_floor_rubber_2x2m/S3chl_d_int_floor_rubber_2x2m_017 (-99.9999, -575.0, 0.5)
		delayed_load True
		disable_shadows True
		hide_on_projection_light True
	100120 units/pd2_dlc_chill/architecture/chl_d_int_floor_rubber_2x2m/S3chl_d_int_floor_rubber_2x2m_018 (100.0, -575.0, 0.5)
		delayed_load True
		disable_shadows True
		hide_on_projection_light True
	100121 units/pd2_dlc_chill/architecture/chl_d_int_floor_rubber_2x2m/S3chl_d_int_floor_rubber_2x2m_019 (100.0, -375.0, 0.5)
		delayed_load True
		disable_shadows True
		hide_on_projection_light True
	100122 units/pd2_dlc_chill/architecture/chl_d_int_floor_rubber_2x2m/S3chl_d_int_floor_rubber_2x2m_020 (-99.9999, -375.0, 0.5)
		delayed_load True
		disable_shadows True
		hide_on_projection_light True
	100126 units/pd2_dlc_chill/architecture/chl_d_int_floor_rubber_2x2m/S3chl_d_int_floor_rubber_2x2m_021 (-300.0, -375.0, 0.5)
		delayed_load True
		disable_shadows True
		hide_on_projection_light True
	100127 units/pd2_dlc_chill/architecture/chl_d_int_floor_rubber_2x2m/S3chl_d_int_floor_rubber_2x2m_022 (-300.0, -175.0, 0.5)
		delayed_load True
		disable_shadows True
		hide_on_projection_light True
	100128 units/pd2_dlc_chill/architecture/chl_d_int_floor_rubber_2x2m/S3chl_d_int_floor_rubber_2x2m_023 (-99.9999, -175.0, 0.5)
		delayed_load True
		disable_shadows True
		hide_on_projection_light True
	100129 units/pd2_dlc_chill/architecture/chl_d_int_floor_rubber_2x2m/S3chl_d_int_floor_rubber_2x2m_024 (100.0, -175.0, 0.5)
		delayed_load True
		disable_shadows True
		hide_on_projection_light True
	100008 units/pd2_dlc_chill/props/chl_prop_barbell/S1_chl_prop_barbell_002 (-158.0, -178.0, 39.0)
		delayed_load True
		disable_shadows True
		hide_on_projection_light True
	100067 units/pd2_dlc_chill/props/chl_prop_barbell/S2_chl_prop_barbell_002 (-251.0, -776.0, 39.0)
		delayed_load True
		disable_shadows True
		hide_on_projection_light True
	100024 units/pd2_dlc_chill/props/chl_prop_barbell/S3_chl_prop_barbell_004 (-226.0, -751.0, 40.0)
		delayed_load True
		disable_shadows True
		hide_on_projection_light True
	100045 units/pd2_dlc_chill/props/chl_prop_bathroom_towels/S1_chl_prop_bathroom_towels_001 (-264.0, -473.0, 160.0)
		delayed_load True
		disable_shadows True
		hide_on_projection_light True
	100053 units/pd2_dlc_chill/props/chl_prop_bathroom_towels/S2_chl_prop_bathroom_towels_002 (-264.0, -473.0, 160.0)
		delayed_load True
		disable_shadows True
		hide_on_projection_light True
	100065 units/pd2_dlc_chill/props/chl_prop_bathroom_towels/S3_chl_prop_bathroom_towels_003 (-264.0, -473.0, 160.0)
		delayed_load True
		disable_shadows True
		hide_on_projection_light True
	100004 units/pd2_dlc_chill/props/chl_prop_gym_dragan_jumprope/S1_chl_prop_gym_dragan_jumprope_005 (200.0, -900.0, 0.0)
		delayed_load True
		disable_shadows True
		hide_on_projection_light True
	100048 units/pd2_dlc_chill/props/chl_prop_gym_dragan_jumprope/S2_chl_prop_gym_dragan_jumprope_002 (-264.0, -464.0, 101.0)
		delayed_load True
		disable_shadows True
		hide_on_projection_light True
	100027 units/pd2_dlc_chill/props/chl_prop_gym_dragan_jumprope/S2_chl_prop_gym_dragan_jumprope_004 (125.0, -900.0, 0.0)
		delayed_load True
		disable_shadows True
		hide_on_projection_light True
	100057 units/pd2_dlc_chill/props/chl_prop_gym_dragan_jumprope/S3_chl_prop_gym_dragan_jumprope_003 (-264.0, -464.0, 101.0)
		delayed_load True
		disable_shadows True
		hide_on_projection_light True
	100017 units/pd2_dlc_chill/props/chl_prop_gym_dragan_jumprope/S3_chl_prop_gym_dragan_jumprope_003 (134.0, -900.0, 0.0)
		delayed_load True
		disable_shadows True
		hide_on_projection_light True
	100006 units/pd2_dlc_chill/props/chl_prop_gym_dragan_kettlebell/S1_chl_prop_gym_dragan_kettlebell_005 (175.0, -1075.0, 0.0)
		delayed_load True
		disable_shadows True
		hide_on_projection_light True
	100046 units/pd2_dlc_chill/props/chl_prop_gym_dragan_kettlebell/S2_chl_prop_gym_dragan_kettlebell_003 (-264.0, -538.0, 41.0)
		delayed_load True
		disable_shadows True
		hide_on_projection_light True
	100026 units/pd2_dlc_chill/props/chl_prop_gym_dragan_kettlebell/S2_chl_prop_gym_dragan_kettlebell_004 (175.0, -1075.0, 0.0)
		delayed_load True
		disable_shadows True
		hide_on_projection_light True
	100018 units/pd2_dlc_chill/props/chl_prop_gym_dragan_kettlebell/S3_chl_prop_gym_dragan_kettlebell_003 (175.0, -1084.0, 1.0)
		delayed_load True
		disable_shadows True
		hide_on_projection_light True
	100055 units/pd2_dlc_chill/props/chl_prop_gym_dragan_kettlebell/S3_chl_prop_gym_dragan_kettlebell_005 (-264.0, -538.0, 41.0)
		delayed_load True
		disable_shadows True
		hide_on_projection_light True
	100056 units/pd2_dlc_chill/props/chl_prop_gym_dragan_kettlebell/S3_chl_prop_gym_dragan_kettlebell_006 (-257.0, -466.0, 41.0)
		delayed_load True
		disable_shadows True
		hide_on_projection_light True
	100025 units/world/props/diamond_heist/apartment/apartment_livingroom/tv_wall/S2_tv_wall_002 (3.05176e-05, -5.99976, 275.0)
		delayed_load True
		disable_shadows True
		hide_on_projection_light True
	100023 units/world/props/diamond_heist/apartment/apartment_livingroom/tv_wall/S3_tv_wall_001 (0.000411987, -5.99927, 275.0)
		delayed_load True
		disable_shadows True
		hide_on_projection_light True
	100036 units/world/props/gym/exercisebike/stn_prop_gym_exercise_bike/S1_stn_prop_gym_exercise_bike_007 (1.52588e-05, -550.0, 0.0)
		delayed_load True
		disable_shadows True
		hide_on_projection_light True
	100012 units/world/props/gym/exercisebike/stn_prop_gym_exercise_bike/S2_stn_prop_gym_exercise_bike_008 (1.52588e-05, -550.0, 0.0)
		delayed_load True
		disable_shadows True
		hide_on_projection_light True
	100019 units/world/props/gym/exercisebike/stn_prop_gym_exercise_bike/S3_stn_prop_gym_exercise_bike_001 (-74.9999, -550.0, 0.0)
		delayed_load True
		disable_shadows True
		hide_on_projection_light True
	100020 units/world/props/gym/exercisebike/stn_prop_gym_exercise_bike/S3_stn_prop_gym_exercise_bike_002 (75.0001, -550.0, 0.0)
		delayed_load True
		disable_shadows True
		hide_on_projection_light True
	100009 units/world/props/gym/gym_atlas/prop_gym_leg_press/S3_prop_gym_leg_press_002 (300.0, -212.0, 0.0)
		delayed_load True
		disable_shadows True
		hide_on_projection_light True
	100014 units/world/props/gym/gym_atlas/prop_gym_peck_deck/S2_prop_gym_peck_deck_003 (-295.0, -356.0, 0.0)
		delayed_load True
		disable_shadows True
		hide_on_projection_light True
	100109 units/world/props/gym/gym_atlas/prop_gym_peck_deck/S3_prop_gym_peck_deck_004 (-295.0, -356.0, 0.0)
		delayed_load True
		disable_shadows True
		hide_on_projection_light True
	100035 units/world/props/gym/gym_atlas/prop_gym_plate_rack/S2_prop_gym_plate_rack_003 (170.0, -876.0, 0.0)
		delayed_load True
		disable_shadows True
		hide_on_projection_light True
	100124 units/world/props/gym/gym_atlas/prop_gym_plate_rack/S3_prop_gym_plate_rack_004 (170.0, -876.0, 0.0)
		delayed_load True
		disable_shadows True
		hide_on_projection_light True
	100125 units/world/props/gym/gym_atlas/prop_gym_shoulder_press/S2_prop_gym_shoulder_press_004 (-250.0, -175.0, 0.0)
		delayed_load True
		disable_shadows True
		hide_on_projection_light True
	100011 units/world/props/gym/gym_atlas/prop_gym_shoulder_press/S3_prop_gym_shoulder_press_005 (-250.0, -175.0, 0.0)
		delayed_load True
		disable_shadows True
		hide_on_projection_light True
	100010 units/world/props/gym/gym_atlas/prop_gym_triceps_extension/S3_prop_gym_triceps_extension_002 (117.0, -186.999, 0.0)
		delayed_load True
		disable_shadows True
		hide_on_projection_light True
