﻿´startup´ MissionScriptElement 100101
	EXECUTE ON STARTUP
	Hide object: core/units/light_omni/S3_light_omni_001 (-67.0, -310.0, 148.0)
	´delay（2）´ (DELAY 1)
´delay（2）´ ElementCounter 100102
	When counter target reached: 
		If jacket_room_upgrade == 1:
			Send instance event "Room is tier 1" to mission.
			Load delayed:
				units/world/props/apartment/kitchen_counter/apartment_kitchen_knife/S1_apartment_kitchen_knife_007 (-123.0, -1.99986, 175.0)
				units/world/props/apartment/kitchen_counter/apartment_kitchen_knife/S1_apartment_kitchen_knife_008 (-67.0, -1.99989, 145.0)
				units/world/props/apartment/kitchen_counter/apartment_kitchen_knife/S1_apartment_kitchen_knife_009 (-28.0, -1.99989, 150.0)
				units/world/props/apartment/baseball_bat/S1_baseball_bat_001 (-90.0, -15.0, 89.5076)
				units/world/props/apartment/baseball_bat/S1_baseball_bat_005 (81.0002, -25.0001, 0.999939)
				units/pd2_dlc_chill/props/recorder/chl_prop_tape_01/S1_chl_prop_tape_01_001 (164.661, -10.2477, 166.964)
				units/pd2_dlc_chill/props/recorder/chl_prop_tape_01/S1_chl_prop_tape_01_047 (158.0, -67.0002, -0.000106812)
				units/pd2_dlc_chill/props/recorder/chl_prop_tape_01/S1_chl_prop_tape_01_048 (376.142, -199.984, -0.000106812)
				units/pd2_dlc_chill/props/recorder/chl_prop_tape_01/S1_chl_prop_tape_01_049 (-0.999832, -87.0, 86.5075)
				units/pd2_dlc_chill/props/recorder/chl_prop_tape_01/S1_chl_prop_tape_01_050 (-157.0, -49.0, 86.5075)
				units/pd2_dlc_chill/props/recorder/chl_prop_tape_01/S1_chl_prop_tape_01_052 (-39.0, -24.0, 86.5075)
				units/pd2_dlc_chill/props/recorder/chl_prop_tape_01/S1_chl_prop_tape_01_053 (-16.0, -75.0, 87.0)
				units/pd2_dlc_chill/props/recorder/chl_prop_tape_01/S1_chl_prop_tape_01_055 (-129.281, -304.828, 95.6706)
				units/pd2_dlc_chill/props/recorder/chl_prop_tape_01/S1_chl_prop_tape_01_056 (196.0, -303.0, 42.1765)
				units/pd2_dlc_chill/props/recorder/chl_prop_tape_01/S1_chl_prop_tape_01_057 (318.0, -137.0, -0.000152588)
				units/pd2_dlc_chill/props/recorder/chl_prop_tape_01/S1_chl_prop_tape_01_058 (262.0, -251.0, -0.000183105)
				units/pd2_dlc_chill/props/recorder/chl_prop_tape_01/S1_chl_prop_tape_01_059 (219.0, -108.0, 1.52588e-05)
				units/pd2_dlc_chill/props/recorder/chl_prop_tape_01/S1_chl_prop_tape_01_060 (148.0, -145.0, -6.10352e-05)
				units/pd2_dlc_chill/props/recorder/chl_prop_tape_01/S1_chl_prop_tape_01_061 (11.0, -114.0, -4.57764e-05)
				units/pd2_dlc_chill/props/recorder/chl_prop_tape_01/S1_chl_prop_tape_01_063 (-171.0, -165.0, -0.000106812)
				units/pd2_dlc_chill/props/recorder/chl_prop_tape_01/S1_chl_prop_tape_01_064 (-125.0, -355.0, -0.000244141)
				units/pd2_dlc_chill/props/recorder/chl_prop_tape_01/S1_chl_prop_tape_01_065 (-155.0, -364.0, -0.000244141)
				units/pd2_dlc_chill/props/recorder/chl_prop_tape_01/S1_chl_prop_tape_01_066 (-68.0, -498.0, -0.000320435)
				units/pd2_dlc_chill/props/recorder/chl_prop_tape_01/S1_chl_prop_tape_01_067 (-87.0, -346.0, -0.000244141)
				units/pd2_dlc_chill/props/recorder/chl_prop_tape_01/S1_chl_prop_tape_01_068 (86.0003, -344.0, -0.000228882)
				units/pd2_dlc_chill/props/recorder/chl_prop_tape_01/S1_chl_prop_tape_01_069 (96.0003, -369.0, -0.000228882)
				units/pd2_dlc_chill/props/recorder/chl_prop_tape_02/S1_chl_prop_tape_02_001 (201.516, -4.6677, 165.033)
				units/pd2_dlc_chill/props/recorder/chl_prop_tape_02/S1_chl_prop_tape_02_051 (48.5502, -79.891, 86.5075)
				units/pd2_dlc_chill/props/recorder/chl_prop_tape_02/S1_chl_prop_tape_02_052 (200.0, -65.0, 54.2623)
				units/pd2_dlc_chill/props/recorder/chl_prop_tape_02/S1_chl_prop_tape_02_053 (271.42, -76.0874, 108.783)
				units/pd2_dlc_chill/props/recorder/chl_prop_tape_02/S1_chl_prop_tape_02_054 (-13.0, -81.0, 85.8617)
				units/pd2_dlc_chill/props/recorder/chl_prop_tape_02/S1_chl_prop_tape_02_055 (-14.0, -67.0, 85.8617)
				units/pd2_dlc_chill/props/recorder/chl_prop_tape_02/S1_chl_prop_tape_02_056 (-185.0, -19.0, 86.5075)
				units/pd2_dlc_chill/props/recorder/chl_prop_tape_02/S1_chl_prop_tape_02_057 (-170.0, -62.0, 86.5075)
				units/pd2_dlc_chill/props/recorder/chl_prop_tape_02/S1_chl_prop_tape_02_058 (-123.424, -331.635, 94.6378)
				units/pd2_dlc_chill/props/recorder/chl_prop_tape_02/S1_chl_prop_tape_02_060 (331.99, -253.341, -0.000244141)
				units/pd2_dlc_chill/props/recorder/chl_prop_tape_02/S1_chl_prop_tape_02_061 (351.0, -151.0, -0.000183105)
				units/pd2_dlc_chill/props/recorder/chl_prop_tape_02/S1_chl_prop_tape_02_062 (193.0, -285.0, -0.000167847)
				units/pd2_dlc_chill/props/recorder/chl_prop_tape_02/S1_chl_prop_tape_02_063 (174.0, -273.0, -0.000167847)
				units/pd2_dlc_chill/props/recorder/chl_prop_tape_02/S1_chl_prop_tape_02_064 (63.0002, -76.0002, -4.57764e-05)
				units/pd2_dlc_chill/props/recorder/chl_prop_tape_02/S1_chl_prop_tape_02_065 (65.0002, -96.0002, 0.0)
				units/pd2_dlc_chill/props/recorder/chl_prop_tape_02/S1_chl_prop_tape_02_066 (255.0, -133.0, -0.000106812)
				units/pd2_dlc_chill/props/recorder/chl_prop_tape_02/S1_chl_prop_tape_02_067 (139.0, -302.0, -0.000244141)
				units/pd2_dlc_chill/props/recorder/chl_prop_tape_02/S1_chl_prop_tape_02_068 (98.0002, -352.0, -0.000244141)
				units/pd2_dlc_chill/props/recorder/chl_prop_tape_02/S1_chl_prop_tape_02_069 (-88.0, -414.0, -0.000305176)
				units/pd2_dlc_chill/props/recorder/chl_prop_tape_02/S1_chl_prop_tape_02_070 (-115.0, -341.0, -0.000228882)
				units/pd2_dlc_chill/props/recorder/chl_prop_tape_02/S1_chl_prop_tape_02_071 (-0.999977, -273.0, 4.3398)
				units/pd2_dlc_chill/props/recorder/chl_prop_tape_02/S1_chl_prop_tape_02_072 (98.0002, -323.0, -0.000244141)
				units/pd2_dlc_chill/props/recorder/chl_prop_tape_02/S1_chl_prop_tape_02_073 (-132.0, -257.0, -0.000167847)
				units/pd2_dlc_chill/props/recorder/chl_prop_tape_02/S1_chl_prop_tape_02_074 (-26.0, -106.0, -4.57764e-05)
				units/pd2_dlc_chill/props/recorder/chl_prop_tape_02/S1_chl_prop_tape_02_075 (-92.0, -133.0, 4.3399)
				units/pd2_dlc_chill/props/recorder/chl_prop_tape_cassbox_01/S1_chl_prop_tape_cassbox_01_013 (43.0, -66.0, 86.5075)
				units/pd2_dlc_chill/props/recorder/chl_prop_tape_cassbox_01/S1_chl_prop_tape_cassbox_01_014 (262.0, -64.0, 108.901)
				units/pd2_dlc_chill/props/recorder/chl_prop_tape_cassbox_01/S1_chl_prop_tape_cassbox_01_016 (-184.0, -91.0, 86.5075)
				units/pd2_dlc_chill/props/recorder/chl_prop_tape_cassbox_01/S1_chl_prop_tape_cassbox_01_017 (229.0, -38.0, 54.2623)
				units/pd2_dlc_chill/props/recorder/chl_prop_tape_cassbox_01/S1_chl_prop_tape_cassbox_01_018 (358.0, -186.0, -0.000198364)
				units/pd2_dlc_chill/props/recorder/chl_prop_tape_cassbox_01/S1_chl_prop_tape_cassbox_01_019 (50.0, -200.0, -0.000183105)
				units/pd2_dlc_chill/props/chl_prop_tapes_shelf/S1_chl_prop_tapes_shelf_001 (-75.0, -3.00007, 86.5076)
				units/pd2_dlc_chill/props/chl_prop_tapes_shelf/S1_chl_prop_tapes_shelf_004 (125.0, -2.98023e-05, 100.0)
				units/pd2_dlc_chill/props/chl_prop_tapes_shelf/S1_chl_prop_tapes_shelf_005 (125.0, 0.0, 138.0)
				units/pd2_dlc_chill/props/chl_prop_tapes_shelf/S1_chl_prop_tapes_shelf_006 (370.0, -287.0, 109.0)
				units/pd2_dlc_chill/props/chl_prop_tapes_shelf/S1_chl_prop_tapes_shelf_007 (295.0, -46.0, 106.976)
				units/pd2_dlc_chill/props/chl_prop_tapes_shelf/S1_chl_prop_tapes_shelf_009 (400.0, -150.0, 93.9998)
				units/pd2_dlc_chill/props/chl_prop_tapes_shelf_props_01/S1_chl_prop_tapes_shelf_props_01_002 (-75.0, -3.00007, 86.5076)
				units/pd2_dlc_chill/props/chl_prop_tapes_shelf_props_01/S1_chl_prop_tapes_shelf_props_01_003 (125.0, -2.98023e-05, 100.0)
				units/pd2_dlc_chill/props/chl_prop_tapes_shelf_props_02/S1_chl_prop_tapes_shelf_props_02_001 (125.0, 0.0, 138.0)
				units/pd2_dlc_chill/props/chl_prop_tapes_shelf_props_02/S1_chl_prop_tapes_shelf_props_02_002 (400.0, -150.0, 93.9998)
				units/payday2/props/gen_prop_displaywall/S1_gen_prop_displaywall_005 (25.0002, 5.72205e-06, -1.52588e-05)
				units/payday2/props/gen_prop_lab_table/S1_gen_prop_lab_table_003 (-71.0, -54.0, -7.62939e-05)
				units/payday2/props/set/ind_prop_warehouse_box_b/S1_ind_prop_warehouse_box_b_001 (212.372, -41.0221, 9.15527e-05)
				units/payday2/props/set/ind_prop_warehouse_box_d/S1_ind_prop_warehouse_box_d_001 (353.132, -30.924, 108.0)
				units/payday2/props/set/ind_prop_warehouse_box_stack_4/S1_ind_prop_warehouse_box_stack_4_003 (-148.0, -310.0, -1.00017)
				units/payday2/props/set/ind_prop_warehouse_box_stack_4/S1_ind_prop_warehouse_box_stack_4_004 (359.0, -326.0, -0.000366211)
				units/payday2/props/set/ind_prop_warehouse_box_stack_8/S1_ind_prop_warehouse_box_stack_8_001 (319.0, -49.0001, -1.52588e-05)
				units/pd2_dlc_holly/river/props/lxa_prop_hobo_bucket_a/S1_lxa_prop_hobo_bucket_a_003 (81.0002, -25.0001, -3.05176e-05)
				units/payday2/props/lxa_prop_hockey_gear_stick/S1_lxa_prop_hockey_gear_stick_003 (33.8002, -12.7799, 160.0)
				units/payday2/props/res_prop_livingroom_couch_b_worn/S1_res_prop_livingroom_couch_b_worn_001 (229.0, -328.0, -0.000335693)
				units/pd2_dlc_dinner/props/slaughterhouse_butcher_knife/S1_slaughterhouse_butcher_knife_003 (-2.99997, -3.99987, 162.0)
				units/world/props/slaughterhouse/slaughterhouse_meat_knife/S1_slaughterhouse_meat_knife_003 (-24.3555, -52.6446, 85.8622)
		If jacket_room_upgrade == 2:
			Send instance event "Room is tier 2" to mission.
			Load delayed:
				units/world/props/apartment/kitchen_counter/apartment_kitchen_knife/S2_apartment_kitchen_knife_004 (-199.0, -114.0, 145.0)
				units/world/props/apartment/kitchen_counter/apartment_kitchen_knife/S2_apartment_kitchen_knife_005 (-199.0, -120.0, 175.0)
				units/world/props/apartment/kitchen_counter/apartment_kitchen_knife/S2_apartment_kitchen_knife_006 (-199.0, -99.9996, 150.0)
				units/world/props/apartment/baseball_bat/S2_baseball_bat_003 (88.0901, -19.5499, 0.999939)
				units/world/props/apartment/baseball_bat/S2_baseball_bat_004 (81.0, -24.9999, 1.0)
				units/pd2_dlc_chill/props/recorder/chl_prop_tape_01/S2_chl_prop_tape_01_002 (164.661, -10.2473, 166.96)
				units/pd2_dlc_chill/props/recorder/chl_prop_tape_01/S2_chl_prop_tape_01_024 (257.86, -66.9996, 45.2681)
				units/pd2_dlc_chill/props/recorder/chl_prop_tape_01/S2_chl_prop_tape_01_025 (291.0, -93.9996, 13.4072)
				units/pd2_dlc_chill/props/recorder/chl_prop_tape_01/S2_chl_prop_tape_01_026 (-0.999985, -86.9996, 86.5037)
				units/pd2_dlc_chill/props/recorder/chl_prop_tape_01/S2_chl_prop_tape_01_027 (-157.0, -48.9996, 86.5037)
				units/pd2_dlc_chill/props/recorder/chl_prop_tape_01/S2_chl_prop_tape_01_029 (-39.0, -23.9996, 86.5037)
				units/pd2_dlc_chill/props/recorder/chl_prop_tape_01/S2_chl_prop_tape_01_030 (-21.5136, -73.92, 86.9962)
				units/pd2_dlc_chill/props/recorder/chl_prop_tape_01/S2_chl_prop_tape_01_031 (117.0, -305.0, 68.1374)
				units/pd2_dlc_chill/props/recorder/chl_prop_tape_01/S2_chl_prop_tape_01_033 (315.0, -294.0, 49.173)
				units/pd2_dlc_chill/props/recorder/chl_prop_tape_01/S2_chl_prop_tape_01_034 (339.0, -287.0, 69.1216)
				units/pd2_dlc_chill/props/recorder/chl_prop_tape_01/S2_chl_prop_tape_01_035 (324.0, -216.0, -0.00387573)
				units/pd2_dlc_chill/props/recorder/chl_prop_tape_01/S2_chl_prop_tape_01_036 (251.0, -108.0, -0.00382996)
				units/pd2_dlc_chill/props/recorder/chl_prop_tape_01/S2_chl_prop_tape_01_037 (93.0, -176.0, -0.0038147)
				units/pd2_dlc_chill/props/recorder/chl_prop_tape_01/S2_chl_prop_tape_01_038 (11.0, -114.0, -0.00379944)
				units/pd2_dlc_chill/props/recorder/chl_prop_tape_01/S2_chl_prop_tape_01_040 (-183.0, -165.0, -0.00370789)
				units/pd2_dlc_chill/props/recorder/chl_prop_tape_01/S2_chl_prop_tape_01_041 (-125.0, -355.0, -0.00378418)
				units/pd2_dlc_chill/props/recorder/chl_prop_tape_01/S2_chl_prop_tape_01_042 (-155.0, -364.0, -0.00382996)
				units/pd2_dlc_chill/props/recorder/chl_prop_tape_01/S2_chl_prop_tape_01_043 (-68.0, -389.0, -0.00382996)
				units/pd2_dlc_chill/props/recorder/chl_prop_tape_01/S2_chl_prop_tape_01_044 (-87.0, -346.0, -0.00378418)
				units/pd2_dlc_chill/props/recorder/chl_prop_tape_01/S2_chl_prop_tape_01_045 (86.0, -344.0, -0.00379944)
				units/pd2_dlc_chill/props/recorder/chl_prop_tape_01/S2_chl_prop_tape_01_046 (96.0, -369.0, -0.00382996)
				units/pd2_dlc_chill/props/recorder/chl_prop_tape_01/S2_chl_prop_tape_01_070 (-137.0, -289.0, 107.492)
				units/pd2_dlc_chill/props/recorder/chl_prop_tape_02/S2_chl_prop_tape_02_026 (48.5501, -79.8906, 86.5037)
				units/pd2_dlc_chill/props/recorder/chl_prop_tape_02/S2_chl_prop_tape_02_027 (269.0, -73.9996, 45.2584)
				units/pd2_dlc_chill/props/recorder/chl_prop_tape_02/S2_chl_prop_tape_02_028 (320.42, -76.087, 103.779)
				units/pd2_dlc_chill/props/recorder/chl_prop_tape_02/S2_chl_prop_tape_02_029 (-15.0794, -75.8198, 85.8579)
				units/pd2_dlc_chill/props/recorder/chl_prop_tape_02/S2_chl_prop_tape_02_030 (-26.0004, -67.0, 85.8579)
				units/pd2_dlc_chill/props/recorder/chl_prop_tape_02/S2_chl_prop_tape_02_031 (-185.0, -18.9996, 86.5037)
				units/pd2_dlc_chill/props/recorder/chl_prop_tape_02/S2_chl_prop_tape_02_032 (-170.0, -61.9996, 86.5037)
				units/pd2_dlc_chill/props/recorder/chl_prop_tape_02/S2_chl_prop_tape_02_034 (175.0, -322.0, 49.173)
				units/pd2_dlc_chill/props/recorder/chl_prop_tape_02/S2_chl_prop_tape_02_035 (343.0, -318.0, 69.1216)
				units/pd2_dlc_chill/props/recorder/chl_prop_tape_02/S2_chl_prop_tape_02_036 (340.0, -301.0, 69.1216)
				units/pd2_dlc_chill/props/recorder/chl_prop_tape_02/S2_chl_prop_tape_02_037 (322.0, -252.0, -0.00387573)
				units/pd2_dlc_chill/props/recorder/chl_prop_tape_02/S2_chl_prop_tape_02_038 (229.0, -270.0, -0.00384521)
				units/pd2_dlc_chill/props/recorder/chl_prop_tape_02/S2_chl_prop_tape_02_039 (63.0, -75.9996, -0.00378418)
				units/pd2_dlc_chill/props/recorder/chl_prop_tape_02/S2_chl_prop_tape_02_040 (65.0, -95.9996, -0.00378418)
				units/pd2_dlc_chill/props/recorder/chl_prop_tape_02/S2_chl_prop_tape_02_041 (287.0, -133.0, -0.00379944)
				units/pd2_dlc_chill/props/recorder/chl_prop_tape_02/S2_chl_prop_tape_02_042 (139.0, -269.0, -0.00382996)
				units/pd2_dlc_chill/props/recorder/chl_prop_tape_02/S2_chl_prop_tape_02_043 (98.0, -352.0, -0.00382996)
				units/pd2_dlc_chill/props/recorder/chl_prop_tape_02/S2_chl_prop_tape_02_044 (-88.0, -378.0, -0.00382996)
				units/pd2_dlc_chill/props/recorder/chl_prop_tape_02/S2_chl_prop_tape_02_045 (-115.0, -341.0, -0.00382996)
				units/pd2_dlc_chill/props/recorder/chl_prop_tape_02/S2_chl_prop_tape_02_046 (-1.0, -273.0, 4.33617)
				units/pd2_dlc_chill/props/recorder/chl_prop_tape_02/S2_chl_prop_tape_02_047 (98.0, -323.0, -0.00382996)
				units/pd2_dlc_chill/props/recorder/chl_prop_tape_02/S2_chl_prop_tape_02_048 (-132.0, -257.0, -0.0038147)
				units/pd2_dlc_chill/props/recorder/chl_prop_tape_02/S2_chl_prop_tape_02_049 (-20.0, -106.0, -0.00379944)
				units/pd2_dlc_chill/props/recorder/chl_prop_tape_02/S2_chl_prop_tape_02_050 (-171.0, -133.0, 4.33618)
				units/pd2_dlc_chill/props/recorder/chl_prop_tape_02/S2_chl_prop_tape_02_076 (-113.0, -330.0, 107.492)
				units/pd2_dlc_chill/props/recorder/chl_prop_tape_cassbox_01/S2_chl_prop_tape_cassbox_01_007 (43.0, -65.9996, 86.5037)
				units/pd2_dlc_chill/props/recorder/chl_prop_tape_cassbox_01/S2_chl_prop_tape_cassbox_01_008 (311.0, -63.9996, 103.897)
				units/pd2_dlc_chill/props/recorder/chl_prop_tape_cassbox_01/S2_chl_prop_tape_cassbox_01_010 (-184.0, -90.9996, 86.5037)
				units/pd2_dlc_chill/props/recorder/chl_prop_tape_cassbox_01/S2_chl_prop_tape_cassbox_01_011 (334.0, -85.9996, 45.2584)
				units/pd2_dlc_chill/props/recorder/chl_prop_tape_cassbox_01/S2_chl_prop_tape_cassbox_01_012 (339.0, -338.0, 69.1216)
				units/pd2_dlc_chill/props/chl_prop_tapes_shelf/S2_chl_prop_tapes_shelf_002 (-50.0001, -2.99934, 86.5038)
				units/pd2_dlc_chill/props/chl_prop_tapes_shelf/S2_chl_prop_tapes_shelf_008 (125.0, 0.000427246, 137.996)
				units/pd2_dlc_chill/props/chl_prop_tapes_shelf/S2_chl_prop_tapes_shelf_010 (400.0, -150.0, 93.9961)
				units/pd2_dlc_chill/props/chl_prop_tapes_shelf/S2_chl_prop_tapes_shelf_011 (125.0, 0.000419617, 99.9961)
				units/pd2_dlc_chill/props/chl_prop_tapes_shelf/S2_chl_prop_tapes_shelf_012 (387.0, -287.999, -0.00393677)
				units/pd2_dlc_chill/props/chl_prop_tapes_shelf/S2_chl_prop_tapes_shelf_015 (400.0, -150.0, 124.996)
				units/pd2_dlc_chill/props/chl_prop_tapes_shelf/S2_chl_prop_tapes_shelf_017 (390.0, -99.9996, -0.00390625)
				units/pd2_dlc_chill/props/chl_prop_tapes_shelf_props_01/S2_chl_prop_tapes_shelf_props_01_001 (-50.0001, -2.99934, 86.5038)
				units/pd2_dlc_chill/props/chl_prop_tapes_shelf_props_01/S2_chl_prop_tapes_shelf_props_01_004 (125.0, 0.000419617, 99.9961)
				units/pd2_dlc_chill/props/chl_prop_tapes_shelf_props_01/S2_chl_prop_tapes_shelf_props_01_006 (400.0, -150.0, 93.9961)
				units/pd2_dlc_chill/props/chl_prop_tapes_shelf_props_02/S2_chl_prop_tapes_shelf_props_02_003 (400.0, -150.0, 124.996)
				units/pd2_dlc_chill/props/chl_prop_tapes_shelf_props_02/S2_chl_prop_tapes_shelf_props_02_004 (125.0, 0.000427246, 137.996)
				units/pd2_dlc_chill/props/chl_prop_tapes_shelf_props_02/S2_chl_prop_tapes_shelf_props_02_007 (390.0, -99.9996, -0.00390625)
				units/world/props/hotel/flower_pot_big/S2_flower_pot_big_001 (82.0, -355.0, -7.62939e-05)
				units/world/props/hotel/flower_pot_small/S2_flower_pot_small_001 (304.68, -51.3198, 104.0)
				units/payday2/props/gen_prop_displaywall/S2_gen_prop_displaywall_003 (-200.0, -24.9999, 1.52588e-05)
				units/payday2/props/gen_prop_displaywall/S2_gen_prop_displaywall_004 (25.0, 0.000160217, -1.52588e-05)
				units/payday2/props/gen_prop_lab_table/S2_gen_prop_lab_table_002 (-71.0, -53.9998, -1.52588e-05)
				units/pd2_dlc_cage/props/armchair_set/ind_prop_cardealership_couch/S2_ind_prop_cardealership_couch_002 (229.0, -328.0, -4.57764e-05)
				units/payday2/props/set/ind_prop_warehouse_box_b/S2_ind_prop_warehouse_box_b_002 (207.0, -25.9996, -0.00386047)
				units/payday2/props/set/ind_prop_warehouse_box_stack_4/S2_ind_prop_warehouse_box_stack_4_002 (-148.0, -310.0, -1.00383)
				units/pd2_dlc_holly/river/props/lxa_prop_hobo_bucket_a/S2_lxa_prop_hobo_bucket_a_002 (81.0, -24.9999, -7.62939e-05)
				units/payday2/props/lxa_prop_hockey_gear_stick/S2_lxa_prop_hockey_gear_stick_002 (33.8, -12.7799, 160.0)
				units/pd2_indiana/props/mus_prop_roman_sword/S2_mus_prop_roman_sword_003 (-197.0, -200.0, 162.0)
				units/pd2_indiana/props/mus_prop_roman_sword/S2_mus_prop_roman_sword_004 (-197.0, -186.0, 148.0)
				units/pd2_dlc_holly/river/props/lxa_prop_hobo_bucket_a/S2_prop_hobo_bucket_a_001 (-157.0, -105.0, 44.0)
				units/payday2/props/res_prop_livingroom_coffeetable_a_worn_clean/S2_res_prop_livingroom_coffeetable_a_worn_clean_002 (350.97, -26.5699, 0.0)
				units/pd2_dlc_dinner/props/slaughterhouse_butcher_knife/S2_slaughterhouse_butcher_knife_002 (-197.0, -74.9999, 162.0)
				units/world/props/slaughterhouse/slaughterhouse_meat_knife/S2_slaughterhouse_meat_knife_002 (-24.3555, -52.64, 85.8622)
				units/world/props/tools_saw/S2_tools_saw_002 (-199.0, -160.0, 155.0)
				units/world/props/apartment/tv_01/S2_tv_01_002 (304.68, -51.3198, 44.9999)
		If jacket_room_upgrade == 3:
			Show object: core/units/light_omni/S3_light_omni_001 (-67.0, -310.0, 148.0)
			Send instance event "Room is tier 3" to mission.
			Load delayed:
				units/world/props/apartment/kitchen_counter/apartment_kitchen_knife/S3_apartment_kitchen_knife_001 (-199.0, -120.0, 175.0)
				units/world/props/apartment/kitchen_counter/apartment_kitchen_knife/S3_apartment_kitchen_knife_002 (-199.0, -114.0, 145.0)
				units/world/props/apartment/kitchen_counter/apartment_kitchen_knife/S3_apartment_kitchen_knife_003 (-199.0, -99.9998, 150.0)
				units/world/props/apartment/baseball_bat/S3_baseball_bat_001 (81.0, -24.9997, 0.999817)
				units/world/props/apartment/baseball_bat/S3_baseball_bat_002 (88.0901, -19.5497, 0.999741)
				units/pd2_dlc_cro/props/chainsaw_item/S3_chainsaw_item_001 (-9.66992, -44.4175, 86.5079)
				units/pd2_dlc_chill/props/chl_prop_gym_jacket_gameconsole/S3_chl_prop_gym_jacket_gameconsole_001 (282.23, -96.8896, -0.000320435)
				units/pd2_dlc_chill/props/chl_prop_livingroom_rug_zebraskin/S3_chl_prop_livingroom_rug_zebraskin_001 (14.0, -240.0, -0.000228882)
				units/pd2_dlc_chill/props/recorder/chl_prop_tape_01/S3_chl_prop_tape_01_001 (257.86, -66.9998, 45.2717)
				units/pd2_dlc_chill/props/recorder/chl_prop_tape_01/S3_chl_prop_tape_01_002 (291.0, -93.9999, 13.4111)
				units/pd2_dlc_chill/props/recorder/chl_prop_tape_01/S3_chl_prop_tape_01_003 (164.661, -10.2474, 166.964)
				units/pd2_dlc_chill/props/recorder/chl_prop_tape_01/S3_chl_prop_tape_01_003 (-1.0, -87.0, 86.5075)
				units/pd2_dlc_chill/props/recorder/chl_prop_tape_01/S3_chl_prop_tape_01_004 (386.0, -162.0, 155.929)
				units/pd2_dlc_chill/props/recorder/chl_prop_tape_01/S3_chl_prop_tape_01_004 (-157.0, -49.0, 86.5075)
				units/pd2_dlc_chill/props/recorder/chl_prop_tape_01/S3_chl_prop_tape_01_005 (391.0, -112.0, 155.929)
				units/pd2_dlc_chill/props/recorder/chl_prop_tape_01/S3_chl_prop_tape_01_006 (-39.0, -24.0, 86.5075)
				units/pd2_dlc_chill/props/recorder/chl_prop_tape_01/S3_chl_prop_tape_01_007 (-16.0, -75.0, 87.0)
				units/pd2_dlc_chill/props/recorder/chl_prop_tape_01/S3_chl_prop_tape_01_008 (117.0, -305.0, 68.141)
				units/pd2_dlc_chill/props/recorder/chl_prop_tape_01/S3_chl_prop_tape_01_009 (-129.28, -304.828, 95.6708)
				units/pd2_dlc_chill/props/recorder/chl_prop_tape_01/S3_chl_prop_tape_01_010 (315.0, -294.0, 49.1766)
				units/pd2_dlc_chill/props/recorder/chl_prop_tape_01/S3_chl_prop_tape_01_011 (339.0, -287.0, 69.1252)
				units/pd2_dlc_chill/props/recorder/chl_prop_tape_01/S3_chl_prop_tape_01_012 (179.0, -216.0, -0.000152588)
				units/pd2_dlc_chill/props/recorder/chl_prop_tape_01/S3_chl_prop_tape_01_013 (251.0, -108.0, -0.000167847)
				units/pd2_dlc_chill/props/recorder/chl_prop_tape_01/S3_chl_prop_tape_01_014 (93.0, -145.0, -7.62939e-05)
				units/pd2_dlc_chill/props/recorder/chl_prop_tape_01/S3_chl_prop_tape_01_015 (11.0, -114.0, 7.62939e-05)
				units/pd2_dlc_chill/props/recorder/chl_prop_tape_01/S3_chl_prop_tape_01_017 (-80.0, -165.0, 4.57764e-05)
				units/pd2_dlc_chill/props/recorder/chl_prop_tape_01/S3_chl_prop_tape_01_018 (-125.0, -355.0, -7.62939e-05)
				units/pd2_dlc_chill/props/recorder/chl_prop_tape_01/S3_chl_prop_tape_01_019 (-155.0, -364.0, -0.000137329)
				units/pd2_dlc_chill/props/recorder/chl_prop_tape_01/S3_chl_prop_tape_01_020 (-68.0, -389.0, -4.57764e-05)
				units/pd2_dlc_chill/props/recorder/chl_prop_tape_01/S3_chl_prop_tape_01_021 (-87.0, -346.0, 6.10352e-05)
				units/pd2_dlc_chill/props/recorder/chl_prop_tape_01/S3_chl_prop_tape_01_022 (86.0, -344.0, -0.000167847)
				units/pd2_dlc_chill/props/recorder/chl_prop_tape_01/S3_chl_prop_tape_01_023 (96.0, -369.0, -0.000152588)
				units/pd2_dlc_chill/props/recorder/chl_prop_tape_01/S3_chl_prop_tape_01_024 (347.418, -226.473, -0.000183105)
				units/pd2_dlc_chill/props/recorder/chl_prop_tape_01/S3_chl_prop_tape_01_025 (381.889, -194.508, -0.000137329)
				units/pd2_dlc_chill/props/recorder/chl_prop_tape_01/S3_chl_prop_tape_01_026 (368.299, -259.472, -0.000152588)
				units/pd2_dlc_chill/props/recorder/chl_prop_tape_01/S3_chl_prop_tape_01_027 (386.576, -284.908, -0.000167847)
				units/pd2_dlc_chill/props/recorder/chl_prop_tape_01/S3_chl_prop_tape_01_028 (381.323, -165.927, -0.000152588)
				units/pd2_dlc_chill/props/recorder/chl_prop_tape_01/S3_chl_prop_tape_01_029 (321.346, -164.154, -6.10352e-05)
				units/pd2_dlc_chill/props/recorder/chl_prop_tape_01/S3_chl_prop_tape_01_030 (336.892, -127.827, -0.000137329)
				units/pd2_dlc_chill/props/recorder/chl_prop_tape_01/S3_chl_prop_tape_01_031 (381.954, -96.9178, -0.000137329)
				units/pd2_dlc_chill/props/recorder/chl_prop_tape_02/S3_chl_prop_tape_02_001 (48.55, -79.891, 86.5075)
				units/pd2_dlc_chill/props/recorder/chl_prop_tape_02/S3_chl_prop_tape_02_002 (389.0, -136.0, 155.929)
				units/pd2_dlc_chill/props/recorder/chl_prop_tape_02/S3_chl_prop_tape_02_002 (269.0, -74.0, 45.262)
				units/pd2_dlc_chill/props/recorder/chl_prop_tape_02/S3_chl_prop_tape_02_003 (391.0, -257.0, 155.929)
				units/pd2_dlc_chill/props/recorder/chl_prop_tape_02/S3_chl_prop_tape_02_003 (320.42, -76.0871, 103.783)
				units/pd2_dlc_chill/props/recorder/chl_prop_tape_02/S3_chl_prop_tape_02_004 (392.0, -181.0, 130.929)
				units/pd2_dlc_chill/props/recorder/chl_prop_tape_02/S3_chl_prop_tape_02_004 (-13.0, -81.0, 85.8617)
				units/pd2_dlc_chill/props/recorder/chl_prop_tape_02/S3_chl_prop_tape_02_005 (-14.0, -67.0, 85.8617)
				units/pd2_dlc_chill/props/recorder/chl_prop_tape_02/S3_chl_prop_tape_02_006 (-185.0, -19.0, 86.5075)
				units/pd2_dlc_chill/props/recorder/chl_prop_tape_02/S3_chl_prop_tape_02_007 (-170.0, -62.0, 86.5075)
				units/pd2_dlc_chill/props/recorder/chl_prop_tape_02/S3_chl_prop_tape_02_008 (-123.42, -331.635, 94.6381)
				units/pd2_dlc_chill/props/recorder/chl_prop_tape_02/S3_chl_prop_tape_02_009 (175.0, -322.0, 49.1768)
				units/pd2_dlc_chill/props/recorder/chl_prop_tape_02/S3_chl_prop_tape_02_010 (343.0, -318.0, 69.1252)
				units/pd2_dlc_chill/props/recorder/chl_prop_tape_02/S3_chl_prop_tape_02_011 (340.0, -301.0, 69.1254)
				units/pd2_dlc_chill/props/recorder/chl_prop_tape_02/S3_chl_prop_tape_02_012 (177.0, -252.0, -0.000152588)
				units/pd2_dlc_chill/props/recorder/chl_prop_tape_02/S3_chl_prop_tape_02_013 (161.0, -238.0, -0.000152588)
				units/pd2_dlc_chill/props/recorder/chl_prop_tape_02/S3_chl_prop_tape_02_014 (63.0, -76.0, -3.05176e-05)
				units/pd2_dlc_chill/props/recorder/chl_prop_tape_02/S3_chl_prop_tape_02_015 (65.0, -96.0, -0.000137329)
				units/pd2_dlc_chill/props/recorder/chl_prop_tape_02/S3_chl_prop_tape_02_016 (287.0, -133.0, -0.000137329)
				units/pd2_dlc_chill/props/recorder/chl_prop_tape_02/S3_chl_prop_tape_02_017 (139.0, -269.0, -0.000152588)
				units/pd2_dlc_chill/props/recorder/chl_prop_tape_02/S3_chl_prop_tape_02_018 (98.0, -352.0, -0.000152588)
				units/pd2_dlc_chill/props/recorder/chl_prop_tape_02/S3_chl_prop_tape_02_019 (-88.0, -378.0, -7.62939e-05)
				units/pd2_dlc_chill/props/recorder/chl_prop_tape_02/S3_chl_prop_tape_02_020 (-115.0, -341.0, 6.10352e-05)
				units/pd2_dlc_chill/props/recorder/chl_prop_tape_02/S3_chl_prop_tape_02_021 (-1.0, -273.0, 4.33992)
				units/pd2_dlc_chill/props/recorder/chl_prop_tape_02/S3_chl_prop_tape_02_022 (98.0, -323.0, -0.000152588)
				units/pd2_dlc_chill/props/recorder/chl_prop_tape_02/S3_chl_prop_tape_02_023 (-132.0, -257.0, 6.10352e-05)
				units/pd2_dlc_chill/props/recorder/chl_prop_tape_02/S3_chl_prop_tape_02_024 (-20.0, -106.0, 7.62939e-05)
				units/pd2_dlc_chill/props/recorder/chl_prop_tape_02/S3_chl_prop_tape_02_025 (-92.0, -133.0, 4.33992)
				units/pd2_dlc_chill/props/recorder/chl_prop_tape_02/S3_chl_prop_tape_02_026 (378.0, -217.0, -0.000198364)
				units/pd2_dlc_chill/props/recorder/chl_prop_tape_02/S3_chl_prop_tape_02_027 (351.806, -254.575, -4.57764e-05)
				units/pd2_dlc_chill/props/recorder/chl_prop_tape_02/S3_chl_prop_tape_02_028 (351.0, -196.0, -0.000183105)
				units/pd2_dlc_chill/props/recorder/chl_prop_tape_02/S3_chl_prop_tape_02_029 (364.814, -176.975, -0.00012207)
				units/pd2_dlc_chill/props/recorder/chl_prop_tape_02/S3_chl_prop_tape_02_059 (224.0, -73.0, -7.62939e-05)
				units/pd2_dlc_chill/props/recorder/chl_prop_tape_cassbox_01/S3_chl_prop_tape_cassbox_01_001 (395.0, -244.0, 155.929)
				units/pd2_dlc_chill/props/recorder/chl_prop_tape_cassbox_01/S3_chl_prop_tape_cassbox_01_001 (43.0, -66.0, 86.5075)
				units/pd2_dlc_chill/props/recorder/chl_prop_tape_cassbox_01/S3_chl_prop_tape_cassbox_01_002 (311.0, -63.9997, 103.901)
				units/pd2_dlc_chill/props/recorder/chl_prop_tape_cassbox_01/S3_chl_prop_tape_cassbox_01_004 (-184.0, -91.0, 86.5075)
				units/pd2_dlc_chill/props/recorder/chl_prop_tape_cassbox_01/S3_chl_prop_tape_cassbox_01_005 (334.0, -85.9998, 45.262)
				units/pd2_dlc_chill/props/recorder/chl_prop_tape_cassbox_01/S3_chl_prop_tape_cassbox_01_006 (339.0, -338.0, 69.1255)
				units/pd2_dlc_chill/props/chl_prop_tapes_shelf/S3_chl_prop_tapes_shelf_003 (-175.0, -2.99947, 86.5076)
				units/pd2_dlc_chill/props/chl_prop_tapes_shelf/S3_chl_prop_tapes_shelf_013 (125.0, 0.000228882, 138.0)
				units/pd2_dlc_chill/props/chl_prop_tapes_shelf/S3_chl_prop_tapes_shelf_014 (125.0, 0.000228882, 100.0)
				units/pd2_dlc_chill/props/chl_prop_tapes_shelf/S3_chl_prop_tapes_shelf_016 (400.0, -99.9997, 94.0)
				units/pd2_dlc_chill/props/chl_prop_tapes_shelf/S3_chl_prop_tapes_shelf_018 (400.0, -182.0, 94.0)
				units/pd2_dlc_chill/props/chl_prop_tapes_shelf/S3_chl_prop_tapes_shelf_019 (400.0, -182.0, 125.0)
				units/pd2_dlc_chill/props/chl_prop_tapes_shelf/S3_chl_prop_tapes_shelf_020 (399.0, -96.9997, 125.0)
				units/pd2_dlc_chill/props/chl_prop_tapes_shelf/S3_chl_prop_tapes_shelf_021 (400.0, -182.0, 61.9998)
				units/pd2_dlc_chill/props/chl_prop_tapes_shelf/S3_chl_prop_tapes_shelf_022 (400.0, -99.9997, 62.9997)
				units/pd2_dlc_chill/props/chl_prop_tapes_shelf_props_01/S3_chl_prop_tapes_shelf_props_01_005 (125.0, 0.000228882, 100.0)
				units/pd2_dlc_chill/props/chl_prop_tapes_shelf_props_01/S3_chl_prop_tapes_shelf_props_01_007 (400.0, -99.9997, 62.9997)
				units/pd2_dlc_chill/props/chl_prop_tapes_shelf_props_01/S3_chl_prop_tapes_shelf_props_01_008 (400.0, -182.0, 94.0)
				units/pd2_dlc_chill/props/chl_prop_tapes_shelf_props_01/S3_chl_prop_tapes_shelf_props_01_009 (399.0, -96.9997, 125.0)
				units/pd2_dlc_chill/props/chl_prop_tapes_shelf_props_02/S3_chl_prop_tapes_shelf_props_02_005 (400.0, -99.9997, 94.0)
				units/pd2_dlc_chill/props/chl_prop_tapes_shelf_props_02/S3_chl_prop_tapes_shelf_props_02_006 (125.0, 0.000228882, 138.0)
				units/pd2_dlc_chill/props/chl_prop_tapes_shelf_props_02/S3_chl_prop_tapes_shelf_props_02_008 (400.0, -182.0, 125.0)
				units/pd2_dlc_chill/props/chl_prop_tapes_shelf_props_02/S3_chl_prop_tapes_shelf_props_02_009 (400.0, -182.0, 61.9998)
				units/world/props/hotel/flower_pot_big/S3_flower_pot_big_001 (-125.64, -402.36, -0.000274658)
				units/world/props/hotel/flower_pot_small/S3_flower_pot_small_001 (214.0, -36.9995, -0.000320435)
				units/pd2_dlc_flat/props/flt_prop_sledgehammer/S3_flt_prop_sledgehammer_001 (-100.0, 0.000297546, 166.0)
				units/payday2/props/gen_prop_displaywall/S3_gen_prop_displaywall_001 (25.0, 0.000450134, -0.000167847)
				units/payday2/props/gen_prop_displaywall/S3_gen_prop_displaywall_002 (-200.0, -24.9998, -7.62939e-05)
				units/payday2/props/gen_prop_lab_table/S3_gen_prop_lab_table_001 (-71.0, -53.9998, -0.000228882)
				units/pd2_dlc_cage/props/armchair_set/ind_prop_cardealership_couch/S3_ind_prop_cardealership_couch_001 (229.0, -328.0, -0.000320435)
				units/pd2_dlc_holly/river/props/lxa_prop_hobo_bucket_a/S3_lxa_prop_hobo_bucket_a_001 (81.0, -24.9998, -0.000259399)
				units/payday2/props/lxa_prop_hockey_gear_stick/S3_lxa_prop_hockey_gear_stick_001 (33.8, -12.7798, 160.0)
				units/pd2_indiana/props/mus_prop_roman_sword/S3_mus_prop_roman_sword_001 (-197.0, -200.0, 162.0)
				units/pd2_indiana/props/mus_prop_roman_sword/S3_mus_prop_roman_sword_002 (-197.0, -186.0, 148.0)
				units/payday2/props/off_prop_officehigh_chair_standard_black/S3_off_prop_officehigh_chair_standard_black_001 (-151.0, -220.0, 0.0)
				units/world/props/apartment/pizza_box/S3_pizza_box_001 (300.0, -31.9994, 104.645)
				units/world/props/apartment/pizza_box/S3_pizza_box_002 (175.0, -251.0, -0.000305176)
				units/payday2/props/res_prop_livingroom_coffeetable_a_worn_clean/S3_res_prop_livingroom_coffeetable_a_worn_clean_001 (350.97, -26.5696, -0.000244141)
				units/pd2_dlc_dinner/props/slaughterhouse_butcher_knife/S3_slaughterhouse_butcher_knife_001 (-197.0, -74.9998, 162.0)
				units/world/props/slaughterhouse/slaughterhouse_meat_knife/S3_slaughterhouse_meat_knife_001 (-114.65, -39.6443, 86.5079)
				units/world/props/tools_hammer/S3_tools_hammer_001 (120.0, -299.0, 69.1406)
				units/world/props/tools_saw/S3_tools_saw_001 (-199.0, -160.0, 155.0)
				units/world/props/tools_screwdriver/S3_tools_screwdriver_001 (-184.0, -74.9997, 86.5079)
				units/world/props/apartment/tv_01/S3_tv_01_001 (304.68, -51.3195, 45.0)
				units/pd2_dlc_chill/props/chl_prop_arcadecabinet/S3chl_prop_arcadecabinet_001 (-164.0, -310.0, -0.000198364)
´input_not_raid´ ElementInstanceInput 100004
	Upon mission event "not_raid":
		´delay（2）´
