ID range vs continent name:
	100000: world

statics
	100032 units/dev_tools/level_tools/dev_door_blocker_1x1x3/001 (-54.0, -38.0, 0.00400394)
	100001 units/pd2_dlc_chill/props/chl_prop_pinata/001 (0.0, 0.0, 100.0)
		disable_on_ai_graph True
