ID range vs continent name:
	100000: world
	200000: editor_only

statics
	100126 units/dev_tools/level_tools/ai_attention_object/001 (200.0, 900.0, 200.0)
	100127 units/dev_tools/level_tools/ai_attention_object/002 (200.0, 200.0, 200.0)
	100086 units/dev_tools/level_tools/dev_nav_splitter_2x3m/001 (200.0, 558.0, 0.0)
	100087 units/dev_tools/level_tools/dev_nav_splitter_2x3m/002 (825.0, 1058.0, 0.0)
	100088 units/dev_tools/level_tools/dev_nav_splitter_2x3m/003 (825.0, 233.0, 0.0)
	100091 units/dev_tools/level_tools/splitter/dev_nav_doorway_splitter_2x3m/001 (16.0, 900.0, 0.0)
	100092 units/dev_tools/level_tools/splitter/dev_nav_doorway_splitter_2x3m/002 (16.0, 0.0, 0.0)
	100090 units/dev_tools/level_tools/splitter/dev_nav_doorway_splitter_2x3m/003 (1191.0, 0.0, 0.0)
	100001 units/dev_tools/level_tools/splitter/dev_nav_doorway_splitter_2x3m/004 (1191.0, 900.0, 0.0)
	100010 units/payday2/architecture/ind/ind_ext_level_locker/001 (300.001, 25.0001, 0.0)
	100013 units/payday2/architecture/ind/ind_ext_level_locker/002 (200.001, 24.9999, 0.0)
	100014 units/payday2/architecture/ind/ind_ext_level_locker/003 (500.001, 25.0003, 0.0)
	100015 units/payday2/architecture/ind/ind_ext_level_locker/004 (600.001, 25.0004, 0.0)
	100016 units/payday2/architecture/ind/ind_ext_level_locker/005 (800.001, 25.0007, 0.0)
	100017 units/payday2/architecture/ind/ind_ext_level_locker/006 (900.001, 25.0008, 0.0)
	100018 units/payday2/architecture/ind/ind_ext_level_locker/007 (400.0, 1075.0, 0.0)
	100019 units/payday2/architecture/ind/ind_ext_level_locker/008 (300.0, 1075.0, 0.0)
	100020 units/payday2/architecture/ind/ind_ext_level_locker/009 (600.0, 1075.0, 0.0)
	100021 units/payday2/architecture/ind/ind_ext_level_locker/010 (700.0, 1075.0, 0.0)
	100022 units/payday2/architecture/ind/ind_ext_level_locker/011 (900.0, 1075.0, 0.0)
	100023 units/payday2/architecture/ind/ind_ext_level_locker/012 (999.999, 1075.0, 0.0)
	100034 units/payday2/architecture/ind/ind_ext_level_locker/013 (300.0, 600.0, 0.0)
	100035 units/payday2/architecture/ind/ind_ext_level_locker/014 (200.0, 600.0, 0.0)
	100036 units/payday2/architecture/ind/ind_ext_level_locker/015 (300.0, 525.0, 0.0)
	100037 units/payday2/architecture/ind/ind_ext_level_locker/016 (400.0, 525.0, 0.0)
	100038 units/payday2/architecture/ind/ind_ext_level_locker/017 (600.0, 525.0, 0.0)
	100039 units/payday2/architecture/ind/ind_ext_level_locker/018 (700.0, 525.001, 0.0)
	100040 units/payday2/architecture/ind/ind_ext_level_locker/019 (600.0, 600.0, 0.0)
	100041 units/payday2/architecture/ind/ind_ext_level_locker/020 (500.0, 600.0, 0.0)
	100000 units/payday2/architecture/mkp_int_wall_1m_a/003 (1200.0, 900.001, 0.0)
	100006 units/payday2/architecture/mkp_int_wall_1m_a/004 (0.0, 200.0, 0.0)
	100031 units/payday2/architecture/mkp_int_wall_1m_a/005 (800.0, 450.0, 0.0)
	100052 units/payday2/architecture/mkp_int_wall_1m_a/006 (800.0, 550.0, 0.0)
	100030 units/payday2/architecture/mkp_int_wall_2m_a/001 (800.0, 650.0, 0.0)
	100002 units/payday2/architecture/mkp_int_wall_2m_a/003 (1200.0, 800.001, 0.0)
	100008 units/payday2/architecture/mkp_int_wall_2m_a/004 (0.000732422, 300.0, 0.0)
	100032 units/payday2/architecture/mkp_int_wall_2m_a/005 (800.0, 250.0, 0.0)
	100028 units/payday2/architecture/mkp_int_wall_2m_a/006 (400.0, 550.0, 0.0)
	100004 units/payday2/architecture/mkp_int_wall_2m_b/006 (1200.0, 200.001, 0.0)
	100005 units/payday2/architecture/mkp_int_wall_2m_b/007 (0.0, 0.0, 0.0)
	100009 units/payday2/architecture/mkp_int_wall_2m_b/008 (0.0, 900.0, 0.0)
	100033 units/payday2/architecture/mkp_int_wall_2m_b/009 (200.0, 550.0, 0.0)
	100089 units/payday2/architecture/mkp_int_wall_2m_b/010 (1175.0, 900.0, 0.0)
	100029 units/payday2/architecture/mkp_int_wall_4m_a/008 (800.0, 550.0, 0.0)
	100003 units/payday2/architecture/mkp_int_wall_4m_a/009 (1200.0, 600.001, 0.0)
	100007 units/payday2/architecture/mkp_int_wall_4m_a/010 (0.000488281, 500.0, 0.0)
	100050 units/payday2/equipment/gen_interactable_door_wooden/001 (25.0, 932.0, 0.0)
		mesh_variation state_door_close
	100051 units/payday2/equipment/gen_interactable_door_wooden/002 (25.0, 32.0, 0.0)
		mesh_variation state_door_close
	100042 units/payday2/props/gen_prop_crate_wood_green/001 (629.0, 561.0, 0.0)
	100043 units/payday2/props/gen_prop_crate_wood_green/002 (279.0, 561.0, 0.0)
	100044 units/payday2/props/gen_prop_crate_wood_green/003 (833.881, 317.312, 0.0)
	100045 units/payday2/props/gen_prop_crate_wood_green/004 (561.744, 859.322, 0.0)
	100046 units/payday2/props/gen_prop_crate_wood_green/005 (287.826, 814.025, 0.0)
	100047 units/payday2/props/gen_prop_crate_wood_green/006 (527.744, 218.322, 0.0)
	100048 units/payday2/props/gen_prop_crate_wood_green/007 (850.474, 467.144, 0.0)
	100049 units/payday2/props/gen_prop_crate_wood_green/008 (843.879, 767.145, 0.0)
	100054 units/payday2/props/ind_prop_military_mre_1x2m/001 (400.0, 564.0, 0.0)
	100011 units/payday2/props/stn_prop_armory_shelf_weapons/001 (760.0, 819.0, 0.0)
	100012 units/payday2/props/stn_prop_armory_shelf_weapons/002 (862.0, 579.0, 0.0)
	100024 units/payday2/props/stn_prop_armory_shelf_weapons/003 (864.0, 303.0, 0.0)
	100025 units/payday2/props/stn_prop_armory_shelf_weapons/004 (762.0, 543.0, 0.0)
	100026 units/payday2/props/stn_prop_armory_shelf_weapons/005 (1125.0, 825.0, 0.0)
	100027 units/payday2/props/stn_prop_armory_shelf_weapons/006 (1125.0, 500.0, 0.0)
	200000 units/payday2/architecture/mkp_int_floor_4x4m_a/001 (0.0, 750.0, 0.0)
	200001 units/payday2/architecture/mkp_int_floor_4x4m_a/002 (0.0, 350.0, 0.0)
	200002 units/payday2/architecture/mkp_int_floor_4x4m_a/003 (0.0, -50.0, 0.0)
	200003 units/payday2/architecture/mkp_int_floor_4x4m_a/004 (400.0, 350.0, 0.0)
	200004 units/payday2/architecture/mkp_int_floor_4x4m_a/005 (400.0, -50.0, 0.0)
	200005 units/payday2/architecture/mkp_int_floor_4x4m_a/006 (400.0, 750.0, 0.0)
	200006 units/payday2/architecture/mkp_int_floor_4x4m_a/007 (800.0, 350.0, 0.0)
	200007 units/payday2/architecture/mkp_int_floor_4x4m_a/008 (800.0, -50.0, 0.0)
	200008 units/payday2/architecture/mkp_int_floor_4x4m_a/009 (800.0, 750.0, 0.0)
	200009 units/payday2/architecture/mkp_int_wall_4m_a/001 (0.0, 0.0, 0.0)
	200010 units/payday2/architecture/mkp_int_wall_4m_a/002 (400.0, 0.0, 0.0)
	200011 units/payday2/architecture/mkp_int_wall_4m_a/003 (800.0, 0.000244141, 0.0)
	200012 units/payday2/architecture/mkp_int_wall_4m_a/004 (400.0, 1100.0, 0.0)
	200013 units/payday2/architecture/mkp_int_wall_4m_a/005 (800.0, 1100.0, 0.0)
	200014 units/payday2/architecture/mkp_int_wall_4m_a/006 (1200.0, 1100.0, 0.0)
	200015 units/test/jocke/plane_black_temp/001 (1600.0, 0.0, 900.0)
	200016 units/test/jocke/plane_black_temp/002 (2600.0, 0.0, 900.0)
	200017 units/test/jocke/plane_black_temp/003 (3600.0, 0.0, 900.0)
	200018 units/test/jocke/plane_black_temp/004 (-500.0, 550.0, 0.0)
	200019 units/test/jocke/plane_black_temp/005 (500.0, 1950.0, 0.0)
	200020 units/test/jocke/plane_black_temp/006 (1500.0, 1950.0, 0.0)
