﻿´logic_link_001´ ElementSpecialObjective 101124
	EXECUTE ON STARTUP
	BASE DELAY  (DELAY 1)
	Create nav link for None with action "e_nl_up_ladder_4m" from (400.0, 5250.0, -300.0) to (383.259, 5054.96, 100.0)
´startup´ MissionScriptElement 101302
	EXECUTE ON STARTUP
	BASE DELAY  (DELAY 1)
	Create nav link for None with action "e_nl_down_rocks_8m" from (185.356, 2364.64, 361.545) to (-106.491, 2742.98, -379.866)
	Create nav link for None with action "e_nl_down_rocks_8m" from (263.844, 2427.57, 354.545) to (-3.56522, 2788.9, -367.332)
	Create nav link for None with action "e_nl_down_rocks_8m" from (100.0, 2250.0, 367.348) to (-204.522, 2578.23, -375.6)
	Create nav link for None with action "e_nl_up_4m" from (-1125.0, 4550.0, -300.0) to (-1544.69, 4565.41, 100.0)
	Create nav link for None with action "e_nl_down_rocks_10m" from (1236.0, 4400.0, 607.78) to (769.611, 4463.14, -382.41)
	Create nav link for None with action "e_nl_down_rocks_10m" from (1300.0, 4975.0, 625.0) to (794.85, 5023.4, -385.674)
	Create nav link for None with action "e_nl_down_rocks_10m" from (1239.0, 4787.0, 604.78) to (757.436, 4810.1, -393.622)
	Create nav link for None with action "e_nl_down_rocks_6_5m" from (2409.0, 4250.0, 1517.51) to (2106.61, 4290.57, 909.202)
	Create nav link for None with action "e_nl_down_rocks_6_5m" from (2363.0, 4550.0, 1525.5) to (2037.2, 4712.19, 900.72)
	Create nav link for None with action "e_nl_down_rocks_6_5m" from (2531.0, 4000.0, 1577.28) to (2057.89, 4129.04, 909.116)
	Create nav link for None with action "e_nl_down_rocks_6_5m" from (2379.0, 4800.0, 1540.91) to (1942.94, 5044.45, 876.411)
	Create nav link for None with action "e_nl_up_4m" from (-1125.0, 4400.0, -300.0) to (-1545.13, 4345.9, 100.0)
	Create nav link for None with action "e_nl_down_4m_jump" from (-1550.0, 4350.0, 100.0) to (-1342.53, 4353.37, -300.0)
	Create nav link for None with action "e_nl_down_4m_jump" from (-1550.0, 4700.0, 100.0) to (-1303.43, 4753.9, -300.0)
	Create nav link for None with action "e_nl_down_4m_jump" from (-1550.0, 4800.0, 100.0) to (-1341.13, 4840.73, -300.0)
	Create nav link for None with action "e_nl_down_4m_jump" from (-2100.0, 4350.0, 100.0) to (-2097.52, 4211.11, -300.0)
	Create nav link for None with action "e_nl_down_4m_jump" from (-1650.0, 4350.0, 100.0) to (-1655.06, 4229.18, -300.0)
	Create nav link for None with action "e_nl_down_5m" from (-175.0, 4200.0, 100.0) to (-382.371, 4175.63, -400.0)
	Create nav link for None with action "e_nl_down_5m" from (-175.0, 4450.0, 100.0) to (-401.213, 4434.61, -400.0)
	Create nav link for None with action "e_nl_down_5m" from (-175.0, 4700.0, 100.0) to (-395.336, 4711.8, -400.0)
	Create nav link for None with action "e_nl_down_5m" from (-175.0, 4925.0, 100.0) to (-404.956, 4958.59, -400.0)
	Create nav link for None with action "e_nl_slide_fwd_4m" from (2200.0, -300.0, 0.0) to (1757.56, -251.136, 0.0)
	Create nav link for None with action "e_nl_over_3_35m" from (-400.0, 7354.0, -400.0) to (-404.956, 4958.59, -400.0)
	Create nav link for None with action "e_nl_over_3_35m" from (-600.0, 7354.0, -400.0) to (-597.746, 7217.68, -400.0)
	Create nav link for None with action "e_nl_over_3_35m" from (-800.0, 7354.0, -400.0) to (-809.146, 7206.75, -400.0)
	Create nav link for None with action "e_nl_over_3_35m" from (-1000.0, 7354.0, -400.0) to (-997.107, 7222.73, -400.0)
	Create nav link for None with action "e_nl_over_3_35m" from (-700.0, 7250.0, -400.0) to (-700.045, 7368.44, -400.0)
	Create nav link for None with action "e_nl_over_3_35m" from (-500.0, 7250.0, -400.0) to (-498.08, 7390.46, -400.0)
	Create nav link for None with action "e_nl_down_2m" from (-2275.0, 6600.0, -400.0) to (-2429.18, 6599.91, -600.0)
	Create nav link for None with action "e_nl_down_2m" from (-2271.0, 6800.0, -400.0) to (-2412.99, 6805.99, -600.0)
	Create nav link for None with action "e_nl_down_2m" from (-2271.0, 7000.0, -400.0) to (-2407.6, 7044.13, -600.0)
	Create nav link for None with action "e_nl_down_2m" from (-3450.0, 7000.0, -600.0) to (-3588.45, 7050.65, -750.0)
	Create nav link for None with action "e_nl_down_2m" from (-3450.0, 6800.0, -600.0) to (-3601.78, 6797.83, -750.0)
	Create nav link for None with action "e_nl_down_2m" from (-3450.0, 6600.0, -600.0) to (-3593.21, 6604.64, -750.0)
	Create nav link for None with action "e_nl_over_3_35m" from (-4000.0, 7350.0, -750.0) to (-4004.84, 7055.1, -750.0)
	Create nav link for None with action "e_nl_over_3_35m" from (-3800.0, 7350.0, -750.0) to (-3830.05, 7052.24, -750.0)
	Create nav link for None with action "e_nl_over_3_35m" from (-3600.0, 7350.0, -750.0) to (-3635.06, 7090.61, -750.0)
	Create nav link for None with action "e_nl_slide_fwd_4m" from (2200.0, -400.0, 7.11145) to (1613.45, -390.004, 0.0)
	Create nav link for None with action "e_nl_slide_fwd_4m" from (2200.0, -500.0, 7.11145) to (1631.55, -498.705, 0.0)
	Create nav link for None with action "e_nl_down_3m" from (-1875.0, 6175.0, -300.0) to (-2012.95, 6210.74, -597.0)
	Create nav link for None with action "e_nl_down_3m" from (-1875.0, 6102.0, -300.0) to (-2033.11, 6108.93, -576.06)
	Create nav link for None with action "e_nl_up_1m" from (-1050.0, 5700.0, -400.0) to (-1157.12, 5703.84, -300.0)
	Create nav link for None with action "e_nl_up_1m" from (-1050.0, 4750.0, -400.0) to (-1164.59, 4750.28, -300.002)
	Create nav link for None with action "e_nl_up_1m" from (-1050.0, 4850.0, -400.0) to (-1193.91, 4828.79, -300.0)
	Create nav link for None with action "e_nl_up_1m" from (-1050.0, 4500.0, -400.0) to (-1194.4, 4506.58, -300.0)
	Create nav link for None with action "e_nl_up_1m" from (-1700.0, 4050.0, -400.0) to (-1666.73, 4156.06, -300.0)
	Create nav link for None with action "e_nl_up_1m" from (-2000.0, 4050.0, -400.0) to (-2001.71, 4161.62, -300.0)
	Create nav link for None with action "e_nl_up_1m" from (-1400.0, 4050.0, -400.0) to (-1441.63, 4197.8, -300.0)
	Create nav link for None with action "e_nl_down_1m" from (-1550.0, 4150.0, -300.0) to (-1550.27, 4049.76, -400.0)
	Create nav link for None with action "e_nl_down_1m" from (-1850.0, 4150.0, -300.0) to (-1845.95, 4050.3, -400.0)
	Create nav link for None with action "e_nl_down_1m" from (-1150.0, 4650.0, -300.0) to (-1048.41, 4646.11, -400.0)
	Create nav link for None with action "e_nl_down_1m" from (-1150.0, 4950.0, -300.0) to (-1063.0, 4949.64, -400.0)
	Create nav link for None with action "e_nl_down_1m" from (-1150.0, 5550.0, -300.0) to (-1046.59, 5552.75, -400.0)
	Create nav link for None with action "e_nl_up_2_2_down_1m" from (-400.0, 4296.0, -400.0) to (-183.172, 4300.73, -300.0)
	Create nav link for None with action "e_nl_up_2_2_down_1m" from (-400.0, 4725.0, -400.0) to (-202.23, 4707.76, -300.0)
	Create nav link for None with action "e_nl_up_2_2_down_1m" from (32.0, 5425.0, -400.0) to (106.812, 5146.69, -300.0)
	Create nav link for None with action "e_nl_up_8m_dwn_0_8m_left" from (125.0, 6575.0, -400.0) to (157.572, 6752.9, 350.0)
	Create nav link for None with action "e_nl_up_1_down_8m" from (250.0, 6800.0, 384.0) to (275.539, 6568.16, -400.0)
	Create nav link for None with action "e_nl_up_1_down_3m" from (-950.0, 1347.0, -200.764) to (-1194.65, 1367.58, -400.0)
	Create nav link for None with action "e_nl_up_1m_dwn_4m" from (-975.0, 800.0, -85.3574) to (-1204.65, 809.982, -400.0)
	Hide object: units/payday2/props/str_prop_rooftop_lamp_hazard_b/helipad_flat_light001 (-3150.0, 2550.0, -400.0)
	Hide object: units/payday2/props/str_prop_rooftop_lamp_hazard_b/helipad_flat_light002 (-3150.0, 1250.0, -400.0)
	Hide object: units/payday2/props/str_prop_rooftop_lamp_hazard_b/helipad_flat_light003 (-1850.0, 1250.0, -400.0)
	Hide object: units/payday2/props/str_prop_rooftop_lamp_hazard_b/helipad_flat_light004 (-1850.0, 2550.0, -400.0)
	Hide object: units/payday2/props/str_prop_rooftop_lamp_hazard_b/helipad_rooftop_light001 (-2700.0, 5125.0, 500.812)
	Hide object: units/payday2/props/str_prop_rooftop_lamp_hazard_b/helipad_rooftop_light002 (-1500.0, 5125.0, 500.812)
	Hide object: units/payday2/props/str_prop_rooftop_lamp_hazard_b/helipad_rooftop_light003 (-1500.0, 6300.0, 500.812)
	Hide object: units/payday2/props/str_prop_rooftop_lamp_hazard_b/helipad_rooftop_light004 (-2675.0, 6300.0, 500.812)
	Hide object: units/pd2_dlc_berry/architecture/helipads/bry_helipad_01/001 (-2075.0, 5691.0, 437.021)
	Hide object: units/pd2_dlc_berry/architecture/helipads/bry_helipad_02/001 (-2522.0, 1934.0, -452.0)
	Hide object: units/pd2_dlc_berry/architecture/tunnel_railings/bry_mountain_stairs_c_base/only_base (-2500.0, 4902.0, 498.0)
	´surface_navlink_agile008´
´surface_navlink_agile008´ ElementSpecialObjective 101222
	Create nav link for None with action "e_nl_down_rocks_10m" from (1199.0, 4630.0, 602.78) to (653.933, 4629.0, -400.768)
´helipad_edge´ ElementInstanceInput 101304
	BASE DELAY  (DELAY 2)
	Upon mission event "helipad_edge":
		Create nav link for None with action "e_nl_down_4m_jump" from (-2300.0, 5150.0, 500.0) to (-2298.4, 5002.89, 100.0)
		Create nav link for None with action "e_nl_down_4m_jump" from (-2150.0, 5150.0, 500.0) to (-2108.15, 5007.55, 100.0)
		Create nav link for None with action "e_nl_down_4m_jump" from (-2000.0, 5150.0, 500.0) to (-1952.08, 5013.21, 100.0)
		Show object: units/payday2/props/str_prop_rooftop_lamp_hazard_b/helipad_edge_light001 (-4250.0, 4750.0, -750.0)
		Show object: units/payday2/props/str_prop_rooftop_lamp_hazard_b/helipad_edge_light002 (-4250.0, 6250.0, -750.0)
		Show object: units/payday2/props/str_prop_rooftop_lamp_hazard_b/helipad_edge_light003 (-5450.0, 6250.0, -750.0)
		Show object: units/payday2/props/str_prop_rooftop_lamp_hazard_b/helipad_edge_light004 (-5450.0, 4750.0, -750.0)
		Show object: units/payday2/props/str_prop_rooftop_lamp_hazard_b/helipad_edge_light005 (-6050.0, 5500.0, -750.0)
		Toggle on: ´add_min_force001´
´add_min_force001´ MissionScriptElement 101512
	DISABLED
	Reinforce task: 1 enemy at position (-5800.0, 5400.0, -750.0)
	Reinforce task: 1 enemy at position (-4000.0, 5400.0, -750.0)
´helipad_rooftop´ ElementInstanceInput 101305
	BASE DELAY  (DELAY 2)
	Upon mission event "helipad_rooftop":
		Hide object: units/pd2_dlc_berry/architecture/tunnel_railings/bry_mountain_stairs_c/not_trim (-2700.0, 5102.0, 498.0)
		Show object: units/payday2/props/str_prop_rooftop_lamp_hazard_b/helipad_rooftop_light001 (-2700.0, 5125.0, 500.812)
		Show object: units/payday2/props/str_prop_rooftop_lamp_hazard_b/helipad_rooftop_light002 (-1500.0, 5125.0, 500.812)
		Show object: units/payday2/props/str_prop_rooftop_lamp_hazard_b/helipad_rooftop_light003 (-1500.0, 6300.0, 500.812)
		Show object: units/payday2/props/str_prop_rooftop_lamp_hazard_b/helipad_rooftop_light004 (-2675.0, 6300.0, 500.812)
		Show object: units/pd2_dlc_berry/architecture/helipads/bry_helipad_01/001 (-2075.0, 5691.0, 437.021)
		Show object: units/pd2_dlc_berry/architecture/tunnel_railings/bry_mountain_stairs_c_base/only_base (-2500.0, 4902.0, 498.0)
		Create nav link for None with action "e_nl_down_4m_jump" from (-2300.0, 4950.0, 500.0) to (-2314.32, 4819.83, 100.0)
		Create nav link for None with action "e_nl_down_4m_jump" from (-2150.0, 4950.0, 500.0) to (-2142.23, 4790.52, 100.0)
		Create nav link for None with action "e_nl_down_4m_jump" from (-2000.0, 4950.0, 500.0) to (-1966.27, 4811.89, 100.0)
		Toggle on: ´add_min_force002´
´add_min_force002´ MissionScriptElement 101513
	DISABLED
	Reinforce task: 1 enemy at position (-2100.0, 5000.0, 500.0)
	Reinforce task: 1 enemy at position (-2100.0, 6400.0, 500.0)
´helipad_flat´ ElementInstanceInput 101306
	BASE DELAY  (DELAY 2)
	Upon mission event "helipad_flat":
		Show object: units/payday2/props/str_prop_rooftop_lamp_hazard_b/helipad_flat_light001 (-3150.0, 2550.0, -400.0)
		Show object: units/payday2/props/str_prop_rooftop_lamp_hazard_b/helipad_flat_light002 (-3150.0, 1250.0, -400.0)
		Show object: units/payday2/props/str_prop_rooftop_lamp_hazard_b/helipad_flat_light003 (-1850.0, 1250.0, -400.0)
		Show object: units/payday2/props/str_prop_rooftop_lamp_hazard_b/helipad_flat_light004 (-1850.0, 2550.0, -400.0)
		Show object: units/pd2_dlc_berry/architecture/helipads/bry_helipad_02/001 (-2522.0, 1934.0, -452.0)
		Create nav link for None with action "e_nl_down_4m_jump" from (-2300.0, 5150.0, 500.0) to (-2298.4, 5002.89, 100.0)
		Create nav link for None with action "e_nl_down_4m_jump" from (-2150.0, 5150.0, 500.0) to (-2108.15, 5007.55, 100.0)
		Create nav link for None with action "e_nl_down_4m_jump" from (-2000.0, 5150.0, 500.0) to (-1952.08, 5013.21, 100.0)
		Hide object: units/payday2/props/gen_prop_container_murky/001 (-2833.0, 1810.0, -400.001)
		Hide object: units/payday2/props/gen_prop_container_murky_doors/002 (-2948.0, 1515.0, -384.001)
		Hide object: units/payday2/props/gen_prop_container_murky_doors/001 (-2717.0, 2104.0, -384.001)
		Hide object: units/payday2/props/ind_ext_power_transformer/001 (-2034.57, 1889.24, -409.209)
		Hide object: units/payday2/props/ind_prop_military_ibc/014 (-2210.52, 1818.35, -401.209)
		Hide object: units/payday2/props/ind_prop_military_ibc/013 (-2199.0, 2000.0, -401.209)
		Hide object: units/payday2/props/gen_prop_crate_wood_a/002 (-2187.52, 1683.97, -401.209)
		Hide object: units/payday2/props/gen_prop_crate_wood_a/005 (-2049.8, 1598.64, -401.209)
		Toggle on: ´add_min_force003´
´add_min_force003´ MissionScriptElement 101514
	DISABLED
	Reinforce task: 1 enemy at position (-2500.0, 1150.0, -400.0)
	Reinforce task: 1 enemy at position (-3224.0, 1900.0, -400.0)
´clear_flat_outer´ ElementInstanceInput 101319
	Upon mission event "clear_flat_outer":
		Hide object: units/payday2/props/gen_prop_container_murky/001 (-2833.0, 1810.0, -400.001)
		Hide object: units/payday2/props/gen_prop_container_murky_doors/001 (-2717.0, 2104.0, -384.001)
		Hide object: units/payday2/props/gen_prop_container_murky_doors/002 (-2948.0, 1515.0, -384.001)
´clear_flat_inner´ ElementInstanceInput 101320
	Upon mission event "clear_flat_inner":
		Hide object: units/payday2/props/ind_prop_military_ibc/014 (-2210.52, 1818.35, -401.209)
		Hide object: units/payday2/props/ind_prop_military_ibc/013 (-2199.0, 2000.0, -401.209)
		Hide object: units/payday2/props/gen_prop_crate_wood_a/002 (-2187.52, 1683.97, -401.209)
		Hide object: units/payday2/props/gen_prop_crate_wood_a/005 (-2049.8, 1598.64, -401.209)
		Hide object: units/payday2/props/ind_ext_power_transformer/001 (-2034.57, 1889.24, -409.209)
´clear_building_roof_lower´ ElementInstanceInput 101323
	Upon mission event "clear_building_roof_lower":
		Hide object: units/payday2/props/str_prop_rooftop_ac_unit_a_twin/002 (-1850.0, 4550.0, 100.0)
´clear_behind_building_lower´ ElementInstanceInput 101327
	Upon mission event "clear_behind_building_lower":
		Hide object: units/pd2_dlc_berry/props/bry_prop_moutain_airducts/001 (-3257.0, 6800.0, -600.0)
		Hide object: units/pd2_dlc_berry/props/bry_prop_hallway_vent_a/002 (-3051.0, 6824.0, -597.792)
´clear_behind_building_upper´ ElementInstanceInput 101328
	Upon mission event "clear_behind_building_upper":
		Hide object: units/payday2/props/ind_ext_power_transformer/002 (-1900.0, 6800.0, -400.001)
		Hide object: units/payday2/props/ind_prop_military_ibc/017 (-1609.0, 6739.0, -400.001)
		Hide object: units/payday2/props/ind_prop_military_ibc/016 (-1607.0, 6850.0, -400.001)
´trigger_area_001´ ElementAreaTrigger 101332
	TRIGGER TIMES 1
	Box, width 800.0, height 800.0, depth 800.0, at position (1000.0, -1000.0, -150.0) with rotation (0.0, 0.0, 0.0, -1.0)
	Amount: 1
	Instigator: player
	Interval: 0.1
	Upon on_enter, execute:
		Team relation, neutral1 vs criminal1: friend (mutual)
		Send instance event "reached_surface" to mission.
		´inside_man´ (1200.0, -200.0, 0.0)
		´inside_man_so_wave´ (DELAY 0.05)
		Quit all current dialogue. Play dialogue at position (1000.0, -400.0, 115.767): Play_loc_jr1_40 (DELAY 4.05)
		Quit all current dialogue. Play dialogue at position (1050.0, -400.0, 115.767): Play_loc_jr1_41 (DELAY 9.05)
´inside_man´ ElementSpawnEnemyDummy 101333
	Spawn npc_locke (1200.0, -200.0, 0.0).
	Team: neutral1
´inside_man_so_wave´ ElementSpecialObjective 101335
	Create objective for someone from group: ´inside_man´
	Make person path towards (1000.0, -400.0, 0.0) and show "e_so_talk_greetings". Afterwards, choose new objective: ´inside_man_so_wave001´
´inside_man_so_wave001´ ElementSpecialObjective 100023
	Create objective for someone from group: ´inside_man´
	Make person path towards (1050.0, -400.0, 0.0) and show "e_so_talk_point_right".
´gather_started´ ElementInstanceInput 101339
	Upon mission event "gather_started":
		´inside_man_so_wait´
		´func_dialogue_003´
		Toggle on: ´gather_area´ (DELAY 0.05)
		´gather_waypoint´ (DELAY 0.05)
´gather_area´ ElementAreaTrigger 101344
	DISABLED
	TRIGGER TIMES 1
	Box, width 1600.0, height 500.0, depth 800.0, at position (450.0, -400.0, 0.0) with rotation (0.0, 0.0, -0.707107, -0.707107)
	Amount: all
	Instigator: player
	Interval: 0.1
	Upon on_enter, execute:
		remove ´gather_waypoint´
		Send instance event "all_gathered" to mission.
		Toggle off: ´func_dialogue_003´
		Quit all current dialogue. Play dialogue at position (300.0, -100.0, 0.0): Play_loc_jr1_43
		´inside_man_so_open_door´
		´open_door´ (DELAY 10)
´gather_waypoint´ ElementWaypoint 101342
	Place waypoint with icon "pd2_goto" at position (450.0, -400.0, 100.0)
´inside_man_so_wait´ ElementSpecialObjective 101346
	Create objective for someone from group: ´inside_man´
	Make person path towards (397.879, -90.8076, 0.0) and show "e_so_ntl_leanwall".
´func_dialogue_003´ ElementDialogue 100029
	Quit all current dialogue. Play dialogue at position (1000.0, -400.0, 100.0): Play_loc_jr1_42
´inside_man_so_open_door´ ElementSpecialObjective 101348
	Create objective for someone from group: ´inside_man´
	Make person path towards (138.0, -125.0, 0.0) and show "e_so_insert_keycard_ntl".
´open_door´ ElementSpecialObjectiveTrigger 101353
	TRIGGER TIMES 1
	Upon special objective event "complete" - ´inside_man_so_open_door´:
		Play audio "keypad_correct_code" at position (110.0, -125.0, 121.002)
		Execute sequence: "open_door" - units/pd2_dlc_berry/props/bry_prop_mountain_blastdoor/001 (19.0, -400.0, 0.0)
		Send instance event "door_is_opening" to mission.
		´inside_man_so_open_crate´ (DELAY 1)
		Quit all current dialogue. Play dialogue at position (500.0, -500.0, 15.767): Play_loc_jr1_44 (DELAY 5)
		´crate_opened´ (DELAY 11)
		Quit all current dialogue. Play dialogue at position (500.0, -600.0, 15.767): Play_loc_jr1_45 (DELAY 13)
		Debug message: Locke: Okay, I am moving out. (DELAY 30)
		Play dialogue at position (200.0, -600.0, 15.767): Play_loc_jr1_47 (DELAY 30)
		´inside_man_first_stop´ (DELAY 30)
´inside_man_so_open_crate´ ElementSpecialObjective 101366
	Create objective for someone from group: ´inside_man´
	Make person path towards (600.0, -619.0, 0.0) and show "e_so_insert_keycard_ntl". Afterwards, choose new objective: ´inside_man_so_open_crate2´
´inside_man_so_open_crate2´ ElementSpecialObjective 101382
	Create objective for someone from group: ´inside_man´
	Make person path towards (475.0, -619.0, 0.0) and show "e_so_insert_keycard_ntl".
´crate_opened´ ElementSpecialObjectiveTrigger 101367
	TRIGGER TIMES 1
	Upon special objective event "complete" - ´inside_man_so_open_crate2´:
		Execute sequence: "state_interaction_enable" - units/pd2_dlc1/pickups/gen_pku_c4_explosives/001 (560.0, -702.0, 88.0)
		Execute sequence: "int_seq_open" - units/pd2_dlc1/equipment/ind_interactable_shipping_crate_2x1x1m/001 (533.0, -705.0, 54.0)
		Execute 1:
			´point_spawn_deployable_001´
			´point_spawn_deployable_002´
			´point_spawn_deployable_003´
		´c4_waypoint´
		´inside_man_so_move_aside´ (DELAY 1)
		Quit all current dialogue. Play dialogue at position (300.0, -600.0, 15.767): Play_loc_jr1_46 (DELAY 8)
		Teammate comment: v09 (DELAY 14)
´inside_man_first_stop´ ElementSpecialObjective 101373
	Create objective for someone from group: ´inside_man´
	Make person path towards (-750.0, 500.0, -21.4122) and show "e_so_sneak_wait_crh".
´point_spawn_deployable_001´ ElementSpawnDeployable 100001
	Spawn doctor_bag at (486.0, -700.0, 84.7505).
´point_spawn_deployable_002´ ElementSpawnDeployable 100002
	Spawn ammo_bag at (486.0, -700.0, 84.7505).
´point_spawn_deployable_003´ ElementSpawnDeployable 100003
	Spawn grenade_crate at (486.0, -700.0, 87.7505).
´c4_waypoint´ ElementWaypoint 100061
	Place waypoint with icon "pd2_c4" at position (558.0, -703.0, 97.0)
´inside_man_so_move_aside´ ElementSpecialObjective 101372
	Create objective for someone from group: ´inside_man´
	Make person path towards (300.0, -600.0, 0.0) and show "e_so_sneak_wait_crh".
´close_to_helipad´ ElementInstanceInput 101377
	Upon mission event "close_to_helipad":
		´respond´
´respond´ ElementSpecialObjective 101378
	Create objective for someone from group: ´inside_man´
	Make person path towards (-3200.0, 800.0, 2902.5) and show "None".
´ready_to_run_to_heli´ ElementSpecialObjectiveTrigger 101379
	Upon special objective event "administered" - ´respond´:
		Debug message: yeah i got it
		Send instance event "run_to_helipad" to mission.
´spawn_blockade_area001´ ElementAreaTrigger 101462
	TRIGGER TIMES 1
	Box, width 1200.0, height 1200.0, depth 500.0, at position (-723.274, 15.6061, -6.10352e-05) with rotation (0.0, 0.0, -0.199368, -0.979925)
	Amount: 1
	Instigator: player
	Interval: 0.1
	Upon on_enter, execute:
		Teammate comment: v26
		´spawn_blockade´
		´dozer_hell_start´
´spawn_blockade´ ElementRandom 101463
	DISABLED
	Execute 6-10:
		´surface_blockade_000´ (-1300.0, 3250.0, -105.168)
		´surface_blockade_001´ (-1850.0, 5550.0, -300.0)
		´surface_blockade_002´ (-1800.0, 5350.0, -300.0)
		´surface_blockade_003´ (-1650.0, 5550.0, -300.0)
		´surface_blockade_004´ (-1650.0, 5300.0, -300.0)
		´surface_blockade_005´ (-3850.0, 6550.0, -750.0)
		´surface_blockade_006´ (-4100.0, 4550.0, -749.97)
		´surface_blockade_007´ (-2750.0, 6100.0, -600.0)
		´surface_blockade_008´ (-2800.0, 6350.0, -600.0)
		´surface_blockade_009´ (50.0, 5100.0, -300.001)
		´surface_blockade_010´ (300.0, 4700.0, -300.002)
		´surface_blockade_011´ (-150.0, 4600.0, -300.001)
		´surface_blockade_012´ (-150.0, 4350.0, -300.0)
		´surface_blockade_013´ (-1600.0, 6400.0, -427.865)
		´surface_blockade_014´ (-1800.0, 6400.0, -427.865)
		´surface_blockade_015´ (-2000.0, 6400.0, -427.865)
		´surface_blockade_016´ (-3458.0, 2250.0, -629.002)
		´surface_blockade_017´ (-3458.0, 2400.0, -629.002)
		´surface_blockade_018´ (-3458.0, 2550.0, -629.002)
		´surface_blockade_019´ (-2450.0, 6200.0, 500.0)
		´surface_blockade_020´ (-2300.0, 6200.0, 500.0)
´dozer_hell_start´ MissionScriptElement 100248
	DISABLED
	Debug message: Locke: Damn, they just gave the order to send in three bulldozers. Lock it down!
	Quit all current dialogue. Play dialogue: Play_loc_jr1_64
	Execute 3:
		´dozer_hell_normal001´ (700.0, 4900.0, -398.653)
		´dozer_hell_normal002´ (-600.0, 6200.0, -400.0)
		´dozer_hell_normal003´ (-3900.0, 6800.0, -751.454)
		´dozer_hell_normal004´ (-1700.0, 5700.0, -300.0)
		´dozer_hell_normal005´ (-1500.0, 3500.0, -400.001)
		´dozer_hell_normal006´ (-700.0, 9900.0, -400.002)
		´dozer_hell_normal007´ (-3800.0, 7800.0, -725.288)
´surface_blockade_000´ ElementSpawnEnemyDummy 101423
	Spawn ene_murkywater_2 (-1300.0, 3250.0, -105.168).
´surface_blockade_001´ ElementSpawnEnemyDummy 101420
	Spawn ene_murkywater_2 (-1850.0, 5550.0, -300.0).
	Make instigator path towards (-1650.0, 3300.0, -400.0) and show "AI_sniper".
´surface_blockade_002´ ElementSpawnEnemyDummy 101424
	Spawn ene_murkywater_2 (-1800.0, 5350.0, -300.0).
	Make instigator path towards (-836.0, 3051.0, -400.0) and show "None".
´surface_blockade_003´ ElementSpawnEnemyDummy 101425
	Spawn ene_murkywater_2 (-1650.0, 5550.0, -300.0).
´surface_blockade_004´ ElementSpawnEnemyDummy 101426
	Spawn ene_murkywater_2 (-1650.0, 5300.0, -300.0).
´surface_blockade_005´ ElementSpawnEnemyDummy 101431
	Spawn ene_murkywater_2 (-3850.0, 6550.0, -750.0).
	Make instigator path towards (-2950.0, 2800.0, -434.278) and show "AI_sniper".
´surface_blockade_006´ ElementSpawnEnemyDummy 101432
	Spawn ene_murkywater_2 (-4100.0, 4550.0, -749.97).
	Make instigator path towards (-2700.0, 3450.0, -400.0) and show "AI_sniper".
´surface_blockade_007´ ElementSpawnEnemyDummy 101434
	Spawn ene_murkywater_2 (-2750.0, 6100.0, -600.0).
	Make instigator path towards (-1800.0, 3650.0, -400.0) and show "None".
´surface_blockade_008´ ElementSpawnEnemyDummy 101435
	Spawn ene_murkywater_2 (-2800.0, 6350.0, -600.0).
	Make instigator path towards (-1450.0, 4200.0, -300.0) and show "None".
´surface_blockade_009´ ElementSpawnEnemyDummy 101436
	Spawn ene_murkywater_2 (50.0, 5100.0, -300.001).
	Make instigator path towards (-250.0, 3700.0, -400.0) and show "None".
´surface_blockade_010´ ElementSpawnEnemyDummy 101437
	Spawn ene_murkywater_2 (300.0, 4700.0, -300.002).
	Make instigator path towards (450.0, 3400.0, -400.0) and show "None".
´surface_blockade_011´ ElementSpawnEnemyDummy 101438
	Spawn ene_murkywater_2 (-150.0, 4600.0, -300.001).
	Make instigator path towards (-900.0, 3200.0, -400.0) and show "None".
´surface_blockade_012´ ElementSpawnEnemyDummy 101439
	Spawn ene_murkywater_2 (-150.0, 4350.0, -300.0).
	Make instigator path towards (-281.522, 2618.38, -384.0) and show "None".
´surface_blockade_013´ ElementSpawnEnemyDummy 101440
	Spawn ene_murkywater_2 (-1600.0, 6400.0, -427.865).
	Make instigator path towards (-1400.0, 4500.0, -300.0) and show "None".
´surface_blockade_014´ ElementSpawnEnemyDummy 101441
	Spawn ene_murkywater_2 (-1800.0, 6400.0, -427.865).
	Make instigator path towards (-1100.0, 3500.0, -400.0) and show "None".
´surface_blockade_015´ ElementSpawnEnemyDummy 101442
	Spawn ene_murkywater_2 (-2000.0, 6400.0, -427.865).
	Make instigator path towards (-200.0, 3900.0, -400.0) and show "None".
´surface_blockade_016´ ElementSpawnEnemyDummy 101443
	Spawn ene_murkywater_2 (-3458.0, 2250.0, -629.002).
	Make instigator path towards (-2100.0, 1000.0, -401.454) and show "None".
´surface_blockade_017´ ElementSpawnEnemyDummy 101444
	Spawn ene_murkywater_2 (-3458.0, 2400.0, -629.002).
	Make instigator path towards (-2150.0, 2550.0, -400.0) and show "None".
´surface_blockade_018´ ElementSpawnEnemyDummy 101445
	Spawn ene_murkywater_2 (-3458.0, 2550.0, -629.002).
	Make instigator path towards (-1937.87, 2762.13, -400.0) and show "None".
´surface_blockade_019´ ElementSpawnEnemyDummy 101446
	Spawn ene_murkywater_2 (-2450.0, 6200.0, 500.0).
	Make instigator path towards (-2600.0, 4500.0, 314.006) and show "AI_sniper".
´surface_blockade_020´ ElementSpawnEnemyDummy 101447
	Spawn ene_murkywater_2 (-2300.0, 6200.0, 500.0) with action e_sp_up_ledge.
	Make instigator path towards (-2050.0, 4500.0, 100.0) and show "AI_sniper".
´dozer_hell_normal001´ ElementSpawnEnemyDummy 100244
	Spawn ene_bulldozer_2 (700.0, 4900.0, -398.653).
	Make instigator path towards (-400.0, 3600.0, -400.001) and show "None". Afterwards, choose new objective: ´dozer_hunt´
´dozer_hell_normal002´ ElementSpawnEnemyDummy 100253
	Spawn ene_bulldozer_2 (-600.0, 6200.0, -400.0).
	Make instigator path towards (-800.0, 3500.0, -400.001) and show "None". Afterwards, choose new objective: ´dozer_hunt´
´dozer_hell_normal003´ ElementSpawnEnemyDummy 100256
	Spawn ene_bulldozer_2 (-3900.0, 6800.0, -751.454).
	Make instigator path towards (-2800.0, 3200.0, -400.002) and show "None". Afterwards, choose new objective: ´dozer_hunt´
´dozer_hell_normal004´ ElementSpawnEnemyDummy 100271
	Spawn ene_bulldozer_2 (-1700.0, 5700.0, -300.0).
	Make instigator path towards (-1400.0, 4200.0, -300.0) and show "None". Afterwards, choose new objective: ´dozer_hunt´
´dozer_hell_normal005´ ElementSpawnEnemyDummy 100273
	Spawn ene_bulldozer_2 (-1500.0, 3500.0, -400.001).
	Make instigator path towards (-800.0, 1500.0, -245.29) and show "None". Afterwards, choose new objective: ´dozer_hunt´
´dozer_hell_normal006´ ElementSpawnEnemyDummy 100275
	Spawn ene_bulldozer_2 (-700.0, 9900.0, -400.002).
	Make instigator path towards (-800.0, 3900.0, -400.001) and show "None". Afterwards, choose new objective: ´dozer_hunt´
´dozer_hell_normal007´ ElementSpawnEnemyDummy 100277
	Spawn ene_bulldozer_2 (-3800.0, 7800.0, -725.288).
	Make instigator path towards (-2700.0, 3400.0, -400.0) and show "None". Afterwards, choose new objective: ´dozer_hunt´
´dozer_hunt´ ElementSpecialObjective 100081
	Make instigator path towards (-1950.0, 3125.0, -400.0) and show "AI_hunt".
´spawn_perimeter´ ElementAreaTrigger 101497
	TRIGGER TIMES 1
	Box, width 1200.0, height 1200.0, depth 500.0, at position (-264.645, -306.066, -6.10352e-05) with rotation (0.0, 0.0, -0.707107, -0.707107)
	Amount: 1
	Instigator: player
	Interval: 0.1
	Upon on_enter, execute:
		´select_top_spawns´
´select_top_spawns´ ElementRandom 100237
	TRIGGER TIMES 1
	Execute 1:
		´select_perimeter´
		´sniper_ambush´
		´select_perimeter´
		´dozer_hell´
´select_perimeter´ MissionScriptElement 101498
	Toggle on: ´spawn_blockade´
	Execute 3-5:
		´surface_perimeter001´ (-1700.0, 6200.0, 500.0)
		´surface_perimeter002´ (400.0, 5050.0, 100.0)
		´surface_perimeter003´ (-800.0, 1150.0, -157.266)
		´surface_perimeter004´ (-650.0, 1000.0, -131.098)
		´surface_perimeter005´ (-1050.0, 3400.0, -400.0)
		´surface_perimeter006´ (-2050.0, 3850.0, -400.0)
		´surface_perimeter007´ (-600.0, 1650.0, -266.538)
		´surface_perimeter008´ (400.0, 3850.0, -400.0)
		´surface_perimeter009´ (-1400.0, 6500.0, -400.0)
		´surface_perimeter010´ (-2550.0, 4950.0, 100.0)
´sniper_ambush´ MissionScriptElement 100239
	Debug message: Locke: Shit, they are setting up a sniper killzone up ahead, watch out.
	Quit all current dialogue. Play dialogue: Play_loc_jr1_63
	Execute 3-5:
		´sniper_ambush001´ (600.0, 4800.0, -400.001)
		´sniper_ambush002´ (2100.0, 3450.0, 932.07)
		´sniper_ambush003´ (-1700.0, 4900.0, -300.0)
		´sniper_ambush004´ (-4150.0, 4400.0, -751.455)
		´sniper_ambush005´ (150.0, 7050.0, 376.0)
		´sniper_ambush006´ (-1700.0, 5250.0, -300.0)
		´sniper_ambush007´ (-2900.0, 9350.0, -517.586)
		´sniper_ambush008´ (-4200.0, 3300.0, -751.455)
		´surface_sniper_001´ (-1900.0, 6200.0, 500.0)
		´surface_sniper_003´ (-1700.0, 4900.0, 100.0)
´dozer_hell´ MissionScriptElement 100243
	Execute 3-5:
		´surface_perimeter001´ (-1700.0, 6200.0, 500.0)
		´surface_perimeter002´ (400.0, 5050.0, 100.0)
		´surface_perimeter003´ (-800.0, 1150.0, -157.266)
		´surface_perimeter004´ (-650.0, 1000.0, -131.098)
		´surface_perimeter005´ (-1050.0, 3400.0, -400.0)
		´surface_perimeter006´ (-2050.0, 3850.0, -400.0)
		´surface_perimeter007´ (-600.0, 1650.0, -266.538)
		´surface_perimeter008´ (400.0, 3850.0, -400.0)
		´surface_perimeter009´ (-1400.0, 6500.0, -400.0)
		´surface_perimeter010´ (-2550.0, 4950.0, 100.0)
	If Very Hard, Overkill, Mayhem, Death Wish, One Down:
		Toggle on: ´dozer_hell_start´
	If Normal, Hard:
		Toggle on: ´spawn_blockade´
		Execute 3-5:
			´surface_perimeter001´ (-1700.0, 6200.0, 500.0)
			´surface_perimeter002´ (400.0, 5050.0, 100.0)
			´surface_perimeter003´ (-800.0, 1150.0, -157.266)
			´surface_perimeter004´ (-650.0, 1000.0, -131.098)
			´surface_perimeter005´ (-1050.0, 3400.0, -400.0)
			´surface_perimeter006´ (-2050.0, 3850.0, -400.0)
			´surface_perimeter007´ (-600.0, 1650.0, -266.538)
			´surface_perimeter008´ (400.0, 3850.0, -400.0)
			´surface_perimeter009´ (-1400.0, 6500.0, -400.0)
			´surface_perimeter010´ (-2550.0, 4950.0, 100.0)
´surface_perimeter001´ ElementSpawnEnemyDummy 101464
	Spawn ene_murkywater_2 (-1700.0, 6200.0, 500.0).
	Make instigator path towards (-1550.0, 5150.0, 500.0) and show "AI_sniper".
´surface_perimeter002´ ElementSpawnEnemyDummy 101476
	Spawn ene_murkywater_2 (400.0, 5050.0, 100.0).
	Make instigator path towards (400.0, 4150.0, 100.0) and show "AI_sniper".
´surface_perimeter003´ ElementSpawnEnemyDummy 101477
	Spawn ene_murkywater_2 (-800.0, 1150.0, -157.266).
	Make instigator path towards (-950.0, 750.0, -73.6025) and show "AI_sniper".
´surface_perimeter004´ ElementSpawnEnemyDummy 101478
	Spawn ene_murkywater_2 (-650.0, 1000.0, -131.098).
	Make instigator path towards (-350.0, 600.0, -41.1315) and show "AI_sniper".
´surface_perimeter005´ ElementSpawnEnemyDummy 101479
	Spawn ene_murkywater_2 (-1050.0, 3400.0, -400.0).
	Make instigator path towards (-769.0, 3100.0, -400.0) and show "AI_sniper".
´surface_perimeter006´ ElementSpawnEnemyDummy 101480
	Spawn ene_murkywater_2 (-2050.0, 3850.0, -400.0).
	Make instigator path towards (-1800.0, 3300.0, -400.0) and show "AI_sniper".
´surface_perimeter007´ ElementSpawnEnemyDummy 101481
	Spawn ene_murkywater_2 (-600.0, 1650.0, -266.538).
	Make instigator path towards (-950.0, 300.0, -4.57764e-05) and show "None".
´surface_perimeter008´ ElementSpawnEnemyDummy 101482
	Spawn ene_murkywater_2 (400.0, 3850.0, -400.0).
	Make instigator path towards (-200.0, 3750.0, -400.0) and show "AI_sniper".
´surface_perimeter009´ ElementSpawnEnemyDummy 101483
	Spawn ene_murkywater_2 (-1400.0, 6500.0, -400.0).
	Make instigator path towards (-1400.0, 5000.0, 114.006) and show "AI_sniper".
´surface_perimeter010´ ElementSpawnEnemyDummy 101484
	Spawn ene_murkywater_2 (-2550.0, 4950.0, 100.0).
	Make instigator path towards (-2600.0, 4350.0, 100.0) and show "AI_sniper".
´sniper_ambush001´ ElementSpawnEnemyDummy 100214
	TRIGGER TIMES 1
	Spawn ene_sniper_2 (600.0, 4800.0, -400.001).
´sniper_ambush002´ ElementSpawnEnemyDummy 100215
	TRIGGER TIMES 1
	Spawn ene_sniper_2 (2100.0, 3450.0, 932.07).
´sniper_ambush003´ ElementSpawnEnemyDummy 100216
	TRIGGER TIMES 1
	Spawn ene_sniper_2 (-1700.0, 4900.0, -300.0).
	Make instigator path towards (-1800.0, 4450.0, -300.0) and show "AI_sniper".
´sniper_ambush004´ ElementSpawnEnemyDummy 100217
	TRIGGER TIMES 1
	Spawn ene_sniper_2 (-4150.0, 4400.0, -751.455).
	Make instigator path towards (-4100.0, 4050.0, -751.454) and show "AI_sniper".
´sniper_ambush005´ ElementSpawnEnemyDummy 100218
	TRIGGER TIMES 1
	Spawn ene_sniper_2 (150.0, 7050.0, 376.0).
	Make instigator path towards (159.0, 6800.0, 384.0) and show "AI_sniper".
´sniper_ambush006´ ElementSpawnEnemyDummy 100219
	TRIGGER TIMES 1
	Spawn ene_sniper_2 (-1700.0, 5250.0, -300.0).
	Make instigator path towards (-1350.0, 4950.0, -300.002) and show "AI_sniper".
´sniper_ambush007´ ElementSpawnEnemyDummy 100220
	TRIGGER TIMES 1
	Spawn ene_sniper_2 (-2900.0, 9350.0, -517.586).
	Make instigator path towards (-3400.0, 8750.0, -527.225) and show "AI_sniper".
´sniper_ambush008´ ElementSpawnEnemyDummy 100221
	TRIGGER TIMES 1
	Spawn ene_sniper_2 (-4200.0, 3300.0, -751.455).
	Make instigator path towards (-4200.0, 3350.0, -751.455) and show "AI_sniper".
´surface_sniper_001´ ElementSpawnEnemyDummy 101466
	TRIGGER TIMES 1
	Spawn ene_sniper_2 (-1900.0, 6200.0, 500.0).
	Make instigator path towards (-1800.0, 5150.0, 500.0) and show "AI_sniper".
´surface_sniper_003´ ElementSpawnEnemyDummy 101469
	TRIGGER TIMES 1
	Spawn ene_sniper_2 (-1700.0, 4900.0, 100.0).
	Make instigator path towards (-1650.0, 4400.0, 100.0) and show "AI_sniper".
´check_surface´ ElementAreaTrigger 101502
	TRIGGER TIMES 1
	Box, width 5000.0, height 500.0, depth 5000.0, at position (1150.0, -600.0, 200.0) with rotation (0.0, 0.0, 0.0, -1.0)
	Amount: all
	Instigator: player
	Interval: 1.0
	Upon on_enter, execute:
		Send instance event "all_at_surface" to mission.
		Enable spawn group: ´ai_enemy_group：ai_group_agile001（0）´
		Enable spawn group: ´ai_enemy_group：ai_group_agile002（0）´
		Enable spawn group: ´ai_enemy_group：ai_group_normal_001（0）´
		Enable spawn group: ´ai_enemy_group：ai_group_normal_003（0）´
		Add enemy loot dropoff point at: (1300.0, -400.0, 15.767)
		Add flee point at: (-684.123, 9897.2, -400.0)
		Execute 1: (DELAY 35-70)
			´top_sniper001´ (3600.0, 4900.0, 1769.66)
			´top_sniper002´ (3600.0, 5100.0, 1799.2)
			´top_sniper003´ (1500.0, -1350.0, 1167.65)
			´top_sniper004´ (-2645.0, 9358.0, -556.679)
			´top_sniper005´ (1000.0, 8900.0, 943.691)
´ai_enemy_group：ai_group_agile001（0）´ ElementSpawnEnemyGroup 101414
	Preferred spawn groups: FBI_spoocs, tac_shield_wall_ranged, tac_tazer_flanking, tac_shield_wall_charge, tac_swat_rifle_flank, tac_shield_wall, tac_bull_rush, tac_tazer_charge
	Spawn 0 enemies, chosen in order:
		´ene_swat_1´
		´ene_swat_1_2´
		´ene_swat_1_3´
		´ene_swat_1_4´
´ene_swat_1´ ElementSpawnEnemyDummy 101408
	Spawn ene_swat_1 (1500.0, -1450.0, 1180.04).
´ene_swat_1_2´ ElementSpawnEnemyDummy 101407
	Spawn ene_swat_1 (1600.0, -1450.0, 1180.04).
´ene_swat_1_3´ ElementSpawnEnemyDummy 101406
	Spawn ene_swat_1 (1600.0, -1550.0, 1180.04).
´ene_swat_1_4´ ElementSpawnEnemyDummy 101405
	Spawn ene_swat_1 (1750.0, -1550.0, 1180.04).
´ai_enemy_group：ai_group_agile002（0）´ ElementSpawnEnemyGroup 101415
	Preferred spawn groups: FBI_spoocs, tac_shield_wall_ranged, tac_tazer_flanking, tac_shield_wall_charge, tac_swat_rifle_flank, tac_shield_wall, tac_bull_rush, tac_tazer_charge
	Spawn 0 enemies, chosen in order:
		´ene_swat_1_5´
		´ene_swat_1_6´
		´ene_swat_1_7´
		´ene_swat_1_8´
´ene_swat_1_5´ ElementSpawnEnemyDummy 101396
	Spawn ene_swat_1 (3557.0, 4961.0, 1787.16).
´ene_swat_1_6´ ElementSpawnEnemyDummy 101395
	Spawn ene_swat_1 (3575.0, 4952.0, 1774.35).
´ene_swat_1_7´ ElementSpawnEnemyDummy 101394
	Spawn ene_swat_1 (3575.0, 5152.0, 1791.78).
´ene_swat_1_8´ ElementSpawnEnemyDummy 101397
	Spawn ene_swat_1 (3557.0, 5161.0, 1799.59).
´ai_enemy_group：ai_group_normal_001（0）´ ElementSpawnEnemyGroup 101413
	Preferred spawn groups: FBI_spoocs, tac_shield_wall_ranged, tac_tazer_flanking, tac_swat_rifle_flank, tac_shield_wall_charge, tac_shield_wall, tac_bull_rush, tac_tazer_charge
	Spawn 0 enemies, chosen in order:
		´ene_swat_1_9´
		´ene_swat_1_10´
		´ene_swat_1_11´
		´ene_swat_1_12´
´ene_swat_1_9´ ElementSpawnEnemyDummy 101404
	Spawn ene_swat_1 (-710.989, 9803.7, -400.0).
´ene_swat_1_10´ ElementSpawnEnemyDummy 101403
	Spawn ene_swat_1 (-773.992, 9835.8, -400.0).
´ene_swat_1_11´ ElementSpawnEnemyDummy 101402
	Spawn ene_swat_1 (-836.996, 9867.9, -400.0).
´ene_swat_1_12´ ElementSpawnEnemyDummy 101401
	Spawn ene_swat_1 (-900.0, 9900.0, -400.0).
´ai_enemy_group：ai_group_normal_003（0）´ ElementSpawnEnemyGroup 101504
	Preferred spawn groups: FBI_spoocs, tac_shield_wall_ranged, tac_tazer_flanking, tac_shield_wall_charge, tac_swat_rifle_flank, tac_shield_wall, tac_bull_rush, tac_tazer_charge
	Spawn 0 enemies, chosen in order:
		´ene_swat_1_13´
		´ene_swat_1_14´
		´ene_swat_1_15´
		´ene_swat_1_16´
´ene_swat_1_13´ ElementSpawnEnemyDummy 101505
	Spawn ene_swat_1 (-2630.0, 9374.0, -537.99).
´ene_swat_1_14´ ElementSpawnEnemyDummy 101506
	Spawn ene_swat_1 (-2545.0, 9358.0, -553.926).
´ene_swat_1_15´ ElementSpawnEnemyDummy 101508
	Spawn ene_swat_1 (-2445.0, 9358.0, -544.864).
´ene_swat_1_16´ ElementSpawnEnemyDummy 101507
	Spawn ene_swat_1 (-2345.0, 9358.0, -523.589).
´top_sniper001´ ElementSpawnEnemyDummy 100000
	Spawn ene_sniper_2 (3600.0, 4900.0, 1769.66).
	Make instigator path towards (2600.0, 3900.0, 1586.24) and show "AI_sniper".
´top_sniper002´ ElementSpawnEnemyDummy 100011
	Spawn ene_sniper_2 (3600.0, 5100.0, 1799.2).
	Make instigator path towards (2500.0, 5400.0, 1735.68) and show "AI_sniper".
´top_sniper003´ ElementSpawnEnemyDummy 100013
	Spawn ene_sniper_2 (1500.0, -1350.0, 1167.65).
	Make instigator path towards (200.0, 1400.0, 587.569) and show "AI_sniper".
´top_sniper004´ ElementSpawnEnemyDummy 100014
	Spawn ene_sniper_2 (-2645.0, 9358.0, -556.679).
	Make instigator path towards (-3700.0, 8800.0, -584.605) and show "AI_sniper".
´top_sniper005´ ElementSpawnEnemyDummy 100015
	Spawn ene_sniper_2 (1000.0, 8900.0, 943.691) with action e_sp_dizzy_get_up.
	Make instigator path towards (400.0, 8000.0, 959.175) and show "AI_sniper".
´final_stand´ ElementInstanceInput 101511
	Upon mission event "final_stand":
		´add_min_force001´
		´add_min_force002´
		´add_min_force003´
´add_rear_flank´ ElementInstanceInput 101524
	Upon mission event "add_rear_flank":
		Enable spawn group: ´ai_enemy_group：ai_group_normal_002（0）´
´ai_enemy_group：ai_group_normal_002（0）´ ElementSpawnEnemyGroup 101418
	Preferred spawn groups: FBI_spoocs, tac_shield_wall_ranged, tac_tazer_flanking, tac_shield_wall_charge, tac_swat_rifle_flank, tac_shield_wall, tac_tazer_charge, tac_bull_rush
	Spawn 0 enemies, chosen in order:
		´ene_swat_1_17´
		´ene_swat_1_18´
		´ene_swat_1_19´
		´ene_swat_1_20´
´ene_swat_1_17´ ElementSpawnEnemyDummy 101392
	Spawn ene_swat_1 (2700.0, -1050.0, 7.11145).
´ene_swat_1_18´ ElementSpawnEnemyDummy 101391
	Spawn ene_swat_1 (2700.0, -1150.0, 7.11145).
´ene_swat_1_19´ ElementSpawnEnemyDummy 101390
	Spawn ene_swat_1 (2700.0, -1250.0, 7.11145).
´ene_swat_1_20´ ElementSpawnEnemyDummy 101393
	Spawn ene_swat_1 (2800.0, -1150.0, 7.11145).
´ai_enemy_trigger_001´ ElementEnemyDummyTrigger 100021
	Upon any event:
		death: ´top_sniper001´
		death: ´top_sniper002´
		death: ´top_sniper003´
		death: ´top_sniper004´
		death: ´top_sniper005´
	Execute:
		Execute 1: (DELAY 35-55)
			´top_sniper001´ (3600.0, 4900.0, 1769.66)
			´top_sniper002´ (3600.0, 5100.0, 1799.2)
			´top_sniper003´ (1500.0, -1350.0, 1167.65)
			´top_sniper004´ (-2645.0, 9358.0, -556.679)
			´top_sniper005´ (1000.0, 8900.0, 943.691)
´remove_c4_waypoint´ ElementInstanceInput 100062
	Upon mission event "remove_c4_waypoint":
		Execute sequence: "state_interaction_disable" - units/pd2_dlc1/pickups/gen_pku_c4_explosives/001 (560.0, -702.0, 88.0)
		remove ´c4_waypoint´
´trigger_special_objective_001´ ElementSpecialObjectiveTrigger 100095
	BASE DELAY  (DELAY 5)
	Upon special objective event "anim_start" - ´inside_man_first_stop´:
		Quit all current dialogue. Play dialogue at position (-700.0, 500.0, 72.229): Play_loc_jr1_62
