ID range vs continent name:
	100000: world

statics
	100064 units/payday2/architecture/mkp_ext_wall_4m_a/001 (0.00378418, -5200.0, 900.0)
	100065 units/payday2/architecture/mkp_ext_wall_4m_a/002 (0.00366211, -5200.0, 600.0)
	100066 units/payday2/architecture/mkp_ext_wall_4m_a/003 (0.00366211, -5200.0, 0.0)
	100067 units/payday2/architecture/mkp_ext_wall_4m_a/004 (0.00378418, -5200.0, 300.0)
	100072 units/payday2/architecture/mkp_ext_wall_4m_a/005 (-0.000610352, 0.000488281, 0.0)
	100073 units/payday2/architecture/mkp_ext_wall_4m_a/006 (-0.000488281, 0.000488281, 300.0)
	100074 units/payday2/architecture/mkp_ext_wall_4m_a/007 (-0.000610352, 0.000488281, 600.0)
	100075 units/payday2/architecture/mkp_ext_wall_4m_a/008 (-0.000488281, 0.000488281, 900.0)
	100192 units/payday2/architecture/mkp_ext_wall_4m_a/009 (-2800.0, -0.000976563, 0.0)
	100052 units/payday2/architecture/mkp_ext_wall_4m_c/001 (-3200.0, -0.0012207, 0.0)
	100000 units/payday2/architecture/mkp_ext_wall_8m_a/001 (-4000.0, -3200.0, 0.0)
	100001 units/payday2/architecture/mkp_ext_wall_8m_a/002 (-4000.0, -4000.0, 0.0)
	100002 units/payday2/architecture/mkp_ext_wall_8m_a/003 (-4000.0, -4800.0, 0.0)
	100003 units/payday2/architecture/mkp_ext_wall_8m_a/004 (-4000.0, -5600.0, 0.0)
	100004 units/payday2/architecture/mkp_ext_wall_8m_a/005 (-4000.0, -2400.0, 0.0)
	100005 units/payday2/architecture/mkp_ext_wall_8m_a/006 (-4000.0, -1600.0, 0.0)
	100006 units/payday2/architecture/mkp_ext_wall_8m_a/007 (-4000.0, -800.002, 0.0)
	100007 units/payday2/architecture/mkp_ext_wall_8m_a/008 (-4000.0, -5600.0, 300.0)
	100008 units/payday2/architecture/mkp_ext_wall_8m_a/009 (-4000.0, -4800.0, 300.0)
	100009 units/payday2/architecture/mkp_ext_wall_8m_a/010 (-4000.0, -4000.0, 300.0)
	100010 units/payday2/architecture/mkp_ext_wall_8m_a/011 (-4000.0, -3200.0, 300.0)
	100011 units/payday2/architecture/mkp_ext_wall_8m_a/012 (-4000.0, -2400.0, 300.0)
	100012 units/payday2/architecture/mkp_ext_wall_8m_a/013 (-4000.0, -1600.0, 300.0)
	100013 units/payday2/architecture/mkp_ext_wall_8m_a/014 (-4000.0, -800.002, 300.0)
	100014 units/payday2/architecture/mkp_ext_wall_8m_a/015 (-4000.0, -5600.0, 600.0)
	100015 units/payday2/architecture/mkp_ext_wall_8m_a/016 (-4000.0, -4800.0, 600.0)
	100016 units/payday2/architecture/mkp_ext_wall_8m_a/017 (-4000.0, -4000.0, 600.0)
	100017 units/payday2/architecture/mkp_ext_wall_8m_a/018 (-4000.0, -3200.0, 600.0)
	100018 units/payday2/architecture/mkp_ext_wall_8m_a/019 (-4000.0, -2400.0, 600.0)
	100019 units/payday2/architecture/mkp_ext_wall_8m_a/020 (-4000.0, -1600.0, 600.0)
	100020 units/payday2/architecture/mkp_ext_wall_8m_a/021 (-4000.0, -800.002, 600.0)
	100021 units/payday2/architecture/mkp_ext_wall_8m_a/022 (-4000.0, -5600.0, 900.0)
	100022 units/payday2/architecture/mkp_ext_wall_8m_a/023 (-4000.0, -4800.0, 900.0)
	100023 units/payday2/architecture/mkp_ext_wall_8m_a/024 (-4000.0, -4000.0, 900.0)
	100024 units/payday2/architecture/mkp_ext_wall_8m_a/025 (-4000.0, -3200.0, 900.0)
	100025 units/payday2/architecture/mkp_ext_wall_8m_a/026 (-4000.0, -2400.0, 900.0)
	100026 units/payday2/architecture/mkp_ext_wall_8m_a/027 (-4000.0, -1600.0, 900.0)
	100027 units/payday2/architecture/mkp_ext_wall_8m_a/028 (-4000.0, -800.002, 900.0)
	100028 units/payday2/architecture/mkp_ext_wall_8m_a/029 (-3200.0, -5600.0, 0.0)
	100029 units/payday2/architecture/mkp_ext_wall_8m_a/030 (-3200.0, -5600.0, 300.0)
	100030 units/payday2/architecture/mkp_ext_wall_8m_a/031 (-3200.0, -5600.0, 600.0)
	100031 units/payday2/architecture/mkp_ext_wall_8m_a/032 (-3200.0, -5600.0, 900.0)
	100032 units/payday2/architecture/mkp_ext_wall_8m_a/033 (-2400.0, -5600.0, 0.0)
	100033 units/payday2/architecture/mkp_ext_wall_8m_a/034 (-2400.0, -5600.0, 300.0)
	100034 units/payday2/architecture/mkp_ext_wall_8m_a/035 (-2400.0, -5600.0, 600.0)
	100035 units/payday2/architecture/mkp_ext_wall_8m_a/036 (-2400.0, -5600.0, 900.0)
	100036 units/payday2/architecture/mkp_ext_wall_8m_a/037 (-1600.0, -5600.0, 0.0)
	100037 units/payday2/architecture/mkp_ext_wall_8m_a/038 (-1600.0, -5600.0, 300.0)
	100038 units/payday2/architecture/mkp_ext_wall_8m_a/039 (-1600.0, -5600.0, 600.0)
	100039 units/payday2/architecture/mkp_ext_wall_8m_a/040 (-1600.0, -5600.0, 900.0)
	100040 units/payday2/architecture/mkp_ext_wall_8m_a/041 (-799.996, -5600.0, 0.0)
	100041 units/payday2/architecture/mkp_ext_wall_8m_a/042 (-799.996, -5600.0, 300.0)
	100042 units/payday2/architecture/mkp_ext_wall_8m_a/043 (-799.996, -5600.0, 600.0)
	100043 units/payday2/architecture/mkp_ext_wall_8m_a/044 (-799.996, -5600.0, 900.0)
	100044 units/payday2/architecture/mkp_ext_wall_8m_a/045 (0.00415039, -5600.0, 0.0)
	100045 units/payday2/architecture/mkp_ext_wall_8m_a/046 (0.00415039, -5600.0, 300.0)
	100046 units/payday2/architecture/mkp_ext_wall_8m_a/047 (0.00415039, -5600.0, 600.0)
	100047 units/payday2/architecture/mkp_ext_wall_8m_a/048 (0.00415039, -5600.0, 900.0)
	100048 units/payday2/architecture/mkp_ext_wall_8m_a/049 (-4000.0, -0.00341797, 0.0)
	100049 units/payday2/architecture/mkp_ext_wall_8m_a/050 (-4000.0, -0.00341797, 300.0)
	100050 units/payday2/architecture/mkp_ext_wall_8m_a/051 (-4000.0, -0.00341797, 600.0)
	100051 units/payday2/architecture/mkp_ext_wall_8m_a/052 (-4000.0, -0.00341797, 900.0)
	100053 units/payday2/architecture/mkp_ext_wall_8m_a/054 (-3200.0, -0.00244141, 300.0)
	100054 units/payday2/architecture/mkp_ext_wall_8m_a/055 (-3200.0, -0.00244141, 600.0)
	100055 units/payday2/architecture/mkp_ext_wall_8m_a/056 (-3200.0, -0.00244141, 900.0)
	100056 units/payday2/architecture/mkp_ext_wall_8m_a/057 (-1600.0, -0.000488281, 900.0)
	100057 units/payday2/architecture/mkp_ext_wall_8m_a/058 (-1600.0, -0.000488281, 600.0)
	100058 units/payday2/architecture/mkp_ext_wall_8m_a/059 (-1600.0, -0.000488281, 300.0)
	100059 units/payday2/architecture/mkp_ext_wall_8m_a/060 (-1600.0, -0.000488281, 0.0)
	100060 units/payday2/architecture/mkp_ext_wall_8m_a/061 (-2400.0, -0.00146484, 900.0)
	100061 units/payday2/architecture/mkp_ext_wall_8m_a/062 (-2400.0, -0.00146484, 600.0)
	100062 units/payday2/architecture/mkp_ext_wall_8m_a/063 (-2400.0, -0.00146484, 300.0)
	100063 units/payday2/architecture/mkp_ext_wall_8m_a/064 (-2400.0, -0.00146484, 0.0)
	100076 units/payday2/architecture/mkp_ext_wall_8m_a/065 (-4000.0, -5542.76, 905.512)
	100077 units/payday2/architecture/mkp_ext_wall_8m_a/066 (-4000.0, -4757.46, 1058.16)
	100078 units/payday2/architecture/mkp_ext_wall_8m_a/067 (-4000.0, -3972.16, 1210.81)
	100082 units/payday2/architecture/mkp_ext_wall_8m_a/068 (-3950.0, -57.2451, 905.512)
	100068 units/payday2/architecture/mkp_ext_wall_8m_a/069 (-800.0, 0.000488281, 900.0)
	100069 units/payday2/architecture/mkp_ext_wall_8m_a/070 (-800.0, 0.000488281, 600.0)
	100070 units/payday2/architecture/mkp_ext_wall_8m_a/071 (-800.0, 0.000488281, 300.0)
	100071 units/payday2/architecture/mkp_ext_wall_8m_a/072 (-800.0, 0.000488281, 0.0)
	100080 units/payday2/architecture/mkp_ext_wall_8m_a/073 (-4000.0, -3424.1, 1011.72)
	100081 units/payday2/architecture/mkp_ext_wall_8m_a/074 (-4000.0, -3914.91, 916.318)
	100079 units/payday2/architecture/mkp_ext_wall_8m_a/075 (-4000.0, -3481.34, 1306.21)
	100083 units/payday2/architecture/mkp_ext_wall_8m_a/076 (-3950.0, -842.547, 1058.16)
	100084 units/payday2/architecture/mkp_ext_wall_8m_a/077 (-3950.0, -1627.85, 1210.81)
	100085 units/payday2/architecture/mkp_ext_wall_8m_a/078 (-3950.0, -2118.66, 1306.21)
	100086 units/payday2/architecture/mkp_ext_wall_8m_a/079 (-3950.0, -1685.09, 916.318)
	100087 units/payday2/architecture/mkp_ext_wall_8m_a/080 (-3950.0, -2175.91, 1011.72)
	100088 units/payday2/architecture/mkp_ext_wall_8m_a/081 (0.00219727, -1627.85, 1210.81)
	100090 units/payday2/architecture/mkp_ext_wall_8m_a/083 (0.00219727, -2118.66, 1306.21)
	100093 units/payday2/architecture/mkp_ext_wall_8m_a/086 (-49.9968, -3481.34, 1306.21)
	100094 units/payday2/architecture/mkp_ext_wall_8m_a/087 (-49.9961, -3972.15, 1210.81)
	100096 units/payday2/architecture/mkp_ext_wall_8m_a/089 (-49.9958, -4757.45, 1058.16)
	100097 units/payday2/architecture/mkp_ext_wall_8m_a/090 (-49.9956, -5542.76, 905.512)
	100098 units/payday2/architecture/mkp_ext_wall_8m_a/091 (0.00170898, -842.543, 1058.16)
	100099 units/payday2/architecture/mkp_ext_wall_8m_a/092 (0.000976563, -57.2417, 905.512)
	100089 units/payday2/architecture/mkp_ext_wall_8m_a/093 (-49.9976, -5200.0, 1000.0)
	100091 units/payday2/architecture/mkp_ext_wall_8m_a/094 (-49.998, -4400.0, 1000.0)
	100092 units/payday2/architecture/mkp_ext_wall_8m_a/095 (-49.9989, -2800.0, 1000.0)
	100095 units/payday2/architecture/mkp_ext_wall_8m_a/096 (-49.9984, -3600.0, 1000.0)
	100100 units/payday2/architecture/mkp_ext_wall_8m_a/097 (-49.9998, -1200.0, 1000.0)
	100101 units/payday2/architecture/mkp_ext_wall_8m_a/098 (-49.9993, -2000.0, 1000.0)
	100102 units/payday2/architecture/mkp_ext_wall_8m_a/099 (-49.9984, -3600.0, 1200.0)
	100103 units/payday2/architecture/mkp_ext_wall_8m_a/100 (-49.9989, -2800.0, 1200.0)
	100144 units/payday2/architecture/mkp_int_wall_4m_a/001 (-35.9976, -800.001, 0.0)
	100145 units/payday2/architecture/mkp_int_wall_4m_a/002 (-35.9976, -800.001, 300.0)
	100146 units/payday2/architecture/mkp_int_wall_4m_a/003 (-35.9976, -800.001, 600.0)
	100147 units/payday2/architecture/mkp_int_wall_4m_a/004 (-35.9976, -800.001, 900.0)
	100148 units/payday2/architecture/mkp_int_wall_4m_a/005 (-35.9976, -1200.0, 900.0)
	100149 units/payday2/architecture/mkp_int_wall_4m_a/006 (-35.9976, -1200.0, 600.0)
	100150 units/payday2/architecture/mkp_int_wall_4m_a/007 (-35.9976, -1200.0, 300.0)
	100151 units/payday2/architecture/mkp_int_wall_4m_a/008 (-35.9976, -1200.0, 0.0)
	100152 units/payday2/architecture/mkp_int_wall_4m_a/009 (-35.9976, -1600.0, 900.0)
	100153 units/payday2/architecture/mkp_int_wall_4m_a/010 (-35.9976, -1600.0, 600.0)
	100154 units/payday2/architecture/mkp_int_wall_4m_a/011 (-35.9976, -1600.0, 300.0)
	100155 units/payday2/architecture/mkp_int_wall_4m_a/012 (-35.9976, -1600.0, 0.0)
	100156 units/payday2/architecture/mkp_int_wall_4m_a/013 (-35.9976, -2000.0, 900.0)
	100157 units/payday2/architecture/mkp_int_wall_4m_a/014 (-35.9976, -2000.0, 600.0)
	100158 units/payday2/architecture/mkp_int_wall_4m_a/015 (-35.9976, -2000.0, 300.0)
	100159 units/payday2/architecture/mkp_int_wall_4m_a/016 (-35.9976, -2000.0, 0.0)
	100160 units/payday2/architecture/mkp_int_wall_4m_a/017 (-35.9976, -2800.0, 900.0)
	100161 units/payday2/architecture/mkp_int_wall_4m_a/018 (-35.9976, -2800.0, 600.0)
	100162 units/payday2/architecture/mkp_int_wall_4m_a/019 (-35.9976, -2800.0, 300.0)
	100163 units/payday2/architecture/mkp_int_wall_4m_a/020 (-35.9976, -2800.0, 0.0)
	100164 units/payday2/architecture/mkp_int_wall_4m_a/021 (-35.9976, -2400.0, 0.0)
	100165 units/payday2/architecture/mkp_int_wall_4m_a/022 (-35.9976, -2400.0, 300.0)
	100166 units/payday2/architecture/mkp_int_wall_4m_a/023 (-35.9976, -2400.0, 600.0)
	100167 units/payday2/architecture/mkp_int_wall_4m_a/024 (-35.9976, -2400.0, 900.0)
	100168 units/payday2/architecture/mkp_int_wall_4m_a/025 (-35.9976, -3600.0, 900.0)
	100169 units/payday2/architecture/mkp_int_wall_4m_a/026 (-35.9976, -3600.0, 600.0)
	100170 units/payday2/architecture/mkp_int_wall_4m_a/027 (-35.9976, -3600.0, 300.0)
	100171 units/payday2/architecture/mkp_int_wall_4m_a/028 (-35.9976, -3600.0, 0.0)
	100172 units/payday2/architecture/mkp_int_wall_4m_a/029 (-35.9976, -3200.0, 0.0)
	100173 units/payday2/architecture/mkp_int_wall_4m_a/030 (-35.9976, -3200.0, 300.0)
	100174 units/payday2/architecture/mkp_int_wall_4m_a/031 (-35.9976, -3200.0, 600.0)
	100175 units/payday2/architecture/mkp_int_wall_4m_a/032 (-35.9976, -3200.0, 900.0)
	100176 units/payday2/architecture/mkp_int_wall_4m_a/033 (-35.9976, -4400.0, 900.0)
	100177 units/payday2/architecture/mkp_int_wall_4m_a/034 (-35.9976, -4400.0, 600.0)
	100178 units/payday2/architecture/mkp_int_wall_4m_a/035 (-35.9976, -4400.0, 300.0)
	100179 units/payday2/architecture/mkp_int_wall_4m_a/036 (-35.9976, -4400.0, 0.0)
	100180 units/payday2/architecture/mkp_int_wall_4m_a/037 (-35.9976, -4000.0, 0.0)
	100181 units/payday2/architecture/mkp_int_wall_4m_a/038 (-35.9976, -4000.0, 300.0)
	100182 units/payday2/architecture/mkp_int_wall_4m_a/039 (-35.9976, -4000.0, 600.0)
	100183 units/payday2/architecture/mkp_int_wall_4m_a/040 (-35.9976, -4000.0, 900.0)
	100184 units/payday2/architecture/mkp_int_wall_4m_a/041 (-35.9976, -5200.0, 900.0)
	100185 units/payday2/architecture/mkp_int_wall_4m_a/042 (-35.9976, -5200.0, 600.0)
	100186 units/payday2/architecture/mkp_int_wall_4m_a/043 (-35.9976, -5200.0, 300.0)
	100187 units/payday2/architecture/mkp_int_wall_4m_a/044 (-35.9976, -5200.0, 0.0)
	100188 units/payday2/architecture/mkp_int_wall_4m_a/045 (-35.9976, -4800.0, 0.0)
	100189 units/payday2/architecture/mkp_int_wall_4m_a/046 (-35.9976, -4800.0, 300.0)
	100190 units/payday2/architecture/mkp_int_wall_4m_a/047 (-35.9976, -4800.0, 600.0)
	100191 units/payday2/architecture/mkp_int_wall_4m_a/048 (-35.9976, -4800.0, 900.0)
	100104 units/payday2/architecture/str_ext_concrete_ground_8x8m_a/001 (0.00439453, -5600.0, 1200.0)
	100105 units/payday2/architecture/str_ext_concrete_ground_8x8m_a/002 (-799.995, -5600.0, 1200.0)
	100106 units/payday2/architecture/str_ext_concrete_ground_8x8m_a/003 (-2399.99, -5600.0, 1200.0)
	100107 units/payday2/architecture/str_ext_concrete_ground_8x8m_a/004 (-1600.0, -5600.0, 1200.0)
	100108 units/payday2/architecture/str_ext_concrete_ground_8x8m_a/005 (-3199.99, -5600.0, 1200.0)
	100109 units/payday2/architecture/str_ext_concrete_ground_8x8m_a/006 (-3200.0, -4814.7, 1352.65)
	100110 units/payday2/architecture/str_ext_concrete_ground_8x8m_a/007 (-2400.0, -4814.7, 1352.65)
	100111 units/payday2/architecture/str_ext_concrete_ground_8x8m_a/008 (-1600.0, -4814.7, 1352.65)
	100112 units/payday2/architecture/str_ext_concrete_ground_8x8m_a/009 (-799.995, -4814.7, 1352.65)
	100113 units/payday2/architecture/str_ext_concrete_ground_8x8m_a/010 (0.00402832, -4814.7, 1352.65)
	100114 units/payday2/architecture/str_ext_concrete_ground_8x8m_a/011 (-3200.0, -4029.4, 1505.29)
	100115 units/payday2/architecture/str_ext_concrete_ground_8x8m_a/012 (-2400.0, -4029.4, 1505.29)
	100116 units/payday2/architecture/str_ext_concrete_ground_8x8m_a/013 (-1600.0, -4029.4, 1505.29)
	100117 units/payday2/architecture/str_ext_concrete_ground_8x8m_a/014 (-799.995, -4029.4, 1505.29)
	100118 units/payday2/architecture/str_ext_concrete_ground_8x8m_a/015 (0.00354004, -4029.4, 1505.29)
	100119 units/payday2/architecture/str_ext_concrete_ground_8x8m_a/016 (-3199.99, -3538.58, 1600.7)
	100120 units/payday2/architecture/str_ext_concrete_ground_8x8m_a/017 (-2400.0, -3538.58, 1600.7)
	100121 units/payday2/architecture/str_ext_concrete_ground_8x8m_a/018 (-1600.0, -3538.58, 1600.7)
	100122 units/payday2/architecture/str_ext_concrete_ground_8x8m_a/019 (-799.996, -3538.58, 1600.7)
	100123 units/payday2/architecture/str_ext_concrete_ground_8x8m_a/020 (0.00317383, -3538.58, 1600.7)
	100124 units/payday2/architecture/str_ext_concrete_ground_8x8m_a/021 (-799.999, 0.000244141, 1200.0)
	100125 units/payday2/architecture/str_ext_concrete_ground_8x8m_a/022 (-1600.0, -0.000244141, 1200.0)
	100126 units/payday2/architecture/str_ext_concrete_ground_8x8m_a/023 (-2400.0, -0.000244141, 1200.0)
	100127 units/payday2/architecture/str_ext_concrete_ground_8x8m_a/024 (-3200.0, -0.0012207, 1200.0)
	100128 units/payday2/architecture/str_ext_concrete_ground_8x8m_a/025 (-4000.0, -0.00195313, 1200.0)
	100129 units/payday2/architecture/str_ext_concrete_ground_8x8m_a/026 (-799.999, -785.302, 1352.65)
	100130 units/payday2/architecture/str_ext_concrete_ground_8x8m_a/027 (-1600.0, -785.302, 1352.65)
	100131 units/payday2/architecture/str_ext_concrete_ground_8x8m_a/028 (-2400.0, -785.302, 1352.65)
	100132 units/payday2/architecture/str_ext_concrete_ground_8x8m_a/029 (-3200.0, -785.303, 1352.65)
	100133 units/payday2/architecture/str_ext_concrete_ground_8x8m_a/030 (-4000.0, -785.304, 1352.65)
	100134 units/payday2/architecture/str_ext_concrete_ground_8x8m_a/031 (-799.998, -1570.6, 1505.29)
	100135 units/payday2/architecture/str_ext_concrete_ground_8x8m_a/032 (-1600.0, -1570.6, 1505.29)
	100136 units/payday2/architecture/str_ext_concrete_ground_8x8m_a/033 (-2400.0, -1570.6, 1505.29)
	100137 units/payday2/architecture/str_ext_concrete_ground_8x8m_a/034 (-3200.0, -1570.6, 1505.29)
	100138 units/payday2/architecture/str_ext_concrete_ground_8x8m_a/035 (-4000.0, -1570.61, 1505.29)
	100139 units/payday2/architecture/str_ext_concrete_ground_8x8m_a/036 (-799.997, -2012.34, 1591.16)
	100140 units/payday2/architecture/str_ext_concrete_ground_8x8m_a/037 (-1600.0, -2012.34, 1591.16)
	100141 units/payday2/architecture/str_ext_concrete_ground_8x8m_a/038 (-2400.0, -2012.34, 1591.16)
	100142 units/payday2/architecture/str_ext_concrete_ground_8x8m_a/039 (-3200.0, -2012.34, 1591.16)
	100143 units/payday2/architecture/str_ext_concrete_ground_8x8m_a/040 (-4000.0, -2012.34, 1591.16)
	100193 units/payday2/equipment/gen_interactable_door_reinforced_lab/002 (-2996.0, -0.000976563, 0.0)
		mesh_variation state_door_open
