ID range vs continent name:
	100000: world

statics
	100000 units/pd2_dlc_fish/lxy_prop_auction_tag/001 (-20.0, -11.0, 75.0)
	100044 units/pd2_dlc_fish/lxy_prop_auction_tag/002 (1.0, -11.0, 75.0)
	100046 units/pd2_dlc_fish/lxy_prop_auction_tag/003 (16.0, -11.0, 75.0)
	100027 units/pd2_dlc_fish/lxy_prop_desk_01/001 (0.0, 0.0, 0.0)
	100051 units/pd2_dlc_lxy/pickups/lxy_pku_money_drawer/001 (-3.05176e-05, 0.0, 0.0)
