﻿´startup´ MissionScriptElement 100932
	EXECUTE ON STARTUP
	Set diff to 0.5.
	Execute 1:
		´1´
		´2´
	Execute 1:
		´1_2´
		´2_2´
	´func_spawn_gage_assignment_001´
	Hide object: units/payday2/props/gen_prop_square_goal_marker_8x15/001 (860.0, -1527.0, 406.0) (DELAY 0.1)
	Hide object: units/payday2/props/gen_prop_square_goal_marker_8x15/002 (-2515.0, -2346.0, 802.0) (DELAY 0.1)
	Hide object: units/payday2/vehicles/str_vehicle_van_dest_crashed/002 (3020.0, 1138.0, -21.9997) (DELAY 0.1)
	Hide object: units/payday2/vehicles/str_vehicle_van_dest_crashed/001 (1768.0, 1061.0, -8.99994) (DELAY 0.1)
	Execute sequence: "state_door_close" - units/payday2/equipment/gen_interactable_door_reinforced/008 (267.0, -1445.0, -1.0) (DELAY 2)
	Execute sequence: "activate_door" - units/payday2/equipment/gen_interactable_door_reinforced/008 (267.0, -1445.0, -1.0) (DELAY 2)
´hide_chopper1´ ElementUnitSequence 102063
	EXECUTE ON STARTUP
	Execute sequence: "hidden" - units/payday2/vehicles/air_vehicle_blackhawk/helicopter_cops_ref/009 (1248.0, -1760.0, -1369.0)
´hide_chopper2´ ElementUnitSequence 102071
	EXECUTE ON STARTUP
	Execute sequence: "hidden" - units/payday2/vehicles/air_vehicle_blackhawk/helicopter_cops_ref/002 (-2096.0, -2587.0, -980.0)
´get_required_bags´ ElementApplyJobValue 102085
	EXECUTE ON STARTUP
	´required_bags（0）´=HeistPersistentTable.reqLoot
	´obj2_activate´=HeistPersistentTable.reqLoot
´hide_all_choppers´ ElementUnitSequence 102448
	EXECUTE ON STARTUP
	Execute sequence: "hidden" - units/payday2/vehicles/air_vehicle_blackhawk/helicopter_cops_ref/006 (5550.0, 3864.0, 0.0)
	Execute sequence: "hidden" - units/payday2/vehicles/air_vehicle_blackhawk/helicopter_cops_ref/005 (5984.95, -129.001, -400.0)
	Execute sequence: "hidden" - units/payday2/vehicles/air_vehicle_blackhawk/helicopter_cops_ref/004 (1415.37, -5448.13, -75.0)
	Execute sequence: "hidden" - units/payday2/vehicles/air_vehicle_blackhawk/helicopter_cops_ref/008 (-2303.0, -5686.0, -230.0)
	Execute sequence: "hidden" - units/payday2/vehicles/air_vehicle_blackhawk/helicopter_cops_ref/003 (-6511.61, -1367.68, -351.0)
	Execute sequence: "hidden" - units/payday2/vehicles/air_vehicle_blackhawk/helicopter_cops_ref/007 (-2112.44, 5405.33, -400.0)
´ForbidNav：52´ ElementAIGraph 100458
	EXECUTE ON STARTUP
	Forbid nav segs: 52
´ForbidNav：60´ ElementAIGraph 100664
	EXECUTE ON STARTUP
	Forbid nav segs: 60
´1´ MissionScriptElement 100934
	Toggle on: ´trigger_area_001´
	Enable "standard" player spawn at position (1380.67, -154.132, -3.05176e-05)
	Enable "standard" player spawn at position (1404.73, -444.982, -3.05176e-05)
	Enable "standard" player spawn at position (1174.0, 71.0, -3.05176e-05)
	Enable "standard" player spawn at position (954.36, 88.628, -3.05176e-05)
	Show object: units/payday2/vehicles/str_vehicle_van_dest_crashed/002 (3020.0, 1138.0, -21.9997) (DELAY 1)
	Add nav obstacle: units/payday2/vehicles/str_vehicle_van_dest_crashed/002 (3020.0, 1138.0, -21.9997) (DELAY 1)
´2´ MissionScriptElement 100935
	Enable "standard" player spawn at position (954.36, 88.628, -3.05176e-05)
	Enable "standard" player spawn at position (1174.0, 71.0, -3.05176e-05)
	Enable "standard" player spawn at position (1380.67, -154.132, -3.05176e-05)
	Enable "standard" player spawn at position (1404.73, -444.982, -3.05176e-05)
	Toggle on: ´trigger_area_002´
	Show object: units/payday2/vehicles/str_vehicle_van_dest_crashed/001 (1768.0, 1061.0, -8.99994) (DELAY 1)
	Add nav obstacle: units/payday2/vehicles/str_vehicle_van_dest_crashed/001 (1768.0, 1061.0, -8.99994) (DELAY 1)
´1_2´ MissionScriptElement 101957
	Toggle on: ´escape_1_loot_link´
	Toggle on: ´escape_1_escape_link´
	Toggle on: ´escape_1_prepare_link´
	Toggle on: ´escape_1´
	Toggle off: ´5´
	Toggle off: ´reenable_005´
´2_2´ MissionScriptElement 101958
	Toggle on: ´trigger_escape_loot_2´
	Toggle on: ´escape_2_escape_link´
	Toggle on: ´escape_2_prepare_link´
	Toggle on: ´escape_2´
	Toggle off: ´reenable_001´
	Toggle off: ´1_3´
	Toggle off: ´5´
	Toggle off: ´reenable_005´
´func_spawn_gage_assignment_001´ ElementSpawnGageAssignment 102876
	Spawn Gage packages:
		(783.0, -1732.0, -7.62939e-05)
		(-1514.0, -2245.0, 0.0)
		(-1275.0, 528.0, 800.0)
		(572.0, -966.0, 400.0)
		(1691.0, -1091.0, 400.0)
		(718.0, -1611.0, 8.39233e-05)
		(1450.0, -1550.0, 80.2093)
		(1006.0, -1293.0, 0.000518799)
		(1388.0, -460.0, 400.0)
		(1488.0, 539.0, 400.0)
		(-1849.0, -1270.0, 800.0)
		(-2488.0, -205.0, 800.0)
		(-1387.0, 387.0, 800.0)
		(-376.0, -1312.0, 75.8738)
		(-324.0, 331.0, -9.15527e-05)
		(1153.0, -2238.0, -7.62939e-05)
		(1203.0, -2238.0, -7.62939e-05)
		(1924.0, -3408.0, 0.0)
		(1918.0, -2290.0, 0.0)
		(3465.0, 222.0, -4.57764e-05)
´required_bags（0）´ ElementCounter 102086
´obj2_activate´ ElementObjective 101980
	Update objective: activate e_park_secure
´trigger_area_001´ ElementAreaTrigger 102008
	DISABLED
	TRIGGER TIMES 1
	Box, width 800.0, height 500.0, depth 800.0, at position (1260.5, -63.96, 130.0) with rotation (0.0, 0.0, 0.942642, 0.333806)
	Amount: 1
	Instigator: player
	Interval: 0.1
	Upon on_enter, execute:
		Send AI event: police_weapons_hot
		Send blame message: empty
		Start besiege mode (ordinary assault).
		Add flee point at: (5157.0, 1475.0, 30.0001)
		Add flee point at: (5325.0, -500.0, 1200.0)
		Add flee point at: (5650.0, 4500.0, 1625.0)
		Add flee point at: (-2775.0, 4850.0, 1275.0)
		Add flee point at: (-5877.0, -1531.0, 1280.0)
		Add flee point at: (-2346.0, -5132.0, 1225.0)
		Add flee point at: (1000.0, -5400.0, 1625.0)
		Add flee point at: (-2125.0, 4000.0, 825.0)
		Add flee point at: (1275.0, 4200.0, 825.0)
		Add flee point at: (-1600.0, -5800.0, 50.0)
		Add flee point at: (2963.0, -6102.0, 30.0001)
		Add enemy loot dropoff point at: (3211.0, -2994.0, -4.0)
		Execute 1:
			´2_3´
			´1.5´
		Execute 1 (do not ignore disabled):
			´ene_cop_1_5´ (2465.01, -4447.01, 16.0)
			´ene_cop_1_6´ (2965.01, -4339.0, 16.0)
		Execute 1 (do not ignore disabled):
			´ene_cop_1_7´ (3189.99, 3014.0, 16.0)
			´ene_cop_1_8´ (2658.99, 3040.0, 16.0)
		Execute 1 (do not ignore disabled):
			´first_snipers1_link´
			´first_snipers2_link´
			´first_snipers3_link´
		´civspawn_spawn_civilians（10）´
		´ene_cop_1´ (-3534.99, -4539.01, 16.0)
		´ene_cop_1_2´ (-3134.99, -4639.01, 16.0)
		´ene_cop_1_3´ (-5040.0, 1574.98, -12.0)
		´ene_cop_1_4´ (-5080.0, 1914.98, -12.0)
		´logic_random_004´ (3261.01, -4431.0, 16.0)
		´ene_cop_1_9´ (2459.99, 3028.0, 16.0)
		´ene_cop_1_10´ (4445.0, 1463.01, 16.0)
		´ene_cop_1_11´ (4340.0, 1081.01, 16.0)
		´point_loot_bag_009´
		´point_loot_bag_010´
		´point_loot_bag_006´
		´point_loot_bag_003´
		´point_loot_bag_005´
		´point_loot_bag_007´
		´point_loot_bag_008´
		´point_loot_bag_004´
		´point_loot_bag_002´
		´point_loot_bag_001´
		´point_loot_bag_021´
		´point_loot_bag_022´
		´point_loot_bag_023´
		´point_loot_bag_024´
		´point_loot_bag_025´
		´point_loot_bag_026´
		´point_loot_bag_027´
		´point_loot_bag_028´
		´point_loot_bag_029´
		´point_loot_bag_030´
		´point_loot_bag_031´
		´point_loot_bag_032´
		´point_loot_bag_033´
		´point_loot_bag_034´
		´point_loot_bag_035´
		Update objective: activate e_park_defend (DELAY 2)
		Play dialogue: pln_esc_street_snipers_nearby (DELAY 3)
		Enable spawn group: ´ai_enemy_group_001（0）´ (DELAY 10)
		Enable spawn group: ´ai_enemy_group_002（0）´ (DELAY 10)
		Enable spawn group: ´ai_enemy_group_003（0）´ (DELAY 10)
		Enable spawn group: ´ai_enemy_group_004（0）´ (DELAY 10)
		Enable spawn group: ´ai_enemy_group_005（0）´ (DELAY 10)
		Play dialogue: pln_esc_fixed_heli (DELAY 18)
		Play dialogue: Play_plt_a02 (DELAY 23)
		Set diff to 0.75. (DELAY 210)
´trigger_area_002´ ElementAreaTrigger 102009
	DISABLED
	TRIGGER TIMES 1
	Box, width 1000.0, height 500.0, depth 1000.0, at position (1363.77, 5.9334, 142.0) with rotation (0.0, 0.0, 0.882947, 0.469472)
	Amount: 1
	Instigator: player
	Interval: 0.1
	Upon on_enter, execute:
		Send AI event: police_weapons_hot
		Send blame message: empty
		Start besiege mode (ordinary assault).
		Add flee point at: (5157.0, 1475.0, 30.0001)
		Add flee point at: (5325.0, -500.0, 1200.0)
		Add flee point at: (5650.0, 4500.0, 1625.0)
		Add flee point at: (-2775.0, 4850.0, 1275.0)
		Add flee point at: (-5877.0, -1531.0, 1280.0)
		Add flee point at: (-2346.0, -5132.0, 1225.0)
		Add flee point at: (1000.0, -5400.0, 1625.0)
		Add flee point at: (-2125.0, 4000.0, 825.0)
		Add flee point at: (1275.0, 4200.0, 825.0)
		Add flee point at: (-1600.0, -5800.0, 50.0)
		Add flee point at: (2963.0, -6102.0, 30.0001)
		Add enemy loot dropoff point at: (3211.0, -2994.0, -4.0)
		Execute 1:
			´2_3´
			´1.5´
		Execute 1 (do not ignore disabled):
			´ene_cop_1_5´ (2465.01, -4447.01, 16.0)
			´ene_cop_1_6´ (2965.01, -4339.0, 16.0)
		Execute 1 (do not ignore disabled):
			´ene_cop_1_7´ (3189.99, 3014.0, 16.0)
			´ene_cop_1_8´ (2658.99, 3040.0, 16.0)
		Execute 1 (do not ignore disabled):
			´first_snipers1_link´
			´first_snipers2_link´
			´first_snipers3_link´
		´civspawn_spawn_civilians（10）´
		´ene_cop_1´ (-3534.99, -4539.01, 16.0)
		´ene_cop_1_2´ (-3134.99, -4639.01, 16.0)
		´ene_cop_1_3´ (-5040.0, 1574.98, -12.0)
		´ene_cop_1_4´ (-5080.0, 1914.98, -12.0)
		´logic_random_004´ (3261.01, -4431.0, 16.0)
		´ene_cop_1_9´ (2459.99, 3028.0, 16.0)
		´ene_cop_1_10´ (4445.0, 1463.01, 16.0)
		´ene_cop_1_11´ (4340.0, 1081.01, 16.0)
		´point_loot_bag_012´
		´point_loot_bag_011´
		´point_loot_bag_013´
		´point_loot_bag_014´
		´point_loot_bag_015´
		´point_loot_bag_016´
		´point_loot_bag_018´
		´point_loot_bag_017´
		´point_loot_bag_020´
		´point_loot_bag_019´
		´point_loot_bag_036´
		´point_loot_bag_037´
		´point_loot_bag_038´
		´point_loot_bag_039´
		´point_loot_bag_040´
		´point_loot_bag_041´
		´point_loot_bag_042´
		´point_loot_bag_043´
		´point_loot_bag_044´
		´point_loot_bag_045´
		´point_loot_bag_046´
		´point_loot_bag_047´
		´point_loot_bag_048´
		´point_loot_bag_049´
		´point_loot_bag_050´
		Update objective: activate e_park_defend (DELAY 2)
		Play dialogue: pln_esc_street_snipers_nearby (DELAY 3)
		Enable spawn group: ´ai_enemy_group_001（0）´ (DELAY 10)
		Enable spawn group: ´ai_enemy_group_002（0）´ (DELAY 10)
		Enable spawn group: ´ai_enemy_group_003（0）´ (DELAY 10)
		Enable spawn group: ´ai_enemy_group_004（0）´ (DELAY 10)
		Enable spawn group: ´ai_enemy_group_005（0）´ (DELAY 10)
		Play dialogue: pln_esc_fixed_heli (DELAY 18)
		Play dialogue: Play_plt_a02 (DELAY 23)
		Set diff to 0.75. (DELAY 210)
´escape_1_loot_link´ MissionScriptElement 101952
	DISABLED
	Toggle on: ´trigger_area_003´
	Execute sequence: "open_door_right" - units/payday2/vehicles/air_vehicle_blackhawk/helicopter_cops_ref/009 (1248.0, -1760.0, -1369.0)
	´point_waypoint_001´
´escape_1_escape_link´ MissionScriptElement 101953
	DISABLED
	Toggle on: ´trigger_area_004´
	Show object: units/payday2/vehicles/air_vehicle_blackhawk/helicopter_cops_ref/009 (1248.0, -1760.0, -1369.0)
	Show object: units/payday2/props/gen_prop_square_goal_marker_8x15/001 (860.0, -1527.0, 406.0)
´escape_1_prepare_link´ MissionScriptElement 102064
	DISABLED
	Toggle on: ´paintLoot2´
	Toggle on: ´bagLoot2´
	Execute sequence: "flyin_fwd_hover" - units/payday2/vehicles/air_vehicle_blackhawk/helicopter_cops_ref/009 (1248.0, -1760.0, -1369.0) (DELAY 40)
	Execute sequence: "diamondheist" - units/payday2/vehicles/air_vehicle_blackhawk/helicopter_cops_ref/009 (1248.0, -1760.0, -1369.0) (DELAY 40)
´escape_1´ MissionScriptElement 102671
	DISABLED
	´escape_1_only´
´5´ MissionScriptElement 102372
	TRIGGER TIMES 1
	´disabled_counter（0）´ += 1
	Execute sequence: "flyin_fwd_hover" - units/payday2/vehicles/air_vehicle_blackhawk/helicopter_cops_ref/003 (-6511.61, -1367.68, -351.0)
	Execute sequence: "swat" - units/payday2/vehicles/air_vehicle_blackhawk/helicopter_cops_ref/003 (-6511.61, -1367.68, -351.0)
	Execute sequence: "open_door_left" - units/payday2/vehicles/air_vehicle_blackhawk/helicopter_cops_ref/003 (-6511.61, -1367.68, -351.0) (DELAY 20)
	Execute sequence: "open_door_right" - units/payday2/vehicles/air_vehicle_blackhawk/helicopter_cops_ref/003 (-6511.61, -1367.68, -351.0) (DELAY 20)
	´ene_sniper_1´ (-5850.0, -1575.0, 1275.0) (DELAY 20)
	´ene_sniper_1_2´ (-5850.0, -1425.0, 1275.0) (DELAY 20)
	Execute 1 (do not ignore disabled): (DELAY 20.5)
		´point_special_objective_052´
		´point_special_objective_053´
		´point_special_objective_054´
		´point_special_objective_055´
		´point_special_objective_056´
	Execute 1 (do not ignore disabled): (DELAY 20.5)
		´point_special_objective_051´
		´point_special_objective_050´
		´point_special_objective_049´
		´point_special_objective_048´
		´point_special_objective_047´
	Execute sequence: "hover_flyout_right" - units/payday2/vehicles/air_vehicle_blackhawk/helicopter_cops_ref/003 (-6511.61, -1367.68, -351.0) (DELAY 25)
	Execute sequence: "hidden" - units/payday2/vehicles/air_vehicle_blackhawk/helicopter_cops_ref/003 (-6511.61, -1367.68, -351.0) (DELAY 55)
´reenable_005´ ElementToggle 100950
	Toggle on, trigger times 1: ´5´
´trigger_escape_loot_2´ MissionScriptElement 101981
	DISABLED
	Execute sequence: "open_door_right" - units/payday2/vehicles/air_vehicle_blackhawk/helicopter_cops_ref/002 (-2096.0, -2587.0, -980.0)
	Toggle on: ´trigger_area_005´
	Toggle on, trigger times 1: ´5´
	Toggle on: ´reenable_005´
	´point_waypoint_002´
´escape_2_escape_link´ MissionScriptElement 101955
	DISABLED
	Toggle on: ´trigger_area_007´
	Show object: units/payday2/props/gen_prop_square_goal_marker_8x15/002 (-2515.0, -2346.0, 802.0)
´escape_2_prepare_link´ MissionScriptElement 102066
	DISABLED
	Toggle on: ´paintLoot1´
	Toggle on: ´bagLoot1´
	Execute sequence: "flyin_fwd_hover" - units/payday2/vehicles/air_vehicle_blackhawk/helicopter_cops_ref/002 (-2096.0, -2587.0, -980.0) (DELAY 40)
	Execute sequence: "diamondheist" - units/payday2/vehicles/air_vehicle_blackhawk/helicopter_cops_ref/002 (-2096.0, -2587.0, -980.0) (DELAY 40)
´escape_2´ MissionScriptElement 102670
	DISABLED
	´escape_2_only´
´reenable_001´ ElementToggle 102414
	Toggle on, trigger times 1: ´1_3´
´1_3´ MissionScriptElement 102368
	TRIGGER TIMES 1
	´disabled_counter（0）´ += 1
	Execute sequence: "swat" - units/payday2/vehicles/air_vehicle_blackhawk/helicopter_cops_ref/006 (5550.0, 3864.0, 0.0)
	Execute sequence: "flyin_right_hover" - units/payday2/vehicles/air_vehicle_blackhawk/helicopter_cops_ref/006 (5550.0, 3864.0, 0.0)
	Execute sequence: "open_door_left" - units/payday2/vehicles/air_vehicle_blackhawk/helicopter_cops_ref/006 (5550.0, 3864.0, 0.0) (DELAY 20)
	Execute sequence: "open_door_right" - units/payday2/vehicles/air_vehicle_blackhawk/helicopter_cops_ref/006 (5550.0, 3864.0, 0.0) (DELAY 20)
	´ene_sniper_1_3´ (5383.0, 4399.0, 1602.0) (DELAY 20)
	´ene_sniper_1_4´ (5393.0, 4238.0, 1602.0) (DELAY 20)
	Execute 1 (do not ignore disabled): (DELAY 20.5)
		´point_special_objective_014´
		´point_special_objective_015´
		´point_special_objective_016´
		´point_special_objective_017´
	Execute 1 (do not ignore disabled): (DELAY 20.5)
		´point_special_objective_018´
		´point_special_objective_019´
		´point_special_objective_020´
	Execute sequence: "hover_flyout_back" - units/payday2/vehicles/air_vehicle_blackhawk/helicopter_cops_ref/006 (5550.0, 3864.0, 0.0) (DELAY 25)
	Execute sequence: "hidden" - units/payday2/vehicles/air_vehicle_blackhawk/helicopter_cops_ref/006 (5550.0, 3864.0, 0.0) (DELAY 55)
´2_3´ MissionScriptElement 101961
	Play dialogue: Play_plt_a06 (DELAY 60)
	´escape_2_prepare_link´ (DELAY 60)
	´escape_1_prepare_link´ (DELAY 60)
	Play dialogue: pln_esc_01_to_arrival_heli (DELAY 65)
	Play dialogue: Play_plt_a07 (DELAY 90)
	Play dialogue: pln_esc_30secs_to_arrival_heli (DELAY 95)
	Play dialogue: pln_esc_10secs_to_arrival (DELAY 110)
	Play dialogue: Play_plt_a08 (DELAY 120)
	Update objective: complete e_park_defend (DELAY 120)
	If "reqLoot" not in HeistPersistentTable: (DELAY 120)
		´escape_2_escape_link´
		´escape_1_escape_link´
		´escape_1´
		´escape_2´
		Update objective: activate e_park_escape (DELAY 1)
	If HeistPersistentTable.reqLoot > 0: (DELAY 120)
		´obj2_activate´ (DELAY 1)
	If HeistPersistentTable.reqLoot == 0: (DELAY 120)
		´escape_2_escape_link´
		´escape_1_escape_link´
		´escape_1´
		´escape_2´
		Update objective: activate e_park_escape (DELAY 1)
	´escape_1_loot_link´ (DELAY 120)
	´trigger_escape_loot_2´ (DELAY 120)
	Play dialogue: pln_esc_street_chopper_arrived (DELAY 125)
	Start hunt mode (infinite assault). (DELAY 130)
	If ´total_bag_counter（0）´ >= 1: (DELAY 130)
		If 3 players:
			If ´total_bag_counter（0）´ <= 3:
				Game-over timer: 120
				Play dialogue: pln_esc_02_to_departure
				Play dialogue: pln_esc_01_to_departure_heli (DELAY 60)
				Play dialogue: pln_esc_30secs_to_departure_heli (DELAY 90)
				Play dialogue: pln_esc_10secs_to_departure (DELAY 110)
				End mission: failed (DELAY 120)
			If ´total_bag_counter（0）´ > 3:
				If ´total_bag_counter（0）´ <= 6:
					Game-over timer: 180
					Play dialogue: pln_esc_03_to_departure
					Play dialogue: pln_esc_02_to_departure (DELAY 60)
					Play dialogue: pln_esc_01_to_departure_heli (DELAY 120)
					Play dialogue: pln_esc_30secs_to_departure_heli (DELAY 150)
					Play dialogue: pln_esc_10secs_to_departure (DELAY 170)
					End mission: failed (DELAY 180)
			If ´total_bag_counter（0）´ > 6:
				Play dialogue: pln_esc_04_to_departure
				Game-over timer: 240
				Play dialogue: pln_esc_03_to_departure (DELAY 60)
				Play dialogue: pln_esc_02_to_departure (DELAY 120)
				Play dialogue: pln_esc_01_to_departure_heli (DELAY 180)
				Play dialogue: pln_esc_30secs_to_departure_heli (DELAY 210)
				Play dialogue: pln_esc_10secs_to_departure (DELAY 230)
				End mission: failed (DELAY 240)
		If 4 players:
			If ´total_bag_counter（0）´ <= 4:
				Game-over timer: 120
				Play dialogue: pln_esc_02_to_departure
				Play dialogue: pln_esc_01_to_departure_heli (DELAY 60)
				Play dialogue: pln_esc_30secs_to_departure_heli (DELAY 90)
				Play dialogue: pln_esc_10secs_to_departure (DELAY 110)
				End mission: failed (DELAY 120)
			If ´total_bag_counter（0）´ > 4:
				If ´total_bag_counter（0）´ <= 8:
					Game-over timer: 180
					Play dialogue: pln_esc_03_to_departure
					Play dialogue: pln_esc_02_to_departure (DELAY 60)
					Play dialogue: pln_esc_01_to_departure_heli (DELAY 120)
					Play dialogue: pln_esc_30secs_to_departure_heli (DELAY 150)
					Play dialogue: pln_esc_10secs_to_departure (DELAY 170)
					End mission: failed (DELAY 180)
			If ´total_bag_counter（0）´ > 8:
				Play dialogue: pln_esc_04_to_departure
				Game-over timer: 240
				Play dialogue: pln_esc_03_to_departure (DELAY 60)
				Play dialogue: pln_esc_02_to_departure (DELAY 120)
				Play dialogue: pln_esc_01_to_departure_heli (DELAY 180)
				Play dialogue: pln_esc_30secs_to_departure_heli (DELAY 210)
				Play dialogue: pln_esc_10secs_to_departure (DELAY 230)
				End mission: failed (DELAY 240)
		If 2 players:
			If ´total_bag_counter（0）´ <= 2:
				Game-over timer: 120
				Play dialogue: pln_esc_02_to_departure
				Play dialogue: pln_esc_01_to_departure_heli (DELAY 60)
				Play dialogue: pln_esc_30secs_to_departure_heli (DELAY 90)
				Play dialogue: pln_esc_10secs_to_departure (DELAY 110)
				End mission: failed (DELAY 120)
			If ´total_bag_counter（0）´ > 2:
				If ´total_bag_counter（0）´ <= 4:
					Game-over timer: 180
					Play dialogue: pln_esc_03_to_departure
					Play dialogue: pln_esc_02_to_departure (DELAY 60)
					Play dialogue: pln_esc_01_to_departure_heli (DELAY 120)
					Play dialogue: pln_esc_30secs_to_departure_heli (DELAY 150)
					Play dialogue: pln_esc_10secs_to_departure (DELAY 170)
					End mission: failed (DELAY 180)
			If ´total_bag_counter（0）´ > 4:
				Play dialogue: pln_esc_04_to_departure
				Game-over timer: 240
				Play dialogue: pln_esc_03_to_departure (DELAY 60)
				Play dialogue: pln_esc_02_to_departure (DELAY 120)
				Play dialogue: pln_esc_01_to_departure_heli (DELAY 180)
				Play dialogue: pln_esc_30secs_to_departure_heli (DELAY 210)
				Play dialogue: pln_esc_10secs_to_departure (DELAY 230)
				End mission: failed (DELAY 240)
		If 1 player:
			If ´total_bag_counter（0）´ <= 1:
				Game-over timer: 120
				Play dialogue: pln_esc_02_to_departure
				Play dialogue: pln_esc_01_to_departure_heli (DELAY 60)
				Play dialogue: pln_esc_30secs_to_departure_heli (DELAY 90)
				Play dialogue: pln_esc_10secs_to_departure (DELAY 110)
				End mission: failed (DELAY 120)
			If ´total_bag_counter（0）´ > 1:
				If ´total_bag_counter（0）´ <= 2:
					Game-over timer: 180
					Play dialogue: pln_esc_03_to_departure
					Play dialogue: pln_esc_02_to_departure (DELAY 60)
					Play dialogue: pln_esc_01_to_departure_heli (DELAY 120)
					Play dialogue: pln_esc_30secs_to_departure_heli (DELAY 150)
					Play dialogue: pln_esc_10secs_to_departure (DELAY 170)
					End mission: failed (DELAY 180)
			If ´total_bag_counter（0）´ > 2:
				Play dialogue: pln_esc_04_to_departure
				Game-over timer: 240
				Play dialogue: pln_esc_03_to_departure (DELAY 60)
				Play dialogue: pln_esc_02_to_departure (DELAY 120)
				Play dialogue: pln_esc_01_to_departure_heli (DELAY 180)
				Play dialogue: pln_esc_30secs_to_departure_heli (DELAY 210)
				Play dialogue: pln_esc_10secs_to_departure (DELAY 230)
				End mission: failed (DELAY 240)
	If ´total_bag_counter（0）´ == 0: (DELAY 130)
		Game-over timer: 60
		Play dialogue: pln_esc_01_to_departure_heli
		Play dialogue: pln_esc_30secs_to_departure_heli (DELAY 30)
		Play dialogue: pln_esc_10secs_to_departure (DELAY 50)
		End mission: failed (DELAY 60)
´1.5´ MissionScriptElement 101962
	Play dialogue: Play_plt_a06 (DELAY 30)
	´escape_2_prepare_link´ (DELAY 30)
	´escape_1_prepare_link´ (DELAY 30)
	Play dialogue: pln_esc_01_to_arrival_heli (DELAY 35)
	Play dialogue: Play_plt_a07 (DELAY 60)
	Play dialogue: pln_esc_30secs_to_arrival_heli (DELAY 65)
	Play dialogue: pln_esc_10secs_to_arrival (DELAY 80)
	Play dialogue: Play_plt_a08 (DELAY 90)
	Update objective: complete e_park_defend (DELAY 90)
	If "reqLoot" not in HeistPersistentTable: (DELAY 90)
		´escape_2_escape_link´
		´escape_1_escape_link´
		´escape_1´
		´escape_2´
		Update objective: activate e_park_escape (DELAY 1)
	If HeistPersistentTable.reqLoot > 0: (DELAY 90)
		´obj2_activate´ (DELAY 1)
	If HeistPersistentTable.reqLoot == 0: (DELAY 90)
		´escape_2_escape_link´
		´escape_1_escape_link´
		´escape_1´
		´escape_2´
		Update objective: activate e_park_escape (DELAY 1)
	´escape_1_loot_link´ (DELAY 90)
	´trigger_escape_loot_2´ (DELAY 90)
	Play dialogue: pln_esc_street_chopper_arrived (DELAY 95)
	Start hunt mode (infinite assault). (DELAY 100)
	If ´total_bag_counter（0）´ >= 1: (DELAY 100)
		If 3 players:
			If ´total_bag_counter（0）´ <= 3:
				Game-over timer: 120
				Play dialogue: pln_esc_02_to_departure
				Play dialogue: pln_esc_01_to_departure_heli (DELAY 60)
				Play dialogue: pln_esc_30secs_to_departure_heli (DELAY 90)
				Play dialogue: pln_esc_10secs_to_departure (DELAY 110)
				End mission: failed (DELAY 120)
			If ´total_bag_counter（0）´ > 3:
				If ´total_bag_counter（0）´ <= 6:
					Game-over timer: 180
					Play dialogue: pln_esc_03_to_departure
					Play dialogue: pln_esc_02_to_departure (DELAY 60)
					Play dialogue: pln_esc_01_to_departure_heli (DELAY 120)
					Play dialogue: pln_esc_30secs_to_departure_heli (DELAY 150)
					Play dialogue: pln_esc_10secs_to_departure (DELAY 170)
					End mission: failed (DELAY 180)
			If ´total_bag_counter（0）´ > 6:
				Play dialogue: pln_esc_04_to_departure
				Game-over timer: 240
				Play dialogue: pln_esc_03_to_departure (DELAY 60)
				Play dialogue: pln_esc_02_to_departure (DELAY 120)
				Play dialogue: pln_esc_01_to_departure_heli (DELAY 180)
				Play dialogue: pln_esc_30secs_to_departure_heli (DELAY 210)
				Play dialogue: pln_esc_10secs_to_departure (DELAY 230)
				End mission: failed (DELAY 240)
		If 4 players:
			If ´total_bag_counter（0）´ <= 4:
				Game-over timer: 120
				Play dialogue: pln_esc_02_to_departure
				Play dialogue: pln_esc_01_to_departure_heli (DELAY 60)
				Play dialogue: pln_esc_30secs_to_departure_heli (DELAY 90)
				Play dialogue: pln_esc_10secs_to_departure (DELAY 110)
				End mission: failed (DELAY 120)
			If ´total_bag_counter（0）´ > 4:
				If ´total_bag_counter（0）´ <= 8:
					Game-over timer: 180
					Play dialogue: pln_esc_03_to_departure
					Play dialogue: pln_esc_02_to_departure (DELAY 60)
					Play dialogue: pln_esc_01_to_departure_heli (DELAY 120)
					Play dialogue: pln_esc_30secs_to_departure_heli (DELAY 150)
					Play dialogue: pln_esc_10secs_to_departure (DELAY 170)
					End mission: failed (DELAY 180)
			If ´total_bag_counter（0）´ > 8:
				Play dialogue: pln_esc_04_to_departure
				Game-over timer: 240
				Play dialogue: pln_esc_03_to_departure (DELAY 60)
				Play dialogue: pln_esc_02_to_departure (DELAY 120)
				Play dialogue: pln_esc_01_to_departure_heli (DELAY 180)
				Play dialogue: pln_esc_30secs_to_departure_heli (DELAY 210)
				Play dialogue: pln_esc_10secs_to_departure (DELAY 230)
				End mission: failed (DELAY 240)
		If 2 players:
			If ´total_bag_counter（0）´ <= 2:
				Game-over timer: 120
				Play dialogue: pln_esc_02_to_departure
				Play dialogue: pln_esc_01_to_departure_heli (DELAY 60)
				Play dialogue: pln_esc_30secs_to_departure_heli (DELAY 90)
				Play dialogue: pln_esc_10secs_to_departure (DELAY 110)
				End mission: failed (DELAY 120)
			If ´total_bag_counter（0）´ > 2:
				If ´total_bag_counter（0）´ <= 4:
					Game-over timer: 180
					Play dialogue: pln_esc_03_to_departure
					Play dialogue: pln_esc_02_to_departure (DELAY 60)
					Play dialogue: pln_esc_01_to_departure_heli (DELAY 120)
					Play dialogue: pln_esc_30secs_to_departure_heli (DELAY 150)
					Play dialogue: pln_esc_10secs_to_departure (DELAY 170)
					End mission: failed (DELAY 180)
			If ´total_bag_counter（0）´ > 4:
				Play dialogue: pln_esc_04_to_departure
				Game-over timer: 240
				Play dialogue: pln_esc_03_to_departure (DELAY 60)
				Play dialogue: pln_esc_02_to_departure (DELAY 120)
				Play dialogue: pln_esc_01_to_departure_heli (DELAY 180)
				Play dialogue: pln_esc_30secs_to_departure_heli (DELAY 210)
				Play dialogue: pln_esc_10secs_to_departure (DELAY 230)
				End mission: failed (DELAY 240)
		If 1 player:
			If ´total_bag_counter（0）´ <= 1:
				Game-over timer: 120
				Play dialogue: pln_esc_02_to_departure
				Play dialogue: pln_esc_01_to_departure_heli (DELAY 60)
				Play dialogue: pln_esc_30secs_to_departure_heli (DELAY 90)
				Play dialogue: pln_esc_10secs_to_departure (DELAY 110)
				End mission: failed (DELAY 120)
			If ´total_bag_counter（0）´ > 1:
				If ´total_bag_counter（0）´ <= 2:
					Game-over timer: 180
					Play dialogue: pln_esc_03_to_departure
					Play dialogue: pln_esc_02_to_departure (DELAY 60)
					Play dialogue: pln_esc_01_to_departure_heli (DELAY 120)
					Play dialogue: pln_esc_30secs_to_departure_heli (DELAY 150)
					Play dialogue: pln_esc_10secs_to_departure (DELAY 170)
					End mission: failed (DELAY 180)
			If ´total_bag_counter（0）´ > 2:
				Play dialogue: pln_esc_04_to_departure
				Game-over timer: 240
				Play dialogue: pln_esc_03_to_departure (DELAY 60)
				Play dialogue: pln_esc_02_to_departure (DELAY 120)
				Play dialogue: pln_esc_01_to_departure_heli (DELAY 180)
				Play dialogue: pln_esc_30secs_to_departure_heli (DELAY 210)
				Play dialogue: pln_esc_10secs_to_departure (DELAY 230)
				End mission: failed (DELAY 240)
	If ´total_bag_counter（0）´ == 0: (DELAY 100)
		Game-over timer: 60
		Play dialogue: pln_esc_01_to_departure_heli
		Play dialogue: pln_esc_30secs_to_departure_heli (DELAY 30)
		Play dialogue: pln_esc_10secs_to_departure (DELAY 50)
		End mission: failed (DELAY 60)
´civspawn_spawn_civilians（10）´ ElementSpawnCivilianGroup 102528
	Spawn 10 civilians, chosen at random (do not ignore disabled):
		´civ_male_casual_1´
		´civ_male_casual_2´
		´civ_male_casual_3´
		´civ_male_business_2´
		´civ_female_casual_2´
		´civ_male_business_1´
		´civ_female_casual_1´
		´civ_male_casual_6´
		´civ_male_casual_1_2´
		´civ_female_casual_2_2´
		´civ_male_casual_3_2´
		´civ_female_hostess_jacket_1´
		´civ_female_casual_2_3´
		´civ_male_casual_4´
		´civ_male_janitor_1´
		´civ_female_casual_3´
´civ_male_casual_1´ ElementSpawnCivilian 102512
	Spawn civ: civ_male_casual_1 (3300.0, 75.0, -19.9991)
´civ_male_casual_2´ ElementSpawnCivilian 102513
	Spawn civ: civ_male_casual_2 (-3875.0, -2625.0, -19.9991)
´civ_male_casual_3´ ElementSpawnCivilian 102514
	Spawn civ: civ_male_casual_3 (1375.0, 1900.0, -19.9991)
´civ_male_business_2´ ElementSpawnCivilian 102518
	Spawn civ: civ_male_business_2 (2700.0, -2100.0, -19.9991)
´civ_female_casual_2´ ElementSpawnCivilian 102519
	Spawn civ: civ_female_casual_2 (1650.0, 0.0, -3.05176e-05)
´civ_male_business_1´ ElementSpawnCivilian 102517
	Spawn civ: civ_male_business_1 (3050.0, 1800.0, -19.8136)
´civ_female_casual_1´ ElementSpawnCivilian 102515
	Spawn civ: civ_female_casual_1 (-1050.0, 1225.0, -19.9991)
´civ_male_casual_6´ ElementSpawnCivilian 102516
	Spawn civ: civ_male_casual_6 (1500.0, 625.0, -6.10352e-05)
´civ_male_casual_1_2´ ElementSpawnCivilian 102520
	Spawn civ: civ_male_casual_1 (435.0, 419.0, -3.05176e-05)
´civ_female_casual_2_2´ ElementSpawnCivilian 102521
	Spawn civ: civ_female_casual_2 (3250.0, -1325.0, -19.9991)
´civ_male_casual_3_2´ ElementSpawnCivilian 102522
	Spawn civ: civ_male_casual_3 (1000.0, 1575.0, -19.8136)
´civ_female_hostess_jacket_1´ ElementSpawnCivilian 102526
	Spawn civ: civ_female_hostess_jacket_1 (1200.0, -100.0, -3.34863e-05)
´civ_female_casual_2_3´ ElementSpawnCivilian 102527
	Spawn civ: civ_female_casual_2 (325.0, -425.0, -9.15527e-05)
´civ_male_casual_4´ ElementSpawnCivilian 102523
	Spawn civ: civ_male_casual_4 (3075.0, -500.0, -19.9991)
´civ_male_janitor_1´ ElementSpawnCivilian 102524
	Spawn civ: civ_male_janitor_1 (725.0, -2325.0, -6.10352e-05)
´civ_female_casual_3´ ElementSpawnCivilian 102525
	Spawn civ: civ_female_casual_3 (-225.0, 600.0, -3.05176e-05)
´ai_enemy_group_001（0）´ ElementSpawnEnemyGroup 102467
	Preferred spawn groups: FBI_spoocs, tac_shield_wall_charge, tac_tazer_charge, tac_tazer_flanking, tac_shield_wall, tac_swat_rifle_flank, tac_shield_wall_ranged, tac_bull_rush
	Spawn 0 enemies, chosen in order (do not ignore disabled):
		´ene_swat_1´
		´ene_swat_1_2´
		´ene_swat_1_3´
		´ene_swat_1_4´
		´ene_swat_1_5´
´ene_swat_1´ ElementSpawnEnemyDummy 102466
	Spawn ene_swat_1 (5039.0, 1611.0, -8.99988).
´ene_swat_1_2´ ElementSpawnEnemyDummy 102465
	Spawn ene_swat_1 (5039.0, 1511.0, -8.99988).
´ene_swat_1_3´ ElementSpawnEnemyDummy 102464
	Spawn ene_swat_1 (5039.0, 1411.0, -8.99988).
´ene_swat_1_4´ ElementSpawnEnemyDummy 102463
	Spawn ene_swat_1 (5039.0, 1311.0, -8.99988).
´ene_swat_1_5´ ElementSpawnEnemyDummy 102877
	Spawn ene_swat_1 (5139.0, 1511.0, -8.99988).
´ai_enemy_group_002（0）´ ElementSpawnEnemyGroup 102475
	Preferred spawn groups: FBI_spoocs, tac_shield_wall_charge, tac_tazer_charge, tac_tazer_flanking, tac_shield_wall, tac_swat_rifle_flank, tac_bull_rush, tac_shield_wall_ranged
	Spawn 0 enemies, chosen in order (do not ignore disabled):
		´ene_swat_1_6´
		´ene_swat_1_7´
		´ene_swat_1_8´
		´ene_swat_1_9´
		´ene_swat_1_10´
´ene_swat_1_6´ ElementSpawnEnemyDummy 102469
	Spawn ene_swat_1 (2877.0, -6119.0, -6.0).
´ene_swat_1_7´ ElementSpawnEnemyDummy 102471
	Spawn ene_swat_1 (3164.0, -6075.0, -6.0).
´ene_swat_1_8´ ElementSpawnEnemyDummy 102473
	Spawn ene_swat_1 (2641.0, -5483.0, -6.0).
´ene_swat_1_9´ ElementSpawnEnemyDummy 102474
	Spawn ene_swat_1 (2541.0, -5433.0, -6.0).
´ene_swat_1_10´ ElementSpawnEnemyDummy 102472
	Spawn ene_swat_1 (2752.0, -5513.0, -6.0).
´ai_enemy_group_003（0）´ ElementSpawnEnemyGroup 102500
	Preferred spawn groups: FBI_spoocs, tac_shield_wall_charge, tac_tazer_charge, tac_shield_wall, tac_tazer_flanking, tac_swat_rifle_flank, tac_shield_wall_ranged, tac_bull_rush
	Spawn 0 enemies, chosen in order (do not ignore disabled):
		´ene_swat_1_11´
		´ene_swat_1_12´
		´ene_swat_1_13´
		´ene_swat_1_14´
		´ene_swat_1_15´
´ene_swat_1_11´ ElementSpawnEnemyDummy 102498
	Spawn ene_swat_1 (-1100.0, -5650.0, 1.0).
´ene_swat_1_12´ ElementSpawnEnemyDummy 102497
	Spawn ene_swat_1 (-1350.0, -5650.0, 1.0).
´ene_swat_1_13´ ElementSpawnEnemyDummy 102495
	Spawn ene_swat_1 (-1750.0, -5650.0, 1.0).
´ene_swat_1_14´ ElementSpawnEnemyDummy 102494
	Spawn ene_swat_1 (-1950.0, -5650.0, 1.0).
´ene_swat_1_15´ ElementSpawnEnemyDummy 102499
	Spawn ene_swat_1 (-2150.0, -5650.0, 1.0).
´ai_enemy_group_004（0）´ ElementSpawnEnemyGroup 101630
	Preferred spawn groups: FBI_spoocs, tac_shield_wall_charge, tac_tazer_charge, tac_tazer_flanking, tac_shield_wall, tac_swat_rifle_flank, tac_shield_wall_ranged, tac_bull_rush
	Spawn 0 enemies, chosen in order (do not ignore disabled):
		´ene_swat_1_16´
		´ene_swat_1_17´
		´ene_swat_1_18´
		´ene_swat_1_19´
		´ene_swat_1_20´
´ene_swat_1_16´ ElementSpawnEnemyDummy 101629
	Spawn ene_swat_1 (2766.13, 4240.87, -9.0).
´ene_swat_1_17´ ElementSpawnEnemyDummy 101627
	Spawn ene_swat_1 (2695.42, 4311.58, -9.0).
´ene_swat_1_18´ ElementSpawnEnemyDummy 101626
	Spawn ene_swat_1 (2624.71, 4382.29, -9.0).
´ene_swat_1_19´ ElementSpawnEnemyDummy 101620
	Spawn ene_swat_1 (2554.0, 4453.0, -9.0).
´ene_swat_1_20´ ElementSpawnEnemyDummy 102470
	Spawn ene_swat_1 (2695.42, 4453.0, -9.0).
´ai_enemy_group_005（0）´ ElementSpawnEnemyGroup 101726
	Preferred spawn groups: FBI_spoocs, tac_shield_wall_charge, tac_tazer_charge, tac_shield_wall, tac_tazer_flanking, tac_swat_rifle_flank, tac_shield_wall_ranged, tac_bull_rush
	Spawn 0 enemies, chosen in order (do not ignore disabled):
		´ene_swat_1_21´
		´ene_swat_1_22´
		´ene_swat_1_23´
		´ene_swat_1_24´
		´ene_swat_1_25´
´ene_swat_1_21´ ElementSpawnEnemyDummy 101724
	Spawn ene_swat_1 (-6065.87, 1370.87, -9.0).
´ene_swat_1_22´ ElementSpawnEnemyDummy 101723
	Spawn ene_swat_1 (-6074.58, 1470.49, -9.0).
´ene_swat_1_23´ ElementSpawnEnemyDummy 101695
	Spawn ene_swat_1 (-6083.3, 1570.11, -9.0).
´ene_swat_1_24´ ElementSpawnEnemyDummy 101687
	Spawn ene_swat_1 (-6092.02, 1669.73, -9.0).
´ene_swat_1_25´ ElementSpawnEnemyDummy 102496
	Spawn ene_swat_1 (-6182.92, 1561.39, -9.0).
´ene_cop_1´ ElementSpawnEnemyDummy 102704
	Spawn ene_cop_1 (-3534.99, -4539.01, 16.0).
	No group AI
	Make instigator path towards (-3514.99, -4308.01, -7.0) and show "AI_defend".
´ene_cop_1_2´ ElementSpawnEnemyDummy 102708
	Spawn ene_cop_1 (-3134.99, -4639.01, 16.0).
	No group AI
	Make instigator path towards (-3128.99, -4456.01, -7.0) and show "AI_defend".
´ene_cop_1_3´ ElementSpawnEnemyDummy 102710
	Spawn ene_cop_1 (-5040.0, 1574.98, -12.0).
	No group AI
	Make instigator path towards (-4809.0, 1554.99, -35.0) and show "AI_defend".
´ene_cop_1_4´ ElementSpawnEnemyDummy 102705
	Spawn ene_cop_1 (-5080.0, 1914.98, -12.0).
	No group AI
	Make instigator path towards (-4849.0, 1894.99, -35.0) and show "AI_defend".
´logic_random_004´ ElementSpawnEnemyDummy 102713
	Spawn ene_cop_1 (3261.01, -4431.0, 16.0).
	No group AI
	Make instigator path towards (3285.01, -4378.0, -7.0) and show "AI_defend".
´ene_cop_1_5´ ElementSpawnEnemyDummy 102701
	Spawn ene_cop_1 (2465.01, -4447.01, 16.0).
	No group AI
	Make instigator path towards (2385.01, -4316.0, -7.0) and show "AI_defend".
´ene_cop_1_6´ ElementSpawnEnemyDummy 102698
	Spawn ene_cop_1 (2965.01, -4339.0, 16.0).
	No group AI
	Make instigator path towards (2980.01, -4149.0, -7.0) and show "AI_defend".
´ene_cop_1_7´ ElementSpawnEnemyDummy 102682
	Spawn ene_cop_1 (3189.99, 3014.0, 16.0).
	No group AI
	Make instigator path towards (3185.99, 2912.0, -7.0) and show "AI_defend".
´ene_cop_1_8´ ElementSpawnEnemyDummy 102684
	Spawn ene_cop_1 (2658.99, 3040.0, 16.0).
	No group AI
	Make instigator path towards (2654.99, 2938.0, -7.0) and show "AI_defend".
´ene_cop_1_9´ ElementSpawnEnemyDummy 102686
	Spawn ene_cop_1 (2459.99, 3028.0, 16.0).
	No group AI
	Make instigator path towards (2455.99, 2926.0, -7.0) and show "AI_defend".
´ene_cop_1_10´ ElementSpawnEnemyDummy 102691
	Spawn ene_cop_1 (4445.0, 1463.01, 16.0).
	No group AI
	Make instigator path towards (4343.0, 1467.01, -7.0) and show "AI_defend".
´ene_cop_1_11´ ElementSpawnEnemyDummy 102689
	Spawn ene_cop_1 (4340.0, 1081.01, 16.0).
	No group AI
	Make instigator path towards (4238.0, 1085.01, -7.0) and show "AI_defend".
´first_snipers1_link´ MissionScriptElement 100665
	´ene_sniper_1_5´ (250.0, 4050.0, 1278.0)
	´ene_sniper_1_6´ (400.0, 3800.0, 802.0)
	Execute 1 (do not ignore disabled): (DELAY 0.01)
		´point_special_objective_067´
		´point_special_objective_068´
		´point_special_objective_066´
	Execute 1 (do not ignore disabled): (DELAY 0.01)
		´point_special_objective_069´
		´point_special_objective_070´
´first_snipers2_link´ MissionScriptElement 101743
	´ene_sniper_1_7´ (5375.0, 25.0005, 1200.0)
	´ene_sniper_1_8´ (5375.0, -125.0, 1200.0)
	Execute 1 (do not ignore disabled): (DELAY 0.05)
		´point_special_objective_022´
		´point_special_objective_023´
		´point_special_objective_024´
		´point_special_objective_026´
		´point_special_objective_027´
	Execute 1 (do not ignore disabled): (DELAY 0.05)
		´point_special_objective_029´
		´point_special_objective_030´
		´point_special_objective_031´
´first_snipers3_link´ MissionScriptElement 101776
	´ene_sniper_1_3´ (5383.0, 4399.0, 1602.0)
	´ene_sniper_1_4´ (5393.0, 4238.0, 1602.0)
	Execute 1 (do not ignore disabled): (DELAY 0.01)
		´point_special_objective_014´
		´point_special_objective_015´
		´point_special_objective_016´
		´point_special_objective_017´
	Execute 1 (do not ignore disabled): (DELAY 0.01)
		´point_special_objective_018´
		´point_special_objective_019´
		´point_special_objective_020´
´point_loot_bag_009´ ElementLootBag 102040
	Spawn loot bag that was personally carried into escape on the previous day at position (2901.86, 578.892, 41.0)
´point_loot_bag_010´ ElementLootBag 102041
	Spawn loot bag that was personally carried into escape on the previous day at position (3031.6, 521.837, 41.0)
´point_loot_bag_006´ ElementLootBag 102037
	Spawn loot bag that was personally carried into escape on the previous day at position (3007.72, 660.653, 41.0)
´point_loot_bag_003´ ElementLootBag 102034
	Spawn loot bag that was personally carried into escape on the previous day at position (2996.01, 788.929, 31.0)
´point_loot_bag_005´ ElementLootBag 102036
	Spawn loot bag that was personally carried into escape on the previous day at position (2934.0, 754.536, 31.0)
´point_loot_bag_007´ ElementLootBag 102038
	Spawn loot bag that was personally carried into escape on the previous day at position (3141.9, 780.444, 41.0)
´point_loot_bag_008´ ElementLootBag 102039
	Spawn loot bag that was personally carried into escape on the previous day at position (3223.1, 750.093, 41.0)
´point_loot_bag_004´ ElementLootBag 102035
	Spawn loot bag that was personally carried into escape on the previous day at position (3053.94, 829.493, 37.0)
´point_loot_bag_002´ ElementLootBag 102033
	Spawn loot bag that was personally carried into escape on the previous day at position (3057.3, 905.569, 100.0)
´point_loot_bag_001´ ElementLootBag 102032
	Spawn loot bag that was personally carried into escape on the previous day at position (3005.82, 905.577, 100.0)
´point_loot_bag_021´ ElementLootBag 102057
	Spawn loot bag that was personally carried into escape on the previous day at position (3200.0, 450.0, 2.00085)
´point_loot_bag_022´ ElementLootBag 102072
	Spawn loot bag that was personally carried into escape on the previous day at position (3100.0, 450.0, 2.00085)
´point_loot_bag_023´ ElementLootBag 102811
	Spawn loot bag that was personally carried into escape on the previous day at position (2839.0, 711.835, 2.00085)
´point_loot_bag_024´ ElementLootBag 102812
	Spawn loot bag that was personally carried into escape on the previous day at position (3000.58, 558.129, 2.00085)
´point_loot_bag_025´ ElementLootBag 102813
	Spawn loot bag that was personally carried into escape on the previous day at position (2845.96, 600.614, 2.00085)
´point_loot_bag_026´ ElementLootBag 102814
	Spawn loot bag that was personally carried into escape on the previous day at position (2800.0, 550.0, 2.00085)
´point_loot_bag_027´ ElementLootBag 102815
	Spawn loot bag that was personally carried into escape on the previous day at position (2900.0, 550.0, 2.00085)
´point_loot_bag_028´ ElementLootBag 102816
	Spawn loot bag that was personally carried into escape on the previous day at position (3052.27, 704.119, 2.00085)
´point_loot_bag_029´ ElementLootBag 102817
	Spawn loot bag that was personally carried into escape on the previous day at position (3100.0, 550.0, 2.00085)
´point_loot_bag_030´ ElementLootBag 102818
	Spawn loot bag that was personally carried into escape on the previous day at position (3100.85, 620.113, 2.00085)
´point_loot_bag_031´ ElementLootBag 102819
	Spawn loot bag that was personally carried into escape on the previous day at position (3200.0, 650.0, 2.00085)
´point_loot_bag_032´ ElementLootBag 102820
	Spawn loot bag that was personally carried into escape on the previous day at position (3135.02, 694.615, 2.00085)
´point_loot_bag_033´ ElementLootBag 102821
	Spawn loot bag that was personally carried into escape on the previous day at position (3000.0, 650.0, 2.00085)
´point_loot_bag_034´ ElementLootBag 102822
	Spawn loot bag that was personally carried into escape on the previous day at position (2900.0, 650.0, 2.00085)
´point_loot_bag_035´ ElementLootBag 102823
	Spawn loot bag that was personally carried into escape on the previous day at position (2948.19, 683.453, 2.00085)
´point_loot_bag_012´ ElementLootBag 102043
	Spawn loot bag that was personally carried into escape on the previous day at position (1599.42, 1130.12, 70.3188)
´point_loot_bag_011´ ElementLootBag 102042
	Spawn loot bag that was personally carried into escape on the previous day at position (1572.68, 1184.06, 70.3188)
´point_loot_bag_013´ ElementLootBag 102044
	Spawn loot bag that was personally carried into escape on the previous day at position (1529.14, 1147.24, 70.3188)
´point_loot_bag_014´ ElementLootBag 102045
	Spawn loot bag that was personally carried into escape on the previous day at position (1449.67, 1151.29, 3.31889)
´point_loot_bag_015´ ElementLootBag 102046
	Spawn loot bag that was personally carried into escape on the previous day at position (1477.45, 1235.2, 3.31889)
´point_loot_bag_016´ ElementLootBag 102047
	Spawn loot bag that was personally carried into escape on the previous day at position (1413.5, 1206.54, 3.31889)
´point_loot_bag_018´ ElementLootBag 102049
	Spawn loot bag that was personally carried into escape on the previous day at position (1336.86, 1160.73, 3.31889)
´point_loot_bag_017´ ElementLootBag 102048
	Spawn loot bag that was personally carried into escape on the previous day at position (1399.56, 1241.22, 3.31889)
´point_loot_bag_020´ ElementLootBag 102051
	Spawn loot bag that was personally carried into escape on the previous day at position (1247.5, 1176.01, 3.31889)
´point_loot_bag_019´ ElementLootBag 102050
	Spawn loot bag that was personally carried into escape on the previous day at position (1504.97, 1306.23, 3.31891)
´point_loot_bag_036´ ElementLootBag 102824
	Spawn loot bag that was personally carried into escape on the previous day at position (1322.79, 1468.69, 3.31891)
´point_loot_bag_037´ ElementLootBag 102825
	Spawn loot bag that was personally carried into escape on the previous day at position (1396.44, 1457.38, 3.31891)
´point_loot_bag_038´ ElementLootBag 102826
	Spawn loot bag that was personally carried into escape on the previous day at position (1410.56, 1398.21, 3.31889)
´point_loot_bag_039´ ElementLootBag 102827
	Spawn loot bag that was personally carried into escape on the previous day at position (1426.2, 1299.44, 3.31889)
´point_loot_bag_040´ ElementLootBag 102828
	Spawn loot bag that was personally carried into escape on the previous day at position (1449.67, 1151.29, 3.31889)
´point_loot_bag_041´ ElementLootBag 102829
	Spawn loot bag that was personally carried into escape on the previous day at position (1335.26, 1234.42, 3.31889)
´point_loot_bag_042´ ElementLootBag 102830
	Spawn loot bag that was personally carried into escape on the previous day at position (1149.35, 1112.87, 3.31891)
´point_loot_bag_043´ ElementLootBag 102833
	Spawn loot bag that was personally carried into escape on the previous day at position (1325.44, 1310.93, 3.31891)
´point_loot_bag_044´ ElementLootBag 102834
	Spawn loot bag that was personally carried into escape on the previous day at position (1360.39, 1544.42, 3.31891)
´point_loot_bag_045´ ElementLootBag 102835
	Spawn loot bag that was personally carried into escape on the previous day at position (1325.52, 1356.48, 3.31891)
´point_loot_bag_046´ ElementLootBag 102836
	Spawn loot bag that was personally carried into escape on the previous day at position (1239.77, 1427.54, 3.31891)
´point_loot_bag_047´ ElementLootBag 102837
	Spawn loot bag that was personally carried into escape on the previous day at position (1316.09, 1423.04, 3.31891)
´point_loot_bag_048´ ElementLootBag 102841
	Spawn loot bag that was personally carried into escape on the previous day at position (1213.02, 1366.93, 3.31889)
´point_loot_bag_049´ ElementLootBag 102842
	Spawn loot bag that was personally carried into escape on the previous day at position (1228.67, 1268.16, 3.31889)
´point_loot_bag_050´ ElementLootBag 102844
	Spawn loot bag that was personally carried into escape on the previous day at position (1309.13, 1091.85, 3.31891)
´trigger_area_003´ ElementAreaTrigger 100499
	DISABLED
	Box, width 130.0, height 130.0, depth 130.0, at position (1211.0, -1755.0, 551.0) with rotation (0.0, 0.0, 0.0, -1.0)
	Amount: 1
	Instigator: loot
	Interval: 0.1
	Upon on_enter, execute:
		Loot action: secure
		´secured_bags_counter（0）´ += 1
		Update objective: complete e_park_secure
		If instigator loot type is "painting":
			´paintLoot2´
			´paintLoot1´
		If instigator loot type is "weapons":
			´bagLoot2´
			´bagLoot1´
		If instigator loot type is "weapon":
			´bagLoot2´
			´bagLoot1´
		If instigator loot type is "money":
			´bagLoot2´
			´bagLoot1´
		If instigator loot type is "meth":
			´bagLoot1´
			´bagLoot2´
		If instigator loot type is "gold":
			´bagLoot1´
			´bagLoot2´
		If instigator loot type is "diamonds":
			´bagLoot1´
			´bagLoot2´
		If instigator loot type is "coke":
			´bagLoot1´
			´bagLoot2´
		If ´required_bags（0）´ == ´secured_bags_counter（0）´: (DELAY 0.01)
			´escape_2_escape_link´
			´escape_1_escape_link´
			´escape_1´
			´escape_2´
			Update objective: activate e_park_escape (DELAY 1)
		If ´total_bag_counter（0）´ == ´secured_bags_counter（0）´: (DELAY 0.01)
			remove ´point_waypoint_001´
			remove ´point_waypoint_002´
			´escape_1´
			´escape_2´
		Loot action: remove (DELAY 0.1)
´point_waypoint_001´ ElementWaypoint 100500
	DISABLED
	Place waypoint with icon "pd2_lootdrop" at position (1214.0, -1715.0, 540.0)
´trigger_area_004´ ElementAreaTrigger 102058
	DISABLED
	TRIGGER TIMES 1
	Box, width 400.0, height 500.0, depth 300.0, at position (858.0, -1525.0, 550.0) with rotation (0.0, 0.0, 0.0, -1.0)
	Amount: all
	Instigator: player
	Interval: 0.1
	Upon on_enter, execute:
		Update objective: complete e_park_escape
		Award experience: 3000
		Make teammate close to instigator say: g24
		´achievementlink´
		End mission: success (DELAY 0.05)
´paintLoot2´ ElementUnitSequence 102098
	DISABLED
	Execute sequence: "state_add_canvas_bag" - units/payday2/vehicles/air_vehicle_blackhawk/helicopter_cops_ref/009 (1248.0, -1760.0, -1369.0)
´bagLoot2´ ElementUnitSequence 102097
	DISABLED
	Execute sequence: "state_add_loot_bag" - units/payday2/vehicles/air_vehicle_blackhawk/helicopter_cops_ref/009 (1248.0, -1760.0, -1369.0)
´escape_1_only´ ElementWaypoint 102675
	TRIGGER TIMES 1
	Place waypoint with icon "pd2_escape" at position (858.0, -1525.0, 525.0)
´disabled_counter（0）´ ElementCounter 102415
´point_special_objective_052´ ElementSpecialObjective 102614
	Create objective for someone from group: ´ene_sniper_1´
	Make person path towards (-4438.0, -2092.0, 1275.0) and show "AI_sniper".
´ene_sniper_1´ ElementSpawnEnemyDummy 102613
	Spawn ene_sniper_1 (-5850.0, -1575.0, 1275.0).
	No group AI
´point_special_objective_053´ ElementSpecialObjective 102615
	Create objective for someone from group: ´ene_sniper_1´
	Make person path towards (-4434.0, -2451.0, 1275.0) and show "AI_sniper".
´point_special_objective_054´ ElementSpecialObjective 102616
	Create objective for someone from group: ´ene_sniper_1´
	Make person path towards (-4308.0, -2735.0, 1275.0) and show "AI_sniper".
´point_special_objective_055´ ElementSpecialObjective 102617
	Create objective for someone from group: ´ene_sniper_1´
	Make person path towards (-4386.0, -3074.0, 1275.0) and show "AI_sniper".
´point_special_objective_056´ ElementSpecialObjective 102618
	Create objective for someone from group: ´ene_sniper_1´
	Make person path towards (-4429.0, -3496.0, 1275.0) and show "AI_sniper".
´point_special_objective_051´ ElementSpecialObjective 102612
	Create objective for someone from group: ´ene_sniper_1_2´
	Make person path towards (-4289.0, -1138.0, 1289.0) and show "AI_sniper".
´ene_sniper_1_2´ ElementSpawnEnemyDummy 102607
	Spawn ene_sniper_1 (-5850.0, -1425.0, 1275.0).
	No group AI
´point_special_objective_050´ ElementSpecialObjective 102611
	Create objective for someone from group: ´ene_sniper_1_2´
	Make person path towards (-4402.0, -788.0, 1278.0) and show "AI_sniper".
´point_special_objective_049´ ElementSpecialObjective 102610
	Create objective for someone from group: ´ene_sniper_1_2´
	Make person path towards (-4391.0, -1361.0, 1275.0) and show "AI_sniper".
´point_special_objective_048´ ElementSpecialObjective 102609
	Create objective for someone from group: ´ene_sniper_1_2´
	Make person path towards (-4378.0, -109.0, 1283.0) and show "AI_sniper".
´point_special_objective_047´ ElementSpecialObjective 102608
	Create objective for someone from group: ´ene_sniper_1_2´
	Make person path towards (-4379.0, 141.0, 1283.0) and show "AI_sniper".
´trigger_area_005´ ElementAreaTrigger 102068
	DISABLED
	Box, width 130.0, height 130.0, depth 130.0, at position (-2130.0, -2573.0, 943.0) with rotation (0.0, 0.0, 0.0, -1.0)
	Amount: 1
	Instigator: loot
	Interval: 0.1
	Upon on_enter, execute:
		Loot action: secure
		´secured_bags_counter（0）´ += 1
		Update objective: complete e_park_secure
		If instigator loot type is "coke":
			´bagLoot1´
			´bagLoot2´
		If instigator loot type is "diamonds":
			´bagLoot1´
			´bagLoot2´
		If instigator loot type is "gold":
			´bagLoot1´
			´bagLoot2´
		If instigator loot type is "meth":
			´bagLoot1´
			´bagLoot2´
		If instigator loot type is "money":
			´bagLoot2´
			´bagLoot1´
		If instigator loot type is "weapon":
			´bagLoot2´
			´bagLoot1´
		If instigator loot type is "weapons":
			´bagLoot2´
			´bagLoot1´
		If instigator loot type is "painting":
			´paintLoot2´
			´paintLoot1´
		If ´required_bags（0）´ == ´secured_bags_counter（0）´: (DELAY 0.01)
			´escape_2_escape_link´
			´escape_1_escape_link´
			´escape_1´
			´escape_2´
			Update objective: activate e_park_escape (DELAY 1)
		If ´total_bag_counter（0）´ == ´secured_bags_counter（0）´: (DELAY 0.01)
			remove ´point_waypoint_001´
			remove ´point_waypoint_002´
			´escape_1´
			´escape_2´
		Loot action: remove (DELAY 0.1)
´point_waypoint_002´ ElementWaypoint 102069
	DISABLED
	Place waypoint with icon "pd2_lootdrop" at position (-2129.0, -2550.0, 938.0)
´trigger_area_007´ ElementAreaTrigger 102074
	DISABLED
	TRIGGER TIMES 1
	Box, width 400.0, height 500.0, depth 300.0, at position (-2512.0, -2344.0, 900.0) with rotation (0.0, 0.0, 0.0, -1.0)
	Amount: all
	Instigator: player
	Interval: 0.1
	Upon on_enter, execute:
		Update objective: complete e_park_escape
		Award experience: 3000
		Make teammate close to instigator say: g24
		´achievementlink´
		End mission: success (DELAY 0.05)
´paintLoot1´ ElementUnitSequence 102096
	DISABLED
	Execute sequence: "state_add_canvas_bag" - units/payday2/vehicles/air_vehicle_blackhawk/helicopter_cops_ref/002 (-2096.0, -2587.0, -980.0)
´bagLoot1´ ElementUnitSequence 102095
	DISABLED
	Execute sequence: "state_add_loot_bag" - units/payday2/vehicles/air_vehicle_blackhawk/helicopter_cops_ref/002 (-2096.0, -2587.0, -980.0)
´escape_2_only´ ElementWaypoint 102674
	TRIGGER TIMES 1
	Place waypoint with icon "pd2_escape" at position (-2512.0, -2344.0, 900.0)
´ene_sniper_1_3´ ElementSpawnEnemyDummy 102457
	Spawn ene_sniper_1 (5383.0, 4399.0, 1602.0).
	No group AI
´ene_sniper_1_4´ ElementSpawnEnemyDummy 102455
	Spawn ene_sniper_1 (5393.0, 4238.0, 1602.0).
	No group AI
´point_special_objective_014´ ElementSpecialObjective 102505
	Create objective for someone from group: ´ene_sniper_1_3´
	Make person path towards (3893.0, 4050.0, 1606.0) and show "AI_sniper".
´point_special_objective_015´ ElementSpecialObjective 102506
	Create objective for someone from group: ´ene_sniper_1_3´
	Make person path towards (3893.0, 3850.0, 1606.0) and show "AI_sniper".
´point_special_objective_016´ ElementSpecialObjective 102507
	Create objective for someone from group: ´ene_sniper_1_3´
	Make person path towards (3892.0, 3600.0, 1606.0) and show "AI_sniper".
´point_special_objective_017´ ElementSpecialObjective 102510
	Create objective for someone from group: ´ene_sniper_1_3´
	Make person path towards (3892.0, 3400.0, 1606.0) and show "AI_sniper".
´point_special_objective_018´ ElementSpecialObjective 102530
	Create objective for someone from group: ´ene_sniper_1_4´
	Make person path towards (3890.0, 2963.0, 1606.0) and show "AI_sniper".
´point_special_objective_019´ ElementSpecialObjective 102531
	Create objective for someone from group: ´ene_sniper_1_4´
	Make person path towards (3911.0, 2764.0, 1606.0) and show "AI_sniper".
´point_special_objective_020´ ElementSpecialObjective 102532
	Create objective for someone from group: ´ene_sniper_1_4´
	Make person path towards (4184.93, 2499.36, 1606.0) and show "AI_sniper".
´total_bag_counter（0）´ ElementCounter 102092
´ene_sniper_1_5´ ElementSpawnEnemyDummy 101056
	Spawn ene_sniper_1 (250.0, 4050.0, 1278.0).
	No group AI
´point_special_objective_067´ ElementSpecialObjective 100985
	Create objective for someone from group: ´ene_sniper_1_5´
	Make person path towards (650.0, 3753.0, 1283.89) and show "AI_sniper".
´point_special_objective_068´ ElementSpecialObjective 101611
	Create objective for someone from group: ´ene_sniper_1_5´
	Make person path towards (-50.0, 3750.0, 1283.89) and show "AI_sniper".
´point_special_objective_066´ ElementSpecialObjective 101591
	Create objective for someone from group: ´ene_sniper_1_5´
	Make person path towards (-131.0, 3982.0, 1375.0) and show "AI_sniper".
´ene_sniper_1_6´ ElementSpawnEnemyDummy 101773
	Spawn ene_sniper_1 (400.0, 3800.0, 802.0).
	No group AI
´point_special_objective_069´ ElementSpecialObjective 101774
	Create objective for someone from group: ´ene_sniper_1_6´
	Make person path towards (710.0, 3776.0, 800.0) and show "AI_sniper".
´point_special_objective_070´ ElementSpecialObjective 101775
	Create objective for someone from group: ´ene_sniper_1_6´
	Make person path towards (98.0, 3776.0, 800.0) and show "AI_sniper".
´ene_sniper_1_7´ ElementSpawnEnemyDummy 102536
	Spawn ene_sniper_1 (5375.0, 25.0005, 1200.0).
	No group AI
´ene_sniper_1_8´ ElementSpawnEnemyDummy 102582
	Spawn ene_sniper_1 (5375.0, -125.0, 1200.0).
	No group AI
´point_special_objective_022´ ElementSpecialObjective 102453
	Create objective for someone from group: ´ene_sniper_1_7´
	Make person path towards (4078.0, 350.0, 1200.0) and show "AI_sniper".
´point_special_objective_023´ ElementSpecialObjective 102537
	Create objective for someone from group: ´ene_sniper_1_7´
	Make person path towards (4078.0, 150.0, 1200.0) and show "AI_sniper".
´point_special_objective_024´ ElementSpecialObjective 102538
	Create objective for someone from group: ´ene_sniper_1_7´
	Make person path towards (4078.0, -75.0, 1200.0) and show "AI_sniper".
´point_special_objective_026´ ElementSpecialObjective 102540
	Create objective for someone from group: ´ene_sniper_1_7´
	Make person path towards (4078.0, -300.0, 1200.0) and show "AI_sniper".
´point_special_objective_027´ ElementSpecialObjective 102541
	Create objective for someone from group: ´ene_sniper_1_7´
	Make person path towards (4078.0, -550.0, 1200.0) and show "AI_sniper".
´point_special_objective_029´ ElementSpecialObjective 102584
	Create objective for someone from group: ´ene_sniper_1_8´
	Make person path towards (4478.0, -1525.0, 1200.0) and show "AI_sniper".
´point_special_objective_030´ ElementSpecialObjective 102585
	Create objective for someone from group: ´ene_sniper_1_8´
	Make person path towards (4478.0, -1750.0, 1200.0) and show "AI_sniper".
´point_special_objective_031´ ElementSpecialObjective 102586
	Create objective for someone from group: ´ene_sniper_1_8´
	Make person path towards (4453.0, -2050.0, 1200.0) and show "AI_sniper".
´secured_bags_counter（0）´ ElementCounter 102084
´achievementlink´ ElementAwardAchievment 101874
	Award achievement: bullet_dodger
´check_spawning_bags´ ElementLootBagTrigger 102089
	Upon any event:
		spawn: ´point_loot_bag_012´
		spawn: ´point_loot_bag_011´
		spawn: ´point_loot_bag_013´
		spawn: ´point_loot_bag_015´
		spawn: ´point_loot_bag_014´
		spawn: ´point_loot_bag_016´
		spawn: ´point_loot_bag_017´
		spawn: ´point_loot_bag_018´
		spawn: ´point_loot_bag_020´
		spawn: ´point_loot_bag_019´
		spawn: ´point_loot_bag_002´
		spawn: ´point_loot_bag_001´
		spawn: ´point_loot_bag_004´
		spawn: ´point_loot_bag_003´
		spawn: ´point_loot_bag_005´
		spawn: ´point_loot_bag_007´
		spawn: ´point_loot_bag_008´
		spawn: ´point_loot_bag_006´
		spawn: ´point_loot_bag_010´
		spawn: ´point_loot_bag_009´
		spawn: ´point_loot_bag_047´
		spawn: ´point_loot_bag_044´
		spawn: ´point_loot_bag_046´
		spawn: ´point_loot_bag_045´
		spawn: ´point_loot_bag_036´
		spawn: ´point_loot_bag_037´
		spawn: ´point_loot_bag_043´
		spawn: ´point_loot_bag_038´
		spawn: ´point_loot_bag_042´
		spawn: ´point_loot_bag_048´
		spawn: ´point_loot_bag_049´
		spawn: ´point_loot_bag_041´
		spawn: ´point_loot_bag_039´
		spawn: ´point_loot_bag_040´
		spawn: ´point_loot_bag_050´
		spawn: ´point_loot_bag_035´
		spawn: ´point_loot_bag_026´
		spawn: ´point_loot_bag_025´
		spawn: ´point_loot_bag_024´
		spawn: ´point_loot_bag_027´
		spawn: ´point_loot_bag_034´
		spawn: ´point_loot_bag_023´
		spawn: ´point_loot_bag_028´
		spawn: ´point_loot_bag_033´
		spawn: ´point_loot_bag_022´
		spawn: ´point_loot_bag_029´
		spawn: ´point_loot_bag_032´
		spawn: ´point_loot_bag_021´
		spawn: ´point_loot_bag_030´
		spawn: ´point_loot_bag_031´
	Execute:
		´total_bag_counter（0）´ += 1
		´enable_loot_wp´
´enable_loot_wp´ ElementToggle 101814
	TRIGGER TIMES 1
	Toggle on: ´point_waypoint_001´
	Toggle on: ´point_waypoint_002´
´4_disabled´ ElementCounterTrigger 102375
	Upon event ´disabled_counter（0）´ == 4:
		Toggle on, trigger times 1: ´6´
		Toggle on, trigger times 1: ´4´
		Toggle on, trigger times 1: ´3´
		Toggle on, trigger times 1: ´2_4´
		´reenable_005´
		´reenable_001´
´6´ MissionScriptElement 102373
	TRIGGER TIMES 1
	´disabled_counter（0）´ += 1
	Execute sequence: "flyin_left_hover" - units/payday2/vehicles/air_vehicle_blackhawk/helicopter_cops_ref/007 (-2112.44, 5405.33, -400.0)
	Execute sequence: "swat" - units/payday2/vehicles/air_vehicle_blackhawk/helicopter_cops_ref/007 (-2112.44, 5405.33, -400.0)
	Execute sequence: "open_door_left" - units/payday2/vehicles/air_vehicle_blackhawk/helicopter_cops_ref/007 (-2112.44, 5405.33, -400.0) (DELAY 20)
	Execute sequence: "open_door_right" - units/payday2/vehicles/air_vehicle_blackhawk/helicopter_cops_ref/007 (-2112.44, 5405.33, -400.0) (DELAY 20)
	´ene_sniper_1_10´ (-2250.0, 4800.0, 1278.0) (DELAY 20)
	Execute 1 (do not ignore disabled): (DELAY 20.5)
		´point_special_objective_060´
		´point_special_objective_059´
		´point_special_objective_057´
		´point_special_objective_058´
		´point_special_objective_061´
	Execute sequence: "hover_flyout_back" - units/payday2/vehicles/air_vehicle_blackhawk/helicopter_cops_ref/007 (-2112.44, 5405.33, -400.0) (DELAY 25)
	´ene_sniper_1_9´ (-1100.0, 4200.0, 802.0) (DELAY 25)
	Execute 1 (do not ignore disabled): (DELAY 25.5)
		´point_special_objective_064´
		´point_special_objective_063´
		´point_special_objective_062´
	Execute sequence: "hidden" - units/payday2/vehicles/air_vehicle_blackhawk/helicopter_cops_ref/007 (-2112.44, 5405.33, -400.0) (DELAY 55)
´4´ MissionScriptElement 102371
	TRIGGER TIMES 1
	´disabled_counter（0）´ += 1
	Execute sequence: "flyin_right_hover" - units/payday2/vehicles/air_vehicle_blackhawk/helicopter_cops_ref/008 (-2303.0, -5686.0, -230.0)
	Execute sequence: "swat" - units/payday2/vehicles/air_vehicle_blackhawk/helicopter_cops_ref/008 (-2303.0, -5686.0, -230.0)
	Execute sequence: "open_door_left" - units/payday2/vehicles/air_vehicle_blackhawk/helicopter_cops_ref/008 (-2303.0, -5686.0, -230.0) (DELAY 20)
	Execute sequence: "open_door_right" - units/payday2/vehicles/air_vehicle_blackhawk/helicopter_cops_ref/008 (-2303.0, -5686.0, -230.0) (DELAY 20)
	´ene_sniper_1_12´ (-2206.0, -5254.01, 1301.0) (DELAY 20)
	´ene_sniper_1_11´ (-2356.0, -5254.01, 1301.0) (DELAY 20)
	Execute 1 (do not ignore disabled): (DELAY 20.5)
		´point_special_objective_042´
		´point_special_objective_041´
		´point_special_objective_040´
		´point_special_objective_039´
		´point_special_objective_038´
	Execute 1 (do not ignore disabled): (DELAY 20.5)
		´point_special_objective_043´
		´point_special_objective_044´
		´point_special_objective_045´
		´point_special_objective_046´
	Execute sequence: "hover_flyout_left" - units/payday2/vehicles/air_vehicle_blackhawk/helicopter_cops_ref/008 (-2303.0, -5686.0, -230.0) (DELAY 25)
	Execute sequence: "hidden" - units/payday2/vehicles/air_vehicle_blackhawk/helicopter_cops_ref/008 (-2303.0, -5686.0, -230.0) (DELAY 55)
´3´ MissionScriptElement 102370
	TRIGGER TIMES 1
	´disabled_counter（0）´ += 1
	Execute sequence: "flyin_left_hover" - units/payday2/vehicles/air_vehicle_blackhawk/helicopter_cops_ref/004 (1415.37, -5448.13, -75.0)
	Execute sequence: "swat" - units/payday2/vehicles/air_vehicle_blackhawk/helicopter_cops_ref/004 (1415.37, -5448.13, -75.0)
	Execute sequence: "open_door_left" - units/payday2/vehicles/air_vehicle_blackhawk/helicopter_cops_ref/004 (1415.37, -5448.13, -75.0) (DELAY 20)
	Execute sequence: "open_door_right" - units/payday2/vehicles/air_vehicle_blackhawk/helicopter_cops_ref/004 (1415.37, -5448.13, -75.0) (DELAY 20)
	´ene_sniper_1_14´ (1122.0, -5584.0, 1601.0) (DELAY 20)
	´ene_sniper_1_13´ (975.001, -5576.0, 1601.0) (DELAY 20)
	Execute 1 (do not ignore disabled): (DELAY 20.5)
		´point_special_objective_037´
		´point_special_objective_036´
	Execute 1 (do not ignore disabled): (DELAY 20.5)
		´point_special_objective_035´
		´point_special_objective_034´
		´point_special_objective_033´
	Execute sequence: "hover_flyout_back" - units/payday2/vehicles/air_vehicle_blackhawk/helicopter_cops_ref/004 (1415.37, -5448.13, -75.0) (DELAY 25)
	Execute sequence: "hidden" - units/payday2/vehicles/air_vehicle_blackhawk/helicopter_cops_ref/004 (1415.37, -5448.13, -75.0) (DELAY 55)
´2_4´ MissionScriptElement 102369
	TRIGGER TIMES 1
	´disabled_counter（0）´ += 1
	Execute sequence: "flyin_right_hover" - units/payday2/vehicles/air_vehicle_blackhawk/helicopter_cops_ref/005 (5984.95, -129.001, -400.0)
	Execute sequence: "swat" - units/payday2/vehicles/air_vehicle_blackhawk/helicopter_cops_ref/005 (5984.95, -129.001, -400.0)
	Execute sequence: "open_door_left" - units/payday2/vehicles/air_vehicle_blackhawk/helicopter_cops_ref/005 (5984.95, -129.001, -400.0) (DELAY 20)
	Execute sequence: "open_door_right" - units/payday2/vehicles/air_vehicle_blackhawk/helicopter_cops_ref/005 (5984.95, -129.001, -400.0) (DELAY 20)
	´ene_sniper_1_8´ (5375.0, -125.0, 1200.0) (DELAY 20)
	´ene_sniper_1_7´ (5375.0, 25.0005, 1200.0) (DELAY 20)
	Execute 1 (do not ignore disabled): (DELAY 20.5)
		´point_special_objective_029´
		´point_special_objective_030´
		´point_special_objective_031´
	Execute 1 (do not ignore disabled): (DELAY 20.5)
		´point_special_objective_022´
		´point_special_objective_023´
		´point_special_objective_024´
		´point_special_objective_026´
		´point_special_objective_027´
	Execute sequence: "hover_flyout_back" - units/payday2/vehicles/air_vehicle_blackhawk/helicopter_cops_ref/005 (5984.95, -129.001, -400.0) (DELAY 25)
	Execute sequence: "hidden" - units/payday2/vehicles/air_vehicle_blackhawk/helicopter_cops_ref/005 (5984.95, -129.001, -400.0) (DELAY 55)
´point_special_objective_064´ ElementSpecialObjective 102628
	Create objective for someone from group: ´ene_sniper_1_9´
	Make person path towards (700.997, 3776.0, 810.0) and show "AI_sniper".
´ene_sniper_1_9´ ElementSpawnEnemyDummy 102625
	Spawn ene_sniper_1 (-1100.0, 4200.0, 802.0).
	No group AI
´point_special_objective_063´ ElementSpecialObjective 102627
	Create objective for someone from group: ´ene_sniper_1_9´
	Make person path towards (115.997, 3776.0, 810.0) and show "AI_sniper".
´point_special_objective_062´ ElementSpecialObjective 102626
	Create objective for someone from group: ´ene_sniper_1_9´
	Make person path towards (-1727.0, 2991.0, 810.0) and show "AI_sniper".
´point_special_objective_060´ ElementSpecialObjective 102623
	Create objective for someone from group: ´ene_sniper_1_10´
	Make person path towards (-2331.0, 2933.0, 1292.0) and show "AI_sniper".
´ene_sniper_1_10´ ElementSpawnEnemyDummy 102619
	Spawn ene_sniper_1 (-2250.0, 4800.0, 1278.0).
	No group AI
´point_special_objective_059´ ElementSpecialObjective 102622
	Create objective for someone from group: ´ene_sniper_1_10´
	Make person path towards (-1638.0, 2948.0, 1292.0) and show "AI_sniper".
´point_special_objective_057´ ElementSpecialObjective 102620
	Create objective for someone from group: ´ene_sniper_1_10´
	Make person path towards (-1129.0, 3759.0, 1284.0) and show "AI_sniper".
´point_special_objective_058´ ElementSpecialObjective 102621
	Create objective for someone from group: ´ene_sniper_1_10´
	Make person path towards (-150.0, 4000.0, 1375.0) and show "AI_sniper".
´point_special_objective_061´ ElementSpecialObjective 102624
	Create objective for someone from group: ´ene_sniper_1_10´
	Make person path towards (571.0, 3753.0, 1284.0) and show "AI_sniper".
´point_special_objective_042´ ElementSpecialObjective 102601
	Create objective for someone from group: ´ene_sniper_1_11´
	Make person path towards (-2091.0, -3937.01, 1302.0) and show "AI_sniper".
´ene_sniper_1_11´ ElementSpawnEnemyDummy 102596
	Spawn ene_sniper_1 (-2356.0, -5254.01, 1301.0).
	No group AI
´point_special_objective_041´ ElementSpecialObjective 102600
	Create objective for someone from group: ´ene_sniper_1_11´
	Make person path towards (-2200.0, -3914.01, 1302.0) and show "AI_sniper".
´point_special_objective_040´ ElementSpecialObjective 102599
	Create objective for someone from group: ´ene_sniper_1_11´
	Make person path towards (-2325.0, -3903.01, 1302.0) and show "AI_sniper".
´point_special_objective_039´ ElementSpecialObjective 102598
	Create objective for someone from group: ´ene_sniper_1_11´
	Make person path towards (-2475.0, -3914.01, 1302.0) and show "AI_sniper".
´point_special_objective_038´ ElementSpecialObjective 102597
	Create objective for someone from group: ´ene_sniper_1_11´
	Make person path towards (-2575.0, -3937.01, 1302.0) and show "AI_sniper".
´point_special_objective_043´ ElementSpecialObjective 102603
	Create objective for someone from group: ´ene_sniper_1_12´
	Make person path towards (-1009.0, -3942.01, 1300.0) and show "AI_sniper".
´ene_sniper_1_12´ ElementSpawnEnemyDummy 102602
	Spawn ene_sniper_1 (-2206.0, -5254.01, 1301.0).
	No group AI
´point_special_objective_044´ ElementSpecialObjective 102604
	Create objective for someone from group: ´ene_sniper_1_12´
	Make person path towards (-859.0, -3899.01, 1300.0) and show "AI_sniper".
´point_special_objective_045´ ElementSpecialObjective 102605
	Create objective for someone from group: ´ene_sniper_1_12´
	Make person path towards (-700.004, -3899.01, 1300.0) and show "AI_sniper".
´point_special_objective_046´ ElementSpecialObjective 102606
	Create objective for someone from group: ´ene_sniper_1_12´
	Make person path towards (-500.004, -3942.01, 1300.0) and show "AI_sniper".
´point_special_objective_037´ ElementSpecialObjective 102595
	Create objective for someone from group: ´ene_sniper_1_13´
	Make person path towards (747.999, -4126.0, 1604.0) and show "AI_sniper".
´ene_sniper_1_13´ ElementSpawnEnemyDummy 102590
	Spawn ene_sniper_1 (975.001, -5576.0, 1601.0).
	No group AI
´point_special_objective_036´ ElementSpecialObjective 102594
	Create objective for someone from group: ´ene_sniper_1_13´
	Make person path towards (497.999, -4179.0, 1604.0) and show "AI_sniper".
´point_special_objective_035´ ElementSpecialObjective 102593
	Create objective for someone from group: ´ene_sniper_1_14´
	Make person path towards (1218.0, -4125.0, 1604.0) and show "AI_sniper".
´ene_sniper_1_14´ ElementSpawnEnemyDummy 102588
	Spawn ene_sniper_1 (1122.0, -5584.0, 1601.0).
	No group AI
´point_special_objective_034´ ElementSpecialObjective 102592
	Create objective for someone from group: ´ene_sniper_1_14´
	Make person path towards (1410.0, -4142.0, 1595.0) and show "AI_sniper".
´point_special_objective_033´ ElementSpecialObjective 102589
	Create objective for someone from group: ´ene_sniper_1_14´
	Make person path towards (1622.0, -4183.0, 1595.0) and show "AI_sniper".
´all_snipers_dead´ ElementCounterTrigger 102428
	Upon event ´dead_sniper_counter（0）´ == 2:
		Reset value of: ´dead_sniper_counter（0）´ (DELAY 0.05)
		´enable_second_time´ (DELAY 1)
		´second_time_both_snipers_die´ (DELAY 1)
		Execute 1: (DELAY 15)
			´1_3´
			´2_4´
			´3´
			´4´
			´5´
			´6´
		´first_sniper_reinforce´ (DELAY 25)
		´subseq_sniper_reinforce´ (DELAY 25)
´dead_sniper_counter（0）´ ElementCounter 102427
´enable_second_time´ ElementToggle 102347
	TRIGGER TIMES 1
	Toggle on: ´second_time_both_snipers_die´
´second_time_both_snipers_die´ ElementDialogue 102346
	DISABLED
	TRIGGER TIMES 1
	Play dialogue: pln_esc_street_lookout_sniper
´first_sniper_reinforce´ ElementDialogue 102447
	TRIGGER TIMES 1
	Play dialogue: pln_esc_street_snipers_deployed
	Toggle on: ´subseq_sniper_reinforce´
´subseq_sniper_reinforce´ ElementDialogue 102693
	DISABLED
	Play dialogue: pln_esc_street_more_snipers_deployed
´check_for_deaths´ ElementEnemyDummyTrigger 102432
	Upon any event:
		death: ´ene_sniper_1_3´
		death: ´ene_sniper_1_4´
		death: ´ene_sniper_1_7´
		death: ´ene_sniper_1_8´
		death: ´ene_sniper_1_14´
		death: ´ene_sniper_1_13´
		death: ´ene_sniper_1_12´
		death: ´ene_sniper_1_11´
		death: ´ene_sniper_1´
		death: ´ene_sniper_1_2´
		death: ´ene_sniper_1_10´
		death: ´ene_sniper_1_9´
		death: ´ene_sniper_1_5´
		death: ´ene_sniper_1_6´
	Execute:
		´dead_sniper_counter（0）´ += 1
		´disable_achievement´
´disable_achievement´ ElementToggle 101872
	TRIGGER TIMES 1
	Toggle off: ´achievementlink´
´func_sequence_trigger_001´ ElementUnitSequenceTrigger 100501
	TRIGGER TIMES 1
	Upon sequence "done_opened" - units/payday2/equipment/gen_interactable_door_reinforced/008 (267.0, -1445.0, -1.0):
		Allow nav segs: 52
´func_sequence_trigger_002´ ElementUnitSequenceTrigger 100519
	TRIGGER TIMES 1
	Upon sequence "done_opened" - units/payday2/equipment/gen_interactable_door_wooden_a/001 (1275.0, -900.0, 0.000518799):
		Allow nav segs: 60
