ID range vs continent name:
	100000: world

statics
	100003 units/dev_tools/level_tools/door_blocker/001 (-63.0, 0.0, 0.0)
	100000 units/pd2_dlc1/equipment/gen_interactable_door_wooden_c_v2_dirty/001 (-4.0, 0.0, 0.0)
		mesh_variation state_door_open
	100037 units/pd2_dlc2/props/gen_prop_swat_tripmine_shootable/001 (-9.0, 12.0, 41.0)
