ID range vs continent name:
	100000: world

statics
	100005 units/dev_tools/level_tools/dev_door_blocker_1x2x3/001 (225.0, -74.9999, 0.0)
	100003 units/pd2_mcmansion/props/mcm_prop_small_alarm/001 (222.0, 0.0, 221.0)
	100000 units/pd2_mcmansion/props/wooden_doors/mcm_prop_hallway_door_frame_terrace/001 (230.0, -0.999947, 0.0)
		disable_on_ai_graph True
		mesh_variation activate_door
