ID range vs continent name:
	100000: world

statics
	100008 units/payday2/props/gen_prop_glow_garage_lamp/001 (200.0, 202.0, 769.0)
	100022 units/pd2_dlc2/architecture/gov_d_int_ceiling_tile_explosion_4x4m/001 (400.0, 6.10352e-05, 775.0)
