ID range vs continent name:
	100000: world

statics
	100013 units/payday2/props/signs/gen_prop_security_sign_6/001 (-15.0, -45.0, 151.238)
	100002 units/pd2_mcmansion/architecture/ext_house/mcm_a_ext_window_b_01/001 (0.0, 0.0, 0.0)
	100001 units/pd2_mcmansion/props/mcm_prop_small_alarm/001 (-18.0, -40.0, 100.0)
