ID range vs continent name:
	100000: world

statics
	100008 units/dev_tools/level_tools/dev_collision_1m_2_bag/001 (-50.0, -5.96046e-06, 0.0)
	100009 units/dev_tools/level_tools/dev_collision_1m_2_bag/player_collision (50.0, 5.96046e-06, 0.0)
	100014 units/dev_tools/level_tools/door_blocker/001 (0.0, 0.0, 0.0)
	100000 units/payday2/props/bnk_prop_branch1_security_shutter_b/001 (-100.0, 0.0, 300.0)
