﻿´point_spawn_player_001´ ElementPlayerSpawner 100000
	position -12425.0, 350.0, 0.0039978
	rotation 0.0, 0.0, 0.707107, -0.707107
	state standard
´temp_start´ MissionScriptElement 100020
	EXECUTE ON STARTUP
	DISABLED
	on_executed
		´point_spawn_player_001´ (delay 0)
		´temp_1s_delay´ (delay 4)
		´disable_enable_dozer´ (delay 0)
´temp_1s_delay´ MissionScriptElement 100007
	on_executed
		´start_barrels´ (delay 0)
´make_barrel_dynamic_001´ ElementUnitSequence 100008
	position -925.0, 2400.0, 227.504
	rotation 0.0, 0.0, 0.0, -1.0
	trigger_list
		1
			id 1
			name run_sequence
			notify_unit_id units/pd2_dlc_shoutout_raid/props/gen_explosive_barrel/barrel_001 (-309.0, 59.0, 251.301)
			notify_unit_sequence int_seq_make_dynamic
			time 0
		2
			id 2
			name run_sequence
			notify_unit_id units/pd2_dlc_shoutout_raid/props/gen_explosive_barrel/barrel_001 (-309.0, 59.0, 251.301)
			notify_unit_sequence int_seq_burn
			time 0
	on_executed
		´show_barrel_002´ (delay 1)
´show_barrel_002´ ElementEnableUnit 100022
	position -1000.0, 2475.0, 227.504
	rotation 0.0, 0.0, 0.0, -1.0
	unit_ids
		1 units/pd2_dlc_shoutout_raid/props/gen_explosive_barrel/barrel_002 (-309.0, 58.843, 254.297)
	on_executed
		´make_barrel_dynamic_002´ (delay 0)
´hide_barrel_002´ ElementDisableUnit 100023
	position -1000.0, 3000.0, 227.504
	rotation 0.0, 0.0, 0.0, -1.0
	unit_ids
		1 units/pd2_dlc_shoutout_raid/props/gen_explosive_barrel/barrel_002 (-309.0, 58.843, 254.297)
´show_barrel_003´ ElementEnableUnit 100024
	position -1075.0, 2475.0, 227.504
	rotation 0.0, 0.0, 0.0, -1.0
	unit_ids
		1 units/pd2_dlc_shoutout_raid/props/gen_explosive_barrel/barrel_003 (-309.0, 59.0, 252.301)
	on_executed
		´make_barrel_dynamic_003´ (delay 0)
´hide_barrel_003´ ElementDisableUnit 100025
	position -1075.0, 3000.0, 227.504
	rotation 0.0, 0.0, 0.0, -1.0
	unit_ids
		1 units/pd2_dlc_shoutout_raid/props/gen_explosive_barrel/barrel_003 (-309.0, 59.0, 252.301)
´show_barrel_004´ ElementEnableUnit 100026
	position -1150.0, 2475.0, 227.504
	rotation 0.0, 0.0, 0.0, -1.0
	unit_ids
		1 units/pd2_dlc_shoutout_raid/props/gen_explosive_barrel/barrel_004 (-309.0, 59.0, 251.301)
	on_executed
		´make_barrel_dynamic_004´ (delay 0)
´hide_barrel_004´ ElementDisableUnit 100027
	position -1150.0, 3000.0, 227.504
	rotation 0.0, 0.0, 0.0, -1.0
	unit_ids
		1 units/pd2_dlc_shoutout_raid/props/gen_explosive_barrel/barrel_004 (-309.0, 59.0, 251.301)
´show_barrel_005´ ElementEnableUnit 100028
	position -1225.0, 2475.0, 227.504
	rotation 0.0, 0.0, 0.0, -1.0
	unit_ids
		1 units/pd2_dlc_shoutout_raid/props/gen_explosive_barrel/barrel_005 (-309.0, 59.0, 251.301)
	on_executed
		´make_barrel_dynamic_005´ (delay 0)
´hide_barrel_005´ ElementDisableUnit 100029
	position -1225.0, 3000.0, 227.504
	rotation 0.0, 0.0, 0.0, -1.0
	unit_ids
		1 units/pd2_dlc_shoutout_raid/props/gen_explosive_barrel/barrel_005 (-309.0, 59.0, 251.301)
´show_barrel_006´ ElementEnableUnit 100030
	position -1300.0, 2475.0, 227.504
	rotation 0.0, 0.0, 0.0, -1.0
	unit_ids
		1 units/pd2_dlc_shoutout_raid/props/gen_explosive_barrel/barrel_006 (-308.999, 58.9651, 253.3)
	on_executed
		´make_barrel_dynamic_006´ (delay 0)
´hide_barrel_006´ ElementDisableUnit 100031
	position -1300.0, 3000.0, 227.504
	rotation 0.0, 0.0, 0.0, -1.0
	unit_ids
		1 units/pd2_dlc_shoutout_raid/props/gen_explosive_barrel/barrel_006 (-308.999, 58.9651, 253.3)
´show_barrel_007´ ElementEnableUnit 100032
	position -1375.0, 2475.0, 227.504
	rotation 0.0, 0.0, 0.0, -1.0
	unit_ids
		1 units/pd2_dlc_shoutout_raid/props/gen_explosive_barrel/barrel_007 (-308.983, 58.0002, 251.301)
	on_executed
		´make_barrel_dynamic_007´ (delay 0)
´hide_barrel_007´ ElementDisableUnit 100033
	position -1375.0, 3000.0, 227.504
	rotation 0.0, 0.0, 0.0, -1.0
	unit_ids
		1 units/pd2_dlc_shoutout_raid/props/gen_explosive_barrel/barrel_007 (-308.983, 58.0002, 251.301)
´show_barrel_008´ ElementEnableUnit 100034
	position -1450.0, 2475.0, 227.504
	rotation 0.0, 0.0, 0.0, -1.0
	unit_ids
		1 units/pd2_dlc_shoutout_raid/props/gen_explosive_barrel/barrel_008 (-309.0, 59.0, 252.301)
	on_executed
		´make_barrel_dynamic_008´ (delay 0)
´hide_barrel_008´ ElementDisableUnit 100035
	position -1450.0, 3000.0, 227.504
	rotation 0.0, 0.0, 0.0, -1.0
	unit_ids
		1 units/pd2_dlc_shoutout_raid/props/gen_explosive_barrel/barrel_008 (-309.0, 59.0, 252.301)
´show_barrel_009´ ElementEnableUnit 100036
	position -1525.0, 2475.0, 227.504
	rotation 0.0, 0.0, 0.0, -1.0
	unit_ids
		1 units/pd2_dlc_shoutout_raid/props/gen_explosive_barrel/barrel_009 (-309.0, 59.0, 251.301)
	on_executed
		´make_barrel_dynamic_009´ (delay 0)
´hide_barrel_009´ ElementDisableUnit 100037
	position -1525.0, 3000.0, 227.504
	rotation 0.0, 0.0, 0.0, -1.0
	unit_ids
		1 units/pd2_dlc_shoutout_raid/props/gen_explosive_barrel/barrel_009 (-309.0, 59.0, 251.301)
´show_barrel_010´ ElementEnableUnit 100038
	position -1600.0, 2475.0, 227.504
	rotation 0.0, 0.0, 0.0, -1.0
	unit_ids
		1 units/pd2_dlc_shoutout_raid/props/gen_explosive_barrel/barrel_010 (-309.0, 59.0, 251.301)
	on_executed
		´make_barrel_dynamic_010´ (delay 0)
´hide_barrel_010´ ElementDisableUnit 100039
	position -1600.0, 3000.0, 227.504
	rotation 0.0, 0.0, 0.0, -1.0
	unit_ids
		1 units/pd2_dlc_shoutout_raid/props/gen_explosive_barrel/barrel_010 (-309.0, 59.0, 251.301)
´make_barrel_dynamic_002´ ElementUnitSequence 100040
	position -1000.0, 2400.0, 227.504
	rotation 0.0, 0.0, 0.0, -1.0
	trigger_list
		1
			id 1
			name run_sequence
			notify_unit_id units/pd2_dlc_shoutout_raid/props/gen_explosive_barrel/barrel_002 (-309.0, 58.843, 254.297)
			notify_unit_sequence int_seq_make_dynamic
			time 0
		2
			id 2
			name run_sequence
			notify_unit_id units/pd2_dlc_shoutout_raid/props/gen_explosive_barrel/barrel_002 (-309.0, 58.843, 254.297)
			notify_unit_sequence int_seq_burn
			time 0
	on_executed
		´show_barrel_003´ (delay 1)
´make_barrel_dynamic_003´ ElementUnitSequence 100041
	position -1075.0, 2400.0, 227.504
	rotation 0.0, 0.0, 0.0, -1.0
	trigger_list
		1
			id 1
			name run_sequence
			notify_unit_id units/pd2_dlc_shoutout_raid/props/gen_explosive_barrel/barrel_003 (-309.0, 59.0, 252.301)
			notify_unit_sequence int_seq_make_dynamic
			time 0
		2
			id 2
			name run_sequence
			notify_unit_id units/pd2_dlc_shoutout_raid/props/gen_explosive_barrel/barrel_003 (-309.0, 59.0, 252.301)
			notify_unit_sequence int_seq_burn
			time 0
	on_executed
		´show_barrel_004´ (delay 1)
´make_barrel_dynamic_004´ ElementUnitSequence 100042
	position -1150.0, 2400.0, 227.504
	rotation 0.0, 0.0, 0.0, -1.0
	trigger_list
		1
			id 1
			name run_sequence
			notify_unit_id units/pd2_dlc_shoutout_raid/props/gen_explosive_barrel/barrel_004 (-309.0, 59.0, 251.301)
			notify_unit_sequence int_seq_make_dynamic
			time 0
		2
			id 2
			name run_sequence
			notify_unit_id units/pd2_dlc_shoutout_raid/props/gen_explosive_barrel/barrel_004 (-309.0, 59.0, 251.301)
			notify_unit_sequence int_seq_burn
			time 0
	on_executed
		´show_barrel_005´ (delay 1)
´make_barrel_dynamic_005´ ElementUnitSequence 100043
	position -1225.0, 2400.0, 227.504
	rotation 0.0, 0.0, 0.0, -1.0
	trigger_list
		1
			id 1
			name run_sequence
			notify_unit_id units/pd2_dlc_shoutout_raid/props/gen_explosive_barrel/barrel_005 (-309.0, 59.0, 251.301)
			notify_unit_sequence int_seq_make_dynamic
			time 0
		2
			id 2
			name run_sequence
			notify_unit_id units/pd2_dlc_shoutout_raid/props/gen_explosive_barrel/barrel_005 (-309.0, 59.0, 251.301)
			notify_unit_sequence int_seq_burn
			time 0
	on_executed
		´show_barrel_006´ (delay 1)
´make_barrel_dynamic_006´ ElementUnitSequence 100044
	position -1300.0, 2400.0, 227.504
	rotation 0.0, 0.0, 0.0, -1.0
	trigger_list
		1
			id 1
			name run_sequence
			notify_unit_id units/pd2_dlc_shoutout_raid/props/gen_explosive_barrel/barrel_006 (-308.999, 58.9651, 253.3)
			notify_unit_sequence int_seq_make_dynamic
			time 0
		2
			id 2
			name run_sequence
			notify_unit_id units/pd2_dlc_shoutout_raid/props/gen_explosive_barrel/barrel_006 (-308.999, 58.9651, 253.3)
			notify_unit_sequence int_seq_burn
			time 0
	on_executed
		´show_barrel_007´ (delay 1)
´make_barrel_dynamic_007´ ElementUnitSequence 100045
	position -1375.0, 2400.0, 227.504
	rotation 0.0, 0.0, 0.0, -1.0
	trigger_list
		1
			id 1
			name run_sequence
			notify_unit_id units/pd2_dlc_shoutout_raid/props/gen_explosive_barrel/barrel_007 (-308.983, 58.0002, 251.301)
			notify_unit_sequence int_seq_make_dynamic
			time 0
		2
			id 2
			name run_sequence
			notify_unit_id units/pd2_dlc_shoutout_raid/props/gen_explosive_barrel/barrel_007 (-308.983, 58.0002, 251.301)
			notify_unit_sequence int_seq_burn
			time 0
	on_executed
		´show_barrel_008´ (delay 1)
´make_barrel_dynamic_008´ ElementUnitSequence 100046
	position -1450.0, 2400.0, 227.504
	rotation 0.0, 0.0, 0.0, -1.0
	trigger_list
		1
			id 1
			name run_sequence
			notify_unit_id units/pd2_dlc_shoutout_raid/props/gen_explosive_barrel/barrel_008 (-309.0, 59.0, 252.301)
			notify_unit_sequence int_seq_make_dynamic
			time 0
		2
			id 2
			name run_sequence
			notify_unit_id units/pd2_dlc_shoutout_raid/props/gen_explosive_barrel/barrel_008 (-309.0, 59.0, 252.301)
			notify_unit_sequence int_seq_burn
			time 0
	on_executed
		´show_barrel_009´ (delay 1)
´make_barrel_dynamic_009´ ElementUnitSequence 100047
	position -1525.0, 2400.0, 227.504
	rotation 0.0, 0.0, 0.0, -1.0
	trigger_list
		1
			id 1
			name run_sequence
			notify_unit_id units/pd2_dlc_shoutout_raid/props/gen_explosive_barrel/barrel_009 (-309.0, 59.0, 251.301)
			notify_unit_sequence int_seq_make_dynamic
			time 0
		2
			id 2
			name run_sequence
			notify_unit_id units/pd2_dlc_shoutout_raid/props/gen_explosive_barrel/barrel_009 (-309.0, 59.0, 251.301)
			notify_unit_sequence int_seq_burn
			time 0
	on_executed
		´show_barrel_010´ (delay 1)
´make_barrel_dynamic_010´ ElementUnitSequence 100048
	position -1600.0, 2400.0, 227.504
	rotation 0.0, 0.0, 0.0, -1.0
	trigger_list
		1
			id 1
			name run_sequence
			notify_unit_id units/pd2_dlc_shoutout_raid/props/gen_explosive_barrel/barrel_010 (-309.0, 59.0, 251.301)
			notify_unit_sequence int_seq_make_dynamic
			time 0
		2
			id 2
			name run_sequence
			notify_unit_id units/pd2_dlc_shoutout_raid/props/gen_explosive_barrel/barrel_010 (-309.0, 59.0, 251.301)
			notify_unit_sequence int_seq_burn
			time 0
	on_executed
		´disable_bag_collision´ (delay 0.5)
´startup´ MissionScriptElement 100049
	EXECUTE ON STARTUP
	on_executed
		´hide_barrel_002´ (delay 0)
		´hide_barrel_003´ (delay 0)
		´hide_barrel_004´ (delay 0)
		´hide_barrel_005´ (delay 0)
		´hide_barrel_006´ (delay 0)
		´hide_barrel_007´ (delay 0)
		´hide_barrel_008´ (delay 0)
		´hide_barrel_009´ (delay 0)
		´hide_barrel_010´ (delay 0)
		´enable_dozer´ (delay 2)
´player_close2´ ElementAreaTrigger 100021
	TRIGGER TIMES 1
	amount 1
	depth 500
	height 3093.16
	instigator player
	instigator_name 
	interval 0.1
	position -75.0, 0.0, 400.004
	radius 2588.74
	rotation 0.0, 0.0, 0.0, -1.0
	shape_type cylinder
	spawn_unit_elements
	trigger_on on_enter
	use_disabled_shapes False
	width 500
	on_executed
		´disable_barrels´ (delay 0)
		´make_moving_barrels_on_fire´ (delay 0) DISABLED
´disable_barrels´ ElementToggle 100050
	elements
		1 ´show_barrel_002´
		2 ´show_barrel_003´
		3 ´show_barrel_004´
		4 ´show_barrel_005´
		5 ´show_barrel_006´
		6 ´show_barrel_007´
		7 ´show_barrel_008´
		8 ´show_barrel_009´
		9 ´show_barrel_010´
		10 ´point_physic_push_001´
		11 ´trigger_push´
		12 ´loop´
	set_trigger_times -1
	toggle off
	on_executed
		´disable_bag_collision´ (delay 0)
´make_moving_barrels_on_fire´ ElementUnitSequence 100053
	DISABLED
	position -1675.0, 2200.0, 227.504
	rotation 0.0, 0.0, 0.0, -1.0
	trigger_list
		1
			id 1
			name run_sequence
			notify_unit_id units/pd2_dlc_shoutout_raid/props/gen_explosive_barrel/barrel_001 (-309.0, 59.0, 251.301)
			notify_unit_sequence int_seq_burn
			time 0
		2
			id 2
			name run_sequence
			notify_unit_id units/pd2_dlc_shoutout_raid/props/gen_explosive_barrel/barrel_002 (-309.0, 58.843, 254.297)
			notify_unit_sequence int_seq_burn
			time 0
		3
			id 3
			name run_sequence
			notify_unit_id units/pd2_dlc_shoutout_raid/props/gen_explosive_barrel/barrel_003 (-309.0, 59.0, 252.301)
			notify_unit_sequence int_seq_burn
			time 0
		4
			id 4
			name run_sequence
			notify_unit_id units/pd2_dlc_shoutout_raid/props/gen_explosive_barrel/barrel_004 (-309.0, 59.0, 251.301)
			notify_unit_sequence int_seq_burn
			time 0
		5
			id 5
			name run_sequence
			notify_unit_id units/pd2_dlc_shoutout_raid/props/gen_explosive_barrel/barrel_005 (-309.0, 59.0, 251.301)
			notify_unit_sequence int_seq_burn
			time 0
		6
			id 6
			name run_sequence
			notify_unit_id units/pd2_dlc_shoutout_raid/props/gen_explosive_barrel/barrel_006 (-308.999, 58.9651, 253.3)
			notify_unit_sequence int_seq_burn
			time 0
		7
			id 7
			name run_sequence
			notify_unit_id units/pd2_dlc_shoutout_raid/props/gen_explosive_barrel/barrel_007 (-308.983, 58.0002, 251.301)
			notify_unit_sequence int_seq_burn
			time 0
		8
			id 8
			name run_sequence
			notify_unit_id units/pd2_dlc_shoutout_raid/props/gen_explosive_barrel/barrel_008 (-309.0, 59.0, 252.301)
			notify_unit_sequence int_seq_burn
			time 0
		9
			id 9
			name run_sequence
			notify_unit_id units/pd2_dlc_shoutout_raid/props/gen_explosive_barrel/barrel_009 (-309.0, 59.0, 251.301)
			notify_unit_sequence int_seq_burn
			time 0
		10
			id 10
			name run_sequence
			notify_unit_id units/pd2_dlc_shoutout_raid/props/gen_explosive_barrel/barrel_010 (-309.0, 59.0, 251.301)
			notify_unit_sequence int_seq_burn
			time 0
´start_barrels´ ElementInstanceInput 100051
	event start_barrels
	on_executed
		´not_normal´ (delay 0)
´ai_spawn_enemy_001´ ElementSpawnEnemyDummy 100055
	DISABLED
	accessibility any
	amount 0
	enemy units/payday2/characters/ene_bulldozer_2/ene_bulldozer_2
	force_pickup none
	interval 5
	participate_to_group_ai False
	position -50.0, 0.0, 113.234
	rotation 0.0, 0.0, -0.707107, -0.707107
	spawn_action none
	team default
	voice 0
´disable_bag_collision´ ElementDisableUnit 100058
	position -1675.0, 2400.0, 227.504
	rotation 0.0, 0.0, 0.0, -1.0
	unit_ids
		1 units/dev_tools/level_tools/dev_bag_collision_1x3m/001 (-162.728, -3.0, 305.567)
		2 units/dev_tools/level_tools/dev_bag_collision_1x3m/002 (-162.728, -100.0, 305.567)
		3 units/dev_tools/level_tools/dev_bag_collision_4x3m/001 (-140.761, 72.0, 58.5999)
		4 units/dev_tools/level_tools/dev_bag_collision_4x3m/002 (-140.761, -95.0, 58.5999)
	on_executed
		´make_last_2_barrels_dynamic´ (delay 0)
´make_last_2_barrels_dynamic´ ElementUnitSequence 100019
	position -1675.0, 2300.0, 227.504
	rotation 0.0, 0.0, 0.0, -1.0
	trigger_list
		1
			id 1
			name run_sequence
			notify_unit_id units/pd2_dlc_shoutout_raid/props/gen_explosive_barrel/004 (-220.525, 59.6069, 224.113)
			notify_unit_sequence int_seq_make_dynamic
			time 0
		2
			id 2
			name run_sequence
			notify_unit_id units/pd2_dlc_shoutout_raid/props/gen_explosive_barrel/002 (-285.482, 55.3968, 148.456)
			notify_unit_sequence int_seq_make_dynamic
			time 0
´point_physic_push_001´ ElementPhysicsPush 100059
	physicspush_mass 2558
	physicspush_range 1210
	physicspush_velocity 66
	position -50.0, 0.0, 213.234
	rotation 0.0, 0.0, 0.0, -1.0
´trigger_push´ MissionScriptElement 100060
	on_executed
		´point_physic_push_001´ (delay 0)
		´loop´ (delay 0)
´enable_dozer´ ElementToggle 100061
	elements
		1 ´ai_spawn_enemy_001´ DISABLED
	set_trigger_times -1
	toggle on
´disable_enable_dozer´ ElementToggle 100062
	elements
		1 ´enable_dozer´
	set_trigger_times -1
	toggle off
´loop´ MissionScriptElement 100063
	on_executed
		´trigger_push´ (delay 0.5)
´start´ MissionScriptElement 100064
	on_executed
		´make_barrel_dynamic_001´ (delay 0)
		´ai_spawn_enemy_001´ (delay 0) DISABLED
		´trigger_push´ (delay 0)
		´open_truck´ (delay 0)
´not_normal´ ElementFilter 100067
	difficulty_easy False
	difficulty_easy_wish True
	difficulty_hard True
	difficulty_normal False
	difficulty_overkill True
	difficulty_overkill_145 True
	difficulty_overkill_290 True
	difficulty_sm_wish True
	mode_assault True
	mode_control True
	platform_ps3 True
	platform_win32 True
	player_1 True
	player_2 True
	player_3 True
	player_4 True
	position -1375.0, 2825.0, 227.504
	rotation 0.0, 0.0, 0.0, -1.0
	on_executed
		´30_chance´ (delay 0)
´30_chance´ ElementLogicChance 100068
	chance 30
	position -1375.0, 2750.0, 227.504
	rotation 0.0, 0.0, 0.0, -1.0
	on_executed
		´start´ (delay 0)
´open_truck´ ElementUnitSequence 100069
	position -1375.0, 2600.0, 227.504
	rotation 0.0, 0.0, 0.0, -1.0
	trigger_list
		1
			id 1
			name run_sequence
			notify_unit_id units/payday2/vehicles/str_vehicle_truck_boxvan/001 (0.0, 0.0, 0.0)
			notify_unit_sequence open_door
			time 0
