ID range vs continent name:
	100000: world

statics
	100013 units/dev_tools/level_tools/dev_bag_collision_1x1m/001 (210.0, -200.0, 100.0)
	100014 units/dev_tools/level_tools/dev_bag_collision_1x1m/002 (210.0, -175.0, 100.0)
	100015 units/dev_tools/level_tools/dev_bag_collision_1x1m/003 (-86.0, -175.0, 100.0)
	100016 units/dev_tools/level_tools/dev_bag_collision_1x1m/004 (-86.0, -200.0, 100.0)
	100017 units/dev_tools/level_tools/dev_bag_collision_1x1m/005 (-73.0, 196.0, 100.0)
	100018 units/dev_tools/level_tools/dev_bag_collision_1x1m/006 (-73.0, 171.0, 100.0)
	100021 units/dev_tools/level_tools/dev_bag_collision_1x1m/007 (223.0, 171.0, 100.0)
	100022 units/dev_tools/level_tools/dev_bag_collision_1x1m/008 (223.0, 196.0, 100.0)
	100011 units/dev_tools/level_tools/dev_bag_collision_1x3m/001 (202.0, -300.0, 100.0)
	100012 units/dev_tools/level_tools/dev_bag_collision_1x3m/002 (202.0, -200.0, 100.0)
	100019 units/dev_tools/level_tools/dev_bag_collision_1x3m/003 (215.0, 71.0, 100.0)
	100020 units/dev_tools/level_tools/dev_bag_collision_1x3m/004 (215.0, 171.0, 100.0)
	100125 units/payday2/pickups/gen_pku_methlab_bubbling/002 (100.999, -250.0, 93.9999)
		mesh_variation interaction_enable
	100114 units/payday2/pickups/gen_pku_methlab_caustic_cooler/002 (88.3954, 129.008, 92.9999)
		mesh_variation interaction_enable
	100129 units/payday2/pickups/gen_pku_methlab_drying_meth/002 (-53.0, -202.0, 0.0)
	100113 units/payday2/pickups/gen_pku_methlab_liquid_meth/002 (150.999, 129.0, 92.9999)
		mesh_variation interaction_enable
	100133 units/payday2/props/gen_prop_methlab_blender/002 (135.999, -213.0, 92.9999)
	100128 units/payday2/props/gen_prop_methlab_cooker/002 (187.999, 104.0, 93.9999)
	100124 units/payday2/props/gen_prop_methlab_cooking/002 (48.9988, -208.0, 93.9999)
	100130 units/payday2/props/gen_prop_methlab_ephedrine_tables/003 (-3.57135, 92.94, 94.8999)
	100131 units/payday2/props/gen_prop_methlab_ephedrine_tables/004 (-14.0012, 94.0, 96.9999)
	100145 units/payday2/props/gen_prop_methlab_ether/002 (-58.0, 98.0, 0.0)
	100144 units/payday2/props/gen_prop_methlab_iodine/002 (-19.0013, 150.0, -9.15527e-05)
	100111 units/payday2/props/gen_prop_methlab_meth/002 (-56.0013, -221.0, 96.9999)
	100123 units/payday2/props/gen_prop_methlab_meth_dry/002 (-24.0012, -276.0, 93.9999)
	100122 units/payday2/props/gen_prop_methlab_meth_liquid_1/002 (130.526, 168.95, 92.9999)
	100141 units/payday2/props/gen_prop_methlab_methanol/002 (-42.0, 129.0, 0.0)
	100112 units/payday2/props/gen_prop_methlab_plate/002 (-60.0012, -219.0, 94.9999)
	100139 units/payday2/props/gen_prop_methlab_rocksalt/002 (186.999, -223.0, -4.00011)
	100149 units/payday2/props/gen_prop_methlab_rocksalt/003 (193.999, 175.276, -3.03883)
	100115 units/payday2/props/gen_prop_methlab_sdsd/006 (11.9987, 163.0, 93.9999)
	100118 units/payday2/props/gen_prop_methlab_sdsd/007 (25.412, -273.896, 93.9999)
	100119 units/payday2/props/gen_prop_methlab_sdsd/008 (188.0, 149.0, 94.0)
	100120 units/payday2/props/gen_prop_methlab_sdsd/009 (-5.0, 124.0, 94.0)
	100126 units/payday2/props/gen_prop_methlab_sdsd/010 (86.0, -203.0, 94.0)
	100121 units/payday2/props/gen_prop_methlab_sludge_filter/002 (49.9988, 165.0, 91.9999)
	100116 units/payday2/props/gen_prop_methlab_test_tube/003 (42.3045, -267.6, 99.9999)
	100117 units/payday2/props/gen_prop_methlab_test_tube/004 (181.999, -208.0, 94.9999)
	100140 units/payday2/props/gen_prop_methlab_toluene/002 (-14.0013, 95.0, -9.15527e-05)
	100127 units/payday2/props/gen_prop_methlad_solvent_mixed/002 (-63.0, -273.0, 94.0)
	100135 units/payday2/props/gen_prop_roadflare/003 (186.999, 135.0, 0.339905)
	100137 units/payday2/props/gen_prop_roadflare/004 (177.999, 112.0, 0.339905)
	100132 units/payday2/props/gen_prop_roadflare_whole/002 (197.999, 149.0, -9.15527e-05)
	100146 units/payday2/props/plywood/gen_prop_plank_2m/001 (-86.0012, 90.0, 93.9999)
	100147 units/payday2/props/plywood/gen_prop_plank_2m/002 (-78.0012, 129.0, 93.9999)
	100148 units/payday2/props/plywood/gen_prop_plank_2m/003 (-86.0013, 167.0, 91.9999)
	100134 units/payday2/props/plywood/gen_prop_plank_2m/004 (-92.4502, -277.04, 93.9999)
	100138 units/payday2/props/plywood/gen_prop_plank_2m/005 (-96.6792, -232.697, 93.9999)
	100142 units/payday2/props/plywood/gen_prop_plank_2m/006 (-90.9994, -193.791, 91.9999)
	100136 units/world/props/01/pallet_pile_01/003 (83.9988, -255.0, -9.15527e-05)
	100143 units/world/props/01/pallet_pile_01/004 (89.9988, 117.0, -9.15527e-05)
	100110 units/world/props/mansion/man_prop_int_brass_bowl/002 (-23.0, 147.0, 94.0)
