﻿´disable_units´ ElementDisableUnit 100002
	position -1275.0, 0.0, 478.014
	rotation 0.0, 0.0, 0.0, -1.0
	unit_ids
		1 units/payday2/vehicles/vehicle_train/eus_interactable_door_cargo_shout/002 (0.0, 826.0, 149.0)
		2 units/payday2/vehicles/vehicle_train/eus_interactable_door_cargo_shout/004 (0.0, -775.0, 149.0)
		3 units/payday2/vehicles/vehicle_train/eus_interactable_door_cargo_shout/001 (2.0, -775.0, 150.0)
		4 units/payday2/vehicles/vehicle_train/eus_interactable_door_cargo_shout/003 (0.0, 825.0, 150.0)
		5 units/payday2/vehicles/eus_vehicle_train_cargo_carriage_lowres/001 (0.0, 0.0, 0.0)
		6 units/payday2/vehicles/vehicle_train/eus_static_door_carriage_lowres/002 (50.0, 1235.0, 150.0)
		7 units/payday2/vehicles/vehicle_train/eus_static_door_carriage_lowres/001 (-50.0, -1183.0, 150.0)
´hide_train´ ElementInstanceInput 100003
	event hide_train
	on_executed
		´disable_units´ (delay 0)
