﻿´setup_door´ MissionScriptElement 100001
	EXECUTE ON STARTUP
	BASE DELAY 1
	on_executed
		´open_or_closed´ (delay 0)
´open_or_closed´ ElementLogicChance 100002
	chance 95
	position 300.0, 0.0, 0.0
	rotation 0.0, 0.0, 0.0, -1.0
´success´ ElementLogicChanceTrigger 100003
	elements
		1 ´open_or_closed´
	outcome success
	position 400.0, -100.0, 0.0
	rotation 0.0, 0.0, 0.0, -1.0
	on_executed
		´open_door´ (delay 0)
		´remove_door_blocker´ (delay 0)
´fail´ ElementLogicChanceTrigger 100004
	elements
		1 ´open_or_closed´
	outcome fail
	position 400.0, 100.0, 0.0
	rotation 0.0, 0.0, 0.0, -1.0
	on_executed
		´close_door´ (delay 0)
		´add_door_blocker´ (delay 0)
´open_door´ ElementUnitSequence 100007
	position 500.0, -100.0, 0.0
	rotation 0.0, 0.0, 0.0, -1.0
	trigger_list
		1
			id 1
			name run_sequence
			notify_unit_id units/equipment/suburbia_door_crowbar_interaction/001 (0.0, 0.0, 0.0)
			notify_unit_sequence b_open_90
			time 0
´close_door´ ElementUnitSequence 100008
	position 500.0, 100.0, 0.0
	rotation 0.0, 0.0, 0.0, -1.0
	trigger_list
		1
			id 1
			name run_sequence
			notify_unit_id units/equipment/suburbia_door_crowbar_interaction/001 (0.0, 0.0, 0.0)
			notify_unit_sequence b_closed
			time 0
		2
			id 2
			name run_sequence
			notify_unit_id units/equipment/suburbia_door_crowbar_interaction/001 (0.0, 0.0, 0.0)
			notify_unit_sequence state_lockpick
			time 0
		3
			id 3
			name run_sequence
			notify_unit_id units/equipment/suburbia_door_crowbar_interaction/001 (0.0, 0.0, 0.0)
			notify_unit_sequence enable_interaction
			time 0
´remove_door_blocker´ ElementNavObstacle 100010
	obstacle_list
		1
			guis_id 1
			obj_name 6f2452ed502b8b6f
			unit_id units/dev_tools/level_tools/dev_door_blocker_1x1x3/door_blocker (-100.0, -50.0, 0.0)
	operation remove
	position 600.0, -100.0, 0.0
	rotation 0.0, 0.0, 0.0, -1.0
´add_door_blocker´ ElementNavObstacle 100011
	obstacle_list
		1
			guis_id 1
			obj_name 6f2452ed502b8b6f
			unit_id units/dev_tools/level_tools/dev_door_blocker_1x1x3/door_blocker (-100.0, -50.0, 0.0)
	operation add
	position 600.0, 100.0, 0.0
	rotation 0.0, 0.0, 0.0, -1.0
´interact´ ElementUnitSequenceTrigger 100012
	TRIGGER TIMES 1
	sequence_list
		1
			guis_id 1
			sequence interact
			unit_id units/equipment/suburbia_door_crowbar_interaction/001 (0.0, 0.0, 0.0)
	on_executed
		´open_a_90´ (delay 0)
´open_a_90´ ElementUnitSequence 100013
	position 800.0, 100.0, 0.0
	rotation 0.0, 0.0, 0.0, -1.0
	trigger_list
		1
			id 1
			name run_sequence
			notify_unit_id units/equipment/suburbia_door_crowbar_interaction/001 (0.0, 0.0, 0.0)
			notify_unit_sequence b_open_90
			time 0
´manually_close_door´ ElementInstanceInput 100005
	event manually_close_door
	on_executed
		´fail´ (delay 0)
