ID range vs continent name:
	100000: world

statics
	100011 units/payday2/equipment/gen_interactable_road_spikes/001 (285.0, -243.0, 0.0)
	100012 units/payday2/equipment/gen_interactable_road_spikes/002 (350.0, 0.0, 0.0)
