ID range vs continent name:
	100000: world

statics
	100006 units/dev_tools/level_tools/dev_door_blocker_1x1x3/001 (-43.0, -53.0, -5.69011e-13)
	100000 units/pd2_dlc_dark/props/drk_interactable_bomb/001 (0.0, 0.0, 100.0)
