﻿´start_explosion´ MissionScriptElement 100003
	on_executed
		´func_sequence_001´ (delay 0)
		´point_feedback_001´ (delay 0)
		´env_effect_play_002´ (delay 0)
		´point_explosion_damage_001´ (delay 0)
´input_blow_up´ ElementInstanceInput 100004
	event Blow up wall
	on_executed
		´start_explosion´ (delay 0)
´func_nav_obstacle_001´ ElementNavObstacle 100008
	obstacle_list
		1
			guis_id 1
			obj_name 4407a5565a4566dd
			unit_id units/dev_tools/level_tools/dev_door_blocker_1x4x3/001 (800.0, -0.000107288, -1.23954)
		2
			guis_id 2
			obj_name 4407a5565a4566dd
			unit_id units/dev_tools/level_tools/dev_door_blocker_1x4x3/002 (400.0, 3.57628e-05, -1.23954)
	operation remove
	position 200.0, -2800.0, 681.813
	rotation 0.0, 0.0, 0.0, -1.0
´start´ MissionScriptElement 100009
	EXECUTE ON STARTUP
	BASE DELAY 3
	on_executed
		´func_nav_obstacle_002´ (delay 0)
´func_nav_obstacle_002´ ElementNavObstacle 100010
	obstacle_list
		1
			guis_id 1
			obj_name 4407a5565a4566dd
			unit_id units/dev_tools/level_tools/dev_door_blocker_1x4x3/001 (800.0, -0.000107288, -1.23954)
		2
			guis_id 2
			obj_name 4407a5565a4566dd
			unit_id units/dev_tools/level_tools/dev_door_blocker_1x4x3/002 (400.0, 3.57628e-05, -1.23954)
	operation add
	position 0.0, -2700.0, 681.813
	rotation 0.0, 0.0, 0.0, -1.0
´func_sequence_001´ ElementUnitSequence 100000
	position 200.0, -2700.0, 681.813
	rotation 0.0, 0.0, 0.0, -1.0
	trigger_list
		1
			id 1
			name run_sequence
			notify_unit_id units/pd2_dlc_mad/architecture/sawmill/mad_compound_wall_destruction/001 (400.0, 50.0, 0.0)
			notify_unit_sequence anim_expload_wall
			time 0
	on_executed
		´func_nav_obstacle_001´ (delay 0)
´env_effect_play_002´ ElementPlayEffect 100001
	base_time 0
	effect effects/payday2/particles/explosions/brick_wall_explosion
	max_amount 0
	position 400.0, 0.0, 157.546
	random_time 0
	rotation 0.0, 0.0, 0.707107, -0.707107
	screen_space False
	on_executed
		´enable´ (delay 0)
´area_player_near_exploded_wall´ ElementAreaTrigger 100002
	DISABLED
	TRIGGER TIMES 1
	amount 1
	depth 1000
	height 500
	instigator player
	interval 0.1
	position 400.0, 0.0, 150.0
	radius 250
	rotation 0.0, 0.0, -0.707107, -0.707107
	shape_type box
	spawn_unit_elements
	trigger_on on_enter
	use_disabled_shapes False
	width 1200
	on_executed
		´teammate_comment_right_there´ (delay 0)
´enable´ ElementToggle 100005
	elements
		1 ´area_player_near_exploded_wall´ DISABLED
	set_trigger_times -1
	toggle on
´teammate_comment_come_on´ ElementTeammateComment 100013
	close_to_element False
	comment g13
	position 400.0, -300.0, 150.0
	radius 0
	rotation 0.0, 0.0, 0.0, -1.0
	use_instigator True
	on_executed
		´point_debug_002´ (delay 0)
´teammate_comment_right_there´ ElementTeammateComment 100014
	close_to_element False
	comment g15
	position 400.0, -200.0, 150.0
	radius 0
	rotation 0.0, 0.0, 0.0, -1.0
	use_instigator True
	on_executed
		´teammate_comment_come_on´ (delay 5)
		´point_debug_001´ (delay 0)
´point_debug_001´ ElementDebug 100012
	as_subtitle False
	debug_string teammate_comment_right_there
	show_instigator False
´point_debug_002´ ElementDebug 100015
	as_subtitle False
	debug_string teammate_comment_come_on
	show_instigator False
´point_feedback_001´ ElementFeedback 100016
	above_camera_effect none
	above_camera_effect_distance 0.5
	camera_shake_amplitude 1
	camera_shake_attack 0.1
	camera_shake_decay 2
	camera_shake_effect mission_triggered
	camera_shake_frequency 0.5
	camera_shake_sustain 0.7
	effect mission_triggered
	position 400.0, -100.0, 200.0
	range 0
	rotation 0.0, 0.0, 0.0, -1.0
	rumble_attack 0.1
	rumble_peak 1
	rumble_release 2.1
	rumble_sustain 0.3
	use_camera_shake True
	use_rumble False
´point_explosion_damage_001´ ElementExplosionDamage 100017
	damage 100
	position 400.0, 0.0, 119.546
	range 500
	rotation 0.0, 0.0, 0.707107, -0.707107
