﻿´phalanx_so´ ElementSpecialObjective 101157
	EXECUTE ON STARTUP
	Make chosen person path towards (-2600.0, 200.0, -700.005) and show "AI_phalanx".
´phalanx_link´ ElementEnemyPreferedAdd 101161
	EXECUTE ON STARTUP
	BASE DELAY  (DELAY 1)
	Enable spawn group: ´ai_enemy_group_001（0）´
´startup´ MissionScriptElement 100001
	EXECUTE ON STARTUP
	Execute 1:
		´spawn_1´
		´spawn_2´
	Execute 25:
		´disable_treasure_001´
		´disable_treasure_002´
		´disable_treasure_003´
		´disable_treasure_004´
		´disable_treasure_005´
		´disable_treasure_006´
		´disable_treasure_007´
		´disable_treasure_008´
		´disable_treasure_009´
		´disable_treasure_010´
		´disable_treasure_011´
		´disable_treasure_012´
		´disable_treasure_013´
		´disable_treasure_014´
		´disable_treasure_015´
		´disable_treasure_016´
		´disable_treasure_017´
		´disable_treasure_018´
		´disable_treasure_019´
		´disable_treasure_020´
		´disable_treasure_021´
		´disable_treasure_022´
		´disable_treasure_023´
		´disable_treasure_024´
		´disable_treasure_025´
		´disable_treasure_026´
		´disable_treasure_027´
		´disable_treasure_028´
		´disable_treasure_029´
		´disable_treasure_030´
		´disable_treasure_031´
		´disable_treasure_032´
		´disable_treasure_033´
		´disable_treasure_034´
		´disable_treasure_035´
		´disable_treasure_036´
		´disable_treasure_037´
		´disable_treasure_038´
		´disable_treasure_039´
		´disable_treasure_040´
	Execute 6:
		´cabinet_explode_001´
		´cabinet_explode_002´
		´cabinet_explode_003´
		´cabinet_explode_004´
		´cabinet_explode_005´
		´cabinet_explode_006´
		´cabinet_explode_007´
		´cabinet_explode_008´
		´cabinet_explode_009´
		´cabinet_explode_010´
		´cabinet_explode_011´
	Disable whisper mode. (DELAY 1)
	Send AI event: police_called (DELAY 1)
	Send blame message: empty (DELAY 1)
	Start besiege mode (ordinary assault). (DELAY 1)
	Debug message: besiege (DELAY 1)
	Set diff to 1.0. (DELAY 1)
	Debug message: DIFF 1 (DELAY 1)
	Add flee point at: (1200.0, -2000.0, -200.0) (DELAY 1)
	Add flee point at: (1200.0, 2700.0, -200.0) (DELAY 1)
	Send mission event "spawn_hostage" to instance levels/instances/shared/obj_skm/001 (5100.0, 200.0, -596.856) (DELAY 1)
	Execute sequence: "hidden" - units/payday2/vehicles/air_vehicle_blackhawk/vehicle_blackhawk/004 (4404.29, 125.0, 550.0) (DELAY 1)
	Change parameters of instance levels/instances/shared/obj_skm/001 (5100.0, 200.0, -596.856):  (DELAY 1)
		Objective: None (DELAY 1)
		State: Disabled (DELAY 1)
		Normal: None (DELAY 1)
		Hard: None (DELAY 1)
		Very Hard: None (DELAY 1)
		Overkill: None (DELAY 1)
		Death Wish: None (DELAY 1)
	´start_combat´ (DELAY 1)
	´disable_team_ai_so´ (DELAY 1)
´ai_enemy_group_001（0）´ ElementSpawnEnemyGroup 101159
	Preferred spawn groups: Phalanx
	Spawn enemy group: ´phalanx_spawn´
´phalanx_spawn´ ElementSpawnEnemyDummy 101158
	Spawn ene_swat_1 (1200.0, -1900.0, -277.15).
´start_combat´ MissionScriptElement 100078
	TRIGGER TIMES 1
	Debug message: start spawns
	´ai_enemy_prefered_add_002´
´disable_team_ai_so´ ElementToggle 100870
	TRIGGER TIMES 1
	Toggle off: ´trigger_area_013´
	Toggle off: ´trigger_area_012´
	Toggle off: ´trigger_area_014´
	Toggle off: ´trigger_area_011´
	Toggle off: ´trigger_area_010´
	Toggle off: ´trigger_area_009´
	Toggle off: ´trigger_area_008´
	Toggle off: ´trigger_area_007´
´trigger_area_013´ ElementAreaTrigger 100744
	TRIGGER TIMES 1
	Box, width 60.0, height 500.0, depth 70.0, at position (4651.72, 248.23, -326.856) with rotation (0.0, 0.0, 0.999848, 0.0174521)
	Amount: 1
	Instigator: ai_teammates
	Interval: 0.1
	Upon on_enter, execute:
		Make instigator path towards (4725.0, 550.0, -550.0) and show "e_so_ntl_smoke_stand".
´trigger_area_012´ ElementAreaTrigger 100743
	TRIGGER TIMES 1
	Box, width 60.0, height 500.0, depth 70.0, at position (4551.78, 251.713, -326.856) with rotation (0.0, 0.0, 0.999848, 0.0174521)
	Amount: 1
	Instigator: ai_teammates
	Interval: 0.1
	Upon on_enter, execute:
		Make instigator path towards (4475.0, -100.0, -550.0) and show "e_so_ntl_smoke_stand".
´trigger_area_014´ ElementAreaTrigger 100745
	TRIGGER TIMES 1
	Box, width 60.0, height 500.0, depth 70.0, at position (4648.23, 148.29, -326.856) with rotation (0.0, 0.0, 0.999848, 0.0174521)
	Amount: 1
	Instigator: ai_teammates
	Interval: 0.1
	Upon on_enter, execute:
		Make instigator path towards (4700.0, -100.0, -550.0) and show "e_so_ntl_smoke_stand".
´trigger_area_011´ ElementAreaTrigger 100742
	TRIGGER TIMES 1
	Box, width 60.0, height 500.0, depth 70.0, at position (4548.29, 151.773, -326.856) with rotation (0.0, 0.0, 0.999848, 0.0174521)
	Amount: 1
	Instigator: ai_teammates
	Interval: 0.1
	Upon on_enter, execute:
		Make instigator path towards (4425.0, 575.0, -550.0) and show "e_so_ntl_smoke_stand".
´trigger_area_010´ ElementAreaTrigger 100735
	TRIGGER TIMES 1
	Box, width 60.0, height 500.0, depth 70.0, at position (5300.0, 150.0, -380.0) with rotation (0.0, 0.0, -6.55651e-07, -1.0)
	Amount: 1
	Instigator: ai_teammates
	Interval: 0.1
	Upon on_enter, execute:
		Make instigator path towards (5150.0, -49.9998, -600.0) and show "e_so_ntl_smoke_stand".
´trigger_area_009´ ElementAreaTrigger 100734
	TRIGGER TIMES 1
	Box, width 60.0, height 500.0, depth 70.0, at position (5400.0, 150.001, -380.0) with rotation (0.0, 0.0, -6.55651e-07, -1.0)
	Amount: 1
	Instigator: ai_teammates
	Interval: 0.1
	Upon on_enter, execute:
		Make instigator path towards (5050.0, 450.0, -600.0) and show "e_so_ntl_smoke_stand".
´trigger_area_008´ ElementAreaTrigger 100733
	TRIGGER TIMES 1
	Box, width 60.0, height 500.0, depth 70.0, at position (5400.0, 249.999, -380.0) with rotation (0.0, 0.0, -6.55651e-07, -1.0)
	Amount: 1
	Instigator: ai_teammates
	Interval: 0.1
	Upon on_enter, execute:
		Make instigator path towards (5550.0, -49.918, -600.0) and show "e_so_ntl_smoke_stand".
´trigger_area_007´ ElementAreaTrigger 100732
	TRIGGER TIMES 1
	Box, width 60.0, height 500.0, depth 70.0, at position (5300.0, 250.0, -380.0) with rotation (0.0, 0.0, -6.55651e-07, -1.0)
	Amount: 1
	Instigator: ai_teammates
	Interval: 0.1
	Upon on_enter, execute:
		Make instigator path towards (5550.0, 449.99, -600.0) and show "e_so_ntl_smoke_stand".
´spawn_1´ MissionScriptElement 100185
	´spawn（0）´ = 1
	Enable "standard" player spawn at position (5300.0, 250.0, -600.0)
	Enable "standard" player spawn at position (5400.0, 249.999, -600.0)
	Enable "standard" player spawn at position (5400.0, 150.0, -600.0)
	Enable "standard" player spawn at position (5300.0, 150.001, -600.0)
´spawn_2´ MissionScriptElement 100186
	´spawn（0）´ = 2
	Enable "standard" player spawn at position (4648.23, 148.29, -546.856)
	Enable "standard" player spawn at position (4548.29, 151.773, -546.856)
	Enable "standard" player spawn at position (4551.78, 251.713, -546.856)
	Enable "standard" player spawn at position (4651.72, 248.23, -546.856)
´disable_treasure_001´ ElementDisableUnit 100111
	Hide object: units/pd2_indiana/props/mus_prop_exhibit_c_necklace_b/002 (3610.0, -1125.0, -190.0)
´disable_treasure_002´ ElementDisableUnit 100110
	Hide object: units/pd2_indiana/props/mus_prop_exhibit_c_necklace_a/002 (3676.0, -1111.0, -189.0)
´disable_treasure_003´ ElementDisableUnit 100131
	Hide object: units/pd2_indiana/props/mus_prop_exhibit_c_necklace_c/002 (4213.0, -1109.0, -188.717)
´disable_treasure_004´ ElementDisableUnit 100134
	Hide object: units/pd2_indiana/props/mus_prop_exhibit_c_jewelry_a/002 (4279.0, -1114.0, -186.782)
´disable_treasure_005´ ElementDisableUnit 100135
	Hide object: units/pd2_indiana/props/mus_prop_exhibit_c_shield/002 (4850.0, -1126.0, -190.621)
´disable_treasure_006´ ElementDisableUnit 100136
	Hide object: units/pd2_indiana/props/mus_prop_egyptian_brosch/002 (5130.0, 1595.0, -189.0)
´disable_treasure_007´ ElementDisableUnit 100137
	Hide object: units/pd2_indiana/props/mus_prop_exhibit_c_pottery_a/002 (4553.0, 1600.0, -189.0)
´disable_treasure_008´ ElementDisableUnit 100138
	Hide object: units/pd2_indiana/props/mus_prop_exhibit_c_ankh/002 (3950.0, 1604.0, -190.0)
´disable_treasure_009´ ElementDisableUnit 100140
	Hide object: units/pd2_indiana/props/mus_prop_exhibit_c_relief/002 (3325.0, 1599.0, -189.612)
´disable_treasure_010´ ElementDisableUnit 100141
	Hide object: units/pd2_indiana/props/urns/mus_prop_egyptian_urn_c/002 (4051.0, 929.999, -389.356)
´disable_treasure_011´ ElementDisableUnit 100142
	Hide object: units/pd2_indiana/props/urns/mus_prop_egyptian_urn_d/002 (4051.0, 870.999, -389.356)
´disable_treasure_012´ ElementDisableUnit 100143
	Hide object: units/pd2_indiana/props/mus_prop_exhibit_c_papyrus/002 (4881.0, 896.999, -438.541)
´disable_treasure_013´ ElementDisableUnit 100144
	Hide object: units/pd2_indiana/props/mus_prop_egypt_swords/002 (4856.0, -495.001, -441.0)
´disable_treasure_014´ ElementDisableUnit 100154
	Hide object: units/pd2_indiana/props/urns/mus_prop_egyptian_urn_b/002 (4055.0, -529.001, -390.356)
´disable_treasure_015´ ElementDisableUnit 100155
	Hide object: units/pd2_indiana/props/urns/mus_prop_egyptian_urn_a/002 (4055.0, -467.001, -390.356)
´disable_treasure_016´ ElementDisableUnit 100156
	Hide object: units/pd2_indiana/props/mus_prop_exhibit_d_armour/001 (2539.0, -1728.0, -162.0)
´disable_treasure_017´ ElementDisableUnit 100157
	Hide object: units/pd2_indiana/props/mus_prop_exhibit_d_bow/002 (2538.0, -1276.0, -164.0)
´disable_treasure_018´ ElementDisableUnit 100158
	Hide object: units/pd2_indiana/props/mus_prop_exhibit_d_token/002 (2537.0, -856.0, -164.0)
´disable_treasure_019´ ElementDisableUnit 100172
	Hide object: units/pd2_indiana/props/mus_prop_exhibit_d_passport/002 (2537.0, -794.0, -185.0)
´disable_treasure_020´ ElementDisableUnit 100173
	Hide object: units/pd2_indiana/props/mus_prop_exhibit_d_sword/002 (1967.0, -852.0, -189.746)
´disable_treasure_021´ ElementDisableUnit 100174
	Hide object: units/pd2_indiana/props/mus_prop_exhibit_d_dagger/002 (2049.0, -849.0, -190.0)
´disable_treasure_022´ ElementDisableUnit 100175
	Hide object: units/pd2_indiana/props/mus_prop_exhibit_d_pot/002 (2000.0, -1276.0, -192.0)
´disable_treasure_023´ ElementDisableUnit 100176
	Hide object: units/pd2_indiana/props/mus_prop_exhibit_d_pottery_a/002 (2051.0, -1680.0, -191.0)
´disable_treasure_024´ ElementDisableUnit 100177
	Hide object: units/pd2_indiana/props/mus_prop_exhibit_d_pottery_b/002 (1998.95, -1678.36, -192.0)
´disable_treasure_025´ ElementDisableUnit 100179
	Hide object: units/pd2_indiana/props/mus_prop_exhibit_d_pottery_c/002 (1953.95, -1675.36, -190.0)
´disable_treasure_026´ ElementDisableUnit 100180
	Hide object: units/pd2_indiana/props/mus_prop_exhibit_b_pottery_a/003 (2225.0, 1251.0, -191.0)
´disable_treasure_027´ ElementDisableUnit 100181
	Hide object: units/pd2_indiana/props/mus_prop_roman_sword/002 (2533.0, 1402.42, -141.515)
	Hide object: units/pd2_indiana/props/mus_prop_roman_shield/002 (2527.88, 1451.0, -164.654)
	Hide object: units/pd2_indiana/props/mus_prop_roman_sword/003 (2533.0, 1508.49, -141.515)
´disable_treasure_028´ ElementDisableUnit 100182
	Hide object: units/pd2_indiana/props/mus_prop_roman_sword/004 (2533.0, 1877.42, -141.515)
	Hide object: units/pd2_indiana/props/mus_prop_roman_shield/003 (2527.88, 1926.0, -164.654)
	Hide object: units/pd2_indiana/props/mus_prop_roman_sword/005 (2533.0, 1983.49, -141.515)
´disable_treasure_029´ ElementDisableUnit 100183
	Hide object: units/pd2_indiana/props/mus_prop_exhibit_b_pottery_b/004 (2226.0, 1676.0, -191.033)
´disable_treasure_030´ ElementDisableUnit 100184
	Hide object: units/pd2_indiana/props/mus_prop_exhibit_b_pottery_c/004 (2227.0, 2105.0, -190.441)
´disable_treasure_031´ ElementDisableUnit 100197
	Hide object: units/pd2_indiana/props/mus_prop_exhibit_b_coins/003 (2036.0, 2539.0, -167.0)
´disable_treasure_032´ ElementDisableUnit 100198
	Hide object: units/pd2_indiana/props/scripts/mus_prop_roman_vinodol/003 (1460.0, 2250.0, -158.0)
´disable_treasure_033´ ElementDisableUnit 100199
	Hide object: units/pd2_indiana/props/mus_prop_exhibit_b_pottery_a/004 (1777.0, 2099.0, -190.0)
´disable_treasure_034´ ElementDisableUnit 100200
	Hide object: units/pd2_indiana/props/mus_prop_exhibit_b_pottery_c/003 (1775.0, 1671.0, -190.0)
´disable_treasure_035´ ElementDisableUnit 100201
	Hide object: units/pd2_indiana/props/mus_prop_exhibit_b_pottery_b/003 (1773.0, 1251.0, -191.033)
´disable_treasure_036´ ElementDisableUnit 100204
	Hide object: units/pd2_indiana/props/scripts/mus_prop_roman_script_1/002 (1463.0, 1418.0, -154.0)
	Hide object: units/pd2_indiana/props/scripts/mus_prop_roman_script_2/002 (1463.0, 1447.0, -154.0)
	Hide object: units/pd2_indiana/props/scripts/mus_prop_roman_script_3/002 (1463.0, 1477.0, -154.0)
	Hide object: units/pd2_indiana/props/scripts/mus_prop_roman_script_4/002 (1463.0, 1506.0, -154.0)
´disable_treasure_037´ ElementDisableUnit 100207
	Hide object: units/pd2_indiana/props/mus_prop_diamond_mannequin_02/001 (1525.0, -775.0, -260.0)
´disable_treasure_038´ ElementDisableUnit 100208
	Hide object: units/pd2_indiana/props/mus_prop_diamond_mannequin_03/001 (1525.0, -973.0, -259.0)
´disable_treasure_039´ ElementDisableUnit 100209
	Hide object: units/pd2_indiana/props/mus_prop_diamond_mannequin_04/001 (1514.0, -1616.0, -260.0)
´disable_treasure_040´ ElementDisableUnit 100210
	Hide object: units/pd2_indiana/props/mus_prop_diamond_mannequin_01/001 (1525.0, -1850.0, -260.0)
´cabinet_explode_001´ ElementExplosion 100211
	Explosion
´cabinet_explode_002´ ElementExplosion 100212
	Explosion
´cabinet_explode_003´ ElementExplosion 100213
	Explosion
´cabinet_explode_004´ ElementExplosion 100214
	Explosion
´cabinet_explode_005´ ElementExplosion 100215
	Explosion
´cabinet_explode_006´ ElementExplosion 100217
	Explosion
´cabinet_explode_007´ ElementExplosion 100218
	Explosion
´cabinet_explode_008´ ElementExplosion 100220
	Explosion
´cabinet_explode_009´ ElementExplosion 100221
	Explosion
´cabinet_explode_010´ ElementExplosion 100223
	Explosion
´cabinet_explode_011´ ElementExplosion 100224
	Explosion
´ai_enemy_prefered_add_002´ ElementEnemyPreferedAdd 100053
	TRIGGER TIMES 1
	Enable spawn group: ´ai_enemy_group_002（0）´
	Enable spawn group: ´ai_enemy_group_003（0）´
´ai_enemy_group_002（0）´ ElementSpawnEnemyGroup 100054
	Preferred spawn groups: tac_shield_wall_charge, FBI_spoocs, tac_tazer_charge, tac_tazer_flanking, tac_shield_wall, tac_swat_rifle_flank, tac_shield_wall_ranged, tac_bull_rush
	Spawn 0 enemies, chosen at random:
		´ene_fbi_heavy_1´
		´ene_fbi_heavy_1_2´
		´ene_fbi_heavy_1_3´
		´ene_fbi_heavy_1_4´
		´ene_fbi_heavy_1_5´
		´ene_fbi_heavy_1_6´
		´ene_fbi_heavy_1_7´
		´ene_fbi_heavy_1_8´
´ene_fbi_heavy_1´ ElementSpawnEnemyDummy 100811
	Spawn ene_fbi_heavy_1 (1850.0, -1000.0, -300.0) with action e_sp_down_6m.
´ene_fbi_heavy_1_2´ ElementSpawnEnemyDummy 100814
	Spawn ene_fbi_heavy_1 (1850.0, -1200.0, -300.0) with action e_sp_down_6m.
´ene_fbi_heavy_1_3´ ElementSpawnEnemyDummy 100693
	Spawn ene_fbi_heavy_1 (1850.0, -1400.0, -300.0) with action e_sp_down_6m.
´ene_fbi_heavy_1_4´ ElementSpawnEnemyDummy 100682
	Spawn ene_fbi_heavy_1 (1850.0, -1600.0, -300.0) with action e_sp_down_6m.
´ene_fbi_heavy_1_5´ ElementSpawnEnemyDummy 100762
	Spawn ene_fbi_heavy_1 (2150.0, -1600.0, -300.0) with action e_sp_down_6m.
´ene_fbi_heavy_1_6´ ElementSpawnEnemyDummy 100775
	Spawn ene_fbi_heavy_1 (2150.0, -1400.0, -300.0) with action e_sp_down_6m.
´ene_fbi_heavy_1_7´ ElementSpawnEnemyDummy 100813
	Spawn ene_fbi_heavy_1 (2150.0, -1200.0, -300.0) with action e_sp_down_6m.
´ene_fbi_heavy_1_8´ ElementSpawnEnemyDummy 100812
	Spawn ene_fbi_heavy_1 (2150.0, -1000.0, -300.0) with action e_sp_down_6m.
´ai_enemy_group_003（0）´ ElementSpawnEnemyGroup 100068
	Preferred spawn groups: tac_tazer_charge, tac_shield_wall_charge, FBI_spoocs, tac_tazer_flanking, tac_shield_wall, tac_swat_rifle_flank, tac_shield_wall_ranged, tac_bull_rush
	Spawn 0 enemies, chosen at random:
		´ene_fbi_heavy_1_9´
		´ene_fbi_heavy_1_10´
		´ene_fbi_heavy_1_11´
		´ene_fbi_heavy_1_12´
		´ene_fbi_heavy_1_13´
		´ene_fbi_heavy_1_14´
		´ene_fbi_heavy_1_15´
		´ene_fbi_heavy_1_16´
´ene_fbi_heavy_1_9´ ElementSpawnEnemyDummy 100817
	Spawn ene_fbi_heavy_1 (2150.0, 1400.0, -300.0) with action e_sp_down_6m.
´ene_fbi_heavy_1_10´ ElementSpawnEnemyDummy 100816
	Spawn ene_fbi_heavy_1 (2150.0, 1500.0, -300.0) with action e_sp_down_6m.
´ene_fbi_heavy_1_11´ ElementSpawnEnemyDummy 100792
	Spawn ene_fbi_heavy_1 (2150.0, 1800.0, -300.0) with action e_sp_down_6m.
´ene_fbi_heavy_1_12´ ElementSpawnEnemyDummy 100793
	Spawn ene_fbi_heavy_1 (2150.0, 2000.0, -300.0) with action e_sp_down_6m.
´ene_fbi_heavy_1_13´ ElementSpawnEnemyDummy 100794
	Spawn ene_fbi_heavy_1 (1850.0, 2000.0, -300.0) with action e_sp_down_6m.
´ene_fbi_heavy_1_14´ ElementSpawnEnemyDummy 100795
	Spawn ene_fbi_heavy_1 (1850.0, 1800.0, -300.0) with action e_sp_down_6m.
´ene_fbi_heavy_1_15´ ElementSpawnEnemyDummy 100815
	Spawn ene_fbi_heavy_1 (1850.0, 1500.0, -300.0) with action e_sp_down_6m.
´ene_fbi_heavy_1_16´ ElementSpawnEnemyDummy 100818
	Spawn ene_fbi_heavy_1 (1850.0, 1400.0, -300.0) with action e_sp_down_6m.
´spawn（0）´ ElementCounter 100188
´trigger_area_001´ ElementAreaTrigger 100106
	TRIGGER TIMES 1
	Box, width 500.0, height 1000.0, depth 500.0, at position (5350.0, 200.0, -300.0) with rotation (0.0, 0.0, -6.55651e-07, -1.0)
	Amount: 1
	Instigator: player
	Interval: 0.1
	Upon on_enter, execute:
		´spawned´
´spawned´ MissionScriptElement 100107
	TRIGGER TIMES 1
	´disable_team_ai_so´ (DELAY 1)
´end_assault´ ElementGlobalEventTrigger 100123
	Upon global event "end_assault_late":
		Send mission event "enable_hostage_interaction" to instance levels/instances/shared/obj_skm/001 (5100.0, 200.0, -596.856)
		Send mission event "objective_complete" to instance levels/instances/shared/obj_link/001 (2100.0, -200.0, 4102.5)
		Toggle: ´trigger_area_006´
		Toggle off: ´trigger_gas_bottom´
		Toggle off: ´trigger_gas_left´
		Toggle off: ´trigger_gas_middle_001´
		Toggle off: ´trigger_gas_middle_002´
		Toggle off: ´trigger_gas_right´
		Toggle off: ´trigger_gas_top´
		Toggle off: ´gas_sound_bottom_002´
		Toggle off: ´gas_sound_left´
		Toggle off: ´gas_sound_middle_back´
		Toggle off: ´gas_sound_right´
		Toggle off: ´trigger_gas_bottom001´
		Stop effect: ´effect_gas_bottom_001´
		Stop effect: ´effect_gas_bottom_003´
		Stop effect: ´effect_gas_left_001´
		Stop effect: ´effect_gas_left_002´
		Stop effect: ´effect_gas_left_003´
		Stop effect: ´effect_gas_left_004´
		Stop effect: ´effect_gas_middle_004´
		Stop effect: ´effect_gas_middle_006´
		Stop effect: ´effect_gas_middle_007´
		Stop effect: ´effect_gas_middle_009´
		Stop effect: ´effect_gas_middle_010´
		Stop effect: ´effect_gas_middle_012´
		Stop effect: ´effect_gas_right_001´
		Stop effect: ´effect_gas_right_002´
		Stop effect: ´effect_gas_right_003´
		Stop effect: ´effect_gas_right_004´
		Stop effect: ´effect_gas_top_001´
		Stop effect: ´effect_gas_top_002´
		Stop effect: ´effect_gas_top_003´
		Stop effect: ´effect_gas_top_004´
´trigger_area_006´ ElementAreaTrigger 100020
	DISABLED
	Box, width 500.0, height 500.0, depth 1241.0, at position (2050.0, 200.0, -200.0) with rotation (0.0, 0.0, 0.0, -1.0)
	Amount: 1
	Instigator: enemies
	Interval: 45.0
	Upon on_enter, execute:
		Spawn smoke grenade at position (2300.0, 200.0, -300.0)
		Toggle: ´trigger_area_006´
´trigger_gas_bottom´ ElementAreaTrigger 100117
	DISABLED
	Box, width 466.742, height 1044.0, depth 365.337, at position (5411.0, -531.0, -100.0) with rotation (0.0, 0.0, -0.707107, -0.707107)
	Amount: 1
	Instigator: player
	Interval: 0.1
	Upon both, execute:
		Deal gas damage to instigator.
´trigger_gas_left´ ElementAreaTrigger 100037
	DISABLED
	Box, width 2794.56, height 655.0, depth 630.0, at position (4200.0, -1125.0, -25.0) with rotation (0.0, 0.0, 0.0, -1.0)
	Amount: 1
	Instigator: player
	Interval: 0.1
	Upon both, execute:
		Deal gas damage to instigator.
´trigger_gas_middle_001´ ElementAreaTrigger 100301
	DISABLED
	Box, width 2008.45, height 1270.7, depth 772.341, at position (4213.0, -390.0, -25.0) with rotation (0.0, 0.0, 0.0, -1.0)
	Amount: 1
	Instigator: player
	Interval: 0.1
	Upon both, execute:
		Deal gas damage to instigator.
´trigger_gas_middle_002´ ElementAreaTrigger 100084
	DISABLED
	Box, width 2008.45, height 1270.7, depth 772.341, at position (4213.0, 789.0, -25.0) with rotation (0.0, 0.0, 0.0, -1.0)
	Amount: 1
	Instigator: player
	Interval: 0.1
	Upon both, execute:
		Deal gas damage to instigator.
´trigger_gas_right´ ElementAreaTrigger 100036
	DISABLED
	Box, width 2794.56, height 655.0, depth 630.0, at position (4200.0, 1525.0, -25.0) with rotation (0.0, 0.0, 0.0, -1.0)
	Amount: 1
	Instigator: player
	Interval: 0.1
	Upon both, execute:
		Deal gas damage to instigator.
´trigger_gas_top´ ElementAreaTrigger 100052
	DISABLED
	Box, width 4025.58, height 648.45, depth 392.189, at position (3000.0, 225.0, -25.0) with rotation (0.0, 0.0, -0.707107, -0.707107)
	Amount: 1
	Instigator: player
	Interval: 0.1
	Upon both, execute:
		Deal gas damage to instigator.
´gas_sound_bottom_002´ ElementPlaySound 100150
	Play audio "grenade_gas_explode" at position (4742.0, 892.0, -517.0)
´gas_sound_left´ ElementPlaySound 100151
	Play audio "grenade_gas_explode" at position (4225.0, -1100.0, -75.0)
´gas_sound_middle_back´ ElementPlaySound 100130
	Play audio "grenade_gas_explode" at position (5408.0, 910.0, -446.0)
´gas_sound_right´ ElementPlaySound 100152
	Play audio "grenade_gas_explode" at position (4225.0, 1525.0, -75.0)
´trigger_gas_bottom001´ ElementAreaTrigger 100247
	DISABLED
	Box, width 466.742, height 1044.0, depth 365.337, at position (5411.0, 931.0, -100.0) with rotation (0.0, 0.0, -0.707107, -0.707107)
	Amount: 1
	Instigator: player
	Interval: 0.1
	Upon both, execute:
		Deal gas damage to instigator.
´effect_gas_bottom_001´ ElementPlayEffect 100297
	Play effect effects/payday2/environment/cs_gas_damage_area at position (5500.0, 900.0, -300.0)
	´gas_sound_middle_back´
´effect_gas_bottom_003´ ElementPlayEffect 100296
	Play effect effects/payday2/environment/cs_gas_damage_area at position (5500.0, -500.0, -300.0)
	Play audio "grenade_gas_explode" at position (5430.0, -554.0, -404.0)
´effect_gas_left_001´ ElementPlayEffect 100112
	Play effect effects/payday2/environment/cs_gas_damage_area at position (5300.0, -1225.0, -297.5)
´effect_gas_left_002´ ElementPlayEffect 100114
	Play effect effects/payday2/environment/cs_gas_damage_area at position (4600.0, -1225.0, -297.5)
´effect_gas_left_003´ ElementPlayEffect 100115
	Play effect effects/payday2/environment/cs_gas_damage_area at position (3900.0, -1225.0, -297.5)
	´gas_sound_left´
´effect_gas_left_004´ ElementPlayEffect 100116
	Play effect effects/payday2/environment/cs_gas_damage_area at position (3200.0, -1225.0, -297.5)
´effect_gas_middle_004´ ElementPlayEffect 100307
	Play effect effects/payday2/environment/cs_gas_damage_area at position (4800.0, 900.0, -400.0)
	´gas_sound_bottom_002´
´effect_gas_middle_006´ ElementPlayEffect 100305
	Play effect effects/payday2/environment/cs_gas_damage_area at position (4800.0, -500.0, -400.0)
	Play audio "grenade_gas_explode" at position (4760.0, -569.0, -517.0)
´effect_gas_middle_007´ ElementPlayEffect 100308
	Play effect effects/payday2/environment/cs_gas_damage_area at position (4200.0, 900.0, -400.0)
	Play audio "grenade_gas_explode" at position (4200.0, 900.0, -517.0)
´effect_gas_middle_009´ ElementPlayEffect 100310
	Play effect effects/payday2/environment/cs_gas_damage_area at position (4200.0, -500.0, -400.0)
	Play audio "grenade_gas_explode" at position (4200.0, -500.0, -500.0)
´effect_gas_middle_010´ ElementPlayEffect 100311
	Play effect effects/payday2/environment/cs_gas_damage_area at position (3500.0, 900.0, -400.0)
	Play audio "grenade_gas_explode" at position (3500.0, 900.0, -474.0)
´effect_gas_middle_012´ ElementPlayEffect 100313
	Play effect effects/payday2/environment/cs_gas_damage_area at position (3500.0, -500.0, -400.0)
	Play audio "grenade_gas_explode" at position (3500.0, -500.0, -473.0)
´effect_gas_right_001´ ElementPlayEffect 100099
	Play effect effects/payday2/environment/cs_gas_damage_area at position (5300.0, 1625.0, -297.5)
´effect_gas_right_002´ ElementPlayEffect 100100
	Play effect effects/payday2/environment/cs_gas_damage_area at position (4600.0, 1625.0, -297.5)
	´gas_sound_right´
´effect_gas_right_003´ ElementPlayEffect 100101
	Play effect effects/payday2/environment/cs_gas_damage_area at position (3900.0, 1625.0, -297.5)
´effect_gas_right_004´ ElementPlayEffect 100108
	Play effect effects/payday2/environment/cs_gas_damage_area at position (3200.0, 1625.0, -297.5)
´effect_gas_top_001´ ElementPlayEffect 100122
	Play effect effects/payday2/environment/cs_gas_damage_area at position (3000.0, -725.0, -297.5)
´effect_gas_top_002´ ElementPlayEffect 100127
	Play effect effects/payday2/environment/cs_gas_damage_area at position (3000.0, -75.0, -297.5)
´effect_gas_top_003´ ElementPlayEffect 100128
	Play effect effects/payday2/environment/cs_gas_damage_area at position (3000.0, 475.0, -297.5)
´effect_gas_top_004´ ElementPlayEffect 100129
	Play effect effects/payday2/environment/cs_gas_damage_area at position (3000.0, 1125.0, -297.5)
´trigger_area_002´ ElementAreaTrigger 100196
	TRIGGER TIMES 1
	Box, width 500.0, height 1000.0, depth 500.0, at position (4600.0, 200.0, -246.856) with rotation (0.0, 0.0, 0.999848, 0.0174521)
	Amount: 1
	Instigator: player
	Interval: 0.1
	Upon on_enter, execute:
		´spawned´
´all_dead´ ElementCounterTrigger 100365
	Upon event ´snipers_alive（0）´ == 0:
		´chance_to_spawn（20％）´ += 15%
´snipers_alive（0）´ ElementCounter 100364
´chance_to_spawn（20％）´ ElementLogicChance 100516
	If chance to execute succeeds:
		If Assault:
			Teammate comment: p43
			Quit all current dialogue. Play dialogue: Play_loc_skm_12
			Debug message: filter_assault
			´sniper008´ (2600.0, 200.0, 352.5)
		´chance_to_spawn（20％）´ = 20% (DELAY 20)
		´chance_to_spawn（20％）´ (DELAY 40)
	Else:
		´chance_to_spawn（20％）´ += 10%
		Debug message: add 10
		´chance_to_spawn（20％）´ (DELAY 10)
´sniper008´ ElementSpawnEnemyDummy 100375
	TRIGGER TIMES 1
	Spawn ene_sniper_1 (2600.0, 200.0, 352.5) with action e_sp_crh_to_std_rifle.
	No group AI
	Make instigator path towards (3300.0, 200.0, 352.5) and show "AI_sniper".
´sniper_spawned´ ElementEnemyDummyTrigger 100378
	Upon any event:
		spawn: ´sniper008´
		spawn: ´sniper009´
		spawn: ´sniper010´
	Execute:
		´snipers_alive（0）´ += 1
		´snipers_to_spawn（1）´ -= 1
		Debug message: sniper spawned
´sniper009´ ElementSpawnEnemyDummy 100376
	TRIGGER TIMES 1
	Spawn ene_sniper_1 (2400.0, -525.0, -300.0) with action e_sp_crh_to_std_rifle.
	No group AI
	Make instigator path towards (2300.0, 100.0, -300.0) and show "AI_sniper".
´sniper010´ ElementSpawnEnemyDummy 100377
	TRIGGER TIMES 1
	Spawn ene_sniper_1 (2400.0, 925.0, -300.0) with action e_sp_crh_to_std_rifle.
	No group AI
	Make instigator path towards (2300.0, 300.0, -300.0) and show "AI_sniper".
´snipers_to_spawn（1）´ ElementCounter 100367
´sniper_died´ ElementEnemyDummyTrigger 100379
	Upon any event:
		death: ´sniper008´
		death: ´sniper009´
		death: ´sniper010´
	Execute:
		´snipers_alive（0）´ -= 1
		´snipers_to_spawn（1）´ += 1
´sniper_died008´ ElementEnemyDummyTrigger 100395
	Upon event "death" of ´sniper008´:
		Toggle on, trigger times 1: ´sniper008´
´spawn_break001´ ElementEnemyDummyTrigger 100709
	TRIGGER TIMES 1
	Upon event "spawn" of ´ene_fbi_heavy_1_5´:
		Execute sequence: "break_02" - units/pd2_indiana/architecture/skylight/mus_int_exibit_skylight_4x3/006 (2200.0, -1450.0, 294.152)
´spawn_break002´ ElementEnemyDummyTrigger 100711
	TRIGGER TIMES 1
	Upon event "spawn" of ´ene_fbi_heavy_1_4´:
		Execute sequence: "break_11" - units/pd2_indiana/architecture/skylight/mus_int_exibit_skylight_4x3/006 (2200.0, -1450.0, 294.152)
´spawn_break003´ ElementEnemyDummyTrigger 100714
	TRIGGER TIMES 1
	Upon event "spawn" of ´ene_fbi_heavy_1_6´:
		Execute sequence: "break_03" - units/pd2_indiana/architecture/skylight/mus_int_exibit_skylight_4x3/005 (2200.0, -1150.0, 294.152)
´spawn_break004´ ElementEnemyDummyTrigger 100716
	TRIGGER TIMES 1
	Upon event "spawn" of ´ene_fbi_heavy_1_3´:
		Execute sequence: "break_12" - units/pd2_indiana/architecture/skylight/mus_int_exibit_skylight_4x3/005 (2200.0, -1150.0, 294.152)
´spawn_break005´ ElementEnemyDummyTrigger 100718
	TRIGGER TIMES 1
	Upon event "spawn" of ´ene_fbi_heavy_1_7´:
		Execute sequence: "break_01" - units/pd2_indiana/architecture/skylight/mus_int_exibit_skylight_4x3/005 (2200.0, -1150.0, 294.152)
´spawn_break006´ ElementEnemyDummyTrigger 100721
	TRIGGER TIMES 1
	Upon event "spawn" of ´ene_fbi_heavy_1_2´:
		Execute sequence: "break_10" - units/pd2_indiana/architecture/skylight/mus_int_exibit_skylight_4x3/005 (2200.0, -1150.0, 294.152)
´spawn_break007´ ElementEnemyDummyTrigger 100723
	TRIGGER TIMES 1
	Upon event "spawn" of ´ene_fbi_heavy_1_8´:
		Execute sequence: "break_02" - units/pd2_indiana/architecture/skylight/mus_int_exibit_skylight_4x3/004 (2200.0, -850.001, 294.152)
´spawn_break008´ ElementEnemyDummyTrigger 100725
	TRIGGER TIMES 1
	Upon event "spawn" of ´ene_fbi_heavy_1´:
		Execute sequence: "break_11" - units/pd2_indiana/architecture/skylight/mus_int_exibit_skylight_4x3/004 (2200.0, -850.001, 294.152)
´spawn_break009´ ElementEnemyDummyTrigger 100727
	TRIGGER TIMES 1
	Upon event "spawn" of ´ene_fbi_heavy_1_9´:
		Execute sequence: "break_11" - units/pd2_indiana/architecture/skylight/mus_int_exibit_skylight_4x3/003 (1800.0, 1250.0, 295.978)
´spawn_break010´ ElementEnemyDummyTrigger 100729
	TRIGGER TIMES 1
	Upon event "spawn" of ´ene_fbi_heavy_1_16´:
		Execute sequence: "break_02" - units/pd2_indiana/architecture/skylight/mus_int_exibit_skylight_4x3/003 (1800.0, 1250.0, 295.978)
´spawn_break011´ ElementEnemyDummyTrigger 100731
	TRIGGER TIMES 1
	Upon event "spawn" of ´ene_fbi_heavy_1_10´:
		Execute sequence: "break_12" - units/pd2_indiana/architecture/skylight/mus_int_exibit_skylight_4x3/003 (1800.0, 1250.0, 295.978)
´spawn_break012´ ElementEnemyDummyTrigger 100772
	TRIGGER TIMES 1
	Upon event "spawn" of ´ene_fbi_heavy_1_15´:
		Execute sequence: "break_03" - units/pd2_indiana/architecture/skylight/mus_int_exibit_skylight_4x3/003 (1800.0, 1250.0, 295.978)
´spawn_break013´ ElementEnemyDummyTrigger 100774
	TRIGGER TIMES 1
	Upon event "spawn" of ´ene_fbi_heavy_1_11´:
		Execute sequence: "break_12" - units/pd2_indiana/architecture/skylight/mus_int_exibit_skylight_4x3/002 (1800.0, 1550.0, 295.978)
´spawn_break014´ ElementEnemyDummyTrigger 101376
	TRIGGER TIMES 1
	Upon event "spawn" of ´ene_fbi_heavy_1_14´:
		Execute sequence: "break_03" - units/pd2_indiana/architecture/skylight/mus_int_exibit_skylight_4x3/002 (1800.0, 1550.0, 295.978)
´spawn_break015´ ElementEnemyDummyTrigger 102091
	TRIGGER TIMES 1
	Upon event "spawn" of ´ene_fbi_heavy_1_12´:
		Execute sequence: "break_12" - units/pd2_indiana/architecture/skylight/mus_int_exibit_skylight_4x3/001 (1800.0, 1850.0, 295.978)
´spawn_break016´ ElementEnemyDummyTrigger 102093
	TRIGGER TIMES 1
	Upon event "spawn" of ´ene_fbi_heavy_1_13´:
		Execute sequence: "break_03" - units/pd2_indiana/architecture/skylight/mus_int_exibit_skylight_4x3/001 (1800.0, 1850.0, 295.978)
´spawn_break030´ ElementEnemyDummyTrigger 102350
	TRIGGER TIMES 1
	Upon event "spawn" of ´ene_fbi_heavy_1_17´:
		Execute sequence: "break_04" - units/pd2_indiana/architecture/skylight/mus_int_exibit_skylight_4x3/018 (3850.0, 1100.0, 295.978)
´ene_fbi_heavy_1_17´ ElementSpawnEnemyDummy 101932
	Spawn ene_fbi_heavy_1 (3600.0, 850.0, -500.0) with action e_sp_dwn_10m.
´spawn_break031´ ElementEnemyDummyTrigger 102351
	TRIGGER TIMES 1
	Upon event "spawn" of ´ene_fbi_heavy_1_18´:
		Execute sequence: "break_04" - units/pd2_indiana/architecture/skylight/mus_int_exibit_skylight_4x3/018 (3850.0, 1100.0, 295.978)
´ene_fbi_heavy_1_18´ ElementSpawnEnemyDummy 101930
	Spawn ene_fbi_heavy_1 (3475.0, 925.0, -500.0) with action e_sp_dwn_10m.
´spawn_break032´ ElementEnemyDummyTrigger 102353
	TRIGGER TIMES 1
	Upon event "spawn" of ´ene_fbi_heavy_1_19´:
		Execute sequence: "break_04" - units/pd2_indiana/architecture/skylight/mus_int_exibit_skylight_4x3/018 (3850.0, 1100.0, 295.978)
´ene_fbi_heavy_1_19´ ElementSpawnEnemyDummy 101931
	Spawn ene_fbi_heavy_1 (3575.0, 1050.0, -500.0) with action e_sp_dwn_10m.
´spawn_break033´ ElementEnemyDummyTrigger 102355
	TRIGGER TIMES 1
	Upon event "spawn" of ´ene_fbi_heavy_1_20´:
		Execute sequence: "break_04" - units/pd2_indiana/architecture/skylight/mus_int_exibit_skylight_4x3/018 (3850.0, 1100.0, 295.978)
´ene_fbi_heavy_1_20´ ElementSpawnEnemyDummy 101929
	Spawn ene_fbi_heavy_1 (3775.0, 1050.0, -500.0) with action e_sp_dwn_10m.
´spawn_break034´ ElementEnemyDummyTrigger 102357
	TRIGGER TIMES 1
	Upon event "spawn" of ´ene_fbi_heavy_1_21´:
		Execute sequence: "break_11" - units/pd2_indiana/architecture/skylight/mus_int_exibit_skylight_4x3/016 (4650.0, 1100.0, 295.978)
´ene_fbi_heavy_1_21´ ElementSpawnEnemyDummy 101926
	Spawn ene_fbi_heavy_1 (4300.0, 925.0, -550.0) with action e_sp_dwn_11m_var2.
´spawn_break035´ ElementEnemyDummyTrigger 102359
	TRIGGER TIMES 1
	Upon event "spawn" of ´ene_fbi_heavy_1_22´:
		Execute sequence: "break_07" - units/pd2_indiana/architecture/skylight/mus_int_exibit_skylight_4x3/016 (4650.0, 1100.0, 295.978)
´ene_fbi_heavy_1_22´ ElementSpawnEnemyDummy 101925
	Spawn ene_fbi_heavy_1 (4400.0, 1050.0, -550.0) with action e_sp_dwn_11m_var2.
´spawn_break036´ ElementEnemyDummyTrigger 102361
	TRIGGER TIMES 1
	Upon event "spawn" of ´ene_fbi_heavy_1_23´:
		Execute sequence: "break_01" - units/pd2_indiana/architecture/skylight/mus_int_exibit_skylight_4x3/016 (4650.0, 1100.0, 295.978)
´ene_fbi_heavy_1_23´ ElementSpawnEnemyDummy 101927
	Spawn ene_fbi_heavy_1 (4600.0, 1050.0, -550.0) with action e_sp_dwn_11m_var2.
´spawn_break037´ ElementEnemyDummyTrigger 102363
	TRIGGER TIMES 1
	Upon event "spawn" of ´ene_fbi_heavy_1_24´:
		Execute sequence: "break_09" - units/pd2_indiana/architecture/skylight/mus_int_exibit_skylight_4x3/016 (4650.0, 1100.0, 295.978)
´ene_fbi_heavy_1_24´ ElementSpawnEnemyDummy 101928
	Spawn ene_fbi_heavy_1 (4425.0, 850.0, -550.0) with action e_sp_dwn_11m_var2.
´spawn_break038´ ElementEnemyDummyTrigger 102365
	TRIGGER TIMES 1
	Upon event "spawn" of ´ene_fbi_heavy_1_25´:
		Execute sequence: "break_12" - units/pd2_indiana/architecture/skylight/mus_int_exibit_skylight_4x3/024 (3850.0, -400.0, 295.978)
´ene_fbi_heavy_1_25´ ElementSpawnEnemyDummy 101933
	Spawn ene_fbi_heavy_1 (3500.0, -650.0, -500.0) with action e_sp_dwn_10m.
´spawn_break039´ ElementEnemyDummyTrigger 102367
	TRIGGER TIMES 1
	Upon event "spawn" of ´ene_fbi_heavy_1_26´:
		Execute sequence: "break_10" - units/pd2_indiana/architecture/skylight/mus_int_exibit_skylight_4x3/024 (3850.0, -400.0, 295.978)
´ene_fbi_heavy_1_26´ ElementSpawnEnemyDummy 101934
	Spawn ene_fbi_heavy_1 (3500.0, -450.0, -500.0) with action e_sp_dwn_10m.
´spawn_break040´ ElementEnemyDummyTrigger 102369
	TRIGGER TIMES 1
	Upon event "spawn" of ´ene_fbi_heavy_1_27´:
		Execute sequence: "break_03" - units/pd2_indiana/architecture/skylight/mus_int_exibit_skylight_4x3/024 (3850.0, -400.0, 295.978)
´ene_fbi_heavy_1_27´ ElementSpawnEnemyDummy 101935
	Spawn ene_fbi_heavy_1 (3800.0, -650.0, -500.0) with action e_sp_dwn_10m.
´spawn_break041´ ElementEnemyDummyTrigger 102371
	TRIGGER TIMES 1
	Upon event "spawn" of ´ene_fbi_heavy_1_28´:
		Execute sequence: "break_01" - units/pd2_indiana/architecture/skylight/mus_int_exibit_skylight_4x3/024 (3850.0, -400.0, 295.978)
´ene_fbi_heavy_1_28´ ElementSpawnEnemyDummy 101936
	Spawn ene_fbi_heavy_1 (3800.0, -450.0, -500.0) with action e_sp_dwn_10m.
´spawn_break042´ ElementEnemyDummyTrigger 102373
	TRIGGER TIMES 1
	Upon event "spawn" of ´ene_fbi_heavy_1_29´:
		Execute sequence: "break_10" - units/pd2_indiana/architecture/skylight/mus_int_exibit_skylight_4x3/022 (4650.0, -400.0, 295.978)
´ene_fbi_heavy_1_29´ ElementSpawnEnemyDummy 101938
	Spawn ene_fbi_heavy_1 (4325.0, -450.0, -550.0) with action e_sp_dwn_11m_var2.
´spawn_break043´ ElementEnemyDummyTrigger 102375
	TRIGGER TIMES 1
	Upon event "spawn" of ´ene_fbi_heavy_1_30´:
		Execute sequence: "break_11" - units/pd2_indiana/architecture/skylight/mus_int_exibit_skylight_4x3/022 (4650.0, -400.0, 295.978)
´ene_fbi_heavy_1_30´ ElementSpawnEnemyDummy 101937
	Spawn ene_fbi_heavy_1 (4325.0, -550.0, -550.0) with action e_sp_dwn_11m_var2.
´spawn_break044´ ElementEnemyDummyTrigger 102377
	TRIGGER TIMES 1
	Upon event "spawn" of ´ene_fbi_heavy_1_31´:
		Execute sequence: "break_09" - units/pd2_indiana/architecture/skylight/mus_int_exibit_skylight_4x3/022 (4650.0, -400.0, 295.978)
´ene_fbi_heavy_1_31´ ElementSpawnEnemyDummy 101939
	Spawn ene_fbi_heavy_1 (4400.0, -650.0, -550.0) with action e_sp_dwn_11m_var2.
´spawn_break045´ ElementEnemyDummyTrigger 102379
	TRIGGER TIMES 1
	Upon event "spawn" of ´ene_fbi_heavy_1_32´:
		Execute sequence: "break_03" - units/pd2_indiana/architecture/skylight/mus_int_exibit_skylight_4x3/022 (4650.0, -400.0, 295.978)
´ene_fbi_heavy_1_32´ ElementSpawnEnemyDummy 101940
	Spawn ene_fbi_heavy_1 (4600.0, -650.0, -550.0) with action e_sp_dwn_11m_var2.
´spawn004´ ElementEnemyDummyTrigger 102382
	TRIGGER TIMES 1
	Upon any event:
		spawn: ´ene_fbi_heavy_1_33´
		spawn: ´ene_fbi_heavy_1_34´
	Execute:
		Execute sequence: "break_frame" - units/pd2_indiana/architecture/courtyard/mus_ext_court_window/012 (5025.0, 1875.0, -250.0)
´ene_fbi_heavy_1_33´ ElementSpawnEnemyDummy 102381
	Spawn ene_fbi_heavy_1 (4900.0, 1725.0, -300.0) with action e_sp_swing_dwn_7m_window.
´ene_fbi_heavy_1_34´ ElementSpawnEnemyDummy 100187
	Spawn ene_fbi_heavy_1 (4775.0, 1725.0, -300.0) with action e_sp_swing_dwn_7m_window.
´spawn005´ ElementEnemyDummyTrigger 102389
	TRIGGER TIMES 1
	Upon any event:
		spawn: ´ene_fbi_heavy_1_35´
		spawn: ´ene_fbi_heavy_1_36´
	Execute:
		Execute sequence: "break_frame" - units/pd2_indiana/architecture/courtyard/mus_ext_court_window/013 (4425.0, 1875.0, -250.0)
´ene_fbi_heavy_1_35´ ElementSpawnEnemyDummy 102383
	Spawn ene_fbi_heavy_1 (4325.0, 1725.0, -300.0) with action e_sp_swing_dwn_7m_window.
´ene_fbi_heavy_1_36´ ElementSpawnEnemyDummy 100289
	Spawn ene_fbi_heavy_1 (4200.0, 1725.0, -300.0) with action e_sp_swing_dwn_7m_window.
´spawn006´ ElementEnemyDummyTrigger 102391
	TRIGGER TIMES 1
	Upon any event:
		spawn: ´ene_fbi_heavy_1_37´
		spawn: ´ene_fbi_heavy_1_38´
	Execute:
		Execute sequence: "break_frame" - units/pd2_indiana/architecture/courtyard/mus_ext_court_window/014 (3825.0, 1875.0, -250.0)
´ene_fbi_heavy_1_37´ ElementSpawnEnemyDummy 102384
	Spawn ene_fbi_heavy_1 (3725.0, 1725.0, -300.0) with action e_sp_swing_dwn_7m_window.
´ene_fbi_heavy_1_38´ ElementSpawnEnemyDummy 100290
	Spawn ene_fbi_heavy_1 (3575.0, 1725.0, -300.0) with action e_sp_swing_dwn_7m_window.
´spawn007´ ElementEnemyDummyTrigger 102393
	TRIGGER TIMES 1
	Upon any event:
		spawn: ´ene_fbi_heavy_1_39´
		spawn: ´ene_fbi_heavy_1_40´
	Execute:
		Execute sequence: "break_frame" - units/pd2_indiana/architecture/courtyard/mus_ext_court_window/017 (3825.0, -1475.0, -250.0)
´ene_fbi_heavy_1_39´ ElementSpawnEnemyDummy 102385
	Spawn ene_fbi_heavy_1 (3575.0, -1275.0, -300.0) with action e_sp_swing_dwn_7m_window.
´ene_fbi_heavy_1_40´ ElementSpawnEnemyDummy 100291
	Spawn ene_fbi_heavy_1 (3725.0, -1275.0, -300.0) with action e_sp_swing_dwn_7m_window.
´spawn008´ ElementEnemyDummyTrigger 102395
	TRIGGER TIMES 1
	Upon any event:
		spawn: ´ene_fbi_heavy_1_41´
		spawn: ´ene_fbi_heavy_1_42´
	Execute:
		Execute sequence: "break_frame" - units/pd2_indiana/architecture/courtyard/mus_ext_court_window/016 (4425.0, -1475.0, -250.0)
´ene_fbi_heavy_1_41´ ElementSpawnEnemyDummy 102386
	Spawn ene_fbi_heavy_1 (4175.0, -1275.0, -300.0) with action e_sp_swing_dwn_7m_window.
´ene_fbi_heavy_1_42´ ElementSpawnEnemyDummy 100191
	Spawn ene_fbi_heavy_1 (4325.0, -1275.0, -300.0) with action e_sp_swing_dwn_7m_window.
´spawn009´ ElementEnemyDummyTrigger 102397
	TRIGGER TIMES 1
	Upon any event:
		spawn: ´ene_fbi_heavy_1_43´
		spawn: ´ene_fbi_heavy_1_44´
	Execute:
		Execute sequence: "break_frame" - units/pd2_indiana/architecture/courtyard/mus_ext_court_window/015 (5025.0, -1475.0, -250.0)
´ene_fbi_heavy_1_43´ ElementSpawnEnemyDummy 102387
	Spawn ene_fbi_heavy_1 (4775.0, -1275.0, -300.0) with action e_sp_swing_dwn_7m_window.
´ene_fbi_heavy_1_44´ ElementSpawnEnemyDummy 100292
	Spawn ene_fbi_heavy_1 (4925.0, -1275.0, -300.0) with action e_sp_swing_dwn_7m_window.
´hint_cases_trigger003´ ElementAreaTrigger 102416
	TRIGGER TIMES 1
	Box, width 2000.0, height 500.0, depth 1100.0, at position (2000.0, -1325.0, -50.0) with rotation (0.0, 0.0, -0.707107, -0.707107)
	Amount: 1
	Instigator: player
	Interval: 0.1
	Upon on_enter, execute:
		Play dialogue: Play_pln_hd1_30 (DELAY 5)
´hint_cases_trigger004´ ElementAreaTrigger 102417
	TRIGGER TIMES 1
	Box, width 2000.0, height 500.0, depth 1100.0, at position (2000.0, 1725.0, -50.0) with rotation (0.0, 0.0, -0.707107, -0.707107)
	Amount: 1
	Instigator: player
	Interval: 0.1
	Upon on_enter, execute:
		Play dialogue: Play_pln_hd1_29 (DELAY 5)
´pp_mus_lootdropoff001´ ElementPrePlanning 102623
	Allow preplanning items at position (3650.0, -1350.0, -250.0): loot_drop_off_stealth_only
	Execute sequence: "open_doors" - units/pd2_indiana/architecture/courtyard/mus_ext_court_window/017 (3825.0, -1475.0, -250.0)
	Toggle off: ´spawn007´
	Hide object: units/dev_tools/level_tools/dev_collision_10m_bag/block_loot (4000.0, -1466.0, -300.0)
´trigger_global_event_002´ ElementGlobalEventTrigger 102636
	TRIGGER TIMES 1
	Upon global event "police_called":
		Show object: units/dev_tools/level_tools/dev_collision_10m_bag/block_loot (4000.0, -1466.0, -300.0)
		Toggle off: ´point_waypoint_002´
		remove ´point_waypoint_002´
´point_waypoint_002´ ElementWaypoint 102650
	Place waypoint with icon "pd2_lootdrop" at position (3650.0, -1450.0, -200.0)
´point_spotter_003´ ElementSpotter 100564
	DISABLED
	Spotter at position (900.0, 2600.0, -50.0) with rotation (0.0, 0.0, 0.92388, 0.382683)
´pp_mus_spotter003´ ElementPrePlanning 100567
	Allow preplanning items at position (900.0, 2600.0, 50.0001): spycam
	Toggle on: ´point_spotter_003´
´point_spotter_005´ ElementSpotter 100571
	DISABLED
	Spotter at position (5550.0, 1750.0, -50.0) with rotation (0.0, 0.0, 0.92388, 0.382683)
´pp_mus_spotter005´ ElementPrePlanning 100573
	Allow preplanning items at position (5550.0, 1750.0, 50.0001): spycam
	Toggle on: ´point_spotter_005´
´obj_completed_001´ ElementInstanceOutputEvent 100082
	Upon instance event "objective_completed" - levels/instances/shared/obj_link/001 (2100.0, -200.0, 4102.5):
		Send mission event "objective_reset" to instance levels/instances/shared/obj_link/002 (2500.0, -200.0, 4102.5)
		Send mission event "link_objective_start" to instance levels/instances/shared/obj_link/002 (2500.0, -200.0, 4102.5)
´func_instance_set_params_001´ ElementInstanceSetParams 100083
	Change parameters of instance levels/instances/shared/obj_link/001 (2100.0, -200.0, 4102.5): 
		Objective: hud_skm_1
		State: Disabled
		Normal: None
		Hard: None
		Very Hard: None
		Overkill: None
		Death Wish: None
´start_assault´ ElementGlobalEventTrigger 100178
	Upon global event "start_assault":
		Send mission event "objective_complete" to instance levels/instances/shared/obj_link/002 (2500.0, -200.0, 4102.5)
		Toggle: ´trigger_area_006´
		´wave_4（4）´
		´wave_7（7）´
		´wave_9（9）´
		´wave_2（2）´
		´ai_enemy_prefered_add_004´
		´start_sniper_link´ (DELAY 15)
´wave_4（4）´ ElementCounter 100229
	When counter target reached: 
		Enable spawn group: ´ai_enemy_group_007（0）´
		Quit all current dialogue. Play dialogue: Play_loc_skm_11 (DELAY 7-12)
		Debug message: gas_event_link (DELAY 7-12)
		Execute 2: (DELAY 9-14)
			´gas_top_link´
			´gas_left_link´ (DELAY 0.4)
			´gas_right_link´ (DELAY 1)
			´gas_middle_link´ (DELAY 1.4)
			´gas_bottom_link´ (DELAY 2)
´wave_7（7）´ ElementCounter 100230
	When counter target reached: 
		Enable spawn group: ´ai_enemy_group_008（0）´
		Quit all current dialogue. Play dialogue: Play_loc_skm_11 (DELAY 7-12)
		Debug message: gas_event_link (DELAY 7-12)
		Execute 2: (DELAY 9-14)
			´gas_top_link´
			´gas_left_link´ (DELAY 0.4)
			´gas_right_link´ (DELAY 1)
			´gas_middle_link´ (DELAY 1.4)
			´gas_bottom_link´ (DELAY 2)
´wave_9（9）´ ElementCounter 100231
	When counter target reached: 
		Quit all current dialogue. Play dialogue: Play_loc_skm_11 (DELAY 7-12)
		Debug message: gas_event_link (DELAY 7-12)
		Execute 2: (DELAY 9-14)
			´gas_top_link´
			´gas_left_link´ (DELAY 0.4)
			´gas_right_link´ (DELAY 1)
			´gas_middle_link´ (DELAY 1.4)
			´gas_bottom_link´ (DELAY 2)
´wave_2（2）´ ElementCounter 100095
	When counter target reached: 
		Quit all current dialogue. Play dialogue: Play_loc_skm_11 (DELAY 7-12)
		Debug message: gas_event_link (DELAY 7-12)
		Execute 2: (DELAY 9-14)
			´gas_top_link´
			´gas_left_link´ (DELAY 0.4)
			´gas_right_link´ (DELAY 1)
			´gas_middle_link´ (DELAY 1.4)
			´gas_bottom_link´ (DELAY 2)
´ai_enemy_prefered_add_004´ ElementEnemyPreferedAdd 100293
	TRIGGER TIMES 1
	Enable spawn group: ´ai_enemy_group_004（0）´
	Enable spawn group: ´ai_enemy_group_009（0）´
	Enable spawn group: ´ai_enemy_group_005（0）´
	Enable spawn group: ´ai_enemy_group_006（0）´
´ai_enemy_group_004（0）´ ElementSpawnEnemyGroup 100069
	Preferred spawn groups: tac_shield_wall_charge, tac_tazer_charge, FBI_spoocs, tac_tazer_flanking, tac_shield_wall, tac_swat_rifle_flank, tac_shield_wall_ranged, tac_bull_rush
	Spawn 0 enemies, chosen at random:
		´ene_fbi_heavy_1_33´
		´ene_fbi_heavy_1_35´
		´ene_fbi_heavy_1_37´
		´ene_fbi_heavy_1_34´
		´ene_fbi_heavy_1_36´
		´ene_fbi_heavy_1_38´
´ai_enemy_group_009（0）´ ElementSpawnEnemyGroup 100080
	Preferred spawn groups: tac_shield_wall_charge, tac_tazer_charge, FBI_spoocs, tac_tazer_flanking, tac_shield_wall, tac_swat_rifle_flank, tac_shield_wall_ranged, tac_bull_rush
	Spawn 0 enemies, chosen at random:
		´ene_fbi_heavy_1_39´
		´ene_fbi_heavy_1_41´
		´ene_fbi_heavy_1_43´
		´ene_fbi_heavy_1_40´
		´ene_fbi_heavy_1_42´
		´ene_fbi_heavy_1_44´
´ai_enemy_group_005（0）´ ElementSpawnEnemyGroup 100071
	Preferred spawn groups: tac_shield_wall_charge, FBI_spoocs, tac_tazer_charge, tac_tazer_flanking, tac_shield_wall, tac_swat_rifle_flank, tac_bull_rush, tac_shield_wall_ranged
	Spawn 0 enemies, chosen at random:
		´ene_fbi_heavy_1_28´
		´ene_fbi_heavy_1_26´
		´ene_fbi_heavy_1_27´
		´ene_fbi_heavy_1_25´
		´ene_fbi_heavy_1_24´
		´ene_fbi_heavy_1_23´
		´ene_fbi_heavy_1_22´
		´ene_fbi_heavy_1_21´
´ai_enemy_group_006（0）´ ElementSpawnEnemyGroup 100074
	Preferred spawn groups: tac_shield_wall_charge, FBI_spoocs, tac_tazer_charge, tac_tazer_flanking, tac_shield_wall, tac_swat_rifle_flank, tac_shield_wall_ranged, tac_bull_rush
	Spawn 0 enemies, chosen at random:
		´ene_fbi_heavy_1_32´
		´ene_fbi_heavy_1_31´
		´ene_fbi_heavy_1_30´
		´ene_fbi_heavy_1_29´
		´ene_fbi_heavy_1_20´
		´ene_fbi_heavy_1_19´
		´ene_fbi_heavy_1_18´
		´ene_fbi_heavy_1_17´
´start_sniper_link´ MissionScriptElement 100097
	TRIGGER TIMES 1
	´chance_to_spawn（20％）´ = 20%
	Debug message: start sniper logic
	´chance_to_spawn（20％）´ (DELAY 20)
´ai_enemy_group_007（0）´ ElementSpawnEnemyGroup 100075
	Preferred spawn groups: tac_shield_wall_charge, FBI_spoocs, tac_tazer_charge, tac_tazer_flanking, tac_shield_wall, tac_swat_rifle_flank, tac_shield_wall_ranged, tac_bull_rush
	Spawn 0 enemies, chosen at random:
		´ene_fbi_heavy_1_45´
		´ene_fbi_heavy_1_46´
		´ene_fbi_heavy_1_47´
		´ene_fbi_heavy_1_48´
´ene_fbi_heavy_1_45´ ElementSpawnEnemyDummy 102234
	Spawn ene_fbi_heavy_1 (2450.0, -700.0, -300.0).
´ene_fbi_heavy_1_46´ ElementSpawnEnemyDummy 102232
	Spawn ene_fbi_heavy_1 (2450.0, -600.0, -300.0).
´ene_fbi_heavy_1_47´ ElementSpawnEnemyDummy 102233
	Spawn ene_fbi_heavy_1 (2250.0, -600.0, -300.0).
´ene_fbi_heavy_1_48´ ElementSpawnEnemyDummy 102235
	Spawn ene_fbi_heavy_1 (2250.0, -700.0, -300.0).
´gas_top_link´ MissionScriptElement 100051
	Toggle on: ´trigger_gas_top´
	Debug message: gas_top_link
	´effect_gas_top_001´
	´effect_gas_top_002´
	´effect_gas_top_003´
	´effect_gas_top_004´
´gas_left_link´ MissionScriptElement 100055
	Toggle on: ´trigger_gas_left´
	Toggle on: ´gas_sound_left´
	Debug message: gas_left_link
	´effect_gas_left_001´
	´effect_gas_left_002´
	´effect_gas_left_003´
	´effect_gas_left_004´
´gas_right_link´ MissionScriptElement 100056
	Toggle on: ´trigger_gas_right´
	Toggle on: ´gas_sound_right´
	Debug message: gas_right_link
	´effect_gas_right_001´
	´effect_gas_right_002´
	´effect_gas_right_003´
	´effect_gas_right_004´
´gas_middle_link´ MissionScriptElement 100057
	Debug message: gas_middle_link
	Execute 1:
		´toggle_gas_004´
		´toggle_gas_006´
´gas_bottom_link´ MissionScriptElement 100065
	Toggle on: ´trigger_gas_bottom´
	Toggle on: ´gas_sound_middle_back´
	Toggle on: ´trigger_gas_bottom001´
	Debug message: gas_bottom_link
	´effect_gas_bottom_001´
	´effect_gas_bottom_003´ (DELAY 0.6)
´ai_enemy_group_008（0）´ ElementSpawnEnemyGroup 100077
	Preferred spawn groups: tac_shield_wall_charge, FBI_spoocs, tac_tazer_charge, tac_tazer_flanking, tac_shield_wall, tac_swat_rifle_flank, tac_shield_wall_ranged, tac_bull_rush
	Spawn 0 enemies, chosen at random:
		´ene_fbi_heavy_1_49´
		´ene_fbi_heavy_1_50´
		´ene_fbi_heavy_1_51´
		´ene_fbi_heavy_1_52´
´ene_fbi_heavy_1_49´ ElementSpawnEnemyDummy 102237
	Spawn ene_fbi_heavy_1 (2450.0, 1000.0, -300.0).
´ene_fbi_heavy_1_50´ ElementSpawnEnemyDummy 102236
	Spawn ene_fbi_heavy_1 (2450.0, 1100.0, -300.0).
´ene_fbi_heavy_1_51´ ElementSpawnEnemyDummy 102239
	Spawn ene_fbi_heavy_1 (2250.0, 1100.0, -300.0).
´ene_fbi_heavy_1_52´ ElementSpawnEnemyDummy 102238
	Spawn ene_fbi_heavy_1 (2250.0, 1000.0, -300.0).
´toggle_gas_004´ ElementToggle 100087
	Toggle on: ´trigger_gas_middle_002´
	´effect_gas_middle_004´
	´effect_gas_middle_007´
	´effect_gas_middle_010´
´toggle_gas_006´ ElementToggle 100257
	Toggle on: ´trigger_gas_middle_001´
	´effect_gas_middle_006´
	´effect_gas_middle_009´
	´effect_gas_middle_012´
´spawn_break048´ ElementEnemyDummyTrigger 100271
	TRIGGER TIMES 1
	Upon event "spawn" of ´heli_spawn_dozer_ovk_001´:
		Execute sequence: "break_12" - units/pd2_indiana/architecture/skylight/mus_int_exibit_skylight_4x3/019 (4650.0, 350.0, 295.978) (DELAY 7)
´heli_spawn_dozer_ovk_001´ ElementSpawnEnemyDummy 100270
	Spawn ene_bulldozer_2 (4300.0, 100.0, -546.856) with action e_sp_down_16m_left.
´spawn_break049´ ElementEnemyDummyTrigger 100279
	TRIGGER TIMES 1
	Upon event "spawn" of ´heli_spawn_dozer_ovk_002´:
		Execute sequence: "break_11" - units/pd2_indiana/architecture/skylight/mus_int_exibit_skylight_4x3/019 (4650.0, 350.0, 295.978)
´heli_spawn_dozer_ovk_002´ ElementSpawnEnemyDummy 100281
	Spawn ene_bulldozer_minigun (4300.0, 200.0, -546.856) with action e_sp_down_16m_left.
´spawn_break050´ ElementEnemyDummyTrigger 100282
	TRIGGER TIMES 1
	Upon event "spawn" of ´heli_spawn_dozer_ovk_003´:
		Execute sequence: "break_11" - units/pd2_indiana/architecture/skylight/mus_int_exibit_skylight_4x3/019 (4650.0, 350.0, 295.978)
		Execute sequence: "break_10" - units/pd2_indiana/architecture/skylight/mus_int_exibit_skylight_4x3/019 (4650.0, 350.0, 295.978) (DELAY 7)
´heli_spawn_dozer_ovk_003´ ElementSpawnEnemyDummy 100284
	Spawn ene_bulldozer_2 (4300.0, 300.0, -546.856) with action e_sp_down_16m_left.
´obj_completed_002´ ElementInstanceOutputEvent 100320
	Upon instance event "objective_completed" - levels/instances/shared/obj_link/002 (2500.0, -200.0, 4102.5):
		Send mission event "objective_reset" to instance levels/instances/shared/obj_link/001 (2100.0, -200.0, 4102.5)
		Send mission event "link_objective_start" to instance levels/instances/shared/obj_link/001 (2100.0, -200.0, 4102.5)
´func_instance_set_params_002´ ElementInstanceSetParams 100321
	Change parameters of instance levels/instances/shared/obj_link/002 (2500.0, -200.0, 4102.5): 
		Objective: hud_skm_2
		State: Disabled
		Normal: None
		Hard: None
		Very Hard: None
		Overkill: None
		Death Wish: None
´obj_find_new´ ElementInstanceOutputEvent 100322
	Upon any instance event:
		"link_objective_find_new" - levels/instances/shared/obj_link/001 (2100.0, -200.0, 4102.5)
		"link_objective_find_new" - levels/instances/shared/obj_link/002 (2500.0, -200.0, 4102.5)
	Execute:
		Send mission event "link_objective_start" to instance levels/instances/shared/obj_link/001 (2100.0, -200.0, 4102.5)
´params_hostage´ ElementInstanceSetParams 100026
	Change parameters of instance levels/instances/shared/obj_skm/001 (5100.0, 200.0, -596.856): 
		Objective: None
		State: Disabled
		Normal: None
		Hard: None
		Very Hard: None
		Overkill: None
		Death Wish: None
´output_heist_failed´ ElementInstanceOutputEvent 100029
	Upon instance event "heist_failed_retrieved" - levels/instances/shared/obj_skm/001 (5100.0, 200.0, -596.856):
		Send mission event "enemy_retrieved_hostage" to instance levels/instances/shared/skm_negotiator/001 (1200.0, 150.0, 146.148)
