﻿´activate_cinematic_navlinks´ MissionScriptElement 100797
	EXECUTE ON STARTUP
	Create nav link for enemies with action "e_nl_fwd_4m" from (-3549.0, 1060.0, 4.0) to (-2403.38, 757.07, 5.00061)
	Create nav link for enemies with action "e_nl_fwd_4m" from (-2915.0, 1122.0, 4.0) to (-2238.09, -20.4705, -14.9993)
	Create nav link for enemies with action "e_nl_fwd_4m" from (-3530.0, -1025.0, 4.0) to (-2312.18, -607.205, -14.9993)
	Create nav link for enemies with action "e_nl_fwd_4m" from (-2947.0, -1091.0, 4.0) to (-2993.94, -572.805, 5.00383)
	Create nav link for enemies with action "e_nl_fwd_4m" from (-3261.0, 2772.0, -26.0) to (-2924.51, 2907.54, -24.9749)
	Create nav link for enemies with action "e_nl_jump_over_1m_var1" from (-581.0, 2241.0, -25.0) to (-589.499, 1983.82, -24.9748)
	Create nav link for enemies with action "e_nl_slide_fwd_4m" from (746.0, 1318.0, -20.0) to (2055.69, 1338.35, -24.8953)
	Create nav link for enemies with action "e_nl_fwd_4m" from (416.785, 1174.92, -19.9993) to (1973.83, 1192.08, -24.8953)
	Create nav link for enemies with action "e_nl_fwd_4m" from (-1953.0, 2795.0, -22.0) to (-1637.44, 2648.54, -24.9749)
	Create nav link for enemies with action "e_nl_jump_over_1m_var1" from (-580.0, 2613.0, -26.0) to (-566.989, 2418.84, -24.9749)
	Create nav link for enemies with action "e_nl_jump_over_1m_var1" from (-275.0, 2267.0, -25.0) to (-444.339, 1955.88, -24.9748)
	Create nav link for enemies with action "e_nl_fwd_4m" from (-2931.0, 648.0, 4.0) to (-3004.47, 182.408, 5.00383)
	Create nav link for enemies with action "e_nl_fwd_4m" from (-2954.0, -637.0, 4.0) to (-2984.54, -1.58777, 5.00383)
	Create nav link for enemies with action "e_nl_fwd_4m" from (-3438.0, 2903.0, -25.0) to (-3496.71, 1837.1, -24.9984)
	Create nav link for enemies with action "e_nl_fwd_4m" from (-3440.0, 2502.0, -25.0) to (-3496.71, 1837.1, -24.9984)
	Create nav link for enemies with action "e_nl_fwd_4m" from (-3435.0, 2082.0, -25.0) to (-3496.71, 1837.1, -24.9984)
	Create nav link for enemies with action "e_nl_fwd_4m" from (-2964.0, -1996.0, -25.0) to (-2965.3, -1586.09, -24.9983)
	Create nav link for enemies with action "e_nl_fwd_4m" from (-2953.0, -2476.0, -25.0) to (-2986.56, -2049.55, -24.9983)
	Create nav link for enemies with action "e_nl_fwd_4m" from (-2968.0, -2947.0, -25.0) to (-3029.26, -2496.94, -24.9984)
