ID range vs continent name:
	100000: world

statics
	100022 units/pd2_dlc_berry/props/bry_prop_rooftop_satellitedish/satellite_dish (0.0, 0.0, 0.0)
	100006 units/pd2_dlc_jolly/equipment/gen_plant_c4/001 (-103.75, 97.8349, 235.535)
		mesh_variation state_vis_hide
	100001 units/pd2_dlc_jolly/equipment/gen_plant_c4/002 (16.25, -0.0407035, 206.454)
		mesh_variation state_vis_hide
	100007 units/pd2_dlc_jolly/equipment/gen_plant_c4/003 (-118.191, -90.4849, 205.428)
		mesh_variation state_vis_hide
