ID range vs continent name:
	100000: world

statics
	100091 units/dev_tools/level_tools/dev_door_blocker_1x2x3/001 (350.0, -1050.0, 0.000183105)
		disable_shadows True
	100092 units/dev_tools/level_tools/dev_door_blocker_1x2x3/002 (544.454, -1296.97, 0.000183105)
		disable_shadows True
	100093 units/dev_tools/level_tools/dev_door_blocker_1x2x3/003 (850.0, -1350.0, 0.000183105)
		disable_shadows True
	100021 units/payday2/architecture/com_ext_parking_garage_decal_leak_a_1m/001 (399.0, -199.0, 613.0)
		disable_shadows True
	100022 units/payday2/architecture/com_ext_parking_garage_decal_leak_a_1m/002 (399.0, -91.0, 613.0)
		disable_shadows True
	100023 units/payday2/architecture/com_ext_parking_garage_decal_leak_a_1m/003 (375.0, -585.0, 441.0)
		disable_shadows True
	100024 units/payday2/architecture/com_ext_parking_garage_decal_leak_a_1m/004 (399.0, -275.0, 607.0)
		disable_shadows True
	100025 units/payday2/architecture/com_ext_parking_garage_decal_leak_a_1m/005 (375.0, -746.0, 461.0)
		disable_shadows True
	100077 units/payday2/architecture/com_ext_parking_garage_decal_leak_a_1m/006 (375.0, -841.0, 455.0)
		disable_shadows True
	100469 units/payday2/architecture/com_ext_parking_garage_decal_leak_a_1m/012 (998.0, -1325.0, 440.0)
		disable_shadows True
	100475 units/payday2/architecture/com_ext_parking_garage_decal_leak_a_1m/013 (1112.0, -1325.0, 440.0)
		disable_shadows True
	100476 units/payday2/architecture/com_ext_parking_garage_decal_leak_a_1m/014 (1254.0, 1231.0, 331.0)
		disable_shadows True
	100477 units/payday2/architecture/com_ext_parking_garage_decal_leak_a_1m/015 (1405.0, 1231.0, 326.0)
		disable_shadows True
	100518 units/payday2/architecture/com_ext_parking_garage_decal_leak_a_1m/016 (1595.0, -1301.0, 603.0)
		disable_shadows True
	100332 units/payday2/architecture/com_ext_parking_garage_decal_leak_a_1m/019 (3062.0, -2239.0, 64.9999)
		disable_shadows True
	100333 units/payday2/architecture/com_ext_parking_garage_decal_leak_a_1m/020 (2968.0, -2238.0, 64.9999)
		disable_shadows True
	100382 units/payday2/architecture/com_ext_parking_garage_decal_leak_a_1m/021 (2780.0, 2006.0, 65.0)
		disable_shadows True
	100383 units/payday2/architecture/com_ext_parking_garage_decal_leak_a_1m/022 (2780.0, 1940.0, 64.0)
		disable_shadows True
	100588 units/payday2/architecture/com_ext_parking_garage_decal_leak_a_1m/024 (2701.0, 1456.0, 857.0)
		disable_shadows True
	100592 units/payday2/architecture/com_ext_parking_garage_decal_leak_a_1m/025 (3056.0, 1872.0, 591.0)
		disable_shadows True
	100090 units/payday2/architecture/com_ext_parking_garage_decal_leak_a_4m/002 (1399.0, 1200.0, 609.0)
		disable_shadows True
	100102 units/payday2/architecture/com_ext_parking_garage_decal_leak_a_4m/004 (1787.0, 1200.0, 616.0)
		disable_shadows True
	100038 units/payday2/architecture/com_ext_parking_garage_decal_leak_a_4m/005 (2146.0, 1200.0, 604.0)
		disable_shadows True
	100581 units/payday2/architecture/com_ext_parking_garage_decal_leak_a_4m/006 (2396.0, 1200.0, 604.0)
		disable_shadows True
	100177 units/payday2/architecture/com_ext_parking_garage_decal_leak_a_4m/011 (400.0, 472.0, 5.00012)
		disable_shadows True
	100178 units/payday2/architecture/com_ext_parking_garage_decal_leak_a_4m/012 (400.0, 781.0, -8.99988)
		disable_shadows True
	100179 units/payday2/architecture/com_ext_parking_garage_decal_leak_a_4m/013 (400.0, -123.0, 10.0002)
		disable_shadows True
	100180 units/payday2/architecture/com_ext_parking_garage_decal_leak_a_4m/014 (400.0, -195.0, 347.0)
		disable_shadows True
	100175 units/payday2/architecture/com_ext_parking_garage_decal_leak_a_4m/016 (1268.0, 1200.0, 27.9999)
		disable_shadows True
	100472 units/payday2/architecture/com_ext_parking_garage_decal_leak_a_4m/019 (2338.0, -1300.0, 15.0)
		disable_shadows True
	100473 units/payday2/architecture/com_ext_parking_garage_decal_leak_a_4m/020 (1814.0, -1300.0, 1.00012)
		disable_shadows True
	100474 units/payday2/architecture/com_ext_parking_garage_decal_leak_a_4m/021 (1439.0, -1300.0, 27.0)
		disable_shadows True
	100468 units/payday2/architecture/com_ext_parking_garage_decal_leak_a_4m/022 (489.0, 1200.0, 0.999878)
		disable_shadows True
	100483 units/payday2/architecture/com_ext_parking_garage_decal_leak_a_4m/024 (2400.0, 446.0, 618.0)
		disable_shadows True
	100489 units/payday2/architecture/com_ext_parking_garage_decal_leak_a_4m/027 (2400.0, 797.0, 50.9999)
		disable_shadows True
	100490 units/payday2/architecture/com_ext_parking_garage_decal_leak_a_4m/028 (2400.0, 1183.0, 46.9999)
		disable_shadows True
	100491 units/payday2/architecture/com_ext_parking_garage_decal_leak_a_4m/029 (2400.0, 269.0, 53.0)
		disable_shadows True
	100492 units/payday2/architecture/com_ext_parking_garage_decal_leak_a_4m/030 (2400.0, -238.0, 27.9999)
		disable_shadows True
	100536 units/payday2/architecture/com_ext_parking_garage_decal_leak_a_4m/034 (390.0, 587.0, -28.0)
		disable_shadows True
	100537 units/payday2/architecture/com_ext_parking_garage_decal_leak_a_4m/035 (389.0, 239.0, -54.0)
		disable_shadows True
	100371 units/payday2/architecture/com_ext_parking_garage_decal_leak_b/001 (2776.0, 1546.0, 444.853)
		disable_shadows True
	100034 units/payday2/architecture/com_ext_parking_garage_decal_leak_c/001 (400.0, 176.0, 88.0)
		disable_shadows True
	100035 units/payday2/architecture/com_ext_parking_garage_decal_leak_c/002 (400.0, -285.0, 86.0)
		disable_shadows True
	100036 units/payday2/architecture/com_ext_parking_garage_decal_leak_c/003 (400.0, 336.0, 84.0)
		disable_shadows True
	100037 units/payday2/architecture/com_ext_parking_garage_decal_leak_c/004 (400.0, -345.0, 86.0)
		disable_shadows True
	100039 units/payday2/architecture/com_ext_parking_garage_decal_leak_c/005 (400.0, -276.0, 298.0)
		disable_shadows True
	100104 units/payday2/architecture/com_ext_parking_garage_decal_leak_c/006 (400.0, -484.0, 85.0)
		disable_shadows True
	100105 units/payday2/architecture/com_ext_parking_garage_decal_leak_c/007 (400.0, 541.0, 84.0)
		disable_shadows True
	100106 units/payday2/architecture/com_ext_parking_garage_decal_leak_c/008 (400.0, 546.0, 88.0)
		disable_shadows True
	100107 units/payday2/architecture/com_ext_parking_garage_decal_leak_c/009 (400.0, 623.0, 86.0)
		disable_shadows True
	100108 units/payday2/architecture/com_ext_parking_garage_decal_leak_c/010 (400.0, -652.0, 86.0)
		disable_shadows True
	100116 units/payday2/architecture/com_ext_parking_garage_decal_leak_c/011 (400.0, -674.0, 298.0)
		disable_shadows True
	100123 units/payday2/architecture/com_ext_parking_garage_decal_leak_c/012 (400.0, -676.0, 299.0)
		disable_shadows True
	100124 units/payday2/architecture/com_ext_parking_garage_decal_leak_c/013 (400.0, 914.0, 85.0)
		disable_shadows True
	100125 units/payday2/architecture/com_ext_parking_garage_decal_leak_c/014 (400.0, 917.0, 87.0)
		disable_shadows True
	100126 units/payday2/architecture/com_ext_parking_garage_decal_leak_c/015 (400.0, 994.0, 85.0)
		disable_shadows True
	100127 units/payday2/architecture/com_ext_parking_garage_decal_leak_c/016 (400.0, 1053.0, 89.0)
		disable_shadows True
	100133 units/payday2/architecture/com_ext_parking_garage_decal_leak_c/017 (400.0, 1130.0, 87.0)
		disable_shadows True
	100134 units/payday2/architecture/com_ext_parking_garage_decal_leak_c/018 (400.0, 1158.0, 87.0)
		disable_shadows True
	100135 units/payday2/architecture/com_ext_parking_garage_decal_leak_c/019 (400.0, 1158.0, 149.0)
		disable_shadows True
	100136 units/payday2/architecture/com_ext_parking_garage_decal_leak_c/020 (400.0, 1158.0, 291.0)
		disable_shadows True
	100137 units/payday2/architecture/com_ext_parking_garage_decal_leak_c/021 (474.0, 1200.0, 87.0)
		disable_shadows True
	100151 units/payday2/architecture/com_ext_parking_garage_decal_leak_c/022 (413.0, 1200.0, 291.0)
		disable_shadows True
	100152 units/payday2/architecture/com_ext_parking_garage_decal_leak_c/023 (518.0, 1200.0, 85.0)
		disable_shadows True
	100155 units/payday2/architecture/com_ext_parking_garage_decal_leak_c/024 (400.0, 1158.0, 466.0)
		disable_shadows True
	100156 units/payday2/architecture/com_ext_parking_garage_decal_leak_c/025 (523.0, 1200.0, 84.0)
		disable_shadows True
	100158 units/payday2/architecture/com_ext_parking_garage_decal_leak_c/026 (400.0, 1156.0, 529.0)
		disable_shadows True
	100159 units/payday2/architecture/com_ext_parking_garage_decal_leak_c/027 (613.0, 1200.0, 86.0)
		disable_shadows True
	100160 units/payday2/architecture/com_ext_parking_garage_decal_leak_c/028 (690.0, 1200.0, 84.0)
		disable_shadows True
	100161 units/payday2/architecture/com_ext_parking_garage_decal_leak_c/029 (748.0, 1200.0, 85.0)
		disable_shadows True
	100162 units/payday2/architecture/com_ext_parking_garage_decal_leak_c/030 (529.0, 1200.0, 598.0)
		disable_shadows True
	100163 units/payday2/architecture/com_ext_parking_garage_decal_leak_c/031 (830.0, 1200.0, 85.0)
		disable_shadows True
	100167 units/payday2/architecture/com_ext_parking_garage_decal_leak_c/032 (669.0, 1200.0, 595.0)
		disable_shadows True
	100182 units/payday2/architecture/com_ext_parking_garage_decal_leak_c/033 (736.0, 1200.0, 595.0)
		disable_shadows True
	100183 units/payday2/architecture/com_ext_parking_garage_decal_leak_c/034 (997.0, 1200.0, 84.0)
		disable_shadows True
	100184 units/payday2/architecture/com_ext_parking_garage_decal_leak_c/035 (843.0, 1200.0, 596.0)
		disable_shadows True
	100185 units/payday2/architecture/com_ext_parking_garage_decal_leak_c/036 (1104.0, 1200.0, 82.0)
		disable_shadows True
	100276 units/payday2/architecture/com_ext_parking_garage_decal_leak_c/037 (1189.0, 1200.0, 85.0)
		disable_shadows True
	100286 units/payday2/architecture/com_ext_parking_garage_decal_leak_c/038 (1229.0, 1200.0, 86.0)
		disable_shadows True
	100287 units/payday2/architecture/com_ext_parking_garage_decal_leak_c/039 (1299.0, 1200.0, 85.0)
		disable_shadows True
	100299 units/payday2/architecture/com_ext_parking_garage_decal_leak_c/040 (1299.0, 1200.0, 322.0)
		disable_shadows True
	100315 units/payday2/architecture/com_ext_parking_garage_decal_leak_c/041 (1352.0, 1200.0, 86.0)
		disable_shadows True
	100316 units/payday2/architecture/com_ext_parking_garage_decal_leak_c/042 (1352.0, 1200.0, 87.0)
		disable_shadows True
	100415 units/payday2/architecture/com_ext_parking_garage_decal_leak_c/043 (1321.0, 1200.0, 328.0)
		disable_shadows True
	100444 units/payday2/architecture/com_ext_parking_garage_decal_leak_c/044 (1284.0, 1200.0, 494.0)
		disable_shadows True
	100460 units/payday2/architecture/com_ext_parking_garage_decal_leak_c/045 (1427.0, 1200.0, 84.0)
		disable_shadows True
	100461 units/payday2/architecture/com_ext_parking_garage_decal_leak_c/046 (1501.0, 1200.0, 86.0)
		disable_shadows True
	100462 units/payday2/architecture/com_ext_parking_garage_decal_leak_c/047 (1475.0, 1200.0, 332.0)
		disable_shadows True
	100463 units/payday2/architecture/com_ext_parking_garage_decal_leak_c/048 (1572.0, 1200.0, 87.0)
		disable_shadows True
	100464 units/payday2/architecture/com_ext_parking_garage_decal_leak_c/049 (-1389.0, 1681.0, 0.0)
	100370 units/payday2/architecture/com_ext_parking_garage_decal_leak_c/050 (2776.0, 1609.0, 610.355)
		disable_shadows True
	100376 units/payday2/architecture/com_ext_parking_garage_decal_leak_c/051 (2776.0, 1545.0, 388.355)
		disable_shadows True
	100377 units/payday2/architecture/com_ext_parking_garage_decal_leak_c/052 (2738.0, 1515.0, 434.355)
		disable_shadows True
	100378 units/payday2/architecture/com_ext_parking_garage_decal_leak_c/053 (2738.0, 1515.0, 337.355)
		disable_shadows True
	100379 units/payday2/architecture/com_ext_parking_garage_decal_leak_c/054 (2738.0, 1515.0, 558.355)
		disable_shadows True
	100380 units/payday2/architecture/com_ext_parking_garage_decal_leak_c/055 (2738.0, 1515.0, 808.355)
		disable_shadows True
	100381 units/payday2/architecture/com_ext_parking_garage_decal_leak_c/056 (2738.0, 1515.0, 711.355)
		disable_shadows True
	100471 units/payday2/architecture/com_ext_parking_garage_decal_leak_c/057 (2881.0, 1515.0, 665.355)
		disable_shadows True
	100482 units/payday2/architecture/com_ext_parking_garage_decal_leak_c/058 (3121.0, 1515.0, 683.355)
		disable_shadows True
	100485 units/payday2/architecture/com_ext_parking_garage_decal_leak_c/059 (3313.0, 1515.0, 671.355)
		disable_shadows True
	100495 units/payday2/architecture/com_ext_parking_garage_decal_leak_c/060 (3282.0, 1515.0, 671.355)
		disable_shadows True
	100294 units/payday2/architecture/com_int_basement_garage_parkingline_b_mirrored/001 (100.0, -1600.0, -25.0)
		disable_shadows True
	100295 units/payday2/architecture/com_int_basement_garage_parkingline_b_mirrored/002 (500.0, -1600.0, -25.0)
		disable_shadows True
	100305 units/payday2/architecture/com_int_basement_garage_parkingline_b_mirrored/003 (900.0, -1600.0, -25.0)
		disable_shadows True
	100306 units/payday2/architecture/com_int_basement_garage_parkingline_b_mirrored/004 (1300.0, -1600.0, -25.0)
		disable_shadows True
	100307 units/payday2/architecture/com_int_basement_garage_parkingline_b_mirrored/005 (1700.0, -1600.0, -25.0)
		disable_shadows True
	100308 units/payday2/architecture/com_int_basement_garage_parkingline_b_mirrored/006 (2100.0, -1600.0, -25.0)
		disable_shadows True
	100311 units/payday2/architecture/com_int_basement_garage_parkingline_c_8m/001 (1250.0, 1275.0, -25.0)
		disable_shadows True
	100423 units/payday2/architecture/com_int_basement_garage_parkingline_c_8m/002 (900.0, 1275.0, -25.0)
		disable_shadows True
	100424 units/payday2/architecture/com_int_basement_garage_parkingline_c_8m/003 (200.0, 1275.0, -25.0)
		disable_shadows True
	100425 units/payday2/architecture/com_int_basement_garage_parkingline_c_8m/004 (550.0, 1275.0, -25.0)
		disable_shadows True
	100302 units/payday2/architecture/ind/ind_ext_level_0_window_small/001 (2705.0, 1279.0, 687.136)
		disable_shadows True
	100230 units/payday2/architecture/ind/ind_ext_level_0_window_small/002 (2705.0, 566.0, 689.136)
		disable_shadows True
	100231 units/payday2/architecture/ind/ind_ext_level_0_window_small/003 (2705.0, -932.0, 689.136)
		disable_shadows True
	100304 units/payday2/architecture/ind/ind_ext_level_0_window_small/004 (2705.0, -178.0, 689.136)
		disable_shadows True
	100232 units/payday2/architecture/ind/ind_ext_level_0_window_small/005 (3115.0, 1511.0, 688.136)
		disable_shadows True
	100233 units/payday2/architecture/ind/ind_ext_level_0_window_small/006 (3666.0, 1511.0, 688.136)
		disable_shadows True
	100310 units/payday2/architecture/ind/ind_ext_level_0_window_small/007 (3408.0, -1422.0, 688.136)
		disable_shadows True
	100339 units/payday2/architecture/ind/ind_ext_level_0_window_small/008 (2857.0, -1422.0, 688.136)
		disable_shadows True
	100340 units/payday2/architecture/ind/ind_ext_level_0_window_small/009 (4016.0, -2233.0, 688.136)
		disable_shadows True
	100374 units/payday2/architecture/ind/ind_ext_level_0_window_small/010 (3864.0, -1743.0, 689.136)
		disable_shadows True
	100375 units/payday2/architecture/ind/ind_ext_level_0_window_small/011 (4567.0, -2233.0, 688.136)
		disable_shadows True
	100344 units/payday2/architecture/ind/ind_ext_level_0_window_small/012 (4824.0, 1511.0, 688.136)
		disable_shadows True
	100620 units/payday2/architecture/ind/ind_ext_level_0_window_small/014 (4275.0, 1511.0, 688.136)
		disable_shadows True
	100622 units/payday2/architecture/ind/ind_ext_level_0_window_small/015 (5399.0, 1511.0, 688.136)
		disable_shadows True
	100059 units/payday2/architecture/ind/ind_ext_level_duct_1_a/006 (1561.0, -75.0002, 452.201)
		disable_shadows True
	100228 units/payday2/architecture/ind/ind_ext_level_railing_1m/001 (3111.0, 2369.0, 45.0)
		disable_shadows True
	100277 units/payday2/architecture/ind/ind_ext_level_railing_1m/002 (3023.0, 2457.0, 45.0)
		disable_shadows True
	100386 units/payday2/architecture/ind/ind_ext_level_railing_1m/004 (5548.0, 1507.0, 1020.0)
		disable_shadows True
	100387 units/payday2/architecture/ind/ind_ext_level_railing_1m/005 (5448.0, 1507.0, 1020.0)
		disable_shadows True
	100388 units/payday2/architecture/ind/ind_ext_level_railing_1m/006 (5348.0, 1507.0, 1020.0)
		disable_shadows True
	100418 units/payday2/architecture/ind/ind_ext_level_railing_2m/001 (1585.0, 1700.0, 1.0)
	100420 units/payday2/architecture/ind/ind_ext_level_railing_2m/002 (1585.0, 1900.0, 1.0)
	100430 units/payday2/architecture/ind/ind_ext_level_railing_2m/003 (2410.0, 1900.0, 0.0)
	100438 units/payday2/architecture/ind/ind_ext_level_railing_2m/004 (2410.0, 1700.0, 0.0)
	100437 units/payday2/architecture/ind/ind_ext_level_railing_2m/005 (1585.0, 2100.0, 1.0)
	100440 units/payday2/architecture/ind/ind_ext_level_railing_2m/006 (2410.0, 2100.0, 0.0)
	100169 units/payday2/architecture/ind/ind_ext_level_railing_corner/001 (3111.0, 2369.0, 45.0)
		disable_shadows True
	100419 units/payday2/architecture/ind/ind_ext_level_railing_ending/001 (1585.0, 1500.0, 1.0)
	100421 units/payday2/architecture/ind/ind_ext_level_railing_ending/002 (1585.0, 2100.0, 1.0)
	100439 units/payday2/architecture/ind/ind_ext_level_railing_ending/003 (2410.0, 1500.0, 0.0)
	100441 units/payday2/architecture/ind/ind_ext_level_railing_ending/004 (2410.0, 2100.0, 0.0)
	100278 units/payday2/architecture/ind/ind_ext_level_railing_stairs/001 (2935.0, 2457.0, 46.0)
		disable_shadows True
	100026 units/payday2/architecture/ind/ind_ext_level_stairs_small/001 (2425.0, 1401.0, -24.0)
		disable_shadows True
	100072 units/payday2/architecture/ind/ind_ext_level_stairs_small/003 (2928.0, 2467.0, 46.0)
	100109 units/payday2/architecture/ind/ind_ext_level_stairs_small/004 (2952.0, 2466.0, 46.0)
		disable_shadows True
	100110 units/payday2/architecture/ind/ind_ext_level_stairs_small/005 (2978.0, 2468.0, 46.0)
	100111 units/payday2/architecture/ind/ind_ext_level_stairs_small/006 (3004.0, 2467.0, 46.0)
	100112 units/payday2/architecture/ind/ind_ext_level_stairs_small/007 (3030.0, 2465.0, 46.0)
	100113 units/payday2/architecture/ind/ind_ext_level_stairs_small/008 (3056.0, 2467.0, 46.0)
	100115 units/payday2/architecture/ind/ind_ext_level_stairs_small/009 (3082.0, 2468.0, 46.0)
	100117 units/payday2/architecture/ind/ind_ext_level_stairs_small/010 (3108.0, 2466.0, 46.0)
	100118 units/payday2/architecture/ind/ind_ext_level_stairs_small/011 (3134.0, 2467.0, 39.0)
		disable_shadows True
	100367 units/payday2/architecture/ind/level/ind_ext_decal_07/001 (2951.0, 706.0, 852.853)
		disable_shadows True
	100132 units/payday2/architecture/ind_ext_window_c/001 (3678.0, 2322.0, 65.0114)
		disable_shadows True
	100148 units/payday2/architecture/ind_ext_window_c/002 (3558.0, 2322.0, 65.0114)
		disable_shadows True
	100150 units/payday2/architecture/ind_ext_window_c/003 (2780.0, 2014.0, 66.0114)
		disable_shadows True
	100324 units/payday2/architecture/ind_ext_window_c/004 (2780.0, -1687.0, 66.0109)
		disable_shadows True
	100330 units/payday2/architecture/ind_ext_window_c/005 (2952.0, -2236.0, 66.0113)
		disable_shadows True
	100229 units/payday2/architecture/ind_ext_window_c/006 (2780.0, 1894.0, 66.0114)
		disable_shadows True
	100322 units/payday2/architecture/ind_ext_window_c/007 (2780.0, -1807.0, 66.0109)
		disable_shadows True
	100328 units/payday2/architecture/ind_ext_window_c/008 (3072.0, -2236.0, 66.011)
		disable_shadows True
	100335 units/payday2/architecture/ind_ext_window_c/009 (3438.0, -2236.0, 66.0113)
		disable_shadows True
	100337 units/payday2/architecture/ind_ext_window_c/010 (3558.0, -2236.0, 66.011)
		disable_shadows True
	100168 units/payday2/architecture/ind_stairs_100x200x125m_b/001 (1675.0, 1411.0, -101.0)
		disable_shadows True
	100016 units/payday2/architecture/ind_stairs_100x200x125m_b/002 (2525.0, -592.0, -96.0)
		disable_shadows True
	100015 units/payday2/equipment/gen_interactable_door_hcm_double/001 (403.0, -954.0, -3.8147e-06)
		disable_on_ai_graph True
		hide_on_projection_light True
	100032 units/payday2/equipment/gen_interactable_door_hcm_double/002 (504.95, -1192.22, 9.53674e-05)
		disable_on_ai_graph True
		hide_on_projection_light True
	100033 units/payday2/equipment/gen_interactable_door_hcm_double/003 (747.0, -1303.0, 9.53674e-05)
		disable_on_ai_graph True
		hide_on_projection_light True
	100012 units/payday2/equipment/gen_interactable_door_reinforced_lab/001 (2401.46, -755.813, 6.00815e-05)
		disable_on_ai_graph True
		disable_shadows True
		mesh_variation state_door_open
	100068 units/payday2/equipment/gen_interactable_door_reinforced_lab/002 (2953.46, 2298.19, 52.0001)
		disable_shadows True
	100284 units/payday2/props/01/gen_prop_door_ind_03_v2/001 (1977.0, 1192.0, 0.0)
		mesh_variation state_close_door
	100285 units/payday2/props/01/gen_prop_door_ind_03_v2/002 (2353.0, 1184.0, 0.0)
		disable_on_ai_graph True
		disable_shadows True
		mesh_variation state_open_door
	100006 units/payday2/props/01/gen_prop_door_ind_03_v2/003 (2729.0, 1314.0, 10.0)
		mesh_variation state_close_door
	100007 units/payday2/props/01/gen_prop_door_ind_03_v2/004 (2729.0, 596.0, -31.0)
		mesh_variation state_close_door
	100008 units/payday2/props/01/gen_prop_door_ind_03_v2/005 (2729.0, -148.0, -31.0)
		mesh_variation state_close_door
	100343 units/payday2/props/01/gen_prop_door_ind_03_v2/006 (4255.0, -2204.0, -31.0)
		disable_shadows True
		mesh_variation state_close_door
	100312 units/payday2/props/01/gen_prop_door_ind_03_v2/007 (2728.0, 1314.0, -31.0)
		disable_shadows True
		mesh_variation state_open_door
	100319 units/payday2/props/01/gen_prop_door_ind_03_v2/008 (2728.0, -899.0, -31.0)
		disable_shadows True
		mesh_variation state_open_door
	100320 units/payday2/props/01/gen_prop_door_ind_03_v2/009 (2729.0, -899.0, -5.0)
		mesh_variation state_close_door
	100014 units/payday2/props/are_int_double_door/001 (521.0, -194.0, 0.0)
		disable_on_ai_graph True
		disable_shadows True
		mesh_variation open_door
	100094 units/payday2/props/are_int_double_door/002 (1503.0, -972.0, 0.0)
		disable_on_ai_graph True
		disable_shadows True
		mesh_variation open_door
	100075 units/payday2/props/books/off_prop_officehigh_binder_06/001 (1099.0, -824.0, 74.1546)
		disable_shadows True
	100484 units/payday2/props/lcm_prop_rooftop_vent/001 (2405.0, -275.0, 400.0)
		disable_shadows True
	100172 units/payday2/props/lcm_prop_rooftop_vent/002 (2113.0, -1305.0, 451.0)
		disable_shadows True
	100358 units/payday2/props/lcm_prop_rooftop_vent/005 (3208.0, 1519.0, 672.0)
		disable_shadows True
	100360 units/payday2/props/lcm_prop_rooftop_vent/006 (2696.0, 19.0, 672.0)
		disable_shadows True
	100361 units/payday2/props/lcm_prop_rooftop_vent/007 (4933.0, 1519.0, 672.001)
		disable_shadows True
	100031 units/payday2/props/off_prop_appliance_computer/001 (882.0, -665.0, 2.20062)
		disable_shadows True
	100051 units/payday2/props/off_prop_appliance_computer/002 (976.749, -817.251, 1.0)
		disable_shadows True
	100019 units/payday2/props/off_prop_appliance_monitor/001 (865.758, -819.242, 74.1542)
		disable_shadows True
	100027 units/payday2/props/off_prop_appliance_monitor/002 (838.665, -590.847, 74.1542)
		disable_shadows True
		mesh_variation off
	100020 units/payday2/props/off_prop_appliance_mouse/001 (862.0, -779.0, 74.1545)
		disable_shadows True
	100029 units/payday2/props/off_prop_appliance_mouse/002 (860.464, -559.735, 74.1545)
		disable_shadows True
	100044 units/payday2/props/off_prop_copy_machine_smuggle/001 (1148.83, -591.172, 0.0)
		disable_shadows True
	100045 units/payday2/props/off_prop_generic_filecabinet_d/001 (1276.24, -654.878, 0.0)
		disable_shadows True
	100061 units/payday2/props/off_prop_generic_shelf_wire_b/001 (1412.0, -1233.0, 3.0)
		disable_shadows True
	100018 units/payday2/props/off_prop_officehigh_chair_standard_black/001 (930.0, -746.0, 0.0)
		disable_shadows True
	100030 units/payday2/props/off_prop_officehigh_chair_standard_black/002 (876.487, -597.894, 0.0)
		disable_shadows True
	100074 units/payday2/props/off_prop_officehigh_filebox_long_open/001 (1068.74, -823.059, 1.15459)
		disable_shadows True
	100076 units/payday2/props/off_prop_officehigh_filebox_short_base/001 (1129.51, -823.787, 0.0)
		disable_shadows True
	100048 units/payday2/props/paperstacks/off_prop_officehigh_paper_stack_02/001 (1067.0, -857.0, 73.8077)
		disable_shadows True
	100050 units/payday2/props/paperstacks/off_prop_officehigh_paper_stack_02/002 (1119.0, -567.0, 99.7158)
		disable_shadows True
	100049 units/payday2/props/paperstacks/off_prop_officehigh_paper_stack_03/001 (836.0, -736.0, 74.0)
		disable_shadows True
	100046 units/payday2/props/posters/gen_prop_poster_a/001 (434.186, -542.554, 230.0)
		disable_shadows True
	100221 units/payday2/props/posters/gen_prop_poster_a/002 (1161.0, -1274.0, 232.201)
		disable_shadows True
	100349 units/payday2/props/set/ind_prop_warehouse_box_b/002 (2073.0, -1237.0, 268.509)
		disable_shadows True
	100056 units/payday2/props/set/ind_prop_warehouse_box_b/003 (1400.0, -625.0, 324.509)
		disable_shadows True
	100176 units/payday2/props/set/ind_prop_warehouse_box_b/004 (2308.24, 453.528, 324.509)
		disable_shadows True
	100397 units/payday2/props/set/ind_prop_warehouse_box_c/001 (767.0, 1144.0, 246.748)
		disable_shadows True
	100411 units/payday2/props/set/ind_prop_warehouse_box_c/002 (2004.0, -1234.0, 268.509)
		disable_shadows True
	100181 units/payday2/props/set/ind_prop_warehouse_box_c/004 (1445.0, -1240.0, 44.2007)
		disable_shadows True
	100193 units/payday2/props/set/ind_prop_warehouse_box_c/005 (1395.0, -1240.0, 104.201)
		disable_shadows True
	100393 units/payday2/props/set/ind_prop_warehouse_box_d/001 (689.0, 1147.0, 192.577)
		disable_shadows True
	100394 units/payday2/props/set/ind_prop_warehouse_box_d/002 (771.0, 1150.0, 192.577)
		disable_shadows True
	100395 units/payday2/props/set/ind_prop_warehouse_box_d/003 (696.0, 1101.0, 192.577)
		disable_shadows True
	100396 units/payday2/props/set/ind_prop_warehouse_box_d/004 (687.0, 1139.0, 246.748)
		disable_shadows True
	100410 units/payday2/props/set/ind_prop_warehouse_box_d/005 (2044.39, -1231.42, 118.826)
		disable_shadows True
	100188 units/payday2/props/set/ind_prop_warehouse_box_e/001 (483.0, 325.0, 174.862)
		disable_shadows True
	100191 units/payday2/props/set/ind_prop_warehouse_box_e/002 (475.0, 325.0, 204.862)
		disable_shadows True
	100409 units/payday2/props/set/ind_prop_warehouse_box_e/003 (777.0, 1098.0, 194.775)
		disable_shadows True
	100391 units/payday2/props/set/ind_prop_warehouse_box_f/001 (1479.98, -718.941, 2.20073)
		disable_shadows True
	100392 units/payday2/props/set/ind_prop_warehouse_box_f/002 (1478.6, -716.187, 45.2007)
		disable_shadows True
	100300 units/payday2/props/set/ind_prop_warehouse_box_g/001 (495.0, 425.0, 174.862)
		disable_shadows True
	100189 units/payday2/props/set/ind_prop_warehouse_box_g/002 (470.0, 718.0, 175.0)
		disable_shadows True
	100301 units/payday2/props/set/ind_prop_warehouse_box_g/003 (520.0, 723.0, 175.0)
		disable_shadows True
	100303 units/payday2/props/set/ind_prop_warehouse_box_g/004 (497.0, 723.0, 232.0)
		disable_shadows True
	100389 units/payday2/props/set/ind_prop_warehouse_box_g/005 (472.0, 807.0, 175.0)
		disable_shadows True
	100241 units/payday2/props/set/ind_prop_warehouse_pallet/001 (440.0, 7.0, 80.9999)
		disable_shadows True
	100242 units/payday2/props/set/ind_prop_warehouse_pallet/002 (463.0, 23.0, 80.9999)
		disable_shadows True
	100243 units/payday2/props/set/ind_prop_warehouse_pallet/003 (732.0, 1122.0, 175.862)
		disable_shadows True
	100542 units/payday2/props/set/ind_prop_warehouse_pallet/004 (2318.0, 320.0, 80.9999)
		disable_shadows True
	100070 units/payday2/props/set/ind_prop_warehouse_pallet/005 (2759.55, 1624.0, 27.8576)
	100082 units/payday2/props/set/ind_prop_warehouse_pallet_group_4a/001 (1954.0, 7.0, 6.10352e-05)
		disable_shadows True
	100451 units/payday2/props/set/ind_prop_warehouse_pallet_group_4a/003 (1291.0, 761.0, 0.00500488)
		disable_shadows True
	100071 units/payday2/props/set/ind_prop_warehouse_pallet_pile/001 (3012.95, 2528.0, -65.988)
	100480 units/payday2/props/set/ind_prop_warehouse_pallet_stack_a/001 (1230.48, -487.317, 26.0001)
		disable_shadows True
	100209 units/payday2/props/set/ind_prop_warehouse_pallet_stack_a/006 (1374.0, 220.0, 0.00500488)
		disable_shadows True
	100211 units/payday2/props/set/ind_prop_warehouse_pallet_stack_a/007 (1374.0, 120.0, 0.00500488)
		disable_shadows True
	100449 units/payday2/props/set/ind_prop_warehouse_pallet_stack_a/008 (1374.0, 920.0, 0.00500488)
		disable_shadows True
	100450 units/payday2/props/set/ind_prop_warehouse_pallet_stack_a/009 (1374.0, 820.0, 0.00500488)
		disable_shadows True
	100500 units/payday2/props/set/ind_prop_warehouse_pallet_stack_a/012 (550.0, 1125.0, 175.0)
		disable_shadows True
	100501 units/payday2/props/set/ind_prop_warehouse_pallet_stack_a/013 (550.0, 1125.0, 25.0002)
		disable_shadows True
	100503 units/payday2/props/set/ind_prop_warehouse_pallet_stack_a/014 (735.0, 1125.0, 25.0002)
		disable_shadows True
	100505 units/payday2/props/set/ind_prop_warehouse_pallet_stack_a/015 (500.0, 575.0, 175.0)
		disable_shadows True
	100506 units/payday2/props/set/ind_prop_warehouse_pallet_stack_a/016 (500.0, 575.0, 25.0001)
		disable_shadows True
	100508 units/payday2/props/set/ind_prop_warehouse_pallet_stack_a/017 (500.0, 760.0, 25.0001)
		disable_shadows True
	100510 units/payday2/props/set/ind_prop_warehouse_pallet_stack_a/018 (500.0, 175.0, 175.0)
		disable_shadows True
	100511 units/payday2/props/set/ind_prop_warehouse_pallet_stack_a/019 (500.0, 175.0, 25.0001)
		disable_shadows True
	100513 units/payday2/props/set/ind_prop_warehouse_pallet_stack_a/020 (500.0, 360.0, 25.0001)
		disable_shadows True
	100515 units/payday2/props/set/ind_prop_warehouse_pallet_stack_a/021 (1363.0, -614.0, 175.0)
		disable_shadows True
	100516 units/payday2/props/set/ind_prop_warehouse_pallet_stack_a/022 (1363.0, -614.0, 25.0001)
		disable_shadows True
	100520 units/payday2/props/set/ind_prop_warehouse_pallet_stack_a/024 (1884.19, -1219.19, 175.0)
		disable_shadows True
	100521 units/payday2/props/set/ind_prop_warehouse_pallet_stack_a/025 (1884.19, -1219.19, 25.0001)
		disable_shadows True
	100525 units/payday2/props/set/ind_prop_warehouse_pallet_stack_a/027 (2319.19, 630.815, 25.0001)
		disable_shadows True
	100526 units/payday2/props/set/ind_prop_warehouse_pallet_stack_a/028 (2319.19, 445.815, 25.0001)
		disable_shadows True
	100527 units/payday2/props/set/ind_prop_warehouse_pallet_stack_a/029 (2319.19, 445.815, 175.0)
		disable_shadows True
	100354 units/payday2/props/set/ind_prop_warehouse_pallet_stack_a/030 (2069.19, -1219.19, -32.9999)
		disable_shadows True
	100208 units/payday2/props/set/ind_prop_warehouse_pallet_stack_a/031 (1374.0, -105.0, 0.00500488)
		disable_shadows True
	100190 units/payday2/props/set/ind_prop_warehouse_pallet_stack_d/003 (1374.0, 220.0, 202.005)
		disable_shadows True
	100192 units/payday2/props/set/ind_prop_warehouse_pallet_stack_d/004 (1374.0, 120.0, 202.005)
		disable_shadows True
	100298 units/payday2/props/set/ind_prop_warehouse_pallet_stack_d/005 (1374.0, 920.0, 202.005)
		disable_shadows True
	100447 units/payday2/props/set/ind_prop_warehouse_pallet_stack_d/006 (1374.0, 820.0, 202.005)
		disable_shadows True
	100114 units/payday2/props/set/ind_prop_warehouse_pallet_stack_d/009 (2005.0, -76.0, 202.005)
		disable_shadows True
	100458 units/payday2/props/set/ind_prop_warehouse_pallet_stack_d/010 (1374.0, -105.0, 202.005)
		disable_shadows True
	100459 units/payday2/props/set/ind_prop_warehouse_pallet_stack_d/011 (1374.0, -5.0, 202.005)
		disable_shadows True
	100085 units/payday2/props/set/ind_prop_warehouse_pallet_stack_f/001 (2119.0, -80.0, -0.00012207)
		disable_shadows True
	100174 units/payday2/props/set/ind_prop_warehouse_pallet_stack_f/002 (2321.0, 824.0, 2.20087)
		disable_shadows True
	100297 units/payday2/props/set/ind_prop_warehouse_palletrack_a/002 (1450.0, -189.0, 0.00500488)
		disable_shadows True
	100454 units/payday2/props/set/ind_prop_warehouse_palletrack_a/003 (1450.0, 511.0, 0.00500488)
		disable_shadows True
	100498 units/payday2/props/set/ind_prop_warehouse_palletrack_a/004 (2189.0, 0.0, 0.00500488)
		disable_shadows True
	100216 units/payday2/props/set/ind_prop_warehouse_palletrack_b/002 (1450.0, 61.0, 0.00500488)
		disable_shadows True
	100453 units/payday2/props/set/ind_prop_warehouse_palletrack_b/003 (1450.0, 761.0, 0.00500488)
		disable_shadows True
	100497 units/payday2/props/set/ind_prop_warehouse_palletrack_b/004 (1939.0, 0.0, 0.00500488)
		disable_shadows True
	100457 units/payday2/props/set/ind_prop_warehouse_palletrack_protector/001 (1700.0, -161.0, 6.10352e-05)
		disable_shadows True
	100479 units/payday2/props/set/ind_prop_warehouse_palletrack_protector/002 (2190.0, 0.0, 6.10352e-05)
		disable_shadows True
	100493 units/payday2/props/set/ind_prop_warehouse_palletrack_protector/003 (1448.0, -185.0, 6.10352e-05)
		disable_shadows True
	100494 units/payday2/props/set/ind_prop_warehouse_palletrack_protector/004 (1291.0, 299.0, 6.10352e-05)
		disable_shadows True
	100057 units/payday2/props/set/ind_prop_warehouse_palletrack_protector/005 (1450.0, 514.0, 6.10352e-05)
		disable_shadows True
	100171 units/payday2/props/set/ind_prop_warehouse_palletrack_protector/006 (1291.0, 999.0, 6.10352e-05)
		disable_shadows True
	100147 units/payday2/props/set/ind_prop_warehouse_palletrack_shelf/005 (1450.0, 50.0, 400.0)
		disable_shadows True
	100204 units/payday2/props/set/ind_prop_warehouse_palletrack_shelf/006 (1450.0, -189.0, 400.0)
		disable_shadows True
	100206 units/payday2/props/set/ind_prop_warehouse_palletrack_shelf/007 (1450.0, 50.0, 200.005)
		disable_shadows True
	100215 units/payday2/props/set/ind_prop_warehouse_palletrack_shelf/008 (1450.0, -189.0, 200.005)
		disable_shadows True
	100213 units/payday2/props/set/ind_prop_warehouse_palletrack_shelf/009 (1450.0, 750.0, 400.0)
		disable_shadows True
	100448 units/payday2/props/set/ind_prop_warehouse_palletrack_shelf/010 (1450.0, 750.0, 200.005)
		disable_shadows True
	100452 units/payday2/props/set/ind_prop_warehouse_palletrack_shelf/011 (1450.0, 511.0, 200.005)
		disable_shadows True
	100455 units/payday2/props/set/ind_prop_warehouse_palletrack_shelf/012 (1450.0, 511.0, 400.0)
		disable_shadows True
	100456 units/payday2/props/set/ind_prop_warehouse_palletrack_shelf/013 (1950.0, 0.0, 400.0)
		disable_shadows True
	100481 units/payday2/props/set/ind_prop_warehouse_palletrack_shelf/014 (1950.0, 0.0, 200.005)
		disable_shadows True
	100496 units/payday2/props/set/ind_prop_warehouse_palletrack_shelf/015 (2189.0, 0.0, 200.005)
		disable_shadows True
	100499 units/payday2/props/set/ind_prop_warehouse_palletrack_shelf/016 (2189.0, 0.0, 400.0)
		disable_shadows True
	100058 units/payday2/props/set/ind_prop_warehouse_palletrack_sign_a/001 (1450.0, -189.0, 2.20067)
		disable_shadows True
	100060 units/payday2/props/set/ind_prop_warehouse_palletrack_sign_b/001 (1450.0, 511.0, 2.20067)
		disable_shadows True
	100062 units/payday2/props/set/ind_prop_warehouse_palletrack_sign_c/001 (1700.0, -161.0, 2.20067)
		disable_shadows True
	100504 units/payday2/props/set/ind_prop_warehouse_rack_a/002 (837.0, 1175.0, 0.000160217)
		disable_shadows True
	100509 units/payday2/props/set/ind_prop_warehouse_rack_a/003 (450.0, 862.0, 0.00012207)
		disable_shadows True
	100514 units/payday2/props/set/ind_prop_warehouse_rack_a/004 (450.0, 462.0, 0.00012207)
		disable_shadows True
	100519 units/payday2/props/set/ind_prop_warehouse_rack_a/005 (1124.7, -446.416, 0.00012207)
		disable_shadows True
	100524 units/payday2/props/set/ind_prop_warehouse_rack_a/006 (2171.19, -1169.19, -55.9999)
		disable_shadows True
	100528 units/payday2/props/set/ind_prop_warehouse_rack_a/007 (2269.19, 732.815, 0.000106812)
		disable_shadows True
	100502 units/payday2/props/set/ind_prop_warehouse_rack_b/002 (637.0, 1175.0, 0.000148773)
		disable_shadows True
	100507 units/payday2/props/set/ind_prop_warehouse_rack_b/003 (450.0, 662.0, 0.00012207)
		disable_shadows True
	100512 units/payday2/props/set/ind_prop_warehouse_rack_b/004 (450.0, 262.0, 0.00012207)
		disable_shadows True
	100517 units/payday2/props/set/ind_prop_warehouse_rack_b/005 (1266.13, -587.837, 0.00012207)
		disable_shadows True
	100522 units/payday2/props/set/ind_prop_warehouse_rack_b/006 (1971.19, -1169.19, 0.000106812)
		disable_shadows True
	100529 units/payday2/props/set/ind_prop_warehouse_rack_b/007 (2269.19, 532.815, 0.000106812)
		disable_shadows True
	100005 units/payday2/props/str_prop_rooftop_ac_unit_a_big/002 (3425.0, -709.0, 850.65)
	100346 units/payday2/props/str_prop_rooftop_ac_unit_a_big/003 (3425.0, 866.0, 850.65)
	100087 units/payday2/props/str_prop_rooftop_ac_unit_a_flat/001 (4411.0, -1786.0, 848.048)
		disable_shadows True
	100130 units/payday2/props/str_prop_rooftop_ac_unit_a_single/001 (1375.0, -500.0, 539.65)
	100164 units/payday2/props/str_prop_rooftop_ac_unit_a_single/002 (1375.0, 600.0, 539.65)
	100309 units/payday2/vehicles/str_vehicle_car_compact/001 (1156.03, -1864.54, -25.0)
	100422 units/payday2/vehicles/str_vehicle_car_compact/002 (375.0, 1750.0, -25.0)
		mesh_variation green
	100426 units/payday2/vehicles/str_vehicle_car_crossover/001 (1075.0, 1775.0, -25.0)
		1
			clipping_values 10000.0, -10000.0, 0.0
			color 1.0, 0.0, 0.0
			enabled False
			falloff_exponent 4
			far_range 350
			multiplier candle
			name li_light_back
			near_range 0
			spot_angle_end 0
			spot_angle_start 0
		2
			clipping_values 10000.0, -10000.0, 0.0
			color 1.0, 1.0, 0.84
			enabled False
			falloff_exponent 4
			far_range 350
			multiplier candle
			name li_light_front
			near_range 0
			spot_angle_end 0
			spot_angle_start 0
		mesh_variation state_interaction_disabled
	100154 units/payday2/vehicles/str_vehicle_car_modernsedan/001 (351.472, -1877.78, -25.0)
		1
			clipping_values 10000.0, -10000.0, 0.0
			color 1.0, 0.94, 0.7
			enabled False
			falloff_exponent 1
			far_range 2000
			multiplier identity
			name ls_left
			near_range 0
			spot_angle_end 40.0728
			spot_angle_start 40.0728
		2
			clipping_values 10000.0, -10000.0, 0.0
			color 1.0, 0.934481, 0.657
			enabled False
			falloff_exponent 1
			far_range 2000
			multiplier identity
			name ls_right
			near_range 0
			spot_angle_end 40.0728
			spot_angle_start 40.0728
		3
			clipping_values 10000.0, -10000.0, 0.0
			color 1.0, 0.420139, 0.275
			enabled False
			falloff_exponent 4
			far_range 350
			multiplier identity
			name ls_rear
			near_range 0
			spot_angle_end 0
			spot_angle_start 0
		mesh_variation black
	100416 units/payday2/vehicles/str_vehicle_truck_boxvan/002 (1857.0, 1621.13, -65.9167)
	100040 units/pd2_dlc1/props/alley_graffiti/str_prop_decal_graffitti_chainsgoldmask/001 (2400.0, 200.0, 250.0)
		disable_shadows True
	100041 units/pd2_dlc1/props/alley_graffiti/str_prop_decal_graffitti_croll420tag/001 (2400.0, -150.0, 150.0)
		disable_shadows True
	100546 units/pd2_dlc1/props/details/ind_ext_prop_cable_corner/001 (2375.0, -822.0, 238.0)
		disable_shadows True
	100547 units/pd2_dlc1/props/details/ind_ext_prop_cable_corner/002 (2375.0, -801.0, 225.0)
		disable_shadows True
	100548 units/pd2_dlc1/props/details/ind_ext_prop_cable_corner/003 (2375.0, -815.0, 255.0)
		disable_shadows True
	100556 units/pd2_dlc1/props/details/ind_ext_prop_cable_corner/004 (375.0, -340.0, 581.0)
		disable_shadows True
	100553 units/pd2_dlc1/props/details/ind_ext_prop_cable_corner/005 (2375.0, -808.0, 10.9999)
		disable_shadows True
	100552 units/pd2_dlc1/props/details/ind_ext_prop_cable_corner/006 (2375.0, -821.0, 10.9999)
		disable_shadows True
	100558 units/pd2_dlc1/props/details/ind_ext_prop_cable_corner/007 (376.0, -340.0, 569.0)
		disable_shadows True
	100559 units/pd2_dlc1/props/details/ind_ext_prop_cable_corner/008 (374.0, -329.0, 560.0)
		disable_shadows True
	100560 units/pd2_dlc1/props/details/ind_ext_prop_cable_corner/009 (387.0, -322.0, 560.0)
		disable_shadows True
	100096 units/pd2_dlc1/props/details/ind_ext_prop_cable_corner/010 (1615.0, -1324.0, 578.0)
		disable_shadows True
	100097 units/pd2_dlc1/props/details/ind_ext_prop_cable_corner/011 (1602.0, -1325.0, 598.0)
		disable_shadows True
	100098 units/pd2_dlc1/props/details/ind_ext_prop_cable_corner/012 (1628.0, -1326.0, 580.0)
		disable_shadows True
	100153 units/pd2_dlc1/props/details/ind_ext_prop_cable_corner/013 (1634.0, -1310.0, 580.0)
		disable_shadows True
	100549 units/pd2_dlc1/props/details/ind_ext_prop_cable_straight_01_1m/001 (2375.0, -808.0, 255.0)
		disable_shadows True
	100550 units/pd2_dlc1/props/details/ind_ext_prop_cable_straight_01_1m/002 (2375.0, -801.0, 120.0)
		disable_shadows True
	100551 units/pd2_dlc1/props/details/ind_ext_prop_cable_straight_01_1m/003 (2375.0, -801.0, 20.9999)
		disable_shadows True
	100557 units/pd2_dlc1/props/details/ind_ext_prop_cable_straight_01_1m/004 (375.0, -350.0, 588.0)
		disable_shadows True
	100066 units/pd2_dlc1/props/details/ind_ext_prop_cable_straight_01_1m/005 (1006.0, -1325.0, 598.0)
		disable_shadows True
	100554 units/pd2_dlc1/props/details/ind_ext_prop_cable_straight_01_2m/001 (375.0, -640.0, 588.0)
		disable_shadows True
	100555 units/pd2_dlc1/props/details/ind_ext_prop_cable_straight_01_2m/002 (375.0, -440.0, 588.0)
		disable_shadows True
	100095 units/pd2_dlc1/props/details/ind_ext_prop_cable_straight_01_2m/003 (1096.0, -1325.0, 598.0)
		disable_shadows True
	100100 units/pd2_dlc1/props/details/ind_ext_prop_cable_straight_01_2m/004 (1296.0, -1325.0, 598.0)
		disable_shadows True
	100145 units/pd2_dlc1/props/details/ind_ext_prop_cable_straight_01_2m/005 (1396.0, -1325.0, 598.0)
		disable_shadows True
	100120 units/pd2_dlc1/props/details/ind_ext_prop_lamp_02/001 (3009.65, 2317.73, 283.742)
		disable_shadows True
	100744 units/pd2_dlc1/props/details/ind_ext_prop_lamp_02/006 (4498.65, 2387.73, 317.742)
		disable_shadows True
	100745 units/pd2_dlc1/props/details/ind_ext_prop_lamp_02/007 (5323.65, 2384.73, 283.742)
		disable_shadows True
	100345 units/pd2_dlc1/props/details/ind_ext_prop_lamp_02/008 (4417.65, -2232.27, 289.742)
		disable_shadows True
	100532 units/pd2_dlc1/props/details/ind_ext_prop_lamp_02_on/002 (2400.0, -700.0, 247.742)
		disable_shadows True
	100545 units/pd2_dlc1/props/details/ind_ext_prop_lamp_02_on/003 (1525.45, -1074.04, 247.742)
		disable_shadows True
	100467 units/pd2_dlc1/props/details/ind_ext_prop_lamp_02_on/004 (625.45, -174.04, 247.742)
		disable_shadows True
	100486 units/pd2_dlc1/props/details/ind_ext_prop_lamp_02_on/006 (363.0, -604.0, 594.0)
		disable_shadows True
	100487 units/pd2_dlc1/props/details/ind_ext_prop_lamp_02_on/007 (363.0, -729.0, 594.0)
		disable_shadows True
	100488 units/pd2_dlc1/props/details/ind_ext_prop_lamp_02_on/008 (363.0, -854.0, 594.0)
		disable_shadows True
	100533 units/pd2_dlc1/props/details/ind_ext_prop_lamp_02_on/009 (1247.0, -1338.0, 605.0)
		disable_shadows True
	100534 units/pd2_dlc1/props/details/ind_ext_prop_lamp_02_on/010 (1122.0, -1338.0, 605.0)
		disable_shadows True
	100535 units/pd2_dlc1/props/details/ind_ext_prop_lamp_02_on/011 (997.0, -1338.0, 605.0)
		disable_shadows True
	100143 units/pd2_dlc1/props/details/ind_ext_prop_street_pole/001 (2000.0, 1130.0, 2.20081)
		disable_shadows True
	100144 units/pd2_dlc1/props/details/ind_ext_prop_street_pole/002 (2350.0, 1130.0, 2.20081)
	100146 units/pd2_dlc1/props/details/ind_ext_prop_street_pole/003 (1625.0, 1130.0, 2.20081)
		disable_shadows True
	100052 units/pd2_dlc2/csgo_models/props/cs_italy/market_dolly01/001 (490.259, -259.814, 4.42152)
		disable_shadows True
	100053 units/pd2_dlc2/csgo_models/props/cs_italy/market_dolly01/002 (879.675, 1137.95, 0.0)
		disable_shadows True
	100054 units/pd2_dlc2/csgo_models/props/cs_italy/market_dolly01/003 (1458.11, -742.588, 0.0)
		disable_shadows True
	100069 units/pd2_dlc2/csgo_models/props_downtown/sign_donotenter/001 (2783.0, 2161.0, 175.233)
		disable_shadows True
	100119 units/pd2_dlc2/csgo_models/props_downtown/sign_donotenter/002 (2864.0, 2315.0, 175.233)
		disable_shadows True
	100009 units/pd2_dlc2/csgo_models/props_downtown/sign_donotenter/003 (2783.0, -1579.0, 175.233)
		disable_shadows True
	100538 units/pd2_dlc2/csgo_models/props_foliage/urban_bush_angled_128/001 (713.0, 1196.0, -11.0)
		disable_shadows True
	100187 units/pd2_dlc2/csgo_models/props_foliage/urban_bush_angled_64/001 (388.882, 827.812, -11.0377)
		disable_shadows True
	100427 units/pd2_dlc2/csgo_models/props_foliage/urban_bush_angled_64/002 (400.605, 1049.49, -9.61198)
		disable_shadows True
	100539 units/pd2_dlc2/csgo_models/props_foliage/urban_bush_angled_64/003 (1406.0, 1204.0, 0.0)
		disable_shadows True
	100543 units/pd2_dlc2/csgo_models/props_foliage/urban_bush_angled_64/004 (1650.0, -1300.0, 0.0)
		disable_shadows True
	100129 units/pd2_dlc2/csgo_models/props_foliage/urban_bush_angled_64/007 (3073.86, 2305.26, 32.0)
		disable_shadows True
	100131 units/pd2_dlc2/csgo_models/props_foliage/urban_bush_angled_64/008 (2803.73, 1705.0, -45.0447)
		disable_shadows True
	100282 units/pd2_dlc2/csgo_models/props_foliage/urban_bush_angled_64/009 (2788.73, 1506.0, -45.0447)
		disable_shadows True
	100279 units/pd2_dlc2/csgo_models/props_foliage/urban_bush_angled_64/010 (3283.0, 2700.0, -35.0)
		disable_shadows True
	100355 units/pd2_dlc2/csgo_models/props_foliage/urban_bush_angled_64/011 (1973.0, -1285.0, -9.0)
		disable_shadows True
	100585 units/pd2_dlc2/csgo_models/props_interiors/furniture_chair03a/004 (470.0, -598.0, 48.0)
		disable_shadows True
	100586 units/pd2_dlc2/csgo_models/props_interiors/furniture_chair03a/005 (467.0, -539.0, 48.0)
		disable_shadows True
	100078 units/pd2_dlc2/csgo_models/props_interiors/furniture_chair03a/006 (1091.59, -1231.16, 48.0)
		disable_shadows True
	100099 units/pd2_dlc2/csgo_models/props_interiors/furniture_chair03a/007 (1150.59, -1235.16, 48.0)
		disable_shadows True
	100227 units/pd2_dlc2/csgo_models/props_interiors/water_cooler/001 (1284.0, -1244.0, 0.0)
		disable_shadows True
	100288 units/pd2_dlc2/csgo_models/props_windows/window_urban_bars_med/001 (2778.0, 1953.0, 153.57)
		disable_shadows True
	100289 units/pd2_dlc2/csgo_models/props_windows/window_urban_bars_med/002 (2778.0, 1833.0, 153.57)
		disable_shadows True
	100290 units/pd2_dlc2/csgo_models/props_windows/window_urban_bars_med/003 (3497.0, 2324.0, 152.57)
		disable_shadows True
	100291 units/pd2_dlc2/csgo_models/props_windows/window_urban_bars_med/004 (3617.0, 2324.0, 152.57)
		disable_shadows True
	100323 units/pd2_dlc2/csgo_models/props_windows/window_urban_bars_med/005 (2778.0, -1748.0, 153.57)
		disable_shadows True
	100325 units/pd2_dlc2/csgo_models/props_windows/window_urban_bars_med/006 (2778.0, -1868.0, 153.57)
		disable_shadows True
	100329 units/pd2_dlc2/csgo_models/props_windows/window_urban_bars_med/007 (3013.0, -2238.0, 153.57)
		disable_shadows True
	100331 units/pd2_dlc2/csgo_models/props_windows/window_urban_bars_med/008 (3133.0, -2238.0, 153.57)
		disable_shadows True
	100334 units/pd2_dlc2/csgo_models/props_windows/window_urban_bars_med/009 (3619.0, -2238.0, 153.57)
		disable_shadows True
	100336 units/pd2_dlc2/csgo_models/props_windows/window_urban_bars_med/010 (3499.0, -2238.0, 153.57)
		disable_shadows True
	100199 units/pd2_dlc_cage/props/armchair_set/ind_prop_cardealership_table_small/001 (471.0, -473.0, 6.10352e-05)
		disable_shadows True
	100200 units/pd2_dlc_cage/props/armchair_set/ind_prop_cardealership_table_small/002 (1227.59, -1231.16, 6.10352e-05)
		disable_shadows True
	100197 units/pd2_dlc_cage/props/book_set/ind_prop_cardealership_magazine_e/001 (816.0, -704.0, 106.0)
		disable_shadows True
	100198 units/pd2_dlc_cage/props/book_set/ind_prop_cardealership_magazine_e/002 (817.673, -709.484, 107.0)
		disable_shadows True
	100047 units/pd2_dlc_cage/props/book_set/ind_prop_cardealership_magazine_e/003 (1225.59, -1228.16, 53.5624)
		disable_shadows True
	100195 units/pd2_dlc_cage/props/ind_prop_cardealership_int_sign_staff_only/001 (624.0, -200.0, 240.0)
		disable_shadows True
	100196 units/pd2_dlc_cage/props/ind_prop_cardealership_int_sign_staff_only/002 (1499.0, -1075.0, 240.0)
		disable_shadows True
	100013 units/pd2_dlc_casino/props/cas_int_keyboard/001 (884.394, -811.607, 72.1542)
		disable_shadows True
	100028 units/pd2_dlc_casino/props/cas_int_keyboard/002 (859.243, -591.625, 72.1542)
		disable_shadows True
	100368 units/pd2_dlc_cro/metal_scratches_decal/001 (2823.0, 1515.0, 484.89)
		disable_shadows True
	100017 units/pd2_dlc_jerry/architecture/hardware_store/jry_warehouse_reception_desk/001 (1225.0, -875.0, 0.0)
		disable_shadows True
	100002 units/pd2_dlc_jerry/architecture/jry_hardware_store_back_building/001 (-68.0, -50.0, -13.0)
	100170 units/pd2_dlc_jerry/architecture/jry_hardware_store_concrete_wall/001 (1585.0, 1800.0, -168.0)
	100157 units/pd2_dlc_jerry/architecture/jry_hardware_store_concrete_wall/002 (2410.0, 1800.0, -168.0)
	100275 units/pd2_dlc_jerry/architecture/jry_hardware_store_concrete_wall/003 (3122.0, 2065.0, -122.0)
	100593 units/pd2_dlc_jerry/architecture/jry_hardware_store_entrance/001 (425.0, -1272.0, -3.34998)
	100088 units/pd2_dlc_jerry/architecture/jry_hardware_store_int_ducts_broken/001 (425.0, 1175.0, -0.000488281)
		disable_on_ai_graph True
		disable_shadows True
		hide_on_projection_light True
	100079 units/pd2_dlc_jerry/architecture/jry_hardware_store_int_ducts_unbroken/001 (425.0, 1175.0, -0.000488281)
		disable_shadows True
		hide_on_projection_light True
	100063 units/pd2_dlc_jerry/architecture/jry_hardware_store_int_roof_broken/001 (425.0, 1175.0, -0.000488281)
	100000 units/pd2_dlc_jerry/architecture/jry_hardware_store_int_walls_a/001 (425.0, 1175.0, -0.000488281)
	100064 units/pd2_dlc_jerry/architecture/jry_hardware_store_logo/001 (381.0, -725.0, 479.0)
		disable_shadows True
	100065 units/pd2_dlc_jerry/architecture/jry_hardware_store_logo/002 (1173.79, -542.566, 254.0)
		disable_shadows True
	100067 units/pd2_dlc_jerry/architecture/jry_hardware_store_logo/003 (1131.0, -1320.0, 479.0)
		disable_shadows True
	100042 units/pd2_dlc_jerry/architecture/jry_hardware_store_pillar_1/001 (250.0, -1450.0, 0.000183105)
		disable_shadows True
	100281 units/world/architecture/hospital/props/rooftop/acunit/acunit01/001 (1275.0, 1200.0, 388.451)
	100273 units/world/architecture/hospital/props/rooftop/acunit/acunit01/002 (2703.0, 50.0, 413.451)
	100540 units/world/architecture/hospital/props/rooftop/acunit/acunit02/001 (3100.0, 1800.0, 575.581)
	100561 units/world/architecture/hospital/props/rooftop/acunit/acunit02/002 (3650.0, 1800.0, 575.581)
	100362 units/world/architecture/hospital/props/rooftop/acvent/acvent02/002 (4487.0, 42.0, 834.0)
		disable_shadows True
	100372 units/world/architecture/hospital/props/rooftop/acvent/acvent02/003 (4487.0, 878.0, 834.0)
		disable_shadows True
	100608 units/world/architecture/hospital/props/rooftop/acvent/acvent03/001 (5400.0, 800.0, 1000.0)
		disable_shadows True
	100341 units/world/architecture/hospital/props/rooftop/acvent/acvent03/002 (5400.0, 100.0, 1000.0)
		disable_shadows True
	100357 units/world/architecture/hospital/props/rooftop/acvent/acvent03/003 (5400.0, -700.0, 1000.0)
		disable_shadows True
	100384 units/world/architecture/hospital/props/rooftop/vent/roof_vent001/001 (3014.0, 1105.0, 855.853)
		disable_shadows True
	100385 units/world/architecture/hospital/props/rooftop/vent/roof_vent001/002 (3014.0, 555.0, 855.853)
		disable_shadows True
	100390 units/world/architecture/hospital/props/rooftop/vent/roof_vent001/003 (3014.0, 55.0, 855.853)
		disable_shadows True
	100398 units/world/architecture/hospital/props/rooftop/vent/roof_vent001/004 (3014.0, -445.0, 855.853)
		disable_shadows True
	100399 units/world/architecture/hospital/props/rooftop/vent/roof_vent001/005 (3014.0, -945.0, 855.853)
		disable_shadows True
	100572 units/world/architecture/hospital/props/rooftop/vent/roof_vent001/006 (3364.0, 2155.0, 405.853)
		disable_shadows True
	100274 units/world/architecture/mansion/exterior/man_drainpipe_ext_medium/001 (2707.0, 1487.0, 1.0)
		disable_shadows True
	100245 units/world/architecture/mansion/exterior/man_drainpipe_ext_medium/002 (2734.0, 758.0, -9.0)
		disable_shadows True
	100623 units/world/architecture/mansion/exterior/man_drainpipe_ext_medium/003 (2763.96, -1381.96, -17.0)
		disable_shadows True
	100338 units/world/architecture/mansion/exterior/man_drainpipe_ext_medium/004 (2734.0, -702.0, -9.0)
		disable_shadows True
	100292 units/world/architecture/street/decals/ground/decal_ground_grate1/001 (2747.0, 1539.0, -24.0)
	100043 units/world/architecture/street/decals/ground/decal_ground_grate4/001 (386.0, 1198.0, 0.0)
		disable_shadows True
	100347 units/world/props/apartment/exit_sign_01/002 (2372.0, -703.0, 273.0)
		disable_shadows True
	100359 units/world/props/apartment/exit_sign_01/003 (3633.0, 1486.0, 545.0)
		disable_shadows True
	100010 units/world/props/bank/bank_plant/001 (1071.0, -504.0, 0.0)
		disable_shadows True
	100173 units/world/props/electricboxes/prop_electricbox_1/001 (2375.0, -860.0, -22.0)
		disable_shadows True
	100186 units/world/props/electricboxes/prop_electricbox_1/002 (1525.0, -910.0, -22.0)
		disable_shadows True
	100194 units/world/props/office/light/spotlight_celing_small/001 (831.0, -566.0, 350.0)
	100201 units/world/props/office/light/spotlight_celing_small/002 (831.0, -716.0, 350.0)
	100203 units/world/props/office/light/spotlight_celing_small/003 (981.0, -866.0, 350.0)
	100205 units/world/props/office/light/spotlight_celing_small/004 (1131.0, -866.0, 350.0)
	100207 units/world/props/office/light/spotlight_celing_small/005 (864.0, -830.0, 350.0)
	100318 units/world/props/signs/signs/construction_sign_hardhat/001 (2780.0, 2240.0, 164.0)
		disable_shadows True
	100321 units/world/props/signs/signs/construction_sign_hardhat/002 (2776.0, -1453.69, -4.0345)
		disable_shadows True
