ID range vs continent name:
	100000: world

statics
	100014 units/pd2_dlc_help/props/hlp_prop_cloaker_grenade/001 (-2.23418e-05, 8000.0, -2200.0)
		mesh_variation hide
	100012 units/pd2_dlc_help/props/hlp_prop_giant_cloaker/001 (-2.23418e-05, 8000.0, -2200.0)
		mesh_variation state_vis_hide
