ID range vs continent name:
	100000: world

statics
	100012 units/pd2_dlc_help/props/hlp_prop_giant_cloaker/001 (3.39057, 1903.01, -3452.66)
		disable_shadows True
		mesh_variation state_vis_hide
	100040 units/pd2_dlc_help/props/hlp_prop_giant_cloaker/002 (-130.177, -40.5898, -4010.91)
		disable_shadows True
		mesh_variation state_vis_hide
