﻿´ai_enemy_prefered_add_001´ ElementEnemyPreferedAdd 100343
´get_C4_now´ MissionScriptElement 100344
	on_executed
		´SO_place_C4001´ (delay 0)
		´SO_place_C4002´ (delay 0)
		´SO_place_C4003´ (delay 0)
		´point_debug_014´ (delay 0)
´func_sequence_002´ ElementUnitSequence 100350
	position -3650.0, 2750.0, 25.0
	rotation 0.0, 0.0, 0.0, -1.0
	trigger_list
		1
			id 1
			name run_sequence
			notify_unit_id units/equipment/charge/c4_plantable/006 (-3336.0, 2731.0, 144.949)
			notify_unit_sequence show
			time 0
	on_executed
		´remove_C4_SO001´ (delay 0)
´func_sequence_003´ ElementUnitSequence 100351
	position -3650.0, 2400.0, 25.0
	rotation 0.0, 0.0, 0.0, -1.0
	trigger_list
		1
			id 1
			name run_sequence
			notify_unit_id units/equipment/charge/c4_plantable/007 (-3335.0, 2284.0, 149.949)
			notify_unit_sequence show
			time 0
	on_executed
		´remove_C4_SO002´ (delay 0)
´func_sequence_004´ ElementUnitSequence 100354
	position -3600.0, 1825.0, 25.0
	rotation 0.0, 0.0, 0.0, -1.0
	trigger_list
		1
			id 1
			name run_sequence
			notify_unit_id units/equipment/charge/c4_plantable/004 (-3336.0, 1842.0, 146.949)
			notify_unit_sequence show
			time 0
	on_executed
		´remove_C4_SO003´ (delay 0)
´logic_counter_001´ ElementCounter 100361
	counter_target 1
	digital_gui_unit_ids
	on_executed
		´destroy_glass´ (delay 0)
		´boom_2´ (delay 5)
		´func_execute_in_other_mission_001´ (delay 0)
´destroy_glass´ ElementUnitSequence 100496
	position -3900.0, 2650.0, 250.0
	rotation 0.0, 0.0, 0.0, -1.0
	trigger_list
		1
			id 1
			name run_sequence
			notify_unit_id units/equipment/charge/c4_plantable/006 (-3336.0, 2731.0, 144.949)
			notify_unit_sequence trigger_expolsive
			time 0
		2
			id 2
			name run_sequence
			notify_unit_id units/equipment/charge/c4_plantable/007 (-3335.0, 2284.0, 149.949)
			notify_unit_sequence trigger_expolsive
			time 0
		3
			id 3
			name run_sequence
			notify_unit_id units/equipment/charge/c4_plantable/004 (-3336.0, 1842.0, 146.949)
			notify_unit_sequence trigger_expolsive
			time 0
		4
			id 4
			name run_sequence
			notify_unit_id units/world/architecture/bank/bank_glass_a/012 (-2588.0, 2597.0, 196.0)
			notify_unit_sequence destroy_02
			time 5
		5
			id 5
			name run_sequence
			notify_unit_id units/world/architecture/bank/bank_glass_a/011 (-2588.0, 2597.0, -12.0)
			notify_unit_sequence destroy_02
			time 5
		6
			id 6
			name run_sequence
			notify_unit_id units/world/architecture/bank/bank_glass_a/009 (-2338.0, 2597.0, -12.0)
			notify_unit_sequence destroy_02
			time 5
		7
			id 7
			name run_sequence
			notify_unit_id units/world/architecture/bank/bank_glass_a/010 (-2338.0, 2597.0, 196.0)
			notify_unit_sequence destroy_02
			time 5
		8
			id 8
			name run_sequence
			notify_unit_id units/world/architecture/bank/bank_glass_a/008 (-2078.0, 2597.0, 196.0)
			notify_unit_sequence destroy_01
			time 5
		9
			id 9
			name run_sequence
			notify_unit_id units/world/architecture/bank/bank_glass_a/007 (-2078.0, 2597.0, -12.0)
			notify_unit_sequence destroy_01
			time 5
		10
			id 10
			name run_sequence
			notify_unit_id units/world/architecture/bank/bank_glass_a/006 (-2028.0, 2338.0, 196.0)
			notify_unit_sequence destroy_01
			time 5
		11
			id 11
			name run_sequence
			notify_unit_id units/world/architecture/bank/bank_glass_a/005 (-2028.0, 2338.0, -12.0)
			notify_unit_sequence destroy_01
			time 5
		12
			id 12
			name run_sequence
			notify_unit_id units/world/architecture/bank/bank_glass_a/003 (-2028.0, 1953.0, -12.0)
			notify_unit_sequence destroy_01
			time 5
		13
			id 13
			name run_sequence
			notify_unit_id units/world/architecture/bank/bank_glass_a/004 (-2028.0, 1953.0, 196.0)
			notify_unit_sequence destroy_01
			time 5
		14
			id 14
			name run_sequence
			notify_unit_id units/world/architecture/bank/bank_glass_a/001 (-2028.0, 1568.0, 196.0)
			notify_unit_sequence destroy_01
			time 5
		15
			id 15
			name run_sequence
			notify_unit_id units/world/architecture/bank/bank_glass_a/002 (-2028.0, 1568.0, -12.0)
			notify_unit_sequence destroy_01
			time 5
´boom_2´ MissionScriptElement 100506
	on_executed
		´func_sequence_043´ (delay 0)
		´ai_enemy_prefered_add_001´ (delay 5)
		´func_execute_in_other_mission_006´ (delay 0)
´ai_enemy_trigger_005´ ElementEnemyDummyTrigger 100593
	elements
	event spawn
	position -2900.0, 2775.0, 152.177
	rotation 0.0, 0.0, 0.0, -1.0
´logic_counter_002´ ElementCounter 100358
	counter_target 3
	digital_gui_unit_ids
	on_executed
		´logic_counter_001´ (delay 3)
´func_sequence_043´ ElementUnitSequence 102237
	position -4000.0, 3175.0, 350.0
	rotation 0.0, 0.0, 0.0, -1.0
	trigger_list
		1
			id 1
			name run_sequence
			notify_unit_id units/equipment/charge/c4_plantable/006 (-3336.0, 2731.0, 144.949)
			notify_unit_sequence hide
			time 0
		2
			id 2
			name run_sequence
			notify_unit_id units/equipment/charge/c4_plantable/007 (-3335.0, 2284.0, 149.949)
			notify_unit_sequence hide
			time 0
		3
			id 3
			name run_sequence
			notify_unit_id units/equipment/charge/c4_plantable/004 (-3336.0, 1842.0, 146.949)
			notify_unit_sequence hide
			time 0
´ai_enemy_trigger_049´ ElementEnemyDummyTrigger 101286
	elements
	event death
	position -2650.0, 2725.0, -25.0001
	rotation 0.0, 0.0, 0.0, -1.0
	on_executed
		´logic_toggle_008´ (delay 0)
´logic_toggle_008´ ElementToggle 101287
	elements
	set_trigger_times -1
	toggle off
´func_execute_in_other_mission_001´ ElementExecuteInOtherMission 100680
	position -3600.0, 3050.0, 300.0
	rotation 0.0, 0.0, 0.0, -1.0
	on_executed
		´logic_link_kill_navlinks_windows_globe´ (delay -0)
´logic_link_force_glb_wndw´ MissionScriptElement 102165
	on_executed
		´get_C4_now´ (delay 0)
´func_execute_in_other_mission_006´ ElementExecuteInOtherMission 103866
	position -3550.0, 3150.0, 250.0
	rotation 0.0, 0.0, 0.0, -1.0
	on_executed
		´func_execute_in_other_mission_007´ (delay 20)
		´logic_link_start_effects_globe´ (delay 0)
´func_execute_in_other_mission_007´ ElementExecuteInOtherMission 103878
	position -3550.0, 3250.0, 250.0
	rotation 0.0, 0.0, 0.0, -1.0
	on_executed
		´logic_link_kill_effects_globe´ (delay 0)
´logic_toggle_097´ ElementToggle 101054
	elements
		1 ´plant_C4_fail(enemy_death_in_original)´
	set_trigger_times -1
	toggle off
	on_executed
		´point_debug_008´ (delay 0)
´point_debug_008´ ElementDebug 103509
	as_subtitle False
	debug_string wndw offff
	show_instigator False
´SO_place_C4001´ ElementSpecialObjective 100598
	SO_access 448
	action_duration_max 0
	action_duration_min 0
	ai_group enemies
	align_position True
	align_rotation True
	attitude engage
	base_chance 1
	chance_inc 0
	interaction_voice none
	interrupt_dis 0
	interrupt_dmg 1
	interrupt_objective False
	interval 20
	needs_pos_rsrv True
	path_haste run
	path_stance cbt
	path_style destination
	patrol_path none
	pose none
	position -3428.0, 2737.0, -25.0
	rotation 0.0, 0.0, 0.707107, -0.707107
	scan True
	search_distance 3000
	search_position -3469.22, 2687.59, -24.9984
	so_action e_so_plant_c4_hi
	trigger_on none
´SO_place_C4002´ ElementSpecialObjective 102509
	SO_access 448
	action_duration_max 0
	action_duration_min 0
	ai_group enemies
	align_position True
	align_rotation True
	attitude engage
	base_chance 1
	chance_inc 0
	interaction_voice none
	interrupt_dis 0
	interrupt_dmg 1
	interrupt_objective False
	interval 20
	needs_pos_rsrv True
	path_haste run
	path_stance cbt
	path_style destination
	patrol_path none
	pose none
	position -3428.0, 2287.0, -25.0
	rotation 0.0, 0.0, 0.707107, -0.707107
	scan True
	search_distance 3000
	search_position -3474.91, 2248.23, -24.9983
	so_action e_so_plant_c4_hi
	trigger_on none
´SO_place_C4003´ ElementSpecialObjective 103238
	SO_access 448
	action_duration_max 0
	action_duration_min 0
	ai_group enemies
	align_position True
	align_rotation True
	attitude engage
	base_chance 1
	chance_inc 0
	interaction_voice none
	interrupt_dis 0
	interrupt_dmg 1
	interrupt_objective False
	interval 20
	needs_pos_rsrv True
	path_haste run
	path_stance cbt
	path_style destination
	patrol_path none
	pose none
	position -3428.0, 1837.0, -25.0
	rotation 0.0, 0.0, 0.707107, -0.707107
	scan True
	search_distance 3000
	search_position -3477.61, 1860.35, -24.9983
	so_action e_so_plant_c4_hi
	trigger_on none
´remove_C4_SO001´ ElementOperator 103244
	elements
		1 ´SO_place_C4001´
	operation remove
´remove_C4_SO002´ ElementOperator 103246
	elements
		1 ´SO_place_C4002´
	operation remove
´remove_C4_SO003´ ElementOperator 103251
	elements
		1 ´SO_place_C4003´
	operation remove
´trigger_special_objective_001´ ElementSpecialObjectiveTrigger 103257
	elements
		1 ´SO_place_C4001´
	event anim_start
	position -3550.0, 2750.0, 25.0
	rotation 0.0, 0.0, 0.0, -1.0
	on_executed
		´func_sequence_002´ (delay 1)
		´logic_counter_002´ (delay 0)
´trigger_special_objective_002´ ElementSpecialObjectiveTrigger 100348
	elements
		1 ´SO_place_C4002´
	event anim_start
	position -3575.0, 2325.0, 25.0
	rotation 0.0, 0.0, 0.0, -1.0
	on_executed
		´func_sequence_003´ (delay 1)
		´logic_counter_002´ (delay 0)
´trigger_special_objective_003´ ElementSpecialObjectiveTrigger 103261
	elements
		1 ´SO_place_C4003´
	event anim_start
	position -3600.0, 1900.0, 25.0
	rotation 0.0, 0.0, 0.0, -1.0
	on_executed
		´logic_counter_002´ (delay 0)
		´func_sequence_004´ (delay 1)
		´logic_toggle_097´ (delay 0)
´plant_C4_fail(enemy_death_in_original)´ ElementSpecialObjectiveTrigger 100352
	elements
		1 ´SO_place_C4001´
		2 ´SO_place_C4002´
		3 ´SO_place_C4003´
	event fail
	position -3500.0, 3000.0, 400.0
	rotation 0.0, 0.0, 0.0, -1.0
´point_debug_014´ ElementDebug 103268
	as_subtitle False
	debug_string C4 NOW
	show_instigator False
