ID range vs continent name:
	100000: world

statics
	100060 units/dev_tools/level_tools/dev_bag_collision_1x1m/001 (283.0, -84.0, 100.0)
	100099 units/dev_tools/level_tools/dev_bag_collision_1x1m/002 (-279.0, -84.0, 100.0)
	100108 units/dev_tools/level_tools/dev_bag_collision_1x3m/010 (-279.0, -71.0, 100.0)
	100026 units/dev_tools/level_tools/dev_bag_collision_1x3m/011 (8.0, -71.0, 100.0)
	100058 units/dev_tools/level_tools/dev_bag_collision_1x3m/012 (8.0, 18.0, 100.0)
	100059 units/dev_tools/level_tools/dev_bag_collision_1x3m/013 (-279.0, 18.0, 100.0)
	100009 units/payday2/pickups/gen_pku_methlab_bubbling/001 (-36.702, -27.1057, 94.0)
		mesh_variation interaction_enable
	100013 units/payday2/pickups/gen_pku_methlab_caustic_cooler/001 (136.745, -54.2549, 93.0)
		mesh_variation interaction_enable
	100038 units/payday2/pickups/gen_pku_methlab_drying_meth/001 (245.0, -108.0, 0.160004)
	100014 units/payday2/pickups/gen_pku_methlab_liquid_meth/001 (192.586, -58.4754, 93.0)
		mesh_variation interaction_enable
	100011 units/payday2/props/gen_prop_methlab_blender/001 (-184.6, -6.90192, 94.04)
	100012 units/payday2/props/gen_prop_methlab_cooker/001 (-161.538, -46.7533, 94.5)
	100008 units/payday2/props/gen_prop_methlab_cooking/001 (-79.0, -56.0, 94.0)
	100037 units/payday2/props/gen_prop_methlab_ephedrine_grinded/001 (155.0, -68.0, 57.61)
	100041 units/payday2/props/gen_prop_methlab_ephedrine_tables/001 (-243.0, -68.0, 94.0)
	100042 units/payday2/props/gen_prop_methlab_ephedrine_tables/002 (-229.57, -68.0602, 94.2001)
	100043 units/payday2/props/gen_prop_methlab_ether/001 (-37.0, -49.0, 0.0)
	100044 units/payday2/props/gen_prop_methlab_iodine/001 (-36.0, -25.0, 0.0)
	100019 units/payday2/props/gen_prop_methlab_meth/001 (265.399, -76.3137, 97.0)
	100017 units/payday2/props/gen_prop_methlab_meth_dry/001 (-232.0, -26.0, 95.0)
	100015 units/payday2/props/gen_prop_methlab_meth_liquid_1/001 (178.875, -14.3164, 93.0)
	100045 units/payday2/props/gen_prop_methlab_methanol/001 (-7.0, -19.0, 0.0)
	100018 units/payday2/props/gen_prop_methlab_plate/001 (265.399, -76.3137, 95.0)
	100032 units/payday2/props/gen_prop_methlab_rocksalt/001 (80.018, -38.0, -3.2999)
	100028 units/payday2/props/gen_prop_methlab_sdsd/001 (3.79909, -41.6864, 94.0)
	100029 units/payday2/props/gen_prop_methlab_sdsd/002 (-21.0, -66.0, 94.0)
	100030 units/payday2/props/gen_prop_methlab_sdsd/003 (36.0, -65.0, 94.0)
	100031 units/payday2/props/gen_prop_methlab_sdsd/004 (-72.0, -12.0, 94.0)
	100040 units/payday2/props/gen_prop_methlab_sdsd/005 (265.0, -5.0, 94.0)
	100016 units/payday2/props/gen_prop_methlab_sludge_filter/001 (98.3488, -18.2586, 92.0)
	100027 units/payday2/props/gen_prop_methlab_test_tube/001 (-46.0, -64.0, 94.0)
	100039 units/payday2/props/gen_prop_methlab_test_tube/002 (231.0, -33.0, 94.0)
	100033 units/payday2/props/gen_prop_methlab_toluene/001 (47.0, -5.0, 0.0)
	100010 units/payday2/props/gen_prop_methlad_solvent_mixed/001 (-161.387, -44.759, 108.8)
	100034 units/payday2/props/gen_prop_roadflare/001 (-38.0, -104.0, 0.0)
	100035 units/payday2/props/gen_prop_roadflare/002 (-29.0, -81.0, 0.0)
	100036 units/payday2/props/gen_prop_roadflare_whole/001 (-18.0, -67.0, 1.66)
	100021 units/world/architecture/alaska/lumbermill/plank/001 (-275.0, -1.00004, 92.0)
	100022 units/world/architecture/alaska/lumbermill/plank/002 (-288.0, -38.0, 94.0)
	100023 units/world/architecture/alaska/lumbermill/plank/003 (-275.0, -76.0, 94.0)
	100024 units/world/props/01/pallet_pile_01/001 (-125.0, -50.0, 0.0)
	100025 units/world/props/01/pallet_pile_01/002 (200.0, -50.0, 0.0)
	100020 units/world/props/mansion/man_prop_int_brass_bowl/001 (85.4554, -69.4325, 94.0)
