ID range vs continent name:
	100000: world

statics
	100006 units/pd2_dlc_casino/props/cas_skylight_barrier_hack/keycard_panel_hack (-1.24345e-12, 1.34111e-05, 125.0)
	100043 units/pd2_dlc_casino/props/cas_skylight_control_panel/keycard_panel (-1.24345e-12, 1.34111e-05, 125.0)
		mesh_variation off
