ID range vs continent name:
	100000: world

statics
	100006 core/units/light_omni/001 (-25.0, -200.0, 123.334)
		1
			clipping_values 10000.0, -10000.0, 0.0
			color 1.0, 1.0, 1.0
			enabled True
			falloff_exponent 1
			far_range 600
			multiplier identity
			name lo_omni
			near_range 80
			spot_angle_end -1
			spot_angle_start -1
	100001 units/dev_tools/level_tools/dev_door_blocker_1x2x3/001 (111.0, -200.0, 0.0)
		disable_on_ai_graph True
	100002 units/dev_tools/level_tools/dev_door_blocker_1x2x3/002 (100.0, -400.0, 0.0)
		disable_on_ai_graph True
	100003 units/dev_tools/level_tools/dev_door_blocker_1x2x3/003 (100.0, -428.0, 0.0)
		disable_on_ai_graph True
	100004 units/dev_tools/level_tools/dev_door_blocker_1x2x3/004 (-50.0, -428.0, 0.0)
		disable_on_ai_graph True
	100007 units/dev_tools/level_tools/dev_door_blocker_1x2x3/005 (-296.0, -325.0, 0.0)
		disable_on_ai_graph True
	100008 units/dev_tools/level_tools/dev_door_blocker_1x2x3/006 (-302.0, -200.0, 0.0)
		disable_on_ai_graph True
	100033 units/payday2/props/com_prop_club_beer_keg/002 (-199.998, -374.999, -0.00107077)
	100034 units/payday2/props/com_prop_club_beer_keg/003 (-149.998, -374.999, -0.00107077)
	100015 units/payday2/props/com_prop_club_beer_keg/004 (125.002, -49.9989, -0.00050354)
	100009 units/payday2/props/com_prop_club_beer_keg/005 (125.002, -99.9989, -0.000590807)
	100010 units/payday2/props/com_prop_janitor_shelf/002 (150.0, -150.0, 0.0)
	100011 units/payday2/props/com_prop_janitor_shelf/003 (-195.0, -150.0, 0.0)
	100035 units/payday2/props/set/ind_prop_warehouse_box_a/001 (-220.0, -200.0, 50.0)
	100044 units/payday2/props/set/ind_prop_warehouse_box_a/002 (-220.0, -200.0, 158.0)
	100047 units/payday2/props/set/ind_prop_warehouse_box_a/003 (-220.0, -200.0, 209.0)
	100050 units/payday2/props/set/ind_prop_warehouse_box_a/004 (125.0, -300.0, 100.0)
	100051 units/payday2/props/set/ind_prop_warehouse_box_a/005 (125.0, -300.0, 210.0)
	100036 units/payday2/props/set/ind_prop_warehouse_box_b/001 (-75.0, -350.0, 0.0)
	100037 units/payday2/props/set/ind_prop_warehouse_box_b/002 (25.0, -350.0, 0.0)
	100038 units/payday2/props/set/ind_prop_warehouse_box_b/003 (50.0, -350.0, 53.0)
	100052 units/payday2/props/set/ind_prop_warehouse_box_b/004 (-50.0, -350.0, 53.0)
	100053 units/payday2/props/set/ind_prop_warehouse_box_b/005 (25.0, -350.0, 107.0)
	100039 units/payday2/props/set/ind_prop_warehouse_box_e/001 (-220.0, -200.0, 102.0)
	100042 units/payday2/props/set/ind_prop_warehouse_box_e/002 (-220.0, -300.0, 102.0)
	100043 units/payday2/props/set/ind_prop_warehouse_box_e/003 (-220.0, -300.0, 209.0)
	100048 units/payday2/props/set/ind_prop_warehouse_box_e/004 (125.0, -200.0, 50.0)
	100049 units/payday2/props/set/ind_prop_warehouse_box_e/005 (125.0, -200.0, 100.0)
	100032 units/pd2_dlc_arena/props/editable_text_caslon/001 (-6.00001, 35.0, 269.824)
		align left
		alpha 1
		blend_mode normal
		font fonts/font_caslon
		font_color 1.0, 1.0, 1.0
		font_size 0.76
		render_template diffuse_vc_decal
		shape
			1 0
			2 0
			3 1
			4 1
		text STORAGE
		vertical center
		word_wrap False
		wrap False
	100041 units/pd2_dlc_casino/architecture/cas_small_storage_01/001 (-99.9999, 0.00332439, -0.000492545)
	100020 units/pd2_dlc_casino/props/cas_prop_fireworks/fireworks (-220.0, -102.0, -2.0)
	100000 units/pd2_dlc_casino/props/hanging_wall/cas_prop_lobby_sign_wall/001 (-45.0, 29.0, 290.583)
	100012 units/world/props/cables_pipes/prop_pipes_1_b/001 (-247.998, -501.997, 300.0)
	100013 units/world/props/cables_pipes/prop_pipes_1_b/002 (-247.999, -251.997, 300.0)
	100014 units/world/props/cables_pipes/prop_pipes_1_b/003 (150.001, 0.00390625, 299.999)
	100016 units/world/props/cables_pipes/prop_pipes_1_b/004 (150.001, -249.996, 299.999)
