ID range vs continent name:
	100000: world

statics
	100053 core/units/light_omni/021 (-449.0, -1908.0, 478.0)
		1
			clipping_values 10000.0, -10000.0, 0.0
			color 0.933333, 0.733333, 0.623529
			enabled True
			falloff_exponent 1.3
			far_range 400
			multiplier reddot
			name lo_omni
			near_range 80
			spot_angle_end -1
			spot_angle_start -1
	100105 core/units/light_omni/022 (-449.0, -1533.0, 478.0)
		1
			clipping_values 10000.0, -10000.0, 0.0
			color 0.933333, 0.733333, 0.623529
			enabled True
			falloff_exponent 1.3
			far_range 400
			multiplier reddot
			name lo_omni
			near_range 80
			spot_angle_end -1
			spot_angle_start -1
	100054 core/units/light_omni/024 (-195.0, -2461.0, 478.0)
		1
			clipping_values 10000.0, -10000.0, 0.0
			color 0.933333, 0.733333, 0.623529
			enabled True
			falloff_exponent 1.3
			far_range 450
			multiplier reddot
			name lo_omni
			near_range 80
			spot_angle_end -1
			spot_angle_start -1
	100058 core/units/light_omni/027 (-189.0, -1882.0, 149.0)
		1
			clipping_values 10000.0, -10000.0, 0.0
			color 0.933333, 0.733333, 0.623529
			enabled True
			falloff_exponent 1.3
			far_range 400
			multiplier streetlight
			name lo_omni
			near_range 80
			spot_angle_end -1
			spot_angle_start -1
	100048 core/units/light_omni/028 (92.0, -691.0, 461.0)
		1
			clipping_values 10000.0, -10000.0, 0.0
			color 0.933333, 0.733333, 0.623529
			enabled True
			falloff_exponent 1.3
			far_range 400
			multiplier reddot
			name lo_omni
			near_range 80
			spot_angle_end -1
			spot_angle_start -1
	100052 core/units/light_omni/029 (348.0, -691.0, 461.0)
		1
			clipping_values 10000.0, -10000.0, 0.0
			color 0.933333, 0.733333, 0.623529
			enabled True
			falloff_exponent 1.3
			far_range 400
			multiplier reddot
			name lo_omni
			near_range 80
			spot_angle_end -1
			spot_angle_start -1
	100055 core/units/light_omni/030 (348.0, -1792.0, 461.0)
		1
			clipping_values 10000.0, -10000.0, 0.0
			color 0.933333, 0.733333, 0.623529
			enabled True
			falloff_exponent 1.3
			far_range 400
			multiplier reddot
			name lo_omni
			near_range 80
			spot_angle_end -1
			spot_angle_start -1
	100057 core/units/light_omni/031 (32.0, -1676.0, 461.0)
		1
			clipping_values 10000.0, -10000.0, 0.0
			color 0.933333, 0.733333, 0.623529
			enabled True
			falloff_exponent 1.3
			far_range 400
			multiplier reddot
			name lo_omni
			near_range 80
			spot_angle_end -1
			spot_angle_start -1
	100011 core/units/light_omni/032 (230.0, -1091.0, 461.0)
		1
			clipping_values 10000.0, -10000.0, 0.0
			color 0.933333, 0.733333, 0.623529
			enabled True
			falloff_exponent 1.3
			far_range 400
			multiplier reddot
			name lo_omni
			near_range 80
			spot_angle_end -1
			spot_angle_start -1
	100012 core/units/light_omni/033 (230.0, -185.0, 461.0)
		1
			clipping_values 10000.0, -10000.0, 0.0
			color 0.933333, 0.733333, 0.623529
			enabled True
			falloff_exponent 1.3
			far_range 400
			multiplier reddot
			name lo_omni
			near_range 80
			spot_angle_end -1
			spot_angle_start -1
	100059 core/units/light_omni/034 (-440.0, -1576.0, 42.9999)
		1
			clipping_values 10000.0, -10000.0, 0.0
			color 0.933333, 0.733333, 0.623529
			enabled True
			falloff_exponent 1.3
			far_range 400
			multiplier reddot
			name lo_omni
			near_range 80
			spot_angle_end -1
			spot_angle_start -1
	100060 core/units/light_omni/035 (212.0, -1576.0, 70.9999)
		1
			clipping_values 10000.0, -10000.0, 0.0
			color 0.933333, 0.733333, 0.623529
			enabled True
			falloff_exponent 1.3
			far_range 400
			multiplier reddot
			name lo_omni
			near_range 80
			spot_angle_end -1
			spot_angle_start -1
	100061 core/units/light_omni/036 (210.0, -1007.0, 70.9999)
		1
			clipping_values 10000.0, -10000.0, 0.0
			color 0.933333, 0.733333, 0.623529
			enabled True
			falloff_exponent 1.3
			far_range 400
			multiplier reddot
			name lo_omni
			near_range 80
			spot_angle_end -1
			spot_angle_start -1
	100063 core/units/light_omni/038 (213.0, -479.0, 70.9999)
		1
			clipping_values 10000.0, -10000.0, 0.0
			color 0.933333, 0.733333, 0.623529
			enabled True
			falloff_exponent 1.3
			far_range 400
			multiplier reddot
			name lo_omni
			near_range 80
			spot_angle_end -1
			spot_angle_start -1
	100064 core/units/light_omni/039 (604.0, -478.0, 97.9999)
		1
			clipping_values 10000.0, -10000.0, 0.0
			color 0.0, 0.917647, 0.917647
			enabled True
			falloff_exponent 1.3
			far_range 400
			multiplier searchlight
			name lo_omni
			near_range 80
			spot_angle_end -1
			spot_angle_start -1
	100066 core/units/light_omni/041 (605.0, -1024.0, 97.9999)
		1
			clipping_values 10000.0, -10000.0, 0.0
			color 0.384314, 1.0, 1.0
			enabled True
			falloff_exponent 1.3
			far_range 400
			multiplier streetlight
			name lo_omni
			near_range 80
			spot_angle_end -1
			spot_angle_start -1
	100067 core/units/light_omni/042 (607.0, -1576.0, 56.9999)
		1
			clipping_values 10000.0, -10000.0, 0.0
			color 0.0, 1.0, 1.0
			enabled True
			falloff_exponent 1.3
			far_range 400
			multiplier streetlight
			name lo_omni
			near_range 80
			spot_angle_end -1
			spot_angle_start -1
	100077 core/units/light_omni/043 (-419.0, -379.0, 97.9999)
		1
			clipping_values 10000.0, -10000.0, 0.0
			color 0.933333, 0.733333, 0.623529
			enabled True
			falloff_exponent 1.3
			far_range 400
			multiplier reddot
			name lo_omni
			near_range 80
			spot_angle_end -1
			spot_angle_start -1
	100080 core/units/light_omni/044 (-390.0, -1159.0, 97.9999)
		1
			clipping_values 10000.0, -10000.0, 0.0
			color 0.933333, 0.733333, 0.623529
			enabled True
			falloff_exponent 1.3
			far_range 450
			multiplier reddot
			name lo_omni
			near_range 80
			spot_angle_end -1
			spot_angle_start -1
	100073 core/units/light_omni/045 (-390.0, -785.0, 97.9999)
		1
			clipping_values 10000.0, -10000.0, 0.0
			color 0.933333, 0.733333, 0.623529
			enabled True
			falloff_exponent 1.3
			far_range 450
			multiplier streetlight
			name lo_omni
			near_range 80
			spot_angle_end -1
			spot_angle_start -1
	100019 units/dev_tools/level_tools/dev_bag_collision_4x3m/001 (-649.0, -1336.0, -100.0)
	100037 units/payday2/architecture/bnk_int_trolley/003 (-506.0, -207.0, -100.0)
	100168 units/payday2/architecture/bnk_int_trolley/005 (411.0, -588.0, 300.0)
	100234 units/payday2/architecture/bnk_int_trolley/006 (-126.0, -1509.0, 300.0)
	100309 units/payday2/architecture/bnk_int_trolley/007 (-673.0, -2091.0, 300.0)
	100000 units/payday2/pickups/gen_pku_money/001 (-54.1259, -1290.32, 385.0)
	100027 units/payday2/pickups/gen_pku_money/002 (-53.0, -1218.0, 385.0)
	100029 units/payday2/pickups/gen_pku_money/003 (-51.0, -1084.0, 385.0)
	100030 units/payday2/pickups/gen_pku_money/004 (-54.5075, -1027.26, 385.0)
	100031 units/payday2/pickups/gen_pku_money/005 (-53.0, -965.0, 385.0)
	100032 units/payday2/pickups/gen_pku_money/006 (-50.7142, -870.292, 385.0)
	100034 units/payday2/pickups/gen_pku_money/007 (-51.7973, -806.868, 385.0)
	100035 units/payday2/pickups/gen_pku_money/008 (-53.5123, -741.398, 385.0)
	100036 units/payday2/pickups/gen_pku_money/009 (184.0, -7.15256e-06, 385.0)
	100038 units/payday2/pickups/gen_pku_money/010 (241.0, -3.57628e-07, 385.0)
	100039 units/payday2/pickups/gen_pku_money/011 (294.0, 5.96047e-06, 385.0)
	100040 units/payday2/pickups/gen_pku_money/012 (374.0, -546.0, 314.0)
	100119 units/payday2/pickups/gen_pku_money/013 (467.848, -651.514, 385.0)
	100284 units/payday2/pickups/gen_pku_money/014 (471.047, -721.982, 385.0)
	100286 units/payday2/pickups/gen_pku_money/015 (412.886, -1031.09, 385.0)
	100287 units/payday2/pickups/gen_pku_money/016 (465.385, -1043.59, 385.0)
	100288 units/payday2/pickups/gen_pku_money/017 (462.62, -1104.43, 385.0)
	100311 units/payday2/pickups/gen_pku_money/018 (455.788, -1442.58, 385.0)
	100312 units/payday2/pickups/gen_pku_money/019 (454.0, -1509.0, 385.0)
	100314 units/payday2/pickups/gen_pku_money/020 (453.732, -1568.61, 385.0)
	100331 units/payday2/pickups/gen_pku_money/021 (-80.0, -1477.0, 313.0)
	100338 units/payday2/pickups/gen_pku_money/022 (680.001, -1452.0, -15.0)
	100339 units/payday2/pickups/gen_pku_money/023 (700.682, -1508.35, -15.0)
	100340 units/payday2/pickups/gen_pku_money/024 (682.948, -1563.27, -16.0)
	100341 units/payday2/pickups/gen_pku_money/025 (731.206, -1589.04, -16.0)
	100342 units/payday2/pickups/gen_pku_money/026 (685.024, -1079.27, -15.0)
	100343 units/payday2/pickups/gen_pku_money/027 (731.001, -1452.0, -15.0)
	100344 units/payday2/pickups/gen_pku_money/028 (684.88, -1029.05, -15.0)
	100345 units/payday2/pickups/gen_pku_money/029 (684.88, -981.049, -15.0)
	100346 units/payday2/pickups/gen_pku_money/030 (730.88, -945.049, -15.0)
	100347 units/payday2/pickups/gen_pku_money/031 (736.88, -1029.05, -15.0)
	100348 units/payday2/pickups/gen_pku_money/032 (684.88, -549.049, -15.0)
	100349 units/payday2/pickups/gen_pku_money/033 (679.376, -497.143, -15.0)
	100350 units/payday2/pickups/gen_pku_money/034 (723.759, -426.361, -15.0)
	100351 units/payday2/pickups/gen_pku_money/035 (676.488, -434.696, -15.0)
	100352 units/payday2/pickups/gen_pku_money/036 (732.488, -486.696, -15.0)
	100353 units/payday2/pickups/gen_pku_money/037 (6.76646, -860.172, -16.0)
	100354 units/payday2/pickups/gen_pku_money/038 (11.5072, -803.974, -16.0)
	100355 units/payday2/pickups/gen_pku_money/039 (-10.563, -747.742, -16.0)
	100356 units/payday2/pickups/gen_pku_money/040 (-560.0, -1625.0, -15.0)
	100357 units/payday2/pickups/gen_pku_money/041 (-565.0, -1571.0, -15.0)
	100364 units/payday2/pickups/gen_pku_money/042 (-559.858, -1507.87, -15.0)
	100365 units/payday2/pickups/gen_pku_money/043 (-552.0, -1352.0, 385.0)
	100378 units/payday2/pickups/gen_pku_money/044 (-480.0, -1352.0, 385.0)
	100208 units/payday2/props/bnk_prop_vault_table/011 (-64.0, -1164.0, -97.5)
	100164 units/payday2/props/bnk_prop_vault_table/015 (-505.0, -1342.0, 300.0)
	100211 units/payday2/props/bnk_prop_vault_table/016 (-25.0, -1025.0, 300.0)
	100085 units/payday2/props/bnk_prop_vault_table/017 (439.0, -702.0, 300.0)
	100024 units/payday2/props/bnk_prop_vault_table/027 (244.0, 21.0, 300.0)
	100078 units/payday2/props/bnk_prop_vault_table/028 (-25.0, -1250.0, 300.0)
	100084 units/payday2/props/bnk_prop_vault_table/029 (428.0, -1501.0, 300.0)
	100135 units/payday2/props/bnk_prop_vault_table/030 (-25.0, -800.0, 300.0)
	100153 units/payday2/props/bnk_prop_vault_table/031 (-10.0, -808.0, -100.0)
	100203 units/payday2/props/bnk_prop_vault_table/032 (707.001, -487.0, -100.0)
	100238 units/payday2/props/bnk_prop_vault_table/033 (-573.0, -1570.0, -100.0)
	100275 units/payday2/props/bnk_prop_vault_table/034 (707.001, -1008.0, -100.0)
	100334 units/payday2/props/bnk_prop_vault_table/035 (707.001, -1520.0, -100.0)
	100047 units/payday2/props/bnk_prop_vault_table/036 (434.0, -1102.0, 300.0)
	100062 units/payday2/props/com_prop_election_lamp_ceiling_small/001 (353.0, -701.0, 599.502)
		1
			clipping_values 10000.0, -10000.0, 0.0
			color 1.0, 1.0, 1.0
			enabled False
			falloff_exponent 7
			far_range 250
			multiplier match
			name lo_omni
			near_range 0
			spot_angle_end 0
			spot_angle_start 0
	100013 units/payday2/props/com_prop_election_lamp_ceiling_small/002 (327.0, -1695.0, 599.502)
		1
			clipping_values 10000.0, -10000.0, 0.0
			color 1.0, 1.0, 1.0
			enabled False
			falloff_exponent 7
			far_range 250
			multiplier match
			name lo_omni
			near_range 0
			spot_angle_end 0
			spot_angle_start 0
	100028 units/payday2/props/com_prop_election_lamp_ceiling_small/007 (-448.0, -1910.0, 600.0)
		1
			clipping_values 10000.0, -10000.0, 0.0
			color 1.0, 1.0, 1.0
			enabled True
			falloff_exponent 7
			far_range 250
			multiplier match
			name lo_omni
			near_range 0
			spot_angle_end 0
			spot_angle_start 0
		mesh_variation light_on
	100046 units/payday2/props/com_prop_election_lamp_ceiling_small/008 (-194.0, -2464.0, 600.0)
		1
			clipping_values 10000.0, -10000.0, 0.0
			color 1.0, 1.0, 1.0
			enabled True
			falloff_exponent 7
			far_range 250
			multiplier match
			name lo_omni
			near_range 0
			spot_angle_end 0
			spot_angle_start 0
		mesh_variation light_on
	100049 units/payday2/props/com_prop_election_lamp_ceiling_small/009 (-440.0, -1577.0, 200.0)
		1
			clipping_values 10000.0, -10000.0, 0.0
			color 1.0, 1.0, 1.0
			enabled True
			falloff_exponent 7
			far_range 250
			multiplier match
			name lo_omni
			near_range 0
			spot_angle_end 0
			spot_angle_start 0
		mesh_variation light_on
	100050 units/payday2/props/com_prop_election_lamp_ceiling_small/010 (213.0, -1577.0, 199.0)
		1
			clipping_values 10000.0, -10000.0, 0.0
			color 1.0, 1.0, 1.0
			enabled True
			falloff_exponent 7
			far_range 250
			multiplier match
			name lo_omni
			near_range 0
			spot_angle_end 0
			spot_angle_start 0
		mesh_variation light_on
	100051 units/payday2/props/com_prop_election_lamp_ceiling_small/011 (213.0, -1010.0, 199.0)
		1
			clipping_values 10000.0, -10000.0, 0.0
			color 1.0, 1.0, 1.0
			enabled True
			falloff_exponent 7
			far_range 250
			multiplier match
			name lo_omni
			near_range 0
			spot_angle_end 0
			spot_angle_start 0
		mesh_variation light_on
	100056 units/payday2/props/com_prop_election_lamp_ceiling_small/012 (213.0, -483.0, 199.0)
		1
			clipping_values 10000.0, -10000.0, 0.0
			color 1.0, 1.0, 1.0
			enabled True
			falloff_exponent 7
			far_range 250
			multiplier match
			name lo_omni
			near_range 0
			spot_angle_end 0
			spot_angle_start 0
		mesh_variation light_on
	100065 units/payday2/props/com_prop_election_lamp_ceiling_small/013 (609.0, -483.0, 199.0)
		1
			clipping_values 10000.0, -10000.0, 0.0
			color 1.0, 1.0, 1.0
			enabled True
			falloff_exponent 7
			far_range 250
			multiplier match
			name lo_omni
			near_range 0
			spot_angle_end 0
			spot_angle_start 0
		mesh_variation light_on
	100068 units/payday2/props/com_prop_election_lamp_ceiling_small/014 (610.0, -1010.0, 199.0)
		1
			clipping_values 10000.0, -10000.0, 0.0
			color 1.0, 1.0, 1.0
			enabled True
			falloff_exponent 7
			far_range 250
			multiplier match
			name lo_omni
			near_range 0
			spot_angle_end 0
			spot_angle_start 0
		mesh_variation light_on
	100069 units/payday2/props/com_prop_election_lamp_ceiling_small/015 (610.0, -1577.0, 199.0)
		1
			clipping_values 10000.0, -10000.0, 0.0
			color 1.0, 1.0, 1.0
			enabled True
			falloff_exponent 7
			far_range 250
			multiplier match
			name lo_omni
			near_range 0
			spot_angle_end 0
			spot_angle_start 0
		mesh_variation light_on
	100070 units/payday2/props/com_prop_election_lamp_ceiling_small/016 (-416.0, -377.0, 199.0)
		1
			clipping_values 10000.0, -10000.0, 0.0
			color 1.0, 1.0, 1.0
			enabled True
			falloff_exponent 7
			far_range 250
			multiplier match
			name lo_omni
			near_range 0
			spot_angle_end 0
			spot_angle_start 0
		mesh_variation light_on
	100071 units/payday2/props/com_prop_election_lamp_ceiling_small/017 (-388.0, -1163.0, 199.0)
		1
			clipping_values 10000.0, -10000.0, 0.0
			color 1.0, 1.0, 1.0
			enabled True
			falloff_exponent 7
			far_range 250
			multiplier match
			name lo_omni
			near_range 0
			spot_angle_end 0
			spot_angle_start 0
		mesh_variation light_on
	100072 units/payday2/props/com_prop_election_lamp_ceiling_small/018 (-388.0, -787.0, 199.0)
		1
			clipping_values 10000.0, -10000.0, 0.0
			color 1.0, 1.0, 1.0
			enabled True
			falloff_exponent 7
			far_range 250
			multiplier match
			name lo_omni
			near_range 0
			spot_angle_end 0
			spot_angle_start 0
		mesh_variation light_on
	100074 units/payday2/props/com_prop_election_lamp_ceiling_small/019 (88.0, -701.0, 599.502)
		1
			clipping_values 10000.0, -10000.0, 0.0
			color 1.0, 1.0, 1.0
			enabled False
			falloff_exponent 7
			far_range 250
			multiplier match
			name lo_omni
			near_range 0
			spot_angle_end 0
			spot_angle_start 0
	100075 units/payday2/props/com_prop_election_lamp_ceiling_small/020 (96.0, -1695.0, 599.502)
		1
			clipping_values 10000.0, -10000.0, 0.0
			color 1.0, 1.0, 1.0
			enabled False
			falloff_exponent 7
			far_range 250
			multiplier match
			name lo_omni
			near_range 0
			spot_angle_end 0
			spot_angle_start 0
	100111 units/payday2/props/com_prop_election_lamp_ceiling_small/021 (-448.0, -1535.0, 600.0)
		1
			clipping_values 10000.0, -10000.0, 0.0
			color 1.0, 1.0, 1.0
			enabled True
			falloff_exponent 7
			far_range 250
			multiplier match
			name lo_omni
			near_range 0
			spot_angle_end 0
			spot_angle_start 0
		mesh_variation light_on
	100183 units/payday2/props/gen_prop_long_lamp/017 (-9.0, -1159.0, 199.499)
	100007 units/payday2/props/gen_prop_long_lamp/019 (384.0, -500.0, 194.499)
	100005 units/payday2/props/gen_prop_long_lamp/020 (384.0, -1001.0, 194.499)
	100008 units/payday2/props/gen_prop_long_lamp/021 (384.0, -1501.0, 194.499)
	100087 units/payday2/props/gen_prop_long_lamp/022 (-404.0, -538.0, 199.499)
	100044 units/pd2_dlc_arena/props/editable_text_caslon/002 (388.0, -474.0, 151.0)
		align left
		alpha 1
		blend_mode normal
		font fonts/font_caslon
		font_color 0.109804, 0.466667, 0.901961
		font_size 0.93
		render_template diffuse_vc_decal
		shape
			1 0
			2 0
			3 1
			4 1
		text B1128
		vertical center
		word_wrap False
		wrap False
	100033 units/pd2_dlc_arena/props/editable_text_caslon/003 (388.0, -970.0, 151.0)
		align left
		alpha 1
		blend_mode normal
		font fonts/font_caslon
		font_color 0.109804, 0.466667, 0.901961
		font_size 0.93
		render_template diffuse_vc_decal
		shape
			1 0
			2 0
			3 1
			4 1
		text C3334
		vertical center
		word_wrap False
		wrap False
	100045 units/pd2_dlc_arena/props/editable_text_caslon/004 (388.0, -1473.0, 151.0)
		align left
		alpha 1
		blend_mode normal
		font fonts/font_caslon
		font_color 0.109804, 0.466667, 0.901961
		font_size 0.93
		render_template diffuse_vc_decal
		shape
			1 0
			2 0
			3 1
			4 1
		text D5578
		vertical center
		word_wrap False
		wrap False
	100096 units/pd2_dlc_arena/props/editable_text_caslon/005 (-357.0, -542.0, 159.0)
		align left
		alpha 1
		blend_mode normal
		font fonts/font_caslon
		font_color 1.0, 0.0156863, 0.0156863
		font_size 0.93
		render_template diffuse_vc_decal
		shape
			1 0
			2 0
			3 1
			4 1
		text PRIVATE
		vertical center
		word_wrap False
		wrap False
	100026 units/pd2_dlc_casino/architecture/cas_vault_01/002 (-300.0, -2400.0, -100.0)
	100043 units/pd2_dlc_casino/environment/cas_int/cas_vault_stairs/001 (-300.0, -2400.0, -100.0)
	100103 units/pd2_dlc_casino/environment/cas_int/corridors_employee/cas_prop_light_cones_whiteish_square_floor/003 (101.0, -659.0, 322.0)
	100106 units/pd2_dlc_casino/environment/cas_int/corridors_employee/cas_prop_light_cones_whiteish_square_floor/005 (333.0, -659.0, 322.0)
	100113 units/pd2_dlc_casino/environment/cas_int/corridors_employee/cas_prop_light_cones_whiteish_square_floor/008 (101.0, -1648.0, 322.0)
	100114 units/pd2_dlc_casino/environment/cas_int/corridors_employee/cas_prop_light_cones_whiteish_square_floor/009 (333.0, -1648.0, 322.0)
	100115 units/pd2_dlc_casino/environment/cas_int/corridors_employee/cas_prop_light_cones_whiteish_square_floor/010 (-475.0, -1879.0, 322.0)
	100139 units/pd2_dlc_casino/environment/cas_int/corridors_employee/cas_prop_light_cones_whiteish_square_floor/011 (-382.0, -342.0, -79.0)
	100140 units/pd2_dlc_casino/environment/cas_int/corridors_employee/cas_prop_light_cones_whiteish_square_floor/012 (-382.0, -1130.0, -79.0)
	100141 units/pd2_dlc_casino/environment/cas_int/corridors_employee/cas_prop_light_cones_whiteish_square_floor/013 (-382.0, -811.0, -79.0)
	100142 units/pd2_dlc_casino/environment/cas_int/corridors_employee/cas_prop_light_cones_whiteish_square_floor/014 (191.0, -959.0, -79.0)
	100143 units/pd2_dlc_casino/environment/cas_int/corridors_employee/cas_prop_light_cones_whiteish_square_floor/015 (191.0, -486.0, -79.0)
	100144 units/pd2_dlc_casino/environment/cas_int/corridors_employee/cas_prop_light_cones_whiteish_square_floor/016 (191.0, -1557.0, -79.0)
	100145 units/pd2_dlc_casino/environment/cas_int/corridors_employee/cas_prop_light_cones_whiteish_square_floor/017 (-378.0, -1557.0, -79.0)
	100146 units/pd2_dlc_casino/environment/cas_int/corridors_employee/cas_prop_light_cones_whiteish_square_floor/018 (563.0, -1557.0, -79.0)
	100147 units/pd2_dlc_casino/environment/cas_int/corridors_employee/cas_prop_light_cones_whiteish_square_floor/019 (567.0, -1014.0, -79.0)
	100148 units/pd2_dlc_casino/environment/cas_int/corridors_employee/cas_prop_light_cones_whiteish_square_floor/020 (576.0, -458.0, -79.0)
	100149 units/pd2_dlc_casino/environment/cas_int/corridors_employee/cas_prop_light_cones_whiteish_square_floor/021 (-205.0, -2473.0, 322.0)
	100112 units/pd2_dlc_casino/environment/cas_int/corridors_employee/cas_prop_light_cones_whiteish_square_floor/022 (-475.0, -1504.0, 322.0)
	100118 units/pd2_dlc_casino/environment/cas_int/corridors_employee/cas_prop_light_cones_whiteish_square_small/001 (95.9999, -1695.0, 614.502)
	100126 units/pd2_dlc_casino/environment/cas_int/corridors_employee/cas_prop_light_cones_whiteish_square_small/002 (327.0, -1695.0, 614.502)
	100116 units/pd2_dlc_casino/environment/cas_int/corridors_employee/cas_prop_light_cones_whiteish_square_small/003 (-448.0, -1910.0, 612.0)
	100117 units/pd2_dlc_casino/environment/cas_int/corridors_employee/cas_prop_light_cones_whiteish_square_small/004 (-448.0, -1535.0, 612.0)
	100123 units/pd2_dlc_casino/environment/cas_int/corridors_employee/cas_prop_light_cones_whiteish_square_small/009 (88.0, -701.0, 612.502)
	100124 units/pd2_dlc_casino/environment/cas_int/corridors_employee/cas_prop_light_cones_whiteish_square_small/010 (353.0, -701.0, 612.502)
	100127 units/pd2_dlc_casino/environment/cas_int/corridors_employee/cas_prop_light_cones_whiteish_square_small/011 (-195.0, -2464.0, 611.0)
	100128 units/pd2_dlc_casino/environment/cas_int/corridors_employee/cas_prop_light_cones_whiteish_square_small/012 (-440.0, -1577.0, 210.0)
	100129 units/pd2_dlc_casino/environment/cas_int/corridors_employee/cas_prop_light_cones_whiteish_square_small/013 (213.0, -1577.0, 210.0)
	100130 units/pd2_dlc_casino/environment/cas_int/corridors_employee/cas_prop_light_cones_whiteish_square_small/014 (212.0, -1010.0, 210.0)
	100131 units/pd2_dlc_casino/environment/cas_int/corridors_employee/cas_prop_light_cones_whiteish_square_small/015 (213.0, -483.0, 207.0)
	100132 units/pd2_dlc_casino/environment/cas_int/corridors_employee/cas_prop_light_cones_whiteish_square_small/016 (607.0, -1577.0, 213.0)
	100133 units/pd2_dlc_casino/environment/cas_int/corridors_employee/cas_prop_light_cones_whiteish_square_small/017 (605.0, -1012.0, 206.0)
	100134 units/pd2_dlc_casino/environment/cas_int/corridors_employee/cas_prop_light_cones_whiteish_square_small/018 (604.0, -483.0, 202.0)
	100136 units/pd2_dlc_casino/environment/cas_int/corridors_employee/cas_prop_light_cones_whiteish_square_small/019 (-416.0, -376.0, 213.0)
	100137 units/pd2_dlc_casino/environment/cas_int/corridors_employee/cas_prop_light_cones_whiteish_square_small/020 (-388.0, -1163.0, 211.0)
	100138 units/pd2_dlc_casino/environment/cas_int/corridors_employee/cas_prop_light_cones_whiteish_square_small/021 (-392.0, -787.0, 211.0)
	100086 units/pd2_dlc_casino/props/cas_prop_cashier_cabinet/001 (-200.0, -1432.0, 300.0)
		mesh_variation state_interaction_enabled
	100076 units/pd2_dlc_casino/props/cas_prop_moneycounter_door/special_vault_door (-400.0, -561.0, -100.0)
		mesh_variation open_door
	100399 units/pd2_dlc_casino/props/cas_prop_unknown/mandatory_loot (-75.0, -1175.0, -11.5)
		mesh_variation enable_interaction
	100422 units/pd2_dlc_casino/props/cas_prop_vault_button/vault_button (50.0001, -200.0, 25.0)
		mesh_variation disable_interaction
	100009 units/pd2_dlc_casino/props/hanging_wall/cas_prop_lobby_sign_wall/001 (394.0, -498.0, 136.0)
	100010 units/pd2_dlc_casino/props/hanging_wall/cas_prop_lobby_sign_wall/002 (394.0, -998.0, 137.0)
	100025 units/pd2_dlc_casino/props/hanging_wall/cas_prop_lobby_sign_wall/003 (396.0, -1494.0, 136.0)
	100083 units/pd2_dlc_casino/props/hanging_wall/cas_prop_lobby_sign_wall/004 (-400.0, -548.0, 145.0)
	100090 units/pd2_dlc_casino/props/set/cas_prop_moneycounter_table_03/001 (-89.0, -556.0, 300.0)
	100095 units/pd2_dlc_casino/props/set/cas_prop_moneycounter_table_03/002 (-89.0, -355.0, 300.0)
	100091 units/pd2_dlc_casino/props/set/cas_prop_moneycounter_table_04/001 (478.0, -2017.0, 300.0)
	100369 units/world/props/bank/money_wrap_single_bundle/005 (-251.265, -1446.98, 438.0)
	100285 units/world/props/bank/money_wrap_single_bundle/006 (-235.864, -1435.56, 438.0)
	100371 units/world/props/bank/money_wrap_single_bundle/007 (-186.0, -1446.0, 438.0)
	100372 units/world/props/bank/money_wrap_single_bundle/008 (-175.0, -1446.0, 395.0)
	100373 units/world/props/bank/money_wrap_single_bundle/009 (-230.0, -1446.0, 395.0)
	100374 units/world/props/bank/money_wrap_single_bundle/010 (-247.464, -1449.81, 351.0)
	100375 units/world/props/bank/money_wrap_single_bundle/011 (-169.121, -1448.12, 351.0)
	100376 units/world/props/bank/money_wrap_single_bundle/012 (-186.0, -1446.0, 351.0)
	100377 units/world/props/bank/money_wrap_single_bundle/013 (-150.0, -1446.0, 351.0)
	100313 units/world/props/bank/money_wrap_single_bundle/014 (-232.06, -1446.59, 438.0)
	100366 units/world/props/bank/money_wrap_single_bundle/015 (-214.758, -1441.52, 438.0)
	100368 units/world/props/bank/money_wrap_single_bundle/016 (-174.0, -1440.0, 438.0)
	100370 units/world/props/bank/money_wrap_single_bundle/017 (-160.977, -1446.52, 438.0)
	100382 units/world/props/bank/money_wrap_single_bundle/018 (-148.027, -1445.39, 438.0)
	100383 units/world/props/bank/money_wrap_single_bundle/019 (-248.0, -1454.0, 395.0)
	100384 units/world/props/bank/money_wrap_single_bundle/020 (-248.0, -1443.0, 395.0)
	100385 units/world/props/bank/money_wrap_single_bundle/021 (-218.0, -1446.0, 395.0)
	100391 units/world/props/bank/money_wrap_single_bundle/022 (-162.985, -1445.83, 395.0)
	100392 units/world/props/bank/money_wrap_single_bundle/023 (-152.152, -1447.74, 395.0)
	100425 units/world/props/bank/money_wrap_single_bundle/024 (-186.0, -1446.0, 395.0)
	100426 units/world/props/bank/money_wrap_single_bundle/025 (-244.338, -1437.03, 351.0)
	100427 units/world/props/bank/money_wrap_single_bundle/026 (-228.1, -1446.48, 351.0)
	100428 units/world/props/bank/money_wrap_single_bundle/027 (-216.706, -1442.46, 351.0)
	100429 units/world/props/bank/money_wrap_single_bundle/028 (-162.757, -1434.69, 351.0)
	100104 units/world/props/bank/money_wrap_single_bundle_active/001 (11.0, -1306.0, 386.0)
		mesh_variation interact_enable
	100152 units/world/props/bank/money_wrap_single_bundle_active/002 (12.0, -1293.0, 386.0)
		mesh_variation interact_enable
	100154 units/world/props/bank/money_wrap_single_bundle_active/003 (11.0, -1280.0, 386.0)
		mesh_variation interact_enable
	100155 units/world/props/bank/money_wrap_single_bundle_active/004 (16.0, -1268.0, 386.0)
		mesh_variation interact_enable
	100156 units/world/props/bank/money_wrap_single_bundle_active/005 (11.0, -1255.0, 386.0)
		mesh_variation interact_enable
	100157 units/world/props/bank/money_wrap_single_bundle_active/006 (13.0, -1238.0, 386.0)
		mesh_variation interact_enable
	100158 units/world/props/bank/money_wrap_single_bundle_active/007 (11.0, -1226.0, 386.0)
		mesh_variation interact_enable
	100159 units/world/props/bank/money_wrap_single_bundle_active/008 (8.0, -1211.0, 386.0)
		mesh_variation interact_enable
	100160 units/world/props/bank/money_wrap_single_bundle_active/009 (16.0, -1195.0, 386.0)
		mesh_variation interact_enable
	100161 units/world/props/bank/money_wrap_single_bundle_active/010 (12.0, -1180.0, 386.0)
		mesh_variation interact_enable
	100163 units/world/props/bank/money_wrap_single_bundle_active/011 (11.0, -1165.0, 386.0)
		mesh_variation interact_enable
	100165 units/world/props/bank/money_wrap_single_bundle_active/012 (12.0, -1320.0, 386.0)
		mesh_variation interact_enable
	100166 units/world/props/bank/money_wrap_single_bundle_active/013 (14.0, -1334.0, 386.0)
		mesh_variation interact_enable
	100081 units/world/props/bank/money_wrap_single_bundle_active/014 (-11.0, -1333.0, 386.0)
		mesh_variation interact_enable
	100082 units/world/props/bank/money_wrap_single_bundle_active/015 (-16.0, -1320.0, 386.0)
		mesh_variation interact_enable
	100088 units/world/props/bank/money_wrap_single_bundle_active/016 (-15.0, -1306.0, 386.0)
		mesh_variation interact_enable
	100101 units/world/props/bank/money_wrap_single_bundle_active/017 (-14.0, -1294.0, 386.0)
		mesh_variation interact_enable
	100169 units/world/props/bank/money_wrap_single_bundle_active/018 (-15.0, -1282.0, 386.0)
		mesh_variation interact_enable
	100170 units/world/props/bank/money_wrap_single_bundle_active/019 (-9.0, -1268.0, 386.0)
		mesh_variation interact_enable
	100171 units/world/props/bank/money_wrap_single_bundle_active/020 (-15.0, -1254.0, 386.0)
		mesh_variation interact_enable
	100172 units/world/props/bank/money_wrap_single_bundle_active/021 (-11.0, -1242.0, 386.0)
		mesh_variation interact_enable
	100173 units/world/props/bank/money_wrap_single_bundle_active/022 (-15.9756, -1230.57, 386.0)
		mesh_variation interact_enable
	100174 units/world/props/bank/money_wrap_single_bundle_active/023 (-15.0, -1218.0, 386.0)
		mesh_variation interact_enable
	100175 units/world/props/bank/money_wrap_single_bundle_active/024 (-16.0739, -1205.94, 386.0)
		mesh_variation interact_enable
	100176 units/world/props/bank/money_wrap_single_bundle_active/025 (-11.9084, -1192.42, 386.0)
		mesh_variation interact_enable
	100177 units/world/props/bank/money_wrap_single_bundle_active/026 (-10.076, -1174.13, 386.0)
		mesh_variation interact_enable
	100178 units/world/props/bank/money_wrap_single_bundle_active/027 (-16.0, -1111.0, 386.0)
		mesh_variation interact_enable
	100179 units/world/props/bank/money_wrap_single_bundle_active/028 (-14.0, -1098.0, 386.0)
		mesh_variation interact_enable
	100180 units/world/props/bank/money_wrap_single_bundle_active/029 (-18.0, -1084.0, 386.0)
		mesh_variation interact_enable
	100181 units/world/props/bank/money_wrap_single_bundle_active/030 (-15.9951, -1071.86, 386.0)
		mesh_variation interact_enable
	100182 units/world/props/bank/money_wrap_single_bundle_active/031 (-12.0, -1060.0, 386.0)
		mesh_variation interact_enable
	100184 units/world/props/bank/money_wrap_single_bundle_active/032 (-17.8693, -1045.09, 386.0)
		mesh_variation interact_enable
	100185 units/world/props/bank/money_wrap_single_bundle_active/033 (-11.0, -1033.0, 386.0)
		mesh_variation interact_enable
	100186 units/world/props/bank/money_wrap_single_bundle_active/034 (-15.0, -1021.0, 386.0)
		mesh_variation interact_enable
	100187 units/world/props/bank/money_wrap_single_bundle_active/035 (-21.1641, -1009.63, 386.0)
		mesh_variation interact_enable
	100188 units/world/props/bank/money_wrap_single_bundle_active/036 (-9.0, -991.0, 386.0)
		mesh_variation interact_enable
	100189 units/world/props/bank/money_wrap_single_bundle_active/037 (-22.0, -990.0, 386.0)
		mesh_variation interact_enable
	100190 units/world/props/bank/money_wrap_single_bundle_active/038 (-22.0419, -958.091, 386.0)
		mesh_variation interact_enable
	100191 units/world/props/bank/money_wrap_single_bundle_active/039 (-8.31406, -966.84, 386.0)
		mesh_variation interact_enable
	100192 units/world/props/bank/money_wrap_single_bundle_active/040 (10.0, -1107.0, 386.0)
		mesh_variation interact_enable
	100193 units/world/props/bank/money_wrap_single_bundle_active/041 (11.0, -1094.0, 386.0)
		mesh_variation interact_enable
	100194 units/world/props/bank/money_wrap_single_bundle_active/042 (7.0, -1083.0, 386.0)
		mesh_variation interact_enable
	100195 units/world/props/bank/money_wrap_single_bundle_active/043 (8.94766, -1071.0, 386.0)
		mesh_variation interact_enable
	100196 units/world/props/bank/money_wrap_single_bundle_active/044 (11.1743, -1057.99, 386.0)
		mesh_variation interact_enable
	100197 units/world/props/bank/money_wrap_single_bundle_active/045 (7.0, -1044.0, 386.0)
		mesh_variation interact_enable
	100198 units/world/props/bank/money_wrap_single_bundle_active/046 (11.0, -1030.0, 386.0)
		mesh_variation interact_enable
	100199 units/world/props/bank/money_wrap_single_bundle_active/047 (8.02235, -1017.37, 386.0)
		mesh_variation interact_enable
	100200 units/world/props/bank/money_wrap_single_bundle_active/048 (4.08415, -1006.16, 386.0)
		mesh_variation interact_enable
	100201 units/world/props/bank/money_wrap_single_bundle_active/049 (9.0, -992.0, 386.0)
		mesh_variation interact_enable
	100202 units/world/props/bank/money_wrap_single_bundle_active/050 (10.0, -979.0, 386.0)
		mesh_variation interact_enable
	100204 units/world/props/bank/money_wrap_single_bundle_active/051 (12.0, -965.0, 386.0)
		mesh_variation interact_enable
	100205 units/world/props/bank/money_wrap_single_bundle_active/052 (8.0, -952.0, 386.0)
		mesh_variation interact_enable
	100206 units/world/props/bank/money_wrap_single_bundle_active/053 (-16.0, -880.0, 386.0)
		mesh_variation interact_enable
	100207 units/world/props/bank/money_wrap_single_bundle_active/054 (-12.7663, -868.303, 386.0)
		mesh_variation interact_enable
	100209 units/world/props/bank/money_wrap_single_bundle_active/055 (-15.0, -853.0, 386.0)
		mesh_variation interact_enable
	100210 units/world/props/bank/money_wrap_single_bundle_active/056 (-14.0, -841.0, 386.0)
		mesh_variation interact_enable
	100212 units/world/props/bank/money_wrap_single_bundle_active/057 (-12.2823, -828.858, 386.0)
		mesh_variation interact_enable
	100213 units/world/props/bank/money_wrap_single_bundle_active/058 (-16.0, -815.0, 386.0)
		mesh_variation interact_enable
	100214 units/world/props/bank/money_wrap_single_bundle_active/059 (-15.0, -803.0, 386.0)
		mesh_variation interact_enable
	100215 units/world/props/bank/money_wrap_single_bundle_active/060 (-11.1014, -790.464, 386.0)
		mesh_variation interact_enable
	100216 units/world/props/bank/money_wrap_single_bundle_active/061 (-17.0, -776.0, 386.0)
		mesh_variation interact_enable
	100217 units/world/props/bank/money_wrap_single_bundle_active/062 (-17.0, -764.0, 386.0)
		mesh_variation interact_enable
	100218 units/world/props/bank/money_wrap_single_bundle_active/063 (-15.0956, -751.101, 386.0)
		mesh_variation interact_enable
	100219 units/world/props/bank/money_wrap_single_bundle_active/064 (-17.9885, -737.895, 386.0)
		mesh_variation interact_enable
	100220 units/world/props/bank/money_wrap_single_bundle_active/065 (-15.0, -724.0, 386.0)
		mesh_variation interact_enable
	100221 units/world/props/bank/money_wrap_single_bundle_active/066 (9.20961, -877.387, 386.0)
		mesh_variation interact_enable
	100222 units/world/props/bank/money_wrap_single_bundle_active/067 (10.9825, -862.0, 386.0)
		mesh_variation interact_enable
	100223 units/world/props/bank/money_wrap_single_bundle_active/068 (11.0, -849.0, 386.0)
		mesh_variation interact_enable
	100224 units/world/props/bank/money_wrap_single_bundle_active/069 (12.0, -837.0, 386.0)
		mesh_variation interact_enable
	100225 units/world/props/bank/money_wrap_single_bundle_active/070 (11.0, -825.0, 386.0)
		mesh_variation interact_enable
	100226 units/world/props/bank/money_wrap_single_bundle_active/071 (10.0, -811.0, 386.0)
		mesh_variation interact_enable
	100227 units/world/props/bank/money_wrap_single_bundle_active/072 (11.0, -799.0, 386.0)
		mesh_variation interact_enable
	100228 units/world/props/bank/money_wrap_single_bundle_active/073 (11.0, -786.0, 386.0)
		mesh_variation interact_enable
	100229 units/world/props/bank/money_wrap_single_bundle_active/074 (9.0, -772.0, 386.0)
		mesh_variation interact_enable
	100230 units/world/props/bank/money_wrap_single_bundle_active/075 (9.0, -761.0, 386.0)
		mesh_variation interact_enable
	100231 units/world/props/bank/money_wrap_single_bundle_active/076 (10.2588, -747.034, 386.0)
		mesh_variation interact_enable
	100232 units/world/props/bank/money_wrap_single_bundle_active/077 (12.0, -734.0, 386.0)
		mesh_variation interact_enable
	100233 units/world/props/bank/money_wrap_single_bundle_active/078 (11.0, -721.0, 386.0)
		mesh_variation interact_enable
	100089 units/world/props/bank/money_wrap_single_bundle_active/079 (419.0, -1418.0, 386.0)
		mesh_variation interact_enable
	100092 units/world/props/bank/money_wrap_single_bundle_active/080 (393.0, -1422.0, 386.0)
		mesh_variation interact_enable
	100093 units/world/props/bank/money_wrap_single_bundle_active/081 (392.0, -1435.0, 386.0)
		mesh_variation interact_enable
	100094 units/world/props/bank/money_wrap_single_bundle_active/082 (418.0, -1431.0, 386.0)
		mesh_variation interact_enable
	100098 units/world/props/bank/money_wrap_single_bundle_active/083 (396.981, -1449.44, 386.0)
		mesh_variation interact_enable
	100100 units/world/props/bank/money_wrap_single_bundle_active/084 (421.835, -1444.36, 386.0)
		mesh_variation interact_enable
	100107 units/world/props/bank/money_wrap_single_bundle_active/085 (394.889, -1473.34, 386.0)
		mesh_variation interact_enable
	100108 units/world/props/bank/money_wrap_single_bundle_active/086 (421.464, -1456.4, 386.0)
		mesh_variation interact_enable
	100109 units/world/props/bank/money_wrap_single_bundle_active/087 (394.939, -1461.3, 386.0)
		mesh_variation interact_enable
	100110 units/world/props/bank/money_wrap_single_bundle_active/088 (424.008, -1469.92, 386.0)
		mesh_variation interact_enable
	100150 units/world/props/bank/money_wrap_single_bundle_active/089 (393.0, -1487.0, 386.0)
		mesh_variation interact_enable
	100151 units/world/props/bank/money_wrap_single_bundle_active/090 (419.0, -1483.0, 386.0)
		mesh_variation interact_enable
	100235 units/world/props/bank/money_wrap_single_bundle_active/091 (388.0, -1499.0, 386.0)
		mesh_variation interact_enable
	100236 units/world/props/bank/money_wrap_single_bundle_active/092 (418.0, -1495.0, 386.0)
		mesh_variation interact_enable
	100237 units/world/props/bank/money_wrap_single_bundle_active/093 (392.0, -1512.0, 386.0)
		mesh_variation interact_enable
	100239 units/world/props/bank/money_wrap_single_bundle_active/094 (418.0, -1508.0, 386.0)
		mesh_variation interact_enable
	100240 units/world/props/bank/money_wrap_single_bundle_active/095 (392.469, -1526.11, 386.0)
		mesh_variation interact_enable
	100241 units/world/props/bank/money_wrap_single_bundle_active/096 (394.0, -1537.0, 386.0)
		mesh_variation interact_enable
	100242 units/world/props/bank/money_wrap_single_bundle_active/097 (417.0, -1546.0, 386.0)
		mesh_variation interact_enable
	100243 units/world/props/bank/money_wrap_single_bundle_active/098 (393.0, -1550.0, 386.0)
		mesh_variation interact_enable
	100244 units/world/props/bank/money_wrap_single_bundle_active/099 (420.0, -1521.0, 386.0)
		mesh_variation interact_enable
	100246 units/world/props/bank/money_wrap_single_bundle_active/100 (418.003, -1533.1, 386.0)
		mesh_variation interact_enable
	100247 units/world/props/bank/money_wrap_single_bundle_active/101 (417.0, -1560.0, 386.0)
		mesh_variation interact_enable
	100248 units/world/props/bank/money_wrap_single_bundle_active/102 (391.0, -1564.0, 386.0)
		mesh_variation interact_enable
	100249 units/world/props/bank/money_wrap_single_bundle_active/103 (388.825, -1576.86, 386.0)
		mesh_variation interact_enable
	100250 units/world/props/bank/money_wrap_single_bundle_active/104 (418.0, -1573.0, 386.0)
		mesh_variation interact_enable
	100251 units/world/props/bank/money_wrap_single_bundle_active/105 (430.0, -616.0, 386.0)
		mesh_variation interact_enable
	100252 units/world/props/bank/money_wrap_single_bundle_active/106 (403.0, -633.0, 386.0)
		mesh_variation interact_enable
	100253 units/world/props/bank/money_wrap_single_bundle_active/107 (403.091, -619.962, 386.0)
		mesh_variation interact_enable
	100254 units/world/props/bank/money_wrap_single_bundle_active/108 (429.0, -629.0, 386.0)
		mesh_variation interact_enable
	100255 units/world/props/bank/money_wrap_single_bundle_active/109 (400.075, -647.179, 386.0)
		mesh_variation interact_enable
	100256 units/world/props/bank/money_wrap_single_bundle_active/110 (429.0, -643.0, 386.0)
		mesh_variation interact_enable
	100257 units/world/props/bank/money_wrap_single_bundle_active/111 (428.0, -655.0, 386.0)
		mesh_variation interact_enable
	100258 units/world/props/bank/money_wrap_single_bundle_active/112 (400.545, -659.211, 386.0)
		mesh_variation interact_enable
	100259 units/world/props/bank/money_wrap_single_bundle_active/113 (403.0, -671.0, 386.0)
		mesh_variation interact_enable
	100260 units/world/props/bank/money_wrap_single_bundle_active/114 (429.0, -667.0, 386.0)
		mesh_variation interact_enable
	100261 units/world/props/bank/money_wrap_single_bundle_active/115 (402.32, -684.978, 386.0)
		mesh_variation interact_enable
	100262 units/world/props/bank/money_wrap_single_bundle_active/116 (403.0, -697.0, 386.0)
		mesh_variation interact_enable
	100263 units/world/props/bank/money_wrap_single_bundle_active/117 (429.21, -693.016, 386.0)
		mesh_variation interact_enable
	100264 units/world/props/bank/money_wrap_single_bundle_active/118 (430.0, -681.0, 386.0)
		mesh_variation interact_enable
	100265 units/world/props/bank/money_wrap_single_bundle_active/119 (429.0, -706.0, 386.0)
		mesh_variation interact_enable
	100266 units/world/props/bank/money_wrap_single_bundle_active/120 (404.042, -715.909, 386.0)
		mesh_variation interact_enable
	100267 units/world/props/bank/money_wrap_single_bundle_active/121 (429.772, -720.121, 386.0)
		mesh_variation interact_enable
	100268 units/world/props/bank/money_wrap_single_bundle_active/122 (405.0, -730.0, 386.0)
		mesh_variation interact_enable
	100269 units/world/props/bank/money_wrap_single_bundle_active/123 (431.174, -735.992, 386.0)
		mesh_variation interact_enable
	100270 units/world/props/bank/money_wrap_single_bundle_active/124 (405.0, -745.0, 386.0)
		mesh_variation interact_enable
	100271 units/world/props/bank/money_wrap_single_bundle_active/125 (432.711, -750.651, 386.0)
		mesh_variation interact_enable
	100272 units/world/props/bank/money_wrap_single_bundle_active/126 (408.451, -760.822, 386.0)
		mesh_variation interact_enable
	100273 units/world/props/bank/money_wrap_single_bundle_active/127 (434.158, -764.719, 386.0)
		mesh_variation interact_enable
	100274 units/world/props/bank/money_wrap_single_bundle_active/128 (409.898, -774.89, 386.0)
		mesh_variation interact_enable
	100276 units/world/props/bank/money_wrap_single_bundle_active/129 (438.273, -777.09, 386.0)
		mesh_variation interact_enable
	100277 units/world/props/bank/money_wrap_single_bundle_active/130 (414.013, -787.262, 386.0)
		mesh_variation interact_enable
	100289 units/world/props/bank/money_wrap_single_bundle_active/137 (429.0, -1061.0, 386.0)
		mesh_variation interact_enable
	100290 units/world/props/bank/money_wrap_single_bundle_active/138 (403.0, -1065.0, 386.0)
		mesh_variation interact_enable
	100292 units/world/props/bank/money_wrap_single_bundle_active/140 (404.0, -1077.0, 386.0)
		mesh_variation interact_enable
	100293 units/world/props/bank/money_wrap_single_bundle_active/141 (425.0, -1086.0, 386.0)
		mesh_variation interact_enable
	100294 units/world/props/bank/money_wrap_single_bundle_active/142 (399.0, -1091.0, 386.0)
		mesh_variation interact_enable
	100295 units/world/props/bank/money_wrap_single_bundle_active/143 (424.0, -1099.0, 386.0)
		mesh_variation interact_enable
	100296 units/world/props/bank/money_wrap_single_bundle_active/144 (398.0, -1103.0, 386.0)
		mesh_variation interact_enable
	100297 units/world/props/bank/money_wrap_single_bundle_active/145 (424.0, -1112.0, 386.0)
		mesh_variation interact_enable
	100298 units/world/props/bank/money_wrap_single_bundle_active/146 (398.0, -1116.0, 386.0)
		mesh_variation interact_enable
	100299 units/world/props/bank/money_wrap_single_bundle_active/147 (427.721, -1136.86, 386.0)
		mesh_variation interact_enable
	100300 units/world/props/bank/money_wrap_single_bundle_active/148 (426.0, -1126.0, 386.0)
		mesh_variation interact_enable
	100301 units/world/props/bank/money_wrap_single_bundle_active/149 (396.0, -1130.0, 386.0)
		mesh_variation interact_enable
	100302 units/world/props/bank/money_wrap_single_bundle_active/150 (396.0, -1141.0, 386.0)
		mesh_variation interact_enable
	100303 units/world/props/bank/money_wrap_single_bundle_active/151 (425.0, -1150.0, 386.0)
		mesh_variation interact_enable
	100304 units/world/props/bank/money_wrap_single_bundle_active/152 (399.0, -1154.0, 386.0)
		mesh_variation interact_enable
	100305 units/world/props/bank/money_wrap_single_bundle_active/153 (423.0, -1164.0, 386.0)
		mesh_variation interact_enable
	100306 units/world/props/bank/money_wrap_single_bundle_active/154 (397.0, -1168.0, 386.0)
		mesh_variation interact_enable
	100307 units/world/props/bank/money_wrap_single_bundle_active/155 (421.501, -1176.95, 386.0)
		mesh_variation interact_enable
	100308 units/world/props/bank/money_wrap_single_bundle_active/156 (398.0, -1181.0, 386.0)
		mesh_variation interact_enable
	100278 units/world/props/bank/money_wrap_single_bundle_active/157 (433.0, -1073.0, 386.0)
		mesh_variation interact_enable
	100577 units/world/props/bank/money_wrap_single_bundle_active/268 (474.0, -2022.0, 375.0)
		mesh_variation interact_enable
	100579 units/world/props/bank/money_wrap_single_bundle_active/270 (-26.0, -518.0, 375.0)
		mesh_variation interact_enable
	100581 units/world/props/bank/money_wrap_single_bundle_active/272 (-26.0, -508.0, 375.0)
		mesh_variation interact_enable
	100583 units/world/props/bank/money_wrap_single_bundle_active/274 (-26.0, -497.0, 375.0)
		mesh_variation interact_enable
	100585 units/world/props/bank/money_wrap_single_bundle_active/276 (464.0, -2022.0, 375.0)
		mesh_variation interact_enable
	100587 units/world/props/bank/money_wrap_single_bundle_active/278 (-13.0, -536.0, 375.0)
		mesh_variation interact_enable
	100603 units/world/props/bank/money_wrap_single_bundle_active/294 (-30.0, -297.0, 375.0)
		mesh_variation interact_enable
	100604 units/world/props/bank/money_wrap_single_bundle_active/295 (-43.0, -279.0, 375.0)
		mesh_variation interact_enable
	100605 units/world/props/bank/money_wrap_single_bundle_active/296 (-30.0, -307.0, 375.0)
		mesh_variation interact_enable
	100612 units/world/props/bank/money_wrap_single_bundle_active/303 (-30.0, -318.0, 375.0)
		mesh_variation interact_enable
	100615 units/world/props/bank/money_wrap_single_bundle_active/306 (-23.0, -279.0, 375.0)
		mesh_variation interact_enable
	100616 units/world/props/bank/money_wrap_single_bundle_active/307 (-33.0, -279.0, 375.0)
		mesh_variation interact_enable
	100623 units/world/props/bank/money_wrap_single_bundle_active/314 (-38.0, -349.0, 375.0)
		mesh_variation interact_enable
	100624 units/world/props/bank/money_wrap_single_bundle_active/315 (-20.0, -336.0, 375.0)
		mesh_variation interact_enable
	100625 units/world/props/bank/money_wrap_single_bundle_active/316 (-48.0, -349.0, 375.0)
		mesh_variation interact_enable
	100632 units/world/props/bank/money_wrap_single_bundle_active/323 (-59.0, -349.0, 375.0)
		mesh_variation interact_enable
	100635 units/world/props/bank/money_wrap_single_bundle_active/326 (-20.0, -356.0, 375.0)
		mesh_variation interact_enable
	100636 units/world/props/bank/money_wrap_single_bundle_active/327 (-20.0, -346.0, 375.0)
		mesh_variation interact_enable
	100721 units/world/props/bank/money_wrap_single_bundle_active/334 (357.0, -542.0, 405.742)
		mesh_variation interact_enable
	100722 units/world/props/bank/money_wrap_single_bundle_active/335 (359.0, -565.0, 405.742)
		mesh_variation interact_enable
	100279 units/world/props/bank/money_wrap_single_bundle_active/336 (371.0, -545.0, 405.742)
		mesh_variation interact_enable
	100280 units/world/props/bank/money_wrap_single_bundle_active/337 (383.087, -545.996, 405.742)
		mesh_variation interact_enable
	100730 units/world/props/bank/money_wrap_single_bundle_active/343 (383.125, -570.291, 405.742)
		mesh_variation interact_enable
	100734 units/world/props/bank/money_wrap_single_bundle_active/347 (371.272, -572.168, 405.742)
		mesh_variation interact_enable
	100739 units/world/props/bank/money_wrap_single_bundle_active/352 (463.0, -2041.0, 375.0)
		mesh_variation interact_enable
	100741 units/world/props/bank/money_wrap_single_bundle_active/354 (463.0, -2051.0, 375.0)
		mesh_variation interact_enable
	100743 units/world/props/bank/money_wrap_single_bundle_active/356 (463.0, -2062.0, 375.0)
		mesh_variation interact_enable
	100745 units/world/props/bank/money_wrap_single_bundle_active/358 (454.0, -2022.0, 375.0)
		mesh_variation interact_enable
	100754 units/world/props/bank/money_wrap_single_bundle_active/367 (412.0, -2022.0, 375.0)
		mesh_variation interact_enable
	100281 units/world/props/bank/money_wrap_single_bundle_active/368 (400.0, -2022.0, 375.0)
		mesh_variation interact_enable
	100756 units/world/props/bank/money_wrap_single_bundle_active/369 (422.0, -2022.0, 375.0)
		mesh_variation interact_enable
	100282 units/world/props/bank/money_wrap_single_bundle_active/370 (388.0, -2022.0, 375.0)
		mesh_variation interact_enable
	100758 units/world/props/bank/money_wrap_single_bundle_active/371 (433.0, -2022.0, 375.0)
		mesh_variation interact_enable
	100283 units/world/props/bank/money_wrap_single_bundle_active/372 (377.0, -2022.0, 375.0)
		mesh_variation interact_enable
	100291 units/world/props/bank/money_wrap_single_bundle_active/373 (366.0, -2022.0, 375.0)
		mesh_variation interact_enable
	100386 units/world/props/bank/money_wrap_single_bundle_active/374 (351.0, -2022.0, 375.0)
		mesh_variation interact_enable
	100387 units/world/props/bank/money_wrap_single_bundle_active/375 (338.008, -2022.17, 375.0)
		mesh_variation interact_enable
	100389 units/world/props/bank/money_wrap_single_bundle_active/376 (326.875, -2021.14, 375.0)
		mesh_variation interact_enable
	100764 units/world/props/bank/money_wrap_single_bundle_active/377 (279.0, -2021.0, 375.0)
		mesh_variation interact_enable
	100390 units/world/props/bank/money_wrap_single_bundle_active/378 (315.917, -2022.1, 375.0)
		mesh_variation interact_enable
	100766 units/world/props/bank/money_wrap_single_bundle_active/379 (289.0, -2021.0, 375.0)
		mesh_variation interact_enable
	100768 units/world/props/bank/money_wrap_single_bundle_active/381 (300.0, -2021.0, 375.0)
		mesh_variation interact_enable
	100774 units/world/props/bank/money_wrap_single_bundle_active/387 (267.0, -2020.0, 375.0)
		mesh_variation interact_enable
	100776 units/world/props/bank/money_wrap_single_bundle_active/389 (257.0, -2020.0, 375.0)
		mesh_variation interact_enable
	100778 units/world/props/bank/money_wrap_single_bundle_active/391 (246.0, -2020.0, 375.0)
		mesh_variation interact_enable
	100079 units/world/props/office/accessories/desk_lamp_04/001 (-50.0, -1325.0, 386.0)
		mesh_variation lamp_on
