ID range vs continent name:
	100000: world

statics
	100020 units/dev_tools/level_tools/dev_bag_collision_1x3m/001 (7.0, -55.0, -48.092)
	100021 units/dev_tools/level_tools/dev_bag_collision_1x3m/002 (7.0, 45.0, -48.092)
	100022 units/world/architecture/bank/bank_door_toilet/001 (0.0, 0.0, 5.42101e-20)
		disable_on_ai_graph True
		mesh_variation anim_close_door
