﻿´ai_enemy_trigger_015´ ElementEnemyDummyTrigger 101875
	TRIGGER TIMES 1
	Upon event "spawn" of ´ene_fbi_swat_2´:
		Execute sequence: "destroy_02_win9" - units/pd2_dlc_red/props/windows/red_prop_building_window_03/001 (-584.989, -2409.96, 925.001) (DELAY 1)
		Make teammate close to instigator say: p41 (DELAY 1)
		Debug message: shatter (DELAY 1)
´ene_fbi_swat_2´ ElementSpawnEnemyDummy 103535
	Spawn ene_fbi_swat_2 (-811.0, -1626.0, 475.0) with action e_sp_down_17m_var2.
	No group AI
	Make instigator path towards (-850.0, -1500.0, 750.0) and show "AI_hunt".
