﻿´START´ MissionScriptElement 101392
	EXECUTE ON STARTUP
	Enable whisper mode.
	Execute sequence: "disable_interaction" - units/payday2/pickups/gen_pku_gold/001 (1894.0, -342.0, 489.0)
	Execute sequence: "state_door_show" - units/payday2/props/gen_prop_door_ind_01/001 (2099.4, -1188.5, 401.0)
	´spawn´
	´spawn_2´
	´spawn_3´
	Spawn ene_security_1 (1200.0, -1200.0, 122.0). (DELAY 1)
	Spawn ene_security_1 (1200.0, -1400.0, 122.0). (DELAY 1)
	Hide object: units/payday2/architecture/mkp_int_floor_2x2m_a/collision (5103.0, -3492.0, 99.9999) (DELAY 1)
	Hide object: units/dev_tools/level_tools/dev_bag_collision_1x3m/137 (4747.0, -1869.0, 78.0) (DELAY 1)
	Hide object: units/dev_tools/level_tools/dev_bag_collision_1x3m/138 (4747.0, -1769.0, 78.0) (DELAY 1)
	Hide object: units/dev_tools/level_tools/dev_bag_collision_1x3m/139 (4747.0, -1669.0, 78.0) (DELAY 1)
	Hide object: units/dev_tools/level_tools/dev_bag_collision_1x3m/140 (4747.0, -1569.0, 78.0) (DELAY 1)
	Make element ´Security_002´ say: dsp_radio_buzz (DELAY 1)
	Make element ´ene_security_1_3´ say: dsp_radio_buzz (DELAY 1)
	Make element ´Server_Room_Guard´ say: dsp_radio_buzz (DELAY 1)
	Make element ´Security_003´ say: dsp_radio_buzz (DELAY 1)
	Make element ´patrolling_guard001´ say: dsp_radio_buzz (DELAY 1)
	Spawn ene_secret_service_1 (5509.0, -1293.0, 43.0). (DELAY 1)
	Execute sequence: "deactivate_door" - units/payday2/props/gen_prop_door_ind_01/001 (2099.4, -1188.5, 401.0) (DELAY 1)
	Execute 1: (DELAY 1)
		´radio_buzz_2´
		´radio_buzz_3´
		´radio_buzz_4´
	´Security_002´ (4248.0, -1625.0, 0.0) (DELAY 1)
	´ene_security_1_3´ (739.0, 700.0, 914.0) (DELAY 1)
	´Security_001´ (5400.0, -4100.0, 0.0) (DELAY 1)
	´patrolling_guard001´ (3966.0, 993.0, 616.0) (DELAY 1)
	´patrolling_guard002´ (4060.0, 993.0, 616.0) (DELAY 1)
	´Server_Room_Guard´ (1708.67, -1011.74, 400.0) (DELAY 1)
	´ene_security_1_4´ (4900.0, -4400.0, 483.0) (DELAY 1)
´env_effect_play_001´ ElementPlayEffect 104615
	EXECUTE ON STARTUP
	Play effect effects/payday2/environment/environment_smoke_blue at position (9020.0, -6943.0, 112.0)
´env_effect_play_002´ ElementPlayEffect 100000
	EXECUTE ON STARTUP
	Play effect effects/payday2/environment/short_1_day_1_fog at position (3275.0, -2450.0, -250.0)
´env_effect_play_003´ ElementPlayEffect 100869
	EXECUTE ON STARTUP
	Play effect effects/payday2/environment/born_tunnel_fog at position (3050.0, 1025.0, -200.0)
´env_effect_play_004´ ElementPlayEffect 100870
	EXECUTE ON STARTUP
	Play effect effects/payday2/environment/short_1_day_1_fog at position (5775.0, -2150.0, -150.0)
´Security_002´ ElementSpawnEnemyDummy 104573
	Spawn ene_security_3_undominatable (4248.0, -1625.0, 0.0).
´ene_security_1_3´ ElementSpawnEnemyDummy 105040
	Spawn ene_security_1 (739.0, 700.0, 914.0).
´radio_buzz_2´ MissionScriptElement 101647
	BASE DELAY  (DELAY 30)
	Make element ´Security_002´ say: dsp_radio_buzz
	Make element ´ene_security_1_3´ say: dsp_radio_buzz
	Make element ´Server_Room_Guard´ say: dsp_radio_buzz
	Make element ´Security_003´ say: dsp_radio_buzz
	Make element ´patrolling_guard001´ say: dsp_radio_buzz
	Execute 1:
		´radio_buzz_2´
		´radio_buzz_3´
		´radio_buzz_4´
´radio_buzz_3´ MissionScriptElement 101713
	BASE DELAY  (DELAY 20)
	Make element ´Security_002´ say: dsp_radio_buzz
	Make element ´ene_security_1_3´ say: dsp_radio_buzz
	Make element ´Server_Room_Guard´ say: dsp_radio_buzz
	Make element ´Security_003´ say: dsp_radio_buzz
	Make element ´patrolling_guard001´ say: dsp_radio_buzz
	Execute 1:
		´radio_buzz_2´
		´radio_buzz_3´
		´radio_buzz_4´
´radio_buzz_4´ MissionScriptElement 101781
	BASE DELAY  (DELAY 15)
	Make element ´Security_002´ say: dsp_radio_buzz
	Make element ´ene_security_1_3´ say: dsp_radio_buzz
	Make element ´Server_Room_Guard´ say: dsp_radio_buzz
	Make element ´Security_003´ say: dsp_radio_buzz
	Make element ´patrolling_guard001´ say: dsp_radio_buzz
	Execute 1:
		´radio_buzz_2´
		´radio_buzz_3´
		´radio_buzz_4´
´Server_Room_Guard´ ElementSpawnEnemyDummy 104572
	Spawn ene_secret_service_1_undominatable (1708.67, -1011.74, 400.0).
´Security_003´ ElementSpawnEnemyDummy 104568
	TRIGGER TIMES 1
	Spawn ene_security_1_undominatable (4094.0, -2249.0, 15.0).
	Make instigator path towards (4365.0, -1957.0, 0.0) and show "None".
	Toggle off: ´VO_018´
	´VO_017´ (DELAY 5)
´patrolling_guard001´ ElementSpawnEnemyDummy 104939
	Spawn ene_secret_service_1 (3966.0, 993.0, 616.0).
´Security_001´ ElementSpawnEnemyDummy 102328
	Spawn ene_security_1_undominatable (5400.0, -4100.0, 0.0).
	Make instigator path towards (5342.26, -3889.05, 0.0) and show "e_so_ntl_smoke_stand" for 120 seconds.
´patrolling_guard002´ ElementSpawnEnemyDummy 105042
	Spawn ene_secret_service_1 (4060.0, 993.0, 616.0).
´ene_security_1_4´ ElementSpawnEnemyDummy 100688
	Spawn ene_security_1 (4900.0, -4400.0, 483.0).
´spawn´ ElementPlayerSpawner 101030
	TRIGGER TIMES 1
	Enable "mask_off" player spawn at position (3668.26, -5732.12, 0.0)
´spawn_2´ ElementPlayerSpawner 104990
	TRIGGER TIMES 1
	Enable "mask_off" player spawn at position (3746.0, -5748.0, 0.0)
´spawn_3´ ElementPlayerSpawner 104994
	TRIGGER TIMES 1
	Enable "mask_off" player spawn at position (3603.0, -5722.0, 0.0)
´VO_018´ ElementDialogue 100797
	TRIGGER TIMES 1
	Quit all current dialogue. Play dialogue: Play_pln_sh11_14
´VO_017´ MissionScriptElement 100344
	TRIGGER TIMES 1
	Make element ´Security_004´ say: dsp_radio_buzz
	Play audio "Play_rb4_sh11_07" at position (6100.0, -9400.0, 5700.0) (DELAY 1.25)
´Security_004´ ElementSpawnEnemyDummy 100692
	DISABLED
	TRIGGER TIMES 1
	Spawn ene_security_1_undominatable (4327.33, -2141.3, 0.0).
	Make instigator path towards (4248.0, -1725.0, 0.0) and show "None".
	´VO_017´ (DELAY 0.25)
´on_fence_open´ ElementUnitSequenceTrigger 104633
	TRIGGER TIMES 1
	Upon sequence "open" - units/payday2/props/air_prop_runway_fence/086 (3887.4, -4874.5, 30.0):
		remove ´fence_waypoint´
		Send mission event "objective_complete" to instance levels/instances/shared/obj_link/002 (2100.0, -11900.0, 5700.0)
		´VO_003´ (DELAY 1)
		´func_hint_001´ (DELAY 2)
		´func_hint_002´ (DELAY 5)
´fence_waypoint´ ElementWaypoint 104635
	TRIGGER TIMES 1
	Place waypoint with icon "pd2_wirecutter" at position (3876.0, -4675.0, 100.0)
´VO_003´ ElementDialogue 100710
	TRIGGER TIMES 1
	Play dialogue: Play_rb4_sh11_02. When done, execute:
		Play dialogue: Play_pln_sh11_07. When done, execute: (DELAY 1)
			Toggle on: ´point_interaction_002´
			´door_waypoint´
´func_hint_002´ ElementHint 100479
	TRIGGER TIMES 1
	Show hint: short_crouch
´func_hint_001´ ElementHint 100473
	TRIGGER TIMES 1
	Show hint: short_objective
´point_interaction_002´ ElementInteraction 100892
	DISABLED
	Create interaction object with ID "open_door" at position (5063.0, -4748.0, 123.0)
	Upon interaction:
		remove ´door_waypoint´
		´open_door´
´door_waypoint´ ElementWaypoint 100890
	TRIGGER TIMES 1
	Place waypoint with icon "pd2_door" at position (5068.0, -4730.0, 119.0)
´open_door´ ElementUnitSequence 100893
	TRIGGER TIMES 1
	Execute sequence: "open_90_deg" - units/world/props/street/plywood_fence_door/004 (5087.0, -4640.0, 0.0)
´player_spawn_trigger´ ElementAreaTrigger 104754
	TRIGGER TIMES 1
	Box, width 359.501, height 300.0, depth 273.921, at position (3663.0, -5768.0, 119.0) with rotation (0.0, 0.0, 0.0, -1.0)
	Amount: 1
	Instigator: player
	Interval: 0.1
	Upon on_enter, execute:
		´Player_Spawn´
		´VO_001´
´Player_Spawn´ ElementInstanceOutputEvent 100463
	TRIGGER TIMES 1
	Upon any instance event:
		"link_objective_find_new" - levels/instances/shared/obj_link/001 (1800.0, -11900.0, 5700.0)
		"link_objective_find_new" - levels/instances/shared/obj_link/002 (2100.0, -11900.0, 5700.0)
		"link_objective_find_new" - levels/instances/shared/obj_link/003 (2400.0, -11900.0, 5700.0)
		"link_objective_find_new" - levels/instances/shared/obj_link/004 (2700.0, -11900.0, 5700.0)
		"link_objective_find_new" - levels/instances/shared/obj_link/005 (3000.0, -11900.0, 5700.0)
		"link_objective_find_new" - levels/instances/shared/obj_link/006 (3300.0, -11900.0, 5700.0)
		"link_objective_find_new" - levels/instances/shared/obj_link/007 (3600.0, -11900.0, 5700.0)
		"link_objective_find_new" - levels/instances/shared/obj_link/008 (3900.0, -11900.0, 5700.0)
		"link_objective_find_new" - levels/instances/shared/obj_link/009 (4200.0, -11900.0, 5700.0)
		"link_objective_find_new" - levels/instances/shared/obj_link/010 (4500.0, -11900.0, 5700.0)
		"link_objective_find_new" - levels/instances/shared/obj_link/011 (4800.0, -11900.0, 5700.0)
		"link_objective_find_new" - levels/instances/shared/obj_link/012 (5100.0, -11900.0, 5700.0)
		"link_objective_find_new" - levels/instances/shared/obj_link/013 (5400.0, -11900.0, 5700.0)
		"link_objective_find_new" - levels/instances/shared/obj_link/015 (6000.0, -11900.0, 5700.0)
		"link_objective_find_new" - levels/instances/shared/obj_link/016 (6300.0, -11900.0, 5700.0)
		"link_objective_find_new" - levels/instances/shared/obj_link/017 (6600.0, -11900.0, 5700.0)
		"link_objective_find_new" - levels/instances/shared/obj_link/018 (6900.0, -11900.0, 5700.0)
		"link_objective_find_new" - levels/instances/shared/obj_link/019 (7200.0, -11900.0, 5700.0)
		"link_objective_find_new" - levels/instances/shared/obj_link/020 (7500.0, -11900.0, 5700.0)
		"link_objective_find_new" - levels/instances/shared/obj_link/021 (7800.0, -11900.0, 5700.0)
		"link_objective_find_new" - levels/instances/shared/obj_link/022 (8100.0, -11900.0, 5700.0)
		"link_objective_find_new" - levels/instances/shared/obj_link/023 (8400.0, -11900.0, 5700.0)
		"link_objective_find_new" - levels/instances/shared/obj_link/024 (4950.0, -12400.0, 5700.0)
	Execute:
		Send mission event "link_objective_start" to instance levels/instances/shared/obj_link/001 (1800.0, -11900.0, 5700.0)
´VO_001´ ElementDialogue 100503
	TRIGGER TIMES 1
	Play dialogue: Play_rb4_sh11_01. When done, execute:
		Play dialogue: Play_pln_sh11_00 (DELAY 1)
		´VO_002´ (DELAY 7)
		Execute sequence: "state_enabled" - units/payday2/props/air_prop_runway_fence/086 (3887.4, -4874.5, 30.0) (DELAY 9)
		´fence_waypoint´ (DELAY 9)
´VO_002´ ElementDialogue 100749
	TRIGGER TIMES 1
	Play dialogue: Play_pln_sh11_01
´body_drop_area_triggered´ ElementAreaTrigger 103394
	Use shape: ´point_shape_006´ (4961.0, -1796.0, 119.0)
	Amount: 1
	Instigator: unique_loot
	Interval: 0.1
	Rule: ´data_instigator_rule_001´
	Upon on_enter, execute:
		Send mission event "objective_complete" to instance levels/instances/shared/obj_link/015 (6000.0, -11900.0, 5700.0)
		´2_bodies（2）´
		´VO_021´
´data_instigator_rule_001´ ElementInstigatorRule 104750
	person,special_person
´point_shape_006´ ElementShape 105477
	Box, width 382.907989502, height 83.4960021973, depth 291.371002197, at position (4961.0, -1796.0, 119.0) with rotation (0.0, 0.0, 0.707107, -0.707107)
´2_bodies（2）´ ElementCounter 104677
´VO_021´ ElementDialogue 100805
	TRIGGER TIMES 1
	Play dialogue: Play_pln_sh11_16
´on_USB_pickup´ ElementUnitSequenceTrigger 104796
	TRIGGER TIMES 1
	Upon sequence "load" - units/pd2_dlc_short/props/gen_fbi_usb_stick/001 (1650.21, -908.293, 477.0):
		remove ´flash_drive_waypoint´
		Send mission event "objective_complete" to instance levels/instances/shared/obj_link/019 (7200.0, -11900.0, 5700.0)
		´VO_027´ (DELAY 1)
´flash_drive_waypoint´ ElementWaypoint 104810
	Place waypoint with icon "pd2_computer" at position (1650.0, -910.0, 510.0)
	Execute sequence: "state_interaction_enabled" - units/pd2_dlc_short/props/gen_fbi_usb_stick/001 (1650.21, -908.293, 477.0)
	Execute sequence: "state_outline_enabled" - units/pd2_dlc_short/props/gen_fbi_usb_stick/001 (1650.21, -908.293, 477.0)
´VO_027´ MissionScriptElement 104841
	TRIGGER TIMES 1
	Play dialogue: Play_pln_sh11_22
	´loot_waypoint´ (DELAY 5)
	Execute sequence: "enable_interaction" - units/payday2/pickups/gen_pku_gold/001 (1894.0, -342.0, 489.0) (DELAY 5.5)
	Execute sequence: "state_contour_enable" - units/payday2/pickups/gen_pku_gold/001 (1894.0, -342.0, 489.0) (DELAY 5.5)
´loot_waypoint´ ElementWaypoint 104815
	TRIGGER TIMES 1
	Place waypoint with icon "pd2_loot" at position (1925.0, -378.0, 550.0)
´gold_picked_up´ ElementUnitSequenceTrigger 104819
	TRIGGER TIMES 1
	Upon sequence "load" - units/payday2/pickups/gen_pku_gold/001 (1894.0, -342.0, 489.0):
		Toggle on: ´objective_trigger´
		Show object: units/dev_tools/level_tools/dev_bag_collision_8x32m/009 (3113.4, -663.5, -1899.0)
		Show object: units/dev_tools/level_tools/dev_bag_collision_1x3m/137 (4747.0, -1869.0, 78.0)
		Show object: units/dev_tools/level_tools/dev_bag_collision_1x3m/138 (4747.0, -1769.0, 78.0)
		Show object: units/dev_tools/level_tools/dev_bag_collision_1x3m/139 (4747.0, -1669.0, 78.0)
		Show object: units/dev_tools/level_tools/dev_bag_collision_1x3m/140 (4747.0, -1569.0, 78.0)
		remove ´loot_waypoint´
		Send mission event "objective_complete" to instance levels/instances/shared/obj_link/020 (7500.0, -11900.0, 5700.0)
		´VO_029´
		´patrolling_guard´ (4768.0, -2446.0, 0.0)
´VO_029´ MissionScriptElement 104847
	TRIGGER TIMES 1
	Play dialogue: Play_rb4_sh11_10
	´VO_030´ (DELAY 3.5)
´objective_trigger´ ElementAreaTrigger 104941
	DISABLED
	TRIGGER TIMES 1
	Box, width 230.0, height 346.5, depth 310.0, at position (3757.0, -4685.0, 165.0) with rotation (0.0, 0.0, 0.0, -1.0)
	Amount: 1
	Instigator: player
	Interval: 0.1
	Upon on_enter, execute:
		remove ´point_waypoint_010´
		Send mission event "objective_complete" to instance levels/instances/shared/obj_link/021 (7800.0, -11900.0, 5700.0)
		´lootdrop_waypoint´
		´VO_037´ (DELAY 1)
		Execute sequence: "anim_doors_rear_open" - units/payday2/vehicles/anim_vehicle_van_player/001 (2986.79, -5088.77, -25.8932) (DELAY 2)
´patrolling_guard´ ElementSpawnEnemyDummy 104829
	Spawn ene_security_2_undominatable (4768.0, -2446.0, 0.0).
´VO_030´ MissionScriptElement 100333
	TRIGGER TIMES 1
	Play dialogue: Play_pln_sh11_23
	Toggle on: ´trigger_area_011´ (DELAY 3)
	Toggle on: ´trigger_area_014´ (DELAY 3)
´VO_037´ ElementDialogue 100862
	TRIGGER TIMES 1
	Play dialogue: Play_pln_sh11_29
´point_waypoint_010´ ElementWaypoint 105502
	TRIGGER TIMES 1
	Place waypoint with icon "pd2_goto" at position (3800.0, -4700.0, 100.0)
´lootdrop_waypoint´ ElementWaypoint 104851
	Place waypoint with icon "pd2_lootdrop" at position (3096.76, -5075.21, 100.0)
´trigger_area_011´ ElementAreaTrigger 105133
	DISABLED
	TRIGGER TIMES 1
	Box, width 1135.2, height 295.0, depth 308.299, at position (2169.0, -1282.0, 539.0) with rotation (0.0, 0.0, 0.0, -1.0)
	Amount: 1
	Instigator: player
	Interval: 0.1
	Upon on_enter, execute:
		´patrol_point_001´
		´VO_031´ (DELAY 1)
		´point_waypoint_013´ (DELAY 4)
´trigger_area_014´ ElementAreaTrigger 100375
	DISABLED
	TRIGGER TIMES 1
	Box, width 601.985, height 255.0, depth 817.668, at position (4345.0, -1858.0, 119.0) with rotation (0.0, 0.0, 0.0, -1.0)
	Amount: 1
	Instigator: player
	Interval: 0.1
	Upon on_enter, execute:
		remove ´point_waypoint_005´
		Toggle on: ´tigger_area´
		remove ´point_waypoint_013´
		´VO_034´
		´logic_toggle_008´
		´patrol_point_002´
		´point_waypoint_011´
´VO_031´ MissionScriptElement 104848
	TRIGGER TIMES 1
	Play dialogue: Play_pln_sh11_24
	´VO_032´ (DELAY 12)
´patrol_point_001´ ElementSpecialObjective 104811
	Create objective for someone from group: ´patrolling_guard´
	Make person path towards (4581.0, -2530.0, 0.0) and show "e_so_ntl_idle_look".
´point_waypoint_013´ ElementWaypoint 100204
	Place waypoint with icon "pd2_generic_look" at position (4588.56, -2511.92, 354.0)
´VO_034´ MissionScriptElement 105137
	TRIGGER TIMES 1
	Quit all current dialogue. Play dialogue: Play_pln_sh11_26
	´VO_035´ (DELAY 4)
´point_waypoint_005´ ElementWaypoint 105496
	Place waypoint with icon "pd2_goto" at position (4400.0, -1900.0, 100.0)
´logic_toggle_008´ ElementToggle 105501
	TRIGGER TIMES 1
	Toggle on: ´trigger_area_015´
´trigger_area_015´ ElementAreaTrigger 105499
	DISABLED
	TRIGGER TIMES 1
	Box, width 410.0, height 215.0, depth 230.0, at position (5513.0, -3541.0, 100.0) with rotation (0.0, 0.0, 0.0, -1.0)
	Amount: 1
	Instigator: player
	Interval: 0.1
	Upon on_enter, execute:
		remove ´point_waypoint_009´
		´point_waypoint_010´
		´patrol_point_005´
´patrol_point_002´ ElementSpecialObjective 104807
	Create objective for someone from group: ´patrolling_guard´
	Make person path towards (4999.0, -2421.0, 0.0) and show "e_so_ntl_idle_look" for 3-5 seconds.
´tigger_area´ ElementAreaTrigger 105476
	DISABLED
	TRIGGER TIMES 1
	Box, width 428.8, height 500.0, depth 672.0, at position (4343.0, -2515.0, 100.0) with rotation (0.0, 0.0, 0.0, -1.0)
	Amount: 1
	Instigator: player
	Interval: 0.1
	Upon on_enter, execute:
		Toggle on: ´trigger_area_017´
		remove ´point_waypoint_011´
		´patrol_point_006´
		´point_waypoint_012´
´point_waypoint_011´ ElementWaypoint 100131
	TRIGGER TIMES 1
	Place waypoint with icon "pd2_goto" at position (4426.0, -2253.0, 57.0)
´VO_032´ MissionScriptElement 105131
	TRIGGER TIMES 1
	Play dialogue: Play_pln_sh11_25
	´func_hint_005´ (DELAY 3)
´VO_035´ ElementDialogue 100858
	TRIGGER TIMES 1
	Play dialogue: Play_pln_sh11_27
´point_waypoint_009´ ElementWaypoint 105498
	Place waypoint with icon "pd2_goto" at position (5512.0, -3523.0, 100.0)
´patrol_point_005´ ElementSpecialObjective 105058
	Create objective for someone from group: ´patrolling_guard´
	Make person path towards (5006.0, -2362.0, 0.0) and show "None" for 1-2 seconds. Afterwards, choose new objective: ´patrol_point_002´
´trigger_area_017´ ElementAreaTrigger 105572
	DISABLED
	TRIGGER TIMES 1
	Box, width 817.088, height 390.0, depth 571.2, at position (4924.0, -2493.0, 190.0) with rotation (0.0, 0.0, 0.0, -1.0)
	Amount: 1
	Instigator: player
	Interval: 0.1
	Upon on_enter, execute:
		Toggle on: ´trigger_area_018´
		remove ´point_waypoint_012´
		´patrol_point_003´
		´point_waypoint_009´
´patrol_point_006´ ElementSpecialObjective 100121
	Create objective for someone from group: ´patrolling_guard´
	Make person path towards (5533.0, -2891.0, 0.0) and show "e_so_ntl_idle_look" for 3-5 seconds.
´point_waypoint_012´ ElementWaypoint 100158
	Place waypoint with icon "pd2_goto" at position (5083.0, -2696.0, 92.0)
´func_hint_005´ ElementHint 100485
	TRIGGER TIMES 1
	Show hint: short_spotting
´patrol_point_003´ ElementSpecialObjective 105052
	Create objective for someone from group: ´patrolling_guard´
	Make person path towards (6087.01, -2958.02, 0.0) and show "e_so_interact_mid" for 3-5 seconds.
´trigger_area_018´ ElementAreaTrigger 100128
	DISABLED
	TRIGGER TIMES 1
	Box, width 804.854, height 389.649, depth 169.718, at position (5283.0, -2747.0, 190.0) with rotation (0.0, 0.0, 0.0, -1.0)
	Amount: 1
	Instigator: player
	Interval: 0.1
	Upon on_enter, execute:
		´patrol_point_004´
		´VO_036´
´patrol_point_004´ ElementSpecialObjective 104222
	Create objective for someone from group: ´patrolling_guard´
	Make person path towards (6054.07, -2087.36, 0.0) and show "e_so_ntl_idle_kickpebble" for 2-3 seconds.
´VO_036´ ElementDialogue 100860
	TRIGGER TIMES 1
	Play dialogue: Play_pln_sh11_28
´escape_area´ ElementAreaTrigger 104821
	DISABLED
	TRIGGER TIMES 1
	Box, width 210.0, height 240.0, depth 367.0, at position (3400.0, -5305.0, 96.0) with rotation (0.0, 0.0, -0.707107, -0.707107)
	Amount: all
	Instigator: player
	Interval: 0.1
	Upon on_enter, execute:
		Make instigator say: g24
		Send mission event "objective_complete" to instance levels/instances/shared/obj_link/023 (8400.0, -11900.0, 5700.0)
		End mission: success (DELAY 3)
´loot_drop_area´ ElementAreaTrigger 104849
	TRIGGER TIMES 1
	Box, width 250.0, height 136.29, depth 150.075, at position (3078.76, -5071.21, 122.0) with rotation (0.0, 0.0, -0.0348992, -0.999391)
	Amount: 1
	Instigator: loot
	Interval: 0.1
	Upon on_enter, execute:
		Send mission event "objective_complete" to instance levels/instances/shared/obj_link/022 (8100.0, -11900.0, 5700.0)
		If instigator loot type is "gold":
			Loot action: secure
			If instigator loot type is "gold":
				Loot action: remove
				Execute sequence: "state_add_loot_bag" - units/payday2/vehicles/anim_vehicle_van_player/001 (2986.79, -5088.77, -25.8932)
				remove ´lootdrop_waypoint´
			Toggle on: ´escape_area´ (DELAY 3)
			Execute sequence: "show" - units/pd2_dlc_arena/dev/are_gen_square_goal_marker_2_4x4_35/escape_marker (3400.0, -5321.0, -15.0) (DELAY 3)
			Place waypoint with icon "pd2_escape" at position (3398.0, -5312.0, 100.0) (DELAY 4)
´on_police_called´ ElementGlobalEventTrigger 105026
	TRIGGER TIMES 1
	Upon global event "police_called":
		Game-over timer: 3
		Debug message: Mission Failed
		Toggle off: ´VO_003´
		Toggle off: ´VO_004´
		Toggle off: ´VO_005´
		Toggle off: ´VO_007´
		Toggle off: ´VO_009´
		Toggle off: ´VO_010´
		Toggle off: ´VO_011´
		Toggle off: ´VO_013´
		Toggle off: ´VO_014´
		Toggle off: ´VO_015´
		Toggle off: ´VO_018´
		Toggle off: ´VO_020´
		Toggle off: ´VO_023´
		Toggle off: ´VO_029´
		Toggle off: ´VO_031´
		Toggle off: ´VO_037´
		Toggle off: ´VO_022´
		Play audio "alarm_kosugi_on_slow_fade" at position (1600.0, -8400.0, 5700.0)
´VO_004´ ElementDialogue 100728
	TRIGGER TIMES 1
	Play dialogue: Play_rb4_sh11_03. When done, execute:
		´link´ (DELAY 0.5)
´VO_005´ ElementDialogue 100748
	TRIGGER TIMES 1
	Quit all current dialogue. Play dialogue: Play_pln_sh11_04
´VO_007´ ElementDialogue 100734
	TRIGGER TIMES 1
	Play dialogue: Play_rb4_sh11_04. When done, execute:
		Play dialogue: Play_pln_sh11_06. When done, execute: (DELAY 1)
			´VO_008´ (DELAY 1)
´VO_009´ ElementDialogue 100776
	TRIGGER TIMES 1
	Quit all current dialogue. Play dialogue: Play_pln_sh11_02. When done, execute:
		´toggle_door_interaction´
		´door_waypoint_2´
´VO_010´ MissionScriptElement 104838
	TRIGGER TIMES 1
	Make element ´Security_002´ say: dsp_radio_buzz
	Play dialogue: Play_pln_sh11_08. When done, execute: (DELAY 1)
		Toggle on: ´point_spotter_001´ (DELAY 1)
´VO_011´ ElementDialogue 100780
	TRIGGER TIMES 1
	Quit all current dialogue. Play dialogue: Play_pln_sh11_09
´VO_013´ ElementDialogue 100786
	TRIGGER TIMES 1
	Play dialogue: Play_pln_sh11_10
´VO_014´ MissionScriptElement 104842
	TRIGGER TIMES 1
	Play dialogue: Play_pln_sh11_11
	´VO_015´ (DELAY 5)
´VO_015´ ElementDialogue 100793
	TRIGGER TIMES 1
	Play dialogue: Play_pln_sh11_12
´VO_020´ ElementDialogue 100799
	TRIGGER TIMES 1
	Play dialogue: Play_pln_sh11_15
´VO_023´ ElementDialogue 100819
	TRIGGER TIMES 1
	Quit all current dialogue. Play dialogue: Play_pln_sh11_18
´VO_022´ ElementDialogue 100806
	TRIGGER TIMES 1
	Play dialogue: Play_pln_sh11_17
´link´ ElementDialogue 100772
	TRIGGER TIMES 1
	Play dialogue: Play_pln_sh11_03. When done, execute:
		´kill_waypoint´
´VO_008´ ElementDialogue 100735
	TRIGGER TIMES 1
	Play dialogue: Play_rb4_sh11_05
´toggle_door_interaction´ ElementToggle 105399
	TRIGGER TIMES 1
	Toggle on: ´point_interaction_001´
´point_interaction_001´ ElementInteraction 100102
	DISABLED
	Create interaction object with ID "open_door" at position (5562.0, -3413.0, 123.0)
	Upon interaction:
		Hide object: units/dev_tools/level_tools/dev_collision_1x3m/001 (5400.0, -3400.0, 100.0)
		Hide object: units/dev_tools/level_tools/dev_collision_1x3m/002 (5500.0, -3400.0, 100.0)
		Hide object: units/dev_tools/level_tools/dev_collision_1x3m/003 (5600.0, -3400.0, 100.0)
		Hide object: units/dev_tools/level_tools/dev_collision_1x3m/004 (5700.0, -3400.0, 100.0)
		Hide object: units/dev_tools/level_tools/dev_bag_collision_1x3m/062 (5362.0, -3404.0, 200.0)
		Hide object: units/dev_tools/level_tools/dev_bag_collision_1x3m/063 (5462.0, -3404.0, 200.0)
		Hide object: units/dev_tools/level_tools/dev_bag_collision_1x3m/066 (5562.0, -3404.0, 200.0)
		Hide object: units/dev_tools/level_tools/dev_bag_collision_1x3m/067 (5662.0, -3404.0, 200.0)
		Hide object: units/dev_tools/level_tools/dev_bag_collision_1x3m/068 (5762.0, -3404.0, 200.0)
		´open_door_2´
		´point_special_objective_001´
´door_waypoint_2´ ElementWaypoint 105400
	TRIGGER TIMES 1
	Place waypoint with icon "pd2_door" at position (5539.0, -3408.0, 114.0)
´point_spotter_001´ ElementSpotter 100910
	DISABLED
	Spotter at position (4200.0, -1600.0, 500.0) with rotation (0.707107, 0.0, 0.0, -0.707107)
´kill_waypoint´ ElementWaypoint 105119
	TRIGGER TIMES 1
	Place waypoint with icon "pd2_kill" at position (5342.0, -3883.0, 257.0)
´open_door_2´ ElementUnitSequence 105397
	TRIGGER TIMES 1
	Execute sequence: "open" - units/world/props/street/plywood_fence_door/003 (5460.0, -3392.0, 0.0)
	remove ´door_waypoint_2´
	´VO_010´ (DELAY 1)
	´point_waypoint_002´ (DELAY 2)
´point_special_objective_001´ ElementSpecialObjective 104680
	Create objective for someone from group: ´Security_002´
	Make person path towards (4386.18, -1548.88, 0.0) and show "e_so_ntl_leanwall" for 120 seconds.
´point_waypoint_002´ ElementWaypoint 105120
	TRIGGER TIMES 1
	Place waypoint with icon "pd2_goto" at position (4341.0, -2323.0, 135.0)
´FBI_dead´ ElementEnemyDummyTrigger 104628
	Upon event "death" of ´Server_Room_Guard´:
		Hide object: units/dev_tools/level_tools/dev_ai_vis_blocker_005x6x12m/toggleable (2083.0, -1447.0, 400.0)
		Hide object: units/dev_tools/level_tools/dev_ai_vis_blocker_005x6x12m/toggleable001 (3283.0, -1447.0, 400.0)
		Toggle on, trigger times 1: ´4th_pager_answered´
´4th_pager_answered´ ElementGlobalEventTrigger 100036
	DISABLED
	TRIGGER TIMES 1
	Upon global event "player_answer_pager":
		Toggle on, trigger times 1: ´4th_body_bagged´
		´body_drop_waypoint´ (DELAY 6)
		´VO_024´ (DELAY 6)
´body_drop_waypoint´ ElementWaypoint 100550
	TRIGGER TIMES 1
	Place waypoint with icon "pd2_bodybag" at position (2691.0, -409.0, 293.0)
´VO_024´ MissionScriptElement 105135
	TRIGGER TIMES 1
	Play dialogue: Play_pln_sh11_19
	´func_hint_003´ (DELAY 7)
´4th_body_bagged´ ElementGlobalEventTrigger 100063
	DISABLED
	TRIGGER TIMES 1
	Upon global event "player_pickup_bodybag":
		Toggle on: ´trigger_area_003´
´func_hint_003´ ElementHint 100481
	TRIGGER TIMES 2
	Show hint: short_max_pagers
´trigger_area_003´ ElementAreaTrigger 100356
	DISABLED
	TRIGGER TIMES 1
	Box, width 842.22, height 200.0, depth 110.077, at position (2708.0, -714.0, 499.0) with rotation (0.0, 0.0, 0.0, -1.0)
	Amount: 1
	Instigator: player
	Interval: 0.1
	Upon on_enter, execute:
		´VO_025´
´VO_025´ ElementDialogue 100837
	TRIGGER TIMES 1
	Play dialogue: Play_pln_sh11_20
´trigger_area_002´ ElementAreaTrigger 100592
	DISABLED
	TRIGGER TIMES 1
	Box, width 486.82, height 345.0, depth 931.32, at position (3938.0, -1033.0, 547.0) with rotation (0.0, 0.0, 0.0, -1.0)
	Amount: 1
	Instigator: player
	Interval: 0.1
	Upon on_enter, execute:
		remove ´goal_waypoint´
		Send mission event "objective_complete" to instance levels/instances/shared/obj_link/016 (6300.0, -11900.0, 5700.0)
		´remove_waypoint_8´
		´VO_023´ (DELAY 2)
´goal_waypoint´ ElementWaypoint 104643
	Place waypoint with icon "pd2_goto" at position (3302.0, -1212.0, 449.0)
´remove_waypoint_8´ ElementOperator 104751
	TRIGGER TIMES 2
	remove ´bodybags_waypoint´
´bodybags_waypoint´ ElementWaypoint 104746
	TRIGGER TIMES 2
	Place waypoint with icon "pd2_loot" at position (3911.0, -699.0, 582.0)
´1st_guard_dead´ ElementEnemyDummyTrigger 104563
	TRIGGER TIMES 1
	Upon event "death" of ´Security_001´:
		Toggle off: ´link´
		Send mission event "objective_complete" to instance levels/instances/shared/obj_link/004 (2700.0, -11900.0, 5700.0)
		´kill_waypoint´
		remove ´kill_waypoint´ (DELAY 0.5)
		´VO_005´ (DELAY 1)
		´func_hint_003´ (DELAY 10)
´2nd_guard_dead´ ElementEnemyDummyTrigger 104567
	TRIGGER TIMES 1
	Upon event "death" of ´Security_002´:
		Hide object: units/dev_tools/level_tools/dev_ai_vis_blocker_001x2x2m/009 (4890.0, -2382.0, 50.0)
		Hide object: units/dev_tools/level_tools/dev_ai_vis_blocker_001x2x2m/029 (4890.0, -2182.0, 50.0)
		Send mission event "objective_complete" to instance levels/instances/shared/obj_link/009 (4200.0, -11900.0, 5700.0)
		Send mission event "objective_disable" to instance levels/instances/shared/obj_link/008 (3900.0, -11900.0, 5700.0)
		Execute sequence: "both_lids_closed" - units/world/street/trash_container/005 (5247.0, -3593.0, -19.0)
		Execute sequence: "interaction_disabled" - units/world/street/trash_container/005 (5247.0, -3593.0, -19.0)
		Toggle off: ´point_spotter_001´
		´logic_toggle_007´
		´VO_012´
´logic_toggle_007´ ElementToggle 100416
	TRIGGER TIMES 1
	Toggle on: ´2nd_pager_answered´
´2nd_pager_answered´ ElementGlobalEventTrigger 100251
	DISABLED
	TRIGGER TIMES 1
	Upon global event "player_answer_pager":
		Send mission event "objective_complete" to instance levels/instances/shared/obj_link/010 (4500.0, -11900.0, 5700.0)
		´VO_014´ (DELAY 0.5)
´VO_012´ ElementDialogue 100736
	TRIGGER TIMES 1
	Play dialogue: Play_rb4_sh11_06. When done, execute:
		´VO_013´ (DELAY 1)
´3rd_guard_dead´ ElementEnemyDummyTrigger 104585
	TRIGGER TIMES 1
	Upon any event:
		death: ´Security_003´
		death: ´Security_004´
	Execute:
		Send mission event "objective_complete" to instance levels/instances/shared/obj_link/012 (5100.0, -11900.0, 5700.0)
		´logic_toggle_010´
		´VO_019´ (DELAY 2.5)
´logic_toggle_010´ ElementToggle 100417
	TRIGGER TIMES 1
	Toggle on: ´3rd_pager_answered´
´3rd_pager_answered´ ElementGlobalEventTrigger 100346
	DISABLED
	TRIGGER TIMES 1
	Upon global event "player_answer_pager":
		Send mission event "objective_complete" to instance levels/instances/shared/obj_link/013 (5400.0, -11900.0, 5700.0)
´VO_019´ ElementDialogue 100738
	TRIGGER TIMES 1
	Play dialogue: Play_rb4_sh11_08
´trigger_area_001´ ElementAreaTrigger 104413
	TRIGGER TIMES 1
	Use shape: ´point_shape_001´ (2717.0, -455.0, 161.0)
	Amount: 1
	Instigator: unique_loot
	Interval: 0.1
	Upon on_enter, execute:
		remove ´body_drop_waypoint´
		Send mission event "objective_complete" to instance levels/instances/shared/obj_link/017 (6600.0, -11900.0, 5700.0)
		Toggle off: ´trigger_area_003´
		Toggle off: ´body_drop_waypoint´
		Toggle on: ´trigger_area´ (DELAY 2)
		´security_office_waypoint´ (DELAY 2)
´point_shape_001´ ElementShape 100292
	Box, width 810, height 500, depth 384, at position (2717.0, -455.0, 161.0) with rotation (0.0, 0.0, 0.0, -1.0)
´trigger_area´ ElementAreaTrigger 102584
	DISABLED
	TRIGGER TIMES 1
	Box, width 528.0, height 330.0, depth 1226.65, at position (1803.0, -826.0, 555.0) with rotation (0.0, 0.0, 0.0, -1.0)
	Amount: 1
	Instigator: player
	Interval: 0.1
	Upon on_enter, execute:
		remove ´security_office_waypoint´
		Send mission event "objective_complete" to instance levels/instances/shared/obj_link/018 (6900.0, -11900.0, 5700.0)
		Hide object: units/payday2/props/gen_prop_glow_window_012/window_glow (2087.0, -811.0, 642.0)
		´VO_026´
		´flash_drive_waypoint´ (DELAY 5)
´security_office_waypoint´ ElementWaypoint 100562
	TRIGGER TIMES 1
	Place waypoint with icon "pd2_goto" at position (1999.0, -1243.0, 500.0)
´VO_026´ ElementDialogue 100843
	TRIGGER TIMES 1
	Quit all current dialogue. Play dialogue: Play_pln_sh11_21
´trigger_area_005´ ElementAreaTrigger 105115
	TRIGGER TIMES 1
	Box, width 474.0, height 277.056, depth 281.232, at position (5412.0, -4750.0, 118.0) with rotation (0.0, 0.0, 0.0, -1.0)
	Amount: 1
	Instigator: player
	Interval: 0.1
	Upon on_enter, execute:
		´VO_004´ (DELAY 0.5)
		Send mission event "objective_complete" to instance levels/instances/shared/obj_link/003 (2400.0, -11900.0, 5700.0) (DELAY 4)
´trigger_area_006´ ElementAreaTrigger 105116
	TRIGGER TIMES 1
	Box, width 537.608, height 225.6, depth 467.248, at position (4474.0, -2392.0, 100.0) with rotation (0.0, 0.0, 0.0, -1.0)
	Amount: 1
	Instigator: player
	Interval: 0.1
	Upon on_enter, execute:
		Send mission event "objective_complete" to instance levels/instances/shared/obj_link/008 (3900.0, -11900.0, 5700.0)
		remove ´point_waypoint_002´ (DELAY 1)
		´VO_011´ (DELAY 1.5)
´interaction_loop´ ElementUnitSequenceTrigger 105384
	Upon sequence "interact" - units/world/street/trash_container/005 (5247.0, -3593.0, -19.0):
		Execute sequence: "interaction_enabled" - units/world/street/trash_container/005 (5247.0, -3593.0, -19.0)
		´UI_Throw´ (DELAY 1)
´UI_Throw´ MissionScriptElement 105374
	TRIGGER TIMES 1
	´func_hint_004´
´func_hint_004´ ElementHint 100483
	Show hint: short_throw
	´loop´ (DELAY 10)
´loop´ MissionScriptElement 100909
	TRIGGER TIMES 2
	´func_hint_004´
´trigger_area_016´ ElementAreaTrigger 105532
	TRIGGER TIMES 1
	Box, width 100.0, height 75.0, depth 190.8, at position (5246.0, -3590.0, 48.0) with rotation (0.0, 0.0, 0.0, -1.0)
	Amount: 1
	Instigator: unique_loot
	Interval: 0.1
	Rule: ´data_instigator_rule_002´
	Upon on_enter, execute:
		remove ´body_drop_waypoint_2´
		Send mission event "objective_complete" to instance levels/instances/shared/obj_link/007 (3600.0, -11900.0, 5700.0)
		Show object: units/payday2/architecture/mkp_int_floor_2x2m_a/collision (5103.0, -3492.0, 99.9999)
		Toggle off: ´func_hint_004´
		´VO_009´
´data_instigator_rule_002´ ElementInstigatorRule 103391
	person,special_person
´body_drop_waypoint_2´ ElementWaypoint 104562
	TRIGGER TIMES 1
	Place waypoint with icon "pd2_bodybag" at position (5274.0, -3543.0, 182.0)
´trigger_area_019´ ElementAreaTrigger 100434
	DISABLED
	TRIGGER TIMES 1
	Box, width 355.612, height 408.117, depth 632.814, at position (4341.0, -1638.0, 200.0) with rotation (0.0, 0.0, -0.707107, -0.707107)
	Amount: 1
	Instigator: player
	Interval: 0.1
	Upon on_enter, execute:
		remove ´point_waypoint_011´
		´hide_body_complete_2´
´hide_body_complete_2´ ElementInstanceInputEvent 100708
	TRIGGER TIMES 1
	Send mission event "objective_complete" to instance levels/instances/shared/obj_link/024 (4950.0, -12400.0, 5700.0)
´1st_pager_answered´ ElementGlobalEventTrigger 100031
	TRIGGER TIMES 1
	Upon global event "player_answer_pager":
		Send mission event "objective_complete" to instance levels/instances/shared/obj_link/005 (3000.0, -11900.0, 5700.0) (DELAY 2)
		´VO_006´ (DELAY 4.5)
´VO_006´ ElementDialogue 100368
	TRIGGER TIMES 1
	Play dialogue: Play_pln_sh11_05
´body_bag_pickup´ ElementGlobalEventTrigger 100406
	TRIGGER TIMES 2
	Upon global event "player_refill_bodybagsbag":
		Toggle on, trigger times 1: ´trigger_area_019´
		´logic_counter_001（0）´ += 1
		Toggle off: ´2nd_body_bagged´
		Toggle on, trigger times 1: ´Security_004´
		Toggle off: ´Security_003´
		Toggle off: ´VO_014´
		´remove_waypoint_8´
		´get_bodybags_complete´
		´logic_link_006´
´logic_counter_001（0）´ ElementCounter 100675
´get_bodybags_complete´ ElementInstanceInputEvent 100558
	TRIGGER TIMES 1
	Send mission event "objective_complete" to instance levels/instances/shared/obj_link/011 (4800.0, -11900.0, 5700.0)
´2nd_body_bagged´ ElementGlobalEventTrigger 100721
	DISABLED
	TRIGGER TIMES 1
	Upon global event "player_pickup_bodybag":
		´logic_link_006´
		´get_bodybags_complete´
		´hide_body_complete_2´
		´remove_waypoint_8´
´logic_link_006´ MissionScriptElement 100694
	TRIGGER TIMES 1
	´Security_003´ (4094.0, -2249.0, 15.0) (DELAY 0.1)
	´Security_004´ (4327.33, -2141.3, 0.0) (DELAY 0.1)
´1st_body_bagged´ ElementGlobalEventTrigger 100418
	TRIGGER TIMES 1
	Upon global event "player_pickup_bodybag":
		Send mission event "objective_complete" to instance levels/instances/shared/obj_link/006 (3300.0, -11900.0, 5700.0)
		´VO_007´ (DELAY 3.5)
´player_mask_on´ ElementPlayerStateTrigger 100508
	TRIGGER TIMES 1
	Upon player state change "standard":
		Send mission event "objective_complete" to instance levels/instances/shared/obj_link/001 (1800.0, -11900.0, 5700.0)
´Team_AI_Spawn_001´ ElementAreaTrigger 100499
	TRIGGER TIMES 1
	Box, width 265.0, height 300.0, depth 124.876, at position (3693.0, -5716.0, 124.0) with rotation (0.0, 0.0, 0.0, -1.0)
	Amount: 1
	Instigator: ai_teammates
	Interval: 0.1
	Upon on_enter, execute:
		´Team_AI_SO´
		Toggle on: ´Team_AI_Spawn_002´ (DELAY 2)
´Team_AI_SO´ ElementSpecialObjective 105056
	TRIGGER TIMES 1
	Make instigator path towards (3031.0, -5276.82, 15.0) and show "e_so_ntl_bouncer_idle".
´Team_AI_Spawn_002´ ElementAreaTrigger 100502
	DISABLED
	TRIGGER TIMES 1
	Box, width 265.0, height 300.0, depth 125.0, at position (3656.0, -5719.0, 100.0) with rotation (0.0, 0.0, 0.0, -1.0)
	Amount: 1
	Instigator: ai_teammates
	Interval: 0.1
	Upon on_enter, execute:
		´Team_AI_SO_2´
´Team_AI_SO_2´ ElementSpecialObjective 105055
	TRIGGER TIMES 1
	Make instigator path towards (3913.06, -4952.51, 25.0) and show "e_so_ntl_smoke_stand".
´trigger_special_objective_001´ ElementSpecialObjectiveTrigger 100496
	TRIGGER TIMES 1
	Upon special objective event "anim_start" - ´Team_AI_SO_2´:
		Make instigator say: p32
´3rd_guard_alerted´ ElementEnemyDummyTrigger 100257
	Upon event "alerted" of ´Security_004´:
		´VO_018´
		´hide_body_complete_2´
´trigger_area_008´ ElementAreaTrigger 100201
	TRIGGER TIMES 1
	Box, width 150.0, height 345.0, depth 445.0, at position (3982.0, -4686.0, 169.0) with rotation (0.0, 0.0, 0.0, -1.0)
	Amount: 1
	Instigator: player
	Interval: 0.1
	Upon on_enter, execute:
		Toggle off: ´func_hint_002´
´func_instance_output_event_001´ ElementInstanceOutputEvent 100180
	Upon instance event "link_objective_next" - levels/instances/shared/obj_link/001 (1800.0, -11900.0, 5700.0):
		Send mission event "link_objective_start" to instance levels/instances/shared/obj_link/002 (2100.0, -11900.0, 5700.0)
´func_instance_output_event_002´ ElementInstanceOutputEvent 100183
	Upon instance event "link_objective_next" - levels/instances/shared/obj_link/002 (2100.0, -11900.0, 5700.0):
		Send mission event "link_objective_start" to instance levels/instances/shared/obj_link/003 (2400.0, -11900.0, 5700.0)
´func_instance_output_event_003´ ElementInstanceOutputEvent 100194
	Upon instance event "link_objective_next" - levels/instances/shared/obj_link/003 (2400.0, -11900.0, 5700.0):
		Send mission event "link_objective_start" to instance levels/instances/shared/obj_link/004 (2700.0, -11900.0, 5700.0)
´func_instance_output_event_004´ ElementInstanceOutputEvent 100199
	Upon instance event "link_objective_next" - levels/instances/shared/obj_link/004 (2700.0, -11900.0, 5700.0):
		Send mission event "link_objective_start" to instance levels/instances/shared/obj_link/005 (3000.0, -11900.0, 5700.0)
´func_instance_output_event_005´ ElementInstanceOutputEvent 100217
	Upon instance event "link_objective_next" - levels/instances/shared/obj_link/005 (3000.0, -11900.0, 5700.0):
		Send mission event "link_objective_start" to instance levels/instances/shared/obj_link/006 (3300.0, -11900.0, 5700.0)
´func_instance_output_event_006´ ElementInstanceOutputEvent 100229
	Upon instance event "link_objective_next" - levels/instances/shared/obj_link/006 (3300.0, -11900.0, 5700.0):
		Send mission event "link_objective_start" to instance levels/instances/shared/obj_link/007 (3600.0, -11900.0, 5700.0)
´func_instance_output_event_007´ ElementInstanceOutputEvent 100244
	Upon instance event "link_objective_next" - levels/instances/shared/obj_link/007 (3600.0, -11900.0, 5700.0):
		Send mission event "link_objective_start" to instance levels/instances/shared/obj_link/008 (3900.0, -11900.0, 5700.0)
´func_instance_output_event_008´ ElementInstanceOutputEvent 100247
	Upon instance event "link_objective_next" - levels/instances/shared/obj_link/008 (3900.0, -11900.0, 5700.0):
		Send mission event "link_objective_start" to instance levels/instances/shared/obj_link/009 (4200.0, -11900.0, 5700.0)
´func_instance_output_event_009´ ElementInstanceOutputEvent 100252
	Upon instance event "link_objective_next" - levels/instances/shared/obj_link/009 (4200.0, -11900.0, 5700.0):
		Send mission event "link_objective_start" to instance levels/instances/shared/obj_link/010 (4500.0, -11900.0, 5700.0)
´func_instance_output_event_010´ ElementInstanceOutputEvent 100263
	Upon instance event "link_objective_next" - levels/instances/shared/obj_link/010 (4500.0, -11900.0, 5700.0):
		Send mission event "link_objective_start" to instance levels/instances/shared/obj_link/011 (4800.0, -11900.0, 5700.0)
´func_instance_output_event_011´ ElementInstanceOutputEvent 100270
	Upon instance event "link_objective_next" - levels/instances/shared/obj_link/011 (4800.0, -11900.0, 5700.0):
		Send mission event "link_objective_start" to instance levels/instances/shared/obj_link/024 (4950.0, -12400.0, 5700.0)
´func_instance_output_event_012´ ElementInstanceOutputEvent 100276
	Upon instance event "link_objective_next" - levels/instances/shared/obj_link/012 (5100.0, -11900.0, 5700.0):
		Send mission event "link_objective_start" to instance levels/instances/shared/obj_link/013 (5400.0, -11900.0, 5700.0)
´func_instance_output_event_013´ ElementInstanceOutputEvent 100278
	Upon instance event "link_objective_next" - levels/instances/shared/obj_link/013 (5400.0, -11900.0, 5700.0):
		Send mission event "link_objective_start" to instance levels/instances/shared/obj_link/015 (6000.0, -11900.0, 5700.0)
´func_instance_output_event_015´ ElementInstanceOutputEvent 100283
	Upon instance event "link_objective_next" - levels/instances/shared/obj_link/015 (6000.0, -11900.0, 5700.0):
		Send mission event "link_objective_start" to instance levels/instances/shared/obj_link/016 (6300.0, -11900.0, 5700.0)
´func_instance_output_event_016´ ElementInstanceOutputEvent 100285
	Upon instance event "link_objective_next" - levels/instances/shared/obj_link/016 (6300.0, -11900.0, 5700.0):
		Send mission event "link_objective_start" to instance levels/instances/shared/obj_link/017 (6600.0, -11900.0, 5700.0)
´func_instance_output_event_017´ ElementInstanceOutputEvent 100296
	Upon instance event "link_objective_next" - levels/instances/shared/obj_link/017 (6600.0, -11900.0, 5700.0):
		Send mission event "link_objective_start" to instance levels/instances/shared/obj_link/018 (6900.0, -11900.0, 5700.0)
´func_instance_output_event_018´ ElementInstanceOutputEvent 100309
	Upon instance event "link_objective_next" - levels/instances/shared/obj_link/018 (6900.0, -11900.0, 5700.0):
		Send mission event "link_objective_start" to instance levels/instances/shared/obj_link/019 (7200.0, -11900.0, 5700.0)
´func_instance_output_event_019´ ElementInstanceOutputEvent 100311
	Upon instance event "link_objective_next" - levels/instances/shared/obj_link/019 (7200.0, -11900.0, 5700.0):
		Send mission event "link_objective_start" to instance levels/instances/shared/obj_link/020 (7500.0, -11900.0, 5700.0)
´func_instance_output_event_020´ ElementInstanceOutputEvent 100314
	Upon instance event "link_objective_next" - levels/instances/shared/obj_link/020 (7500.0, -11900.0, 5700.0):
		Send mission event "link_objective_start" to instance levels/instances/shared/obj_link/021 (7800.0, -11900.0, 5700.0)
´func_instance_output_event_021´ ElementInstanceOutputEvent 100325
	Upon instance event "link_objective_next" - levels/instances/shared/obj_link/021 (7800.0, -11900.0, 5700.0):
		Send mission event "link_objective_start" to instance levels/instances/shared/obj_link/022 (8100.0, -11900.0, 5700.0)
´func_instance_output_event_022´ ElementInstanceOutputEvent 100336
	Upon instance event "link_objective_next" - levels/instances/shared/obj_link/022 (8100.0, -11900.0, 5700.0):
		Send mission event "link_objective_start" to instance levels/instances/shared/obj_link/023 (8400.0, -11900.0, 5700.0)
´func_instance_set_params_001´ ElementInstanceSetParams 100354
	Change parameters of instance levels/instances/shared/obj_link/001 (1800.0, -11900.0, 5700.0): 
		Objective: heist_short1_stage1_17
		State: Disabled
		Normal: None
		Hard: None
		Very Hard: None
		Overkill: None
		Death Wish: None
´func_instance_set_params_002´ ElementInstanceSetParams 100357
	Change parameters of instance levels/instances/shared/obj_link/002 (2100.0, -11900.0, 5700.0): 
		Objective: heist_short1_stage1_01
		State: Disabled
		Normal: None
		Hard: None
		Very Hard: None
		Overkill: None
		Death Wish: None
´func_instance_set_params_003´ ElementInstanceSetParams 100358
	Change parameters of instance levels/instances/shared/obj_link/003 (2400.0, -11900.0, 5700.0): 
		Objective: heist_short1_stage1_06
		State: Disabled
		Normal: None
		Hard: None
		Very Hard: None
		Overkill: None
		Death Wish: None
´func_instance_set_params_004´ ElementInstanceSetParams 100359
	Change parameters of instance levels/instances/shared/obj_link/004 (2700.0, -11900.0, 5700.0): 
		Objective: heist_short1_stage1_02
		State: Disabled
		Normal: None
		Hard: None
		Very Hard: None
		Overkill: None
		Death Wish: None
´func_instance_set_params_005´ ElementInstanceSetParams 100365
	Change parameters of instance levels/instances/shared/obj_link/005 (3000.0, -11900.0, 5700.0): 
		Objective: heist_short1_stage1_03
		State: Disabled
		Normal: None
		Hard: None
		Very Hard: None
		Overkill: None
		Death Wish: None
´func_instance_set_params_006´ ElementInstanceSetParams 100384
	Change parameters of instance levels/instances/shared/obj_link/006 (3300.0, -11900.0, 5700.0): 
		Objective: heist_short1_stage1_04
		State: Disabled
		Normal: None
		Hard: None
		Very Hard: None
		Overkill: None
		Death Wish: None
´func_instance_set_params_007´ ElementInstanceSetParams 100385
	Change parameters of instance levels/instances/shared/obj_link/007 (3600.0, -11900.0, 5700.0): 
		Objective: heist_short1_stage1_05
		State: Disabled
		Normal: None
		Hard: None
		Very Hard: None
		Overkill: None
		Death Wish: None
´func_instance_set_params_008´ ElementInstanceSetParams 100387
	Change parameters of instance levels/instances/shared/obj_link/008 (3900.0, -11900.0, 5700.0): 
		Objective: heist_short1_stage1_06
		State: Disabled
		Normal: None
		Hard: None
		Very Hard: None
		Overkill: None
		Death Wish: None
´func_instance_set_params_009´ ElementInstanceSetParams 100390
	Change parameters of instance levels/instances/shared/obj_link/009 (4200.0, -11900.0, 5700.0): 
		Objective: heist_short1_stage1_07
		State: Disabled
		Normal: None
		Hard: None
		Very Hard: None
		Overkill: None
		Death Wish: None
´func_instance_set_params_010´ ElementInstanceSetParams 100391
	Change parameters of instance levels/instances/shared/obj_link/010 (4500.0, -11900.0, 5700.0): 
		Objective: heist_short1_stage1_03
		State: Disabled
		Normal: None
		Hard: None
		Very Hard: None
		Overkill: None
		Death Wish: None
´func_instance_set_params_011´ ElementInstanceSetParams 100394
	Change parameters of instance levels/instances/shared/obj_link/011 (4800.0, -11900.0, 5700.0): 
		Objective: heist_short1_stage1_08
		State: Disabled
		Normal: None
		Hard: None
		Very Hard: None
		Overkill: None
		Death Wish: None
´func_instance_set_params_012´ ElementInstanceSetParams 100396
	Change parameters of instance levels/instances/shared/obj_link/012 (5100.0, -11900.0, 5700.0): 
		Objective: heist_short1_stage1_07
		State: Disabled
		Normal: None
		Hard: None
		Very Hard: None
		Overkill: None
		Death Wish: None
´func_instance_set_params_013´ ElementInstanceSetParams 100397
	Change parameters of instance levels/instances/shared/obj_link/013 (5400.0, -11900.0, 5700.0): 
		Objective: heist_short1_stage1_03
		State: Disabled
		Normal: None
		Hard: None
		Very Hard: None
		Overkill: None
		Death Wish: None
´func_instance_set_params_015´ ElementInstanceSetParams 100421
	Change parameters of instance levels/instances/shared/obj_link/015 (6000.0, -11900.0, 5700.0): 
		Objective: heist_short1_stage1_09
		State: Disabled
		Normal: 2
		Hard: 2
		Very Hard: 2
		Overkill: 2
		Death Wish: 2
´func_instance_set_params_016´ ElementInstanceSetParams 100422
	Change parameters of instance levels/instances/shared/obj_link/016 (6300.0, -11900.0, 5700.0): 
		Objective: heist_short1_stage1_06
		State: Disabled
		Normal: None
		Hard: None
		Very Hard: None
		Overkill: None
		Death Wish: None
´func_instance_set_params_017´ ElementInstanceSetParams 100428
	Change parameters of instance levels/instances/shared/obj_link/017 (6600.0, -11900.0, 5700.0): 
		Objective: heist_short1_stage1_11
		State: Disabled
		Normal: None
		Hard: None
		Very Hard: None
		Overkill: None
		Death Wish: None
´func_instance_set_params_018´ ElementInstanceSetParams 100437
	Change parameters of instance levels/instances/shared/obj_link/018 (6900.0, -11900.0, 5700.0): 
		Objective: heist_short1_stage1_10
		State: Disabled
		Normal: None
		Hard: None
		Very Hard: None
		Overkill: None
		Death Wish: None
´func_instance_set_params_019´ ElementInstanceSetParams 100447
	Change parameters of instance levels/instances/shared/obj_link/019 (7200.0, -11900.0, 5700.0): 
		Objective: heist_short1_stage1_12
		State: Disabled
		Normal: None
		Hard: None
		Very Hard: None
		Overkill: None
		Death Wish: None
´func_instance_set_params_020´ ElementInstanceSetParams 100453
	Change parameters of instance levels/instances/shared/obj_link/020 (7500.0, -11900.0, 5700.0): 
		Objective: heist_short1_stage1_13
		State: Disabled
		Normal: None
		Hard: None
		Very Hard: None
		Overkill: None
		Death Wish: None
´func_instance_set_params_021´ ElementInstanceSetParams 100457
	Change parameters of instance levels/instances/shared/obj_link/021 (7800.0, -11900.0, 5700.0): 
		Objective: heist_short1_stage1_14
		State: Disabled
		Normal: None
		Hard: None
		Very Hard: None
		Overkill: None
		Death Wish: None
´func_instance_set_params_022´ ElementInstanceSetParams 100459
	Change parameters of instance levels/instances/shared/obj_link/022 (8100.0, -11900.0, 5700.0): 
		Objective: heist_short1_stage1_15
		State: Disabled
		Normal: None
		Hard: None
		Very Hard: None
		Overkill: None
		Death Wish: None
´func_instance_set_params_023´ ElementInstanceSetParams 100460
	Change parameters of instance levels/instances/shared/obj_link/023 (8400.0, -11900.0, 5700.0): 
		Objective: heist_short1_stage1_16
		State: Disabled
		Normal: None
		Hard: None
		Very Hard: None
		Overkill: None
		Death Wish: None
´bag_body_started´ ElementInstanceOutputEvent 100530
	Upon instance event "objective_started" - levels/instances/shared/obj_link/006 (3300.0, -11900.0, 5700.0):
		´enable_trigger_area_2´
´enable_trigger_area_2´ ElementToggle 105270
	TRIGGER TIMES 1
	Toggle on: ´trigger_area_006´
´hide_body_started´ ElementInstanceOutputEvent 100534
	Upon instance event "objective_started" - levels/instances/shared/obj_link/007 (3600.0, -11900.0, 5700.0):
		Execute sequence: "interaction_enabled" - units/world/street/trash_container/005 (5247.0, -3593.0, -19.0) (DELAY 10)
		´body_drop_waypoint_2´ (DELAY 10.1)
´get_bodybags_started´ ElementInstanceOutputEvent 100557
	TRIGGER TIMES 1
	Upon instance event "objective_started" - levels/instances/shared/obj_link/011 (4800.0, -11900.0, 5700.0):
		Toggle on, trigger times 1: ´2nd_body_bagged´
		´bodybags_waypoint´ (DELAY 10)
		´bodybags_loot´ (DELAY 10)
´bodybags_loot´ ElementSpawnDeployable 101718
	TRIGGER TIMES 1
	Spawn bodybags_bag at (3913.0, -699.0, 492.0).
´hide_bodies_started´ ElementInstanceOutputEvent 100566
	Upon instance event "objective_started" - levels/instances/shared/obj_link/015 (6000.0, -11900.0, 5700.0):
		´body_drop_waypoint_3´
		´VO_020´
´body_drop_waypoint_3´ ElementWaypoint 105474
	TRIGGER TIMES 1
	Place waypoint with icon "pd2_bodybag" at position (4873.0, -1869.0, 149.0)
´keep_moving_started´ ElementInstanceOutputEvent 100568
	Upon instance event "objective_started" - levels/instances/shared/obj_link/016 (6300.0, -11900.0, 5700.0):
		remove ´body_drop_waypoint_3´
		Execute sequence: "open_door" - units/payday2/props/gen_prop_door_ind_01/001 (2099.4, -1188.5, 401.0)
		´FBI_idle_animation´
		´logic_toggle_004´
		´goal_waypoint´
		´VO_022´ (DELAY 0.5)
´FBI_idle_animation´ ElementSpecialObjective 104670
	TRIGGER TIMES 1
	Create objective for someone from group: ´Server_Room_Guard´
	Make person path towards (2171.0, -1314.0, 399.0) and show "e_so_ntl_smoke_stand" for 60-80 seconds.
´logic_toggle_004´ ElementToggle 105037
	TRIGGER TIMES 1
	Toggle on: ´trigger_area_002´
´kill_guard_started´ ElementInstanceOutputEvent 100571
	Upon instance event "objective_started" - levels/instances/shared/obj_link/017 (6600.0, -11900.0, 5700.0):
		Hide object: units/dev_tools/level_tools/dev_bag_collision_8x32m/009 (3113.4, -663.5, -1899.0)
´func_instance_output_event_048´ ElementInstanceOutputEvent 100701
	Upon instance event "link_objective_next" - levels/instances/shared/obj_link/024 (4950.0, -12400.0, 5700.0):
		Send mission event "link_objective_start" to instance levels/instances/shared/obj_link/012 (5100.0, -11900.0, 5700.0)
´func_instance_set_params_024´ ElementInstanceSetParams 100720
	Change parameters of instance levels/instances/shared/obj_link/024 (4950.0, -12400.0, 5700.0): 
		Objective: heist_short1_stage1_05
		State: Disabled
		Normal: None
		Hard: None
		Very Hard: None
		Overkill: None
		Death Wish: None
´guard_dead´ ElementEnemyDummyTrigger 100877
	TRIGGER TIMES 1
	Upon event "death" of ´Security_002´:
		Hide object: units/dev_tools/level_tools/dev_ai_vis_blocker_001x2x2m/049 (4670.0, -2216.0, 189.0)
		Hide object: units/dev_tools/level_tools/dev_ai_vis_blocker_001x2x2m/048 (4670.0, -2216.0, -11.0)
		Toggle off: ´VO_011´
´base_alerted´ ElementEnemyDummyTrigger 100504
	Upon any event:
		alerted: ´ene_security_1_4´
		alerted: ´patrolling_guard002´
		alerted: ´patrolling_guard001´
	Execute:
		´logic_toggle_022´
´logic_toggle_022´ ElementToggle 100334
	TRIGGER TIMES 1
	Toggle off: ´VO_019´
´trigger_area_007´ ElementAreaTrigger 100880
	TRIGGER TIMES 1
	Box, width 210.304, height 392.7, depth 225.0, at position (4427.0, -1050.0, 321.0) with rotation (0.0, 0.0, 0.0, -1.0)
	Amount: 1
	Instigator: player
	Interval: 0.1
	Upon on_enter, execute:
		´bodybags_loot´
´trigger_area_004´ ElementAreaTrigger 100490
	TRIGGER TIMES 1
	Box, width 383.0, height 200.0, depth 291.0, at position (4961.0, -1796.0, 69.0) with rotation (0.0, 0.0, 0.707107, -0.707107)
	Amount: 3
	Instigator: unique_loot
	Interval: 0.1
	Upon on_enter, execute:
		Send mission event "objective_complete" to instance levels/instances/shared/obj_link/017 (6600.0, -11900.0, 5700.0)
		remove ´body_drop_waypoint´
		Toggle off: ´trigger_area_003´
		Toggle off: ´body_drop_waypoint´
		Toggle on: ´trigger_area´
		Debug message: body_bag_fail_safe
		´security_office_waypoint´
		´bodybags_waypoint´ (DELAY 2)
´func_sequence_trigger_001´ ElementUnitSequenceTrigger 100080
	TRIGGER TIMES 1
	Upon sequence "open_90_deg" - units/world/props/street/plywood_fence_door/004 (5087.0, -4640.0, 0.0):
		Hide object: units/dev_tools/level_tools/dev_collision_4x3m/gate (5074.0, -4900.0, 206.0)
