﻿´Startup´ MissionScriptElement 100293
	EXECUTE ON STARTUP
	Enable "mask_off" player spawn at position (1961.37, 3520.38, -6.0)
	Enable "mask_off" player spawn at position (1833.2, 3409.13, -6.0)
	Enable "mask_off" player spawn at position (2007.66, 3290.06, -6.0)
	Enable "mask_off" player spawn at position (2075.38, 3462.12, -6.0)
	Enable whisper mode.
	Execute sequence: "state_vis_hide" - units/pd2_dlc_short/props/gen_fbi_usb_stick/001 (-1950.0, -2601.0, 477.0) (DELAY 1)
	Spawn bodybags_bag at (1427.53, -2267.78, 400.0). (DELAY 1)
	Execute sequence: "deactivate_door" - units/payday2/equipment/gen_interactable_door_reinforced/001 (1997.0, -2105.0, 0.0) (DELAY 1)
	Execute sequence: "state_vis_show" - units/pd2_dlc_cro/lockpick_interactable/001 (2006.0, -2091.0, 97.0) (DELAY 1)
	Execute sequence: "disable" - units/pd2_dlc_cro/lockpick_interactable/001 (2006.0, -2091.0, 97.0) (DELAY 1)
	Hide object: units/payday2/equipment/gen_interactable_door_hcm_double/001 (-1408.0, -2000.0, 400.0) (DELAY 1)
	´ene_secret_service_2´ (150.0, 200.0, 0.0) (DELAY 1)
	´ai´ (-1400.0, 850.0, 0.0) (DELAY 1)
	´ene_secret_service_2_2´ (-1600.0, 225.0, 400.0) (DELAY 1)
	´camera001´ (DELAY 1)
	´camera003´ (DELAY 1)
	´camera004´ (DELAY 1)
	´camera005´ (DELAY 1)
	´camera006´ (DELAY 1)
	´camera007´ (DELAY 1)
	´logic_link_031´ (DELAY 1)
	´logic_link_032´ (DELAY 1)
	´ai_security_camera_014´ (DELAY 1)
	´ai_security_camera_015´ (DELAY 1)
	´Spawn_Security_Room_Guard´ (1025.0, -2875.0, 400.0) (DELAY 1)
´env_effect_play_001´ ElementPlayEffect 104141
	EXECUTE ON STARTUP
	Play effect effects/payday2/particles/heat/steam_heat at position (2367.0, -1944.0, 1708.0)
´env_effect_play_002´ ElementPlayEffect 104142
	EXECUTE ON STARTUP
	Play effect effects/particles/environment/scene_apartm_ground_vent at position (1971.0, -1622.0, 300.0)
´env_effect_play_003´ ElementPlayEffect 104144
	EXECUTE ON STARTUP
	Play effect effects/particles/environment/scene_apartm_ground_vent at position (1971.0, -1466.0, 300.0)
´ene_secret_service_2´ ElementSpawnEnemyDummy 101837
	Spawn ene_secret_service_2 (150.0, 200.0, 0.0).
´ai´ ElementSpawnEnemyDummy 101840
	Spawn ene_security_2 (-1400.0, 850.0, 0.0).
´ene_secret_service_2_2´ ElementSpawnEnemyDummy 101873
	Spawn ene_secret_service_2 (-1600.0, 225.0, 400.0).
´camera001´ ElementSecurityCamera 100235
	Enable camera: units/payday2/equipment/gen_equipment_security_camera/008 (2798.0, -2052.0, 294.0)
	fov: 60
	detection range: 15
	detection delay min: 2
	detection delay max: 3
´camera003´ ElementSecurityCamera 100338
	Enable camera: units/payday2/equipment/gen_equipment_security_camera/001 (1350.0, -1801.0, 625.0)
	fov: 60
	detection range: 15
	detection delay min: 2
	detection delay max: 3
´camera004´ ElementSecurityCamera 100351
	Enable camera: units/payday2/equipment/gen_equipment_security_camera/021 (-3200.0, -2254.0, 637.0)
	fov: 60
	detection range: 15
	detection delay min: 1
	detection delay max: 1
´camera005´ ElementSecurityCamera 100355
	Enable camera: units/payday2/equipment/gen_equipment_security_camera/023 (-1700.0, -2800.0, 658.0)
	fov: 60
	detection range: 15
	detection delay min: 1
	detection delay max: 1
´camera006´ ElementSecurityCamera 102153
	Enable camera: units/payday2/equipment/gen_equipment_security_camera/003 (-1150.0, 500.0, 250.0)
	fov: 60
	detection range: 15
	detection delay min: 2
	detection delay max: 3
´camera007´ ElementSecurityCamera 102158
	Enable camera: units/payday2/equipment/gen_equipment_security_camera/004 (0.0, 725.0, 250.0)
	fov: 60
	detection range: 15
	detection delay min: 2
	detection delay max: 3
´logic_link_031´ ElementSecurityCamera 100816
	Enable camera: units/payday2/equipment/gen_equipment_security_camera/009 (1403.0, -900.0, 270.0)
	fov: 60
	detection range: 30
	detection delay min: 2
	detection delay max: 3
´logic_link_032´ ElementSecurityCamera 100352
	Enable camera: units/payday2/equipment/gen_equipment_security_camera/005 (-1600.0, -1701.0, 633.659)
	fov: 90
	detection range: 15
	detection delay min: 2
	detection delay max: 3
´ai_security_camera_014´ ElementSecurityCamera 103047
	Enable camera: units/payday2/equipment/gen_equipment_security_camera/007 (-24.9999, -2200.0, 625.0)
	fov: 60
	detection range: 15
	detection delay min: 1
	detection delay max: 2
´ai_security_camera_015´ ElementSecurityCamera 103048
	Enable camera: units/payday2/equipment/gen_equipment_security_camera/010 (-375.0, -1800.0, 625.0)
	fov: 60
	detection range: 15
	detection delay min: 1
	detection delay max: 3
´Spawn_Security_Room_Guard´ ElementSpawnEnemyDummy 100780
	Spawn ene_security_3 (1025.0, -2875.0, 400.0).
	Make instigator path towards (1150.0, -2875.0, 400.0) and show "e_so_sneak_wait_stand".
´On_Guard_Spawn´ ElementEnemyDummyTrigger 100236
	Upon event "spawn" of ´Spawn_Ending_Guard´:
		´point_special_objective_012´
´Spawn_Ending_Guard´ ElementSpawnEnemyDummy 100174
	TRIGGER TIMES 1
	Spawn ene_security_2 (2725.0, -795.0, 0.0).
´point_special_objective_012´ ElementSpecialObjective 102747
	DISABLED
	Make instigator path towards (2546.0, -2054.0, 0.0) and show "None" for 1 seconds.
´trigger_area_001´ ElementAreaTrigger 100260
	TRIGGER TIMES 1
	Box, width 70.0, height 500.0, depth 50.0, at position (1833.2, 3409.13, 219.0) with rotation (0.0, 0.0, -0.0174522, -0.999848)
	Amount: 1
	Instigator: ai_teammates
	Interval: 0.1
	Upon on_enter, execute:
		´point_special_objective_008´
´point_special_objective_008´ ElementSpecialObjective 100275
	Make instigator path towards (2835.0, 2228.0, 0.0) and show "e_so_ntl_smoke_stand".
´trigger_area_002´ ElementAreaTrigger 100268
	TRIGGER TIMES 1
	Box, width 70.0, height 500.0, depth 50.0, at position (1961.37, 3520.38, 219.0) with rotation (0.0, 0.0, -2.08616e-07, -1.0)
	Amount: 1
	Instigator: ai_teammates
	Interval: 0.1
	Upon on_enter, execute:
		´point_special_objective_009´
´point_special_objective_009´ ElementSpecialObjective 100276
	Make instigator path towards (2225.0, 2225.0, 0.0) and show "e_so_ntl_smoke_stand".
´trigger_area_003´ ElementAreaTrigger 100270
	TRIGGER TIMES 1
	Box, width 70.0, height 500.0, depth 50.0, at position (1996.61, 3303.48, 219.0) with rotation (0.0, 0.0, -0.0174522, -0.999848)
	Amount: 1
	Instigator: ai_teammates
	Interval: 0.1
	Upon on_enter, execute:
		´point_special_objective_010´
´point_special_objective_010´ ElementSpecialObjective 100278
	Make instigator path towards (1750.0, 1925.0, 0.0) and show "e_so_ntl_smoke_stand".
´trigger_area_004´ ElementAreaTrigger 100273
	TRIGGER TIMES 1
	Box, width 70.0, height 500.0, depth 50.0, at position (2076.58, 3462.51, 225.0) with rotation (0.0, 0.0, -0.700909, -0.713251)
	Amount: 1
	Instigator: ai_teammates
	Interval: 0.1
	Upon on_enter, execute:
		´point_special_objective_011´
´point_special_objective_011´ ElementSpecialObjective 100281
	Make instigator path towards (2857.0, 1886.0, 0.0) and show "e_so_ntl_smoke_stand".
´trigger_area_005´ ElementAreaTrigger 100290
	TRIGGER TIMES 1
	Box, width 500.0, height 500.0, depth 500.0, at position (1982.61, 3430.18, 219.0) with rotation (0.0, 0.0, 0.0436194, -0.999048)
	Amount: 1
	Instigator: player
	Interval: 0.1
	Upon on_enter, execute:
		´OnPlayerSpawned´
´OnPlayerSpawned´ MissionScriptElement 101454
	TRIGGER TIMES 1
	Send mission event "link_objective_start" to instance levels/instances/shared/obj_link/001 (-1600.0, 3700.0, 4800.0)
	´GiveEquip・1・cas_usb_key´
	´VOSpawn´
´GiveEquip・1・cas_usb_key´ ElementEquipment 102278
	TRIGGER TIMES 1
	Give 1 cas_usb_key to instigator.
´VOSpawn´ MissionScriptElement 101904
	TRIGGER TIMES 1
	Debug message: Dallas: Okey, Bain. Let's get this shit over with
	´VOSpawn001´
´VOSpawn001´ MissionScriptElement 102751
	TRIGGER TIMES 1
	Debug message: Bain: We're doing this nice and quiet. The computer we're looking for should be located on the second floor. 
	Quit all current dialogue. Play dialogue: Play_pln_sh12_01
	´ChooseVO´ (DELAY 4.8)
´ChooseVO´ MissionScriptElement 102107
	BASE DELAY  (DELAY 1.5)
	TRIGGER TIMES 1
	If ´logic_counter_004（0）´ == 1:
		´fence_vo_maskon´
	If ´logic_counter_004（0）´ == 0:
		´fence_vo_maskoff´
´logic_counter_004（0）´ ElementCounter 102147
´fence_vo_maskon´ MissionScriptElement 100945
	´VOfenceMaskON´
´fence_vo_maskoff´ MissionScriptElement 100944
	´VOfenceMaskOFF´
´VOfenceMaskON´ MissionScriptElement 102072
	TRIGGER TIMES 1
	Debug message: Bain:We're not going in by the main entrance. You see that fence? That's our way in. Put on your mask and cut it open.
	Play dialogue: Play_pln_sh12_03
	´point_waypoint_008´ (DELAY 5)
´VOfenceMaskOFF´ MissionScriptElement 101899
	TRIGGER TIMES 1
	Debug message: Bain:Forget about the main entrance. Put on your mask and cut through that fence instead.
	Play dialogue: Play_pln_sh12_02
	´point_waypoint_008´ (DELAY 5)
´point_waypoint_008´ ElementWaypoint 101890
	TRIGGER TIMES 1
	Place waypoint with icon "pd2_goto" at position (2400.0, 775.0, 150.0)
´Disable_the_camera´ ElementAreaTrigger 100925
	TRIGGER TIMES 1
	Amount: 1
	Instigator: player
	Interval: 0.1
	Use shapes:
		´point_shape_008´ (2004.63, -1989.39, 200.0)
		´point_shape_009´ (2199.09, -2007.07, 200.0)
		´point_shape_010´ (2332.02, -2065.05, 200.0)
		´point_shape_002´ (2400.0, -600.0, 100.0)
	Upon on_enter, execute:
		´VO007´
		Send mission event "objective_complete" to instance levels/instances/shared/obj_link/001 (-1600.0, 3700.0, 4800.0) (DELAY 3)
		remove ´point_waypoint_001´ (DELAY 3)
´point_shape_008´ ElementShape 102766
	Cylinder, radius 297.432006836, height 435, at position (2004.63, -1989.39, 200.0) with rotation (0.0, 0.0, -0.382683, -0.92388)
´point_shape_009´ ElementShape 101818
	Cylinder, radius 297.432006836, height 435, at position (2199.09, -2007.07, 200.0) with rotation (0.0, 0.0, -0.382683, -0.92388)
´point_shape_010´ ElementShape 102764
	Cylinder, radius 297.432006836, height 435, at position (2332.02, -2065.05, 200.0) with rotation (0.0, 0.0, -0.382683, -0.92388)
´point_shape_002´ ElementShape 100538
	Box, width 1230, height 500, depth 500, at position (2400.0, -600.0, 100.0) with rotation (0.0, 0.0, 0.0, -1.0)
´point_waypoint_001´ ElementWaypoint 101482
	TRIGGER TIMES 1
	Place waypoint with icon "pd2_goto" at position (2075.0, -2050.0, 150.0)
´VO007´ MissionScriptElement 100010
	TRIGGER TIMES 1
	Play dialogue: Play_rb4_sh12_03
	´shoot_the_camera001´
	´VO002´ (DELAY 4)
´VO002´ MissionScriptElement 101905
	TRIGGER TIMES 1
	Quit all current dialogue. Play dialogue: Play_pln_sh12_05
	´shoot_the_camera´
	´logic_link_001´ (DELAY 1)
´shoot_the_camera001´ ElementDebug 100009
	Debug message: Dallas: I see the door, but there's a camera there.
´shoot_the_camera´ ElementDebug 100926
	Debug message: Bain: Use your ECM Jammer and disable it. That will give you the time needed to picklock the door.
´logic_link_001´ MissionScriptElement 102290
	´logic_random_001´ (DELAY 10)
´logic_random_001´ ElementRandom 102309
	Execute 1:
		´Bain:_Hello?_I_told_you_to_use_the_ECM_Jammer.´ (DELAY 3)
		´Bain:_What_are_you_doing?_As_long_as_that_camera_is_operational,_you're_not_getting_in_unnoticed.´ (DELAY 3)
´Bain:_Hello?_I_told_you_to_use_the_ECM_Jammer.´ ElementDebug 102306
	Debug message: Bain: Hello? I told you to use the ECM Jammer.
	Play dialogue: Play_pln_sh12_06
	Show hint: short_deployable
	´logic_link_001´
´Bain:_What_are_you_doing?_As_long_as_that_camera_is_operational,_you're_not_getting_in_unnoticed.´ ElementDebug 102289
	Debug message: Bain: What are you doing? As long as that camera is operational, you're not getting in unnoticed.
	Play dialogue: Play_pln_sh12_06
	Show hint: short_deployable
	´logic_link_001´
´func_sequence_trigger_001´ ElementUnitSequenceTrigger 100923
	TRIGGER TIMES 1
	Upon sequence "interact" - units/payday2/props/gen_interactable_panel_keycard/001 (800.0, -2780.0, 516.0):
		remove ´activate_waypoint_014´
		Toggle off: ´activate_waypoint_014´
		Execute sequence: "open_door" - units/payday2/equipment/gen_interactable_door_reinforced/003 (805.0, -2794.0, 400.0)
		Execute sequence: "off" - units/payday2/props/gen_interactable_panel_keycard/001 (800.0, -2780.0, 516.0)
		remove ´point_waypoint_019´
		Send mission event "objective_complete" to instance levels/instances/shared/obj_link/014 (-5900.0, 3700.0, 4800.0)
´activate_waypoint_014´ ElementWaypoint 101766
	TRIGGER TIMES 1
	Place waypoint with icon "pd2_door" at position (807.0, -2850.0, 551.0)
´point_waypoint_019´ ElementWaypoint 102796
	Place waypoint with icon "pd2_generic_interact" at position (800.0, -2780.0, 525.0)
´guard_death´ ElementEnemyDummyTrigger 100967
	Upon event "death" of ´Spawn_Security_Room_Guard´:
		Execute sequence: "state_interaction_enabled" - units/payday2/props/gen_prop_security_console/002 (1277.0, -2873.0, 475.0)
		Toggle off: ´ene_security_1´
		Toggle off: ´ene_security_3´
		Toggle off: ´ene_security_2´
		Send mission event "objective_complete" to instance levels/instances/shared/obj_link/015 (-6500.0, 3700.0, 4800.0)
		´disable_all_cameras´
		´VO005´
´disable_all_cameras´ MissionScriptElement 100968
	TRIGGER TIMES 1
	Disable camera: units/payday2/equipment/gen_equipment_security_camera/001 (1350.0, -1801.0, 625.0)
	Disable camera: units/payday2/equipment/gen_equipment_security_camera/021 (-3200.0, -2254.0, 637.0)
	Disable camera: units/payday2/equipment/gen_equipment_security_camera/023 (-1700.0, -2800.0, 658.0)
	Disable camera: units/payday2/equipment/gen_equipment_security_camera/010 (-375.0, -1800.0, 625.0)
	Disable camera: units/payday2/equipment/gen_equipment_security_camera/007 (-24.9999, -2200.0, 625.0)
	Disable camera: units/payday2/equipment/gen_equipment_security_camera/009 (1403.0, -900.0, 270.0)
	Disable camera: units/payday2/equipment/gen_equipment_security_camera/005 (-1600.0, -1701.0, 633.659)
	Disable camera: units/payday2/equipment/gen_equipment_security_camera/008 (2798.0, -2052.0, 294.0)
´VO005´ MissionScriptElement 101116
	TRIGGER TIMES 1
	Play dialogue: Play_rb4_sh12_10
	Debug message: Dallas: Okay, I dealt with the guard. (DELAY 2)
	Debug message: Bain: Answer the pager and we should be fine. The cameras won't present any more trouble. (DELAY 2)
	Play dialogue: Play_pln_sh12_18 (DELAY 2)
	´console_VO´ (DELAY 7)
´ene_security_1´ ElementSpawnEnemyDummy 103269
	Spawn ene_security_1 (-1675.0, -3850.0, 400.0).
´ene_security_3´ ElementSpawnEnemyDummy 103259
	Spawn ene_security_3 (-1675.0, -3775.0, 400.0).
´ene_security_2´ ElementSpawnEnemyDummy 103225
	Spawn ene_security_2 (1025.0, -3800.0, 400.0).
´console_VO´ MissionScriptElement 102105
	TRIGGER TIMES 1
	Debug message: Bain: You know what? That console panel should control all the cameras in the building. Use it and see if you can locate the computer that way.
	Play dialogue: Play_pln_sh12_19
´police_called´ ElementGlobalEventTrigger 101111
	TRIGGER TIMES 1
	Upon global event "police_called":
		If ´pointNOreturnChecker（0）´ == 0:
			´point_no_return_5sec´
		If ´pointNOreturnChecker（0）´ == 1:
			´point_no_return_25sec´
´pointNOreturnChecker（0）´ ElementCounter 100673
´point_no_return_5sec´ ElementPointOfNoReturn 101117
	TRIGGER TIMES 1
	Game-over timer on Normal, Hard, Very Hard, Overkill, Death Wish: 5
	Game-over timer on Mayhem, One Down: 15
	Disable whisper mode.
	remove ´point_waypoint_001´
	remove ´activate_waypoint_014´
	remove ´point_waypoint_004´
	remove ´point_waypoint_005´
	Quit all current dialogue. Play dialogue: Play_pln_sh12_26
	´remove_waypoint001´
	´remove_waypoint001.5´
	´disable_all_cameras´
	End mission: failed (DELAY 5)
	Debug message: mission_failed (DELAY 5)
´point_no_return_25sec´ ElementPointOfNoReturn 100318
	TRIGGER TIMES 1
	Game-over timer on Normal, Hard, Very Hard, Overkill, Death Wish: 25
	Game-over timer on Mayhem, One Down: 15
	Disable whisper mode.
	remove ´point_waypoint_001´
	remove ´activate_waypoint_014´
	remove ´point_waypoint_004´
	remove ´point_waypoint_005´
	Debug message: Bain: Get out of there NOW!
	Quit all current dialogue. Play dialogue: Play_pln_sh12_26
	´remove_waypoint001´
	´remove_waypoint001.5´
	´disable_all_cameras´
	End mission: failed (DELAY 25)
	Debug message: mission_failed (DELAY 25)
´remove_waypoint001´ ElementOperator 101911
	TRIGGER TIMES 1
	remove ´point_waypoint_008´
´remove_waypoint001.5´ ElementOperator 101950
	TRIGGER TIMES 1
	remove ´point_waypoint_010´
	remove ´point_waypoint_009´
´point_waypoint_010´ ElementWaypoint 101949
	Place waypoint with icon "pd2_wirecutter" at position (2604.0, 857.0, 119.0)
	remove ´point_waypoint_008´ (DELAY 1.1)
´point_waypoint_009´ ElementWaypoint 101948
	Place waypoint with icon "pd2_wirecutter" at position (2204.0, 857.0, 119.0)
	remove ´point_waypoint_008´ (DELAY 1.1)
´point_waypoint_004´ ElementWaypoint 101817
	TRIGGER TIMES 1
	Place waypoint with icon "pd2_door" at position (-1425.0, -2000.0, 550.0)
´point_waypoint_005´ ElementWaypoint 101822
	TRIGGER TIMES 1
	Place waypoint with icon "pd2_goto" at position (-2150.0, -2525.0, 550.0)
´Escape_trigger_area´ ElementAreaTrigger 101123
	DISABLED
	TRIGGER TIMES 1
	Box, width 354.736, height 480.0, depth 252.495, at position (2537.0, 2081.0, 0.0) with rotation (0.0, 0.0, 0.0, -1.0)
	Amount: all
	Instigator: player
	Interval: 0.1
	Upon on_enter, execute:
		´func_experience_003´
		End mission: success (DELAY 1.5)
		Debug message: mission_success (DELAY 1.5)
´func_experience_003´ ElementExperience 100001
	TRIGGER TIMES 1
	Award experience: 13000
	Debug message: exp_13000
´ECM_on´ ElementGlobalEventTrigger 101737
	TRIGGER TIMES 1
	Upon global event "ecm_jammer_on":
		Send mission event "objective_complete" to instance levels/instances/shared/obj_link/009 (-10300.0, 3800.0, 4800.0)
		Send mission event "objective_complete" to instance levels/instances/shared/obj_link/002 (-2200.0, 3700.0, 4800.0)
		If ´logic_counter_003（0）´ == 1:
			´logic_counter_001（0）´ = 1
		´VO002.5´ (DELAY 1)
´logic_counter_003（0）´ ElementCounter 102168
´logic_counter_001（0）´ ElementCounter 101751
´VO002.5´ MissionScriptElement 101956
	TRIGGER TIMES 1
	Toggle off: ´Bain:_What_are_you_doing?_As_long_as_that_camera_is_operational,_you're_not_getting_in_unnoticed.´
	Toggle off: ´logic_link_001´
	Toggle off: ´shoot_the_camera´
	Toggle off: ´logic_random_001´
	Toggle off: ´Bain:_Hello?_I_told_you_to_use_the_ECM_Jammer.´
	Toggle off: ´shoot_the_camera001´
	If ´logic_counter_007（0）´ == 0:
		Debug message: Bain: Good. Now, try lock picking that door. You haven't forgotten how to do that, right?
		Quit all current dialogue. Play dialogue: Play_pln_sh12_07
	If ´logic_counter_007（0）´ == 1:
		Debug message: Bain: Damn it, Dallas! I told to to use the ECM Jammer. Destroying it will cause us unnecessary attention.
		Quit all current dialogue. Play dialogue: Play_pln_sh12_08
´logic_counter_007（0）´ ElementCounter 100744
´trigger_global_event_001´ ElementGlobalEventTrigger 100929
	TRIGGER TIMES 1
	Upon global event "keycard":
		´logic_counter_002（0）´ = 1
		Toggle: ´trigger_area_008´
		Toggle: ´trigger_area_012´
		Send mission event "objective_complete" to instance levels/instances/shared/obj_link/013 (-5300.0, 3700.0, 4800.0)
		remove ´activate_waypoint_013´
		Debug message: Dallas: Okay, I got the keycard.
		Play dialogue: Play_rb4_sh12_09
		Toggle off: ´logic_link_024´
		Toggle off: ´logic_link_025´
´logic_counter_002（0）´ ElementCounter 101767
´trigger_area_008´ ElementAreaTrigger 101785
	DISABLED
	TRIGGER TIMES 1
	Box, width 550.0, height 500.0, depth 500.0, at position (625.0, -2950.0, 475.0) with rotation (0.0, 0.0, 0.0, -1.0)
	Amount: 1
	Instigator: player
	Interval: 0.1
	Upon on_enter, execute:
		Send mission event "objective_complete" to instance levels/instances/shared/obj_link/021 (-4100.0, 3700.0, 4800.0)
		remove ´logic_link_045´
		Send mission event "objective_complete" to instance levels/instances/shared/obj_link/022 (-4700.0, 3700.0, 4800.0)
		remove ´logic_link_045´
		remove ´point_waypoint_025´
		´logic_link_026´
		´logic_link_024´ (DELAY 1)
		Execute sequence: "state_5" - units/payday2/props/gen_interactable_panel_keycard/001 (800.0, -2780.0, 516.0) (DELAY 3)
		´point_waypoint_019´ (DELAY 3)
´trigger_area_012´ ElementAreaTrigger 102786
	TRIGGER TIMES 1
	Box, width 550.0, height 500.0, depth 500.0, at position (650.0, -2950.0, 475.0) with rotation (0.0, 0.0, 0.0, -1.0)
	Amount: 1
	Instigator: player
	Interval: 0.1
	Upon on_enter, execute:
		Send mission event "objective_complete" to instance levels/instances/shared/obj_link/021 (-4100.0, 3700.0, 4800.0) (DELAY 1)
		remove ´logic_link_045´ (DELAY 1)
		´logic_link_024´ (DELAY 2)
´activate_waypoint_013´ ElementWaypoint 102654
	DISABLED
	Place waypoint with icon "pd2_generic_interact" at position (-1073.0, -2461.0, 484.0)
´logic_link_024´ MissionScriptElement 102788
	TRIGGER TIMES 1
	Debug message: Dallas: Okay, I'm outside the security room but I need a keycard. 
	Quit all current dialogue. Play dialogue: Play_rb4_sh12_08
	´logic_link_025´ (DELAY 3.5)
´logic_link_025´ MissionScriptElement 102789
	TRIGGER TIMES 1
	Debug message: Bain: Ok, see if you can find that keycard.
	Quit all current dialogue. Play dialogue: Play_pln_sh12_15
´logic_link_045´ ElementWaypoint 103049
	Place waypoint with icon "pd2_goto" at position (600.0, -2800.0, 525.0)
´point_waypoint_025´ ElementWaypoint 103841
	Place waypoint with icon "pd2_goto" at position (-960.0, -2325.0, 500.0)
´logic_link_026´ MissionScriptElement 102791
	TRIGGER TIMES 1
	Debug message: Dallas: Okay, I'm outside the security room.
	Play dialogue: Play_pln_sh12_17
´link_objective_find_new´ ElementInstanceOutputEvent 101828
	Upon any instance event:
		"link_objective_find_new" - levels/instances/shared/obj_link/001 (-1600.0, 3700.0, 4800.0)
		"link_objective_find_new" - levels/instances/shared/obj_link/002 (-2200.0, 3700.0, 4800.0)
		"link_objective_find_new" - levels/instances/shared/obj_link/003 (-2800.0, 3700.0, 4800.0)
		"link_objective_find_new" - levels/instances/shared/obj_link/004 (-3400.0, 2700.0, 4800.0)
		"link_objective_find_new" - levels/instances/shared/obj_link/005 (-4000.0, 2700.0, 4800.0)
		"link_objective_find_new" - levels/instances/shared/obj_link/006 (-4600.0, 2700.0, 4802.5)
		"link_objective_find_new" - levels/instances/shared/obj_link/007 (-5200.0, 2700.0, 4800.0)
		"link_objective_find_new" - levels/instances/shared/obj_link/008 (-3500.0, 3700.0, 4800.0)
		"link_objective_find_new" - levels/instances/shared/obj_link/009 (-10300.0, 3800.0, 4800.0)
		"link_objective_find_new" - levels/instances/shared/obj_link/010 (-10800.0, 3800.0, 4800.0)
		"link_objective_find_new" - levels/instances/shared/obj_link/011 (-10300.0, 2700.0, 4800.0)
		"link_objective_find_new" - levels/instances/shared/obj_link/012 (-10800.0, 2700.0, 4800.0)
		"link_objective_find_new" - levels/instances/shared/obj_link/013 (-5300.0, 3700.0, 4800.0)
		"link_objective_find_new" - levels/instances/shared/obj_link/014 (-5900.0, 3700.0, 4800.0)
		"link_objective_find_new" - levels/instances/shared/obj_link/015 (-6500.0, 3700.0, 4800.0)
		"link_objective_find_new" - levels/instances/shared/obj_link/016 (-7100.0, 3700.0, 4800.0)
		"link_objective_find_new" - levels/instances/shared/obj_link/017 (-7700.0, 3700.0, 4800.0)
		"link_objective_find_new" - levels/instances/shared/obj_link/018 (-8300.0, 3700.0, 4800.0)
		"link_objective_find_new" - levels/instances/shared/obj_link/019 (-8900.0, 3700.0, 4800.0)
		"link_objective_find_new" - levels/instances/shared/obj_link/020 (-9500.0, 3700.0, 4800.0)
		"link_objective_find_new" - levels/instances/shared/obj_link/021 (-4100.0, 3700.0, 4800.0)
		"link_objective_find_new" - levels/instances/shared/obj_link/022 (-4700.0, 3700.0, 4800.0)
	Execute:
		Send mission event "link_objective_start" to instance levels/instances/shared/obj_link/001 (-1600.0, 3700.0, 4800.0)
´ai_enemy_trigger_005´ ElementEnemyDummyTrigger 101841
	Upon event "spawn" of ´ai´:
		Make instigator path towards (-1500.0, 925.0, 0.0) and show "e_so_ntl_leanwall".
´ai_enemy_trigger_006´ ElementEnemyDummyTrigger 101858
	Upon event "spawn" of ´ene_security_1_2´:
		´point_special_objective_021´
´ene_security_1_2´ ElementSpawnEnemyDummy 101838
	TRIGGER TIMES 1
	Spawn ene_security_1 (-250.0, 925.0, 0.0).
´point_special_objective_021´ ElementSpecialObjective 101869
	Make instigator path towards (-325.0, 925.0, 0.0) and show "None". Afterwards, choose new objective: ´point_special_objective_022´
´point_special_objective_022´ ElementSpecialObjective 101870
	Make instigator path towards (-1300.0, 925.0, 0.0) and show "None". Afterwards, choose new objective: ´point_special_objective_021´
´ai_enemy_trigger_007´ ElementEnemyDummyTrigger 101859
	Upon event "spawn" of ´ene_secret_service_2´:
		´point_special_objective_003´
´point_special_objective_003´ ElementSpecialObjective 101860
	Make instigator path towards (-175.0, 100.0, 0.0) and show "None". Afterwards, choose new objective: ´point_special_objective_018´
´point_special_objective_018´ ElementSpecialObjective 101861
	Make instigator path towards (-1400.0, 75.0, 0.0) and show "None". Afterwards, choose new objective: ´point_special_objective_019´
´point_special_objective_019´ ElementSpecialObjective 101862
	Make instigator path towards (-1400.0, -600.0, 0.0) and show "None". Afterwards, choose new objective: ´point_special_objective_020´
´point_special_objective_020´ ElementSpecialObjective 101863
	Make instigator path towards (-175.0, -600.0, 0.0) and show "None". Afterwards, choose new objective: ´point_special_objective_003´
´ai_enemy_trigger_008´ ElementEnemyDummyTrigger 101876
	Upon event "spawn" of ´ene_secret_service_2_2´:
		´point_special_objective_025´
´point_special_objective_025´ ElementSpecialObjective 101874
	Make instigator path towards (125.0, 200.0, 400.0) and show "None". Afterwards, choose new objective: ´point_special_objective_026´
´point_special_objective_026´ ElementSpecialObjective 101875
	Make instigator path towards (-1725.0, 200.0, 400.0) and show "None". Afterwards, choose new objective: ´point_special_objective_025´
´find_another_way!´ ElementAreaTrigger 101879
	TRIGGER TIMES 1
	Box, width 1998.2, height 500.0, depth 3640.0, at position (-700.0, 1800.0, 200.0) with rotation (0.0, 0.0, 0.0, -1.0)
	Amount: 1
	Instigator: player
	Interval: 0.1
	Upon on_enter, execute:
		´main_entrance´
´main_entrance´ ElementDebug 101881
	TRIGGER TIMES 1
	Debug message: Bain: There is way too many guards guarding the main entrance try looking for another way in!
´trigger_area_009´ ElementAreaTrigger 101898
	TRIGGER TIMES 1
	Box, width 810.0, height 595.0, depth 500.0, at position (2400.0, 1075.0, 250.0) with rotation (0.0, 0.0, 0.0, -1.0)
	Amount: 1
	Instigator: player
	Interval: 0.1
	Upon while_inside, execute:
		Execute sequence: "state_enabled" - units/payday2/props/air_prop_runway_fence/001 (2006.0, 840.0, -8.0)
		Execute sequence: "state_enabled" - units/payday2/props/air_prop_runway_fence/002 (2406.0, 840.0, -8.0)
		´remove_waypoint001´
		´point_waypoint_010´
		´point_waypoint_009´
´func_sequence_trigger_003´ ElementUnitSequenceTrigger 101912
	TRIGGER TIMES 1
	Upon sequence "open" - units/payday2/props/air_prop_runway_fence/001 (2006.0, 840.0, -8.0):
		Toggle off: ´point_waypoint_008´
		Toggle off: ´point_waypoint_009´
		Toggle off: ´point_waypoint_010´
		Toggle off: ´VOfenceMaskOFF´
		Toggle off: ´fence_vo_maskoff´
		Toggle off: ´fence_vo_maskon´
		remove ´point_waypoint_008´
		´point_waypoint_001´
		´remove_waypoint001.5´
´func_sequence_trigger_004´ ElementUnitSequenceTrigger 101913
	TRIGGER TIMES 1
	Upon sequence "open" - units/payday2/props/air_prop_runway_fence/002 (2406.0, 840.0, -8.0):
		Toggle off: ´point_waypoint_008´
		Toggle off: ´point_waypoint_009´
		Toggle off: ´point_waypoint_010´
		Toggle off: ´VOfenceMaskOFF´
		Toggle off: ´fence_vo_maskoff´
		Toggle off: ´fence_vo_maskon´
		remove ´point_waypoint_008´
		´point_waypoint_001´
		´remove_waypoint001.5´
´Camera_dead´ ElementUnitSequenceTrigger 101958
	TRIGGER TIMES 1
	Upon sequence "stop" - units/payday2/equipment/gen_equipment_security_camera/008 (2798.0, -2052.0, 294.0):
		Make chosen person path towards (500.0, 2300.0, 1300.0) and show "e_so_ntl_talk_phone" for 3 seconds. Afterwards, choose new objective: ´incestigate__so_group´
		Toggle on, trigger times 1: ´point_special_objective_012´
		Toggle off: ´VO002´
		Send mission event "objective_complete" to instance levels/instances/shared/obj_link/002 (-2200.0, 3700.0, 4800.0)
		Toggle on, trigger times 1: ´trigger_area_006´
		´logic_counter_007（0）´ += 1
		Toggle: ´instance_start_004´
		Toggle: ´choose_filter001´
		Debug message: Toggle_Objectives
		Debug message: Bain: Damn it, Dallas! I told to to use the ECM Jammer. Destroying it will cause us unnecessary attention.
		´VO002.5´ (DELAY 1)
´incestigate__so_group´ ElementSpecialObjectiveGroup 100216
	Followup objective for instigator: ´point_special_objective_012´
	Position: (0.0, 2800.0, 1300.0)
´trigger_area_006´ ElementAreaTrigger 103829
	DISABLED
	TRIGGER TIMES 1
	Box, width 1090.4, height 585.0, depth 1570.0, at position (2400.0, -725.0, 200.0) with rotation (0.0, 0.0, 0.0, -1.0)
	Amount: 1
	Instigator: enemies
	Interval: 0.1
	Upon while_inside, execute:
		´point_special_objective_012´
´instance_start_004´ ElementInstanceInputEvent 101764
	DISABLED
	Send mission event "link_objective_start" to instance levels/instances/shared/obj_link/004 (-3400.0, 2700.0, 4800.0)
´choose_filter001´ MissionScriptElement 102928
	Send mission event "link_objective_start" to instance levels/instances/shared/obj_link/008 (-3500.0, 3700.0, 4800.0)
´trigger_area_010´ ElementAreaTrigger 102054
	TRIGGER TIMES 1
	Box, width 127.71, height 295.0, depth 132.0, at position (-358.0, -2444.0, 348.0) with rotation (0.0, 0.0, 0.0, -1.0)
	Amount: 1
	Instigator: unique_loot
	Interval: 0.1
	Upon on_enter, execute:
		remove ´point_waypoint_004´
		Send mission event "objective_complete" to instance levels/instances/shared/obj_link/012 (-10800.0, 2700.0, 4800.0)
		Toggle on, trigger times 1: ´point_interaction_002´
		´bodyhidden´
´bodyhidden´ ElementDebug 102062
	TRIGGER TIMES 1
	Debug message: Dallas: All right, the body is hidden. So where's that computer we're after?
´point_interaction_002´ ElementInteraction 100303
	TRIGGER TIMES 1
	Create interaction object with ID "fbi_usb_insert" at position (-1950.0, -2600.0, 481.0)
	Upon interaction:
		Execute sequence: "set_hack_time_20" - units/payday2/equipment/gen_interactable_objective_laptop/mcm_laptop/001 (-1952.0, -2577.0, 475.159)
		Execute sequence: "interact_enabled" - units/payday2/equipment/gen_interactable_objective_laptop/mcm_laptop/001 (-1952.0, -2577.0, 475.159)
		Execute sequence: "state_contour_on" - units/payday2/equipment/gen_interactable_objective_laptop/mcm_laptop/001 (-1952.0, -2577.0, 475.159)
		Execute sequence: "state_vis_show" - units/pd2_dlc_short/props/gen_fbi_usb_stick/001 (-1950.0, -2601.0, 477.0)
		remove ´point_waypoint_007´
		´point_waypoint_002´
´point_waypoint_007´ ElementWaypoint 101901
	Place waypoint with icon "pd2_generic_interact" at position (-1949.0, -2601.0, 476.0)
´point_waypoint_002´ ElementWaypoint 101685
	TRIGGER TIMES 1
	Place waypoint with icon "pd2_computer" at position (-1960.0, -2574.0, 526.0)
´On_Guard_Death´ ElementEnemyDummyTrigger 102066
	Upon event "death" of ´Spawn_Ending_Guard´:
		Disable outline: ´Spawn_Ending_Guard´
		Send mission event "objective_complete" to instance levels/instances/shared/obj_link/005 (-4000.0, 2700.0, 4800.0)
		remove ´point_waypoint_026´
		´VO_when_player_kills_last_guard´
´point_waypoint_026´ ElementWaypoint 103853
	Place waypoint with icon "pd2_kill" at position (2546.0, -2054.0, 215.0)
´VO_when_player_kills_last_guard´ MissionScriptElement 102336
	TRIGGER TIMES 1
	Debug message: Dallas: Got you!
	Play dialogue: Play_rb4_sh12_05
	´VO_when_player_kills_last_guard001´ (DELAY 1)
´VO_when_player_kills_last_guard001´ MissionScriptElement 102808
	TRIGGER TIMES 1
	Quit all current dialogue. Play dialogue: Play_pln_sh12_11
	Debug message: Bain: Great. Answer the pager first, then get rid of the body. That dumpster should do the job. (DELAY 2)
´computer_room001´ ElementAreaTrigger 101107
	TRIGGER TIMES 1
	Box, width 548.563, height 500.0, depth 605.0, at position (-2259.0, -2525.0, 550.0) with rotation (0.0, 0.0, 0.0, -1.0)
	Amount: 1
	Instigator: player
	Interval: 0.1
	Upon on_enter, execute:
		Execute sequence: "state_contour_off" - units/payday2/equipment/gen_interactable_objective_laptop/mcm_laptop/001 (-1952.0, -2577.0, 475.159)
		Send mission event "objective_complete" to instance levels/instances/shared/obj_link/018 (-8300.0, 3700.0, 4800.0)
		remove ´point_waypoint_005´
		´Access_computer´
		´computer_Enabled´
´Access_computer´ MissionScriptElement 102612
	TRIGGER TIMES 1
	´point_waypoint_007´
´computer_Enabled´ MissionScriptElement 101995
	TRIGGER TIMES 1
	Debug message: Bain: Put in the flash drive and get started.
	Play dialogue: Play_pln_sh12_22
´picklock_door´ ElementUnitSequenceTrigger 101814
	TRIGGER TIMES 1
	Upon sequence "done_opened" - units/payday2/equipment/gen_interactable_door_hcm_double/001 (-1408.0, -2000.0, 400.0):
		remove ´point_waypoint_004´
		´ene_security_2_2´ (-3000.0, -2242.0, 400.0)
´ene_security_2_2´ ElementSpawnEnemyDummy 103759
	TRIGGER TIMES 1
	Spawn ene_security_2 (-3000.0, -2242.0, 400.0).
´Spawn_Security_guard´ ElementAreaTrigger 101434
	DISABLED
	TRIGGER TIMES 1
	Box, width 500.0, height 500.0, depth 500.0, at position (100.0, 2500.0, 1300.0) with rotation (0.0, 0.0, 0.0, -1.0)
	Amount: 1
	Instigator: player
	Interval: 0.1
	Upon on_enter, execute:
		´Spawn_Ending_Guard´ (2725.0, -795.0, 0.0)
´func_sequence_trigger_008´ ElementUnitSequenceTrigger 102547
	TRIGGER TIMES 1
	Upon sequence "anim_open_door" - units/payday2/equipment/gen_interactable_door_reinforced/001 (1997.0, -2105.0, 0.0):
		Send mission event "objective_complete" to instance levels/instances/shared/obj_link/003 (-2800.0, 3700.0, 4800.0)
		remove ´activate_waypoint_003´
		Send mission event "objective_disable" to instance levels/instances/shared/obj_link/002 (-2200.0, 3700.0, 4800.0)
		Toggle off: ´point_interaction_005´
		Toggle off: ´point_interaction_006´
		Execute sequence: "state_vis_hide" - units/pd2_dlc_cro/lockpick_interactable/001 (2006.0, -2091.0, 97.0)
´activate_waypoint_003´ ElementWaypoint 102544
	Place waypoint with icon "pd2_door" at position (2000.0, -2050.0, 114.0)
´point_interaction_005´ ElementInteraction 100080
	Create interaction object with ID "pick_lock_hard" with timer 14.0at position (2003.0, -2092.0, 110.0)
	Upon interaction:
		Execute sequence: "open_door" - units/payday2/equipment/gen_interactable_door_reinforced/001 (1997.0, -2105.0, 0.0)
		´VO003´ (DELAY 5)
´point_interaction_006´ ElementInteraction 103597
	Create interaction object with ID "pick_lock_hard_no_skill" with timer 14.0at position (2003.0, -2092.0, 110.0)
	Upon interaction:
		Execute sequence: "open_door" - units/payday2/equipment/gen_interactable_door_reinforced/001 (1997.0, -2105.0, 0.0)
		´VO003´ (DELAY 5)
´VO003´ MissionScriptElement 101907
	TRIGGER TIMES 1
	Debug message: Dallas: Shit. You have to give credit to Gensec. They really know how to make secure doors.
	Play dialogue: Play_rb4_sh12_04
	´VO004´ (DELAY 5)
´VO004´ MissionScriptElement 102776
	TRIGGER TIMES 1
	Debug message: Bain:You see why we're doing this? Back in the day you would have been done by now. Now get inside.
	Play dialogue: Play_pln_sh12_09
´func_sequence_trigger_009´ ElementUnitSequenceTrigger 101256
	TRIGGER TIMES 1
	Upon sequence "timer_done" - units/payday2/equipment/gen_interactable_objective_laptop/mcm_laptop/001 (-1952.0, -2577.0, 475.159):
		remove ´point_waypoint_002´
		Execute sequence: "state_interaction_enabled" - units/pd2_dlc_short/props/gen_fbi_usb_stick/001 (-1950.0, -2601.0, 477.0)
		´hack_done_2´
		´point_waypoint_007´
´hack_done_2´ MissionScriptElement 102008
	TRIGGER TIMES 1
	Debug message: Dallas: That's it, Bain. All the records have been deleted.
	Play dialogue: Play_rb4_sh12_16
	Debug message: Bain: Get the flash drive and leave. And, Dallas, don't let them see you on the way out. (DELAY 4)
	Quit all current dialogue. Play dialogue: Play_pln_sh12_24 (DELAY 4)
´func_sequence_trigger_010´ ElementUnitSequenceTrigger 101108
	TRIGGER TIMES 1
	Upon sequence "interact" - units/payday2/equipment/gen_interactable_objective_laptop/mcm_laptop/001 (-1952.0, -2577.0, 475.159):
		Execute sequence: "state_contour_off" - units/payday2/equipment/gen_interactable_objective_laptop/mcm_laptop/001 (-1952.0, -2577.0, 475.159)
		´start_hack´
		´logic_link_055´
´start_hack´ MissionScriptElement 102007
	TRIGGER TIMES 1
	Debug message: Dallas: OK. The access codes seems to have worked.
	Play dialogue: Play_rb4_sh12_15
	Debug message: Bain: Perfect! Now, give it a few seconds and we should be done. (DELAY 5)
	Quit all current dialogue. Play dialogue: Play_pln_sh12_23 (DELAY 5)
´logic_link_055´ MissionScriptElement 101749
	DISABLED
	TRIGGER TIMES 1
	´ene_security_1_3´ (1531.0, -2000.0, 398.0)
´ene_security_1_3´ ElementSpawnEnemyDummy 100709
	Spawn ene_security_1 (1531.0, -2000.0, 398.0).
´func_sequence_trigger_011´ ElementUnitSequenceTrigger 102611
	TRIGGER TIMES 1
	Upon sequence "interact" - units/payday2/props/gen_prop_security_console/002 (1277.0, -2873.0, 475.0):
		Debug message: console_interact
´trigger_special_objective_001´ ElementSpecialObjectiveTrigger 102658
	Upon special objective event "complete" - ´point_special_objective_012´:
		Debug message: Bain: Shit he saw the broken camera! deal with him quickly
		Play audio "dsp_radio_buzz" at position (3400.0, 3300.0, 1300.0)
		Play audio "l2n_b26" at position (3500.0, 3400.0, 1300.0)
		´point_waypoint_026´
´trigger_mask´ ElementPlayerStateTrigger 100943
	TRIGGER TIMES 1
	Upon player state change "standard":
		´logic_counter_004（0）´ = 1
´point_access_camera_trigger_001´ ElementAccessCameraTrigger 100966
	Upon any camera event:
		accessed: ´point_access_camera_002´
		accessed: ´point_access_camera_001´
	Execute:
		´VO_found_guard_area´
		´ene_security_1_2´ (-250.0, 925.0, 0.0)
´point_access_camera_002´ ElementAccessCamera 101872
	Add camera to player camera feed: units/payday2/equipment/gen_equipment_security_camera/003 (-1150.0, 500.0, 250.0)
´point_access_camera_001´ ElementAccessCamera 101871
	Add camera to player camera feed: units/payday2/equipment/gen_equipment_security_camera/004 (0.0, 725.0, 250.0)
´VO_found_guard_area´ MissionScriptElement 101883
	TRIGGER TIMES 1
	Debug message: Dallas: Okay... more guards in the lobby.
	Play dialogue: Play_rb4_sh12_11
´point_access_camera_trigger_002´ ElementAccessCameraTrigger 102333
	Upon camera event "accessed" - ´point_access_camera_003´:
		Send mission event "objective_complete" to instance levels/instances/shared/obj_link/017 (-7700.0, 3700.0, 4800.0)
		remove ´point_waypoint_018´
		Show object: units/payday2/equipment/gen_interactable_door_hcm_double/001 (-1408.0, -2000.0, 400.0)
		Hide object: units/payday2/props/hcm_prop_door_double_static/001 (-1408.0, -2000.0, 400.0)
		´VO_found_laptop´
		´enable_contour_on_laptop´
´point_access_camera_003´ ElementAccessCamera 102715
	Create invisible player camera at position: -1699.79, -2741.27, 669.605
´VO_found_laptop´ MissionScriptElement 101909
	TRIGGER TIMES 1
	Debug message: Dallas:Hey! I think I see it. Yeah, that should be the computer we're after. And I think it's close by.
	Quit all current dialogue. Play dialogue: Play_rb4_sh12_12
	Debug message: Bain: Excellent! Go there and get hacking. (DELAY 5)
	Play dialogue: Play_pln_sh12_20 (DELAY 5)
´enable_contour_on_laptop´ ElementUnitSequence 102720
	TRIGGER TIMES 1
	Execute sequence: "state_contour_on" - units/payday2/equipment/gen_interactable_objective_laptop/mcm_laptop/001 (-1952.0, -2577.0, 475.159)
´point_waypoint_018´ ElementWaypoint 102721
	Place waypoint with icon "pd2_generic_interact" at position (1275.0, -2875.0, 513.0)
´point_interaction_001´ ElementInteraction 102410
	DISABLED
	TRIGGER TIMES 1
	Create interaction object with ID "open_door" at position (-106.0, -2196.0, 510.0)
	Upon interaction:
		´´logic_counter_006（0）´＋＝1´
		´func_sequence_015´
´´logic_counter_006（0）´＋＝1´ ElementCounterOperator 102894
	TRIGGER TIMES 1
	´logic_counter_006（0）´ += 1
	Execute sequence: "open_door" - units/pd2_dlc_arena/equipment/gen_interactable_door_reinforced_v2/002 (-95.0002, -2204.0, 399.0)
´logic_counter_006（0）´ ElementCounter 102895
´func_sequence_015´ ElementUnitSequence 100663
	DISABLED
	Execute sequence: "open_door" - units/pd2_dlc_arena/equipment/gen_interactable_door_reinforced_v2/002 (-95.0002, -2204.0, 399.0)
´trigger_area_017´ ElementAreaTrigger 100196
	DISABLED
	TRIGGER TIMES 1
	Box, width 397.76, height 500.0, depth 318.6, at position (1577.0, -2300.0, 115.0) with rotation (0.0, 0.0, 0.0, -1.0)
	Amount: 1
	Instigator: player
	Interval: 0.1
	Upon on_enter, execute:
		Send mission event "objective_complete" to instance levels/instances/shared/obj_link/004 (-3400.0, 2700.0, 4800.0)
		remove ´activate_waypoint_004´
		Execute sequence: "disable" - units/pd2_dlc_cro/lockpick_interactable/002 (1558.0, -2233.0, 497.0)
´activate_waypoint_004´ ElementWaypoint 101880
	Place waypoint with icon "pd2_door" at position (1598.0, -2226.0, 506.0)
´func_sequence_trigger_014´ ElementUnitSequenceTrigger 103768
	TRIGGER TIMES 1
	Upon sequence "stop" - units/payday2/equipment/gen_equipment_security_camera/001 (1350.0, -1801.0, 625.0):
		´ene_security_2´ (1025.0, -3800.0, 400.0)
´ai_enemy_trigger_001´ ElementEnemyDummyTrigger 103769
	Upon event "spawn" of ´ene_security_2_2´:
		´point_special_objective_032´
´point_special_objective_032´ ElementSpecialObjective 100398
	Make instigator path towards (-1100.0, -2373.0, 400.0) and show "e_so_ntl_idle_clock" for 10-15 seconds. Afterwards, choose new objective: ´point_special_objective_014´
´point_special_objective_014´ ElementSpecialObjective 100370
	Make instigator path towards (-900.0, -2000.0, 400.0) and show "None". Afterwards, choose new objective: ´point_special_objective_031´
´point_special_objective_031´ ElementSpecialObjective 100397
	Make instigator path towards (575.0, -2850.0, 400.0) and show "None". Afterwards, choose new objective: ´point_special_objective_032´
´ai_enemy_trigger_002´ ElementEnemyDummyTrigger 103770
	Upon event "death" of ´ene_security_2_2´:
		´logic_counter_008（0）´ += 1
		Send mission event "objective_complete" to instance levels/instances/shared/obj_link/018 (-8300.0, 3700.0, 4800.0)
		remove ´point_waypoint_005´
		Toggle on: ´logic_link_055´
		´computer_Enabled´
´logic_counter_008（0）´ ElementCounter 103031
´trigger_area_018´ ElementAreaTrigger 103772
	TRIGGER TIMES 1
	Use shape: ´point_shape_005´ (2764.0, -2048.0, 31.0)
	Amount: 1
	Instigator: unique_loot
	Interval: 0.1
	Upon on_enter, execute:
		Send mission event "objective_complete" to instance levels/instances/shared/obj_link/007 (-5200.0, 2700.0, 4800.0)
		remove ´activate_waypoint_007´
		Execute sequence: "enable" - units/pd2_dlc_cro/lockpick_interactable/002 (1558.0, -2233.0, 497.0)
		Toggle on, trigger times 1: ´trigger_area_022´
		´logic_link_038´
		´´logic_counter_005（0）´＋＝1´
		If ´logic_counter_005（0）´ == 2: (DELAY 0.1)
			´logic_link_035´
´point_shape_005´ ElementShape 103773
	Box, width 152, height 211.199996948, depth 212.236999512, at position (2764.0, -2048.0, 31.0) with rotation (0.0, 0.0, 0.0, -1.0)
´activate_waypoint_007´ ElementWaypoint 103804
	Place waypoint with icon "pd2_bodybag" at position (2736.0, -2050.0, 150.0)
´logic_link_038´ MissionScriptElement 101030
	TRIGGER TIMES 1
	Debug message: Bain: Get back inside and find the PC.
	Play dialogue: Play_pln_sh12_12
´logic_counter_005（0）´ ElementCounter 100911
´logic_link_035´ MissionScriptElement 100910
	TRIGGER TIMES 1
	remove ´point_waypoint_027´
	´activate_waypoint_004´
´´logic_counter_005（0）´＋＝1´ ElementCounterOperator 100892
	TRIGGER TIMES 1
	´logic_counter_005（0）´ += 1
´trigger_area_022´ ElementAreaTrigger 100792
	DISABLED
	TRIGGER TIMES 1
	Box, width 345.0, height 500.0, depth 200.0, at position (1600.0, -2300.0, 600.0) with rotation (0.0, 0.0, 0.0, -1.0)
	Amount: 1
	Instigator: player
	Interval: 0.1
	Upon on_enter, execute:
		Debug message: Bain: Make sure you grab an extra body bag. My treat this time.
		Quit all current dialogue. Play dialogue: Play_pln_sh12_27
		Debug message: Bain: Yeah, yeah. (DELAY 3)
		Play dialogue: Play_rb4_sh12_18 (DELAY 3)
´point_waypoint_027´ ElementWaypoint 100963
	TRIGGER TIMES 1
	Place waypoint with icon "pd2_generic_look" at position (1746.0, -2259.0, 475.0)
´func_instance_set_params_001´ ElementInstanceSetParams 100885
	Change parameters of instance levels/instances/shared/obj_link/001 (-1600.0, 3700.0, 4800.0): 
		Objective: heist_short1_stage2_01
		State: Disabled
		Normal: None
		Hard: None
		Very Hard: None
		Overkill: None
		Death Wish: None
´func_instance_set_params_002´ ElementInstanceSetParams 100947
	Change parameters of instance levels/instances/shared/obj_link/002 (-2200.0, 3700.0, 4800.0): 
		Objective: heist_short1_stage2_09
		State: Disabled
		Normal: None
		Hard: None
		Very Hard: None
		Overkill: None
		Death Wish: None
´func_instance_set_params_003´ ElementInstanceSetParams 101448
	Change parameters of instance levels/instances/shared/obj_link/003 (-2800.0, 3700.0, 4800.0): 
		Objective: heist_short1_stage2_03
		State: Disabled
		Normal: None
		Hard: None
		Very Hard: None
		Overkill: None
		Death Wish: None
´func_instance_set_params_004´ ElementInstanceSetParams 101455
	Change parameters of instance levels/instances/shared/obj_link/004 (-3400.0, 2700.0, 4800.0): 
		Objective: heist_short1_stage2_21
		State: Disabled
		Normal: None
		Hard: None
		Very Hard: None
		Overkill: None
		Death Wish: None
´func_instance_set_params_005´ ElementInstanceSetParams 101456
	Change parameters of instance levels/instances/shared/obj_link/005 (-4000.0, 2700.0, 4800.0): 
		Objective: heist_short1_stage2_05
		State: Disabled
		Normal: None
		Hard: None
		Very Hard: None
		Overkill: None
		Death Wish: None
´func_instance_set_params_006´ ElementInstanceSetParams 101480
	Change parameters of instance levels/instances/shared/obj_link/006 (-4600.0, 2700.0, 4802.5): 
		Objective: heist_short1_stage2_06
		State: Disabled
		Normal: None
		Hard: None
		Very Hard: None
		Overkill: None
		Death Wish: None
´func_instance_set_params_007´ ElementInstanceSetParams 101481
	Change parameters of instance levels/instances/shared/obj_link/007 (-5200.0, 2700.0, 4800.0): 
		Objective: heist_short1_stage2_07
		State: Disabled
		Normal: None
		Hard: None
		Very Hard: None
		Overkill: None
		Death Wish: None
´func_instance_set_params_008´ ElementInstanceSetParams 101506
	Change parameters of instance levels/instances/shared/obj_link/008 (-3500.0, 3700.0, 4800.0): 
		Objective: heist_short1_stage2_21
		State: Disabled
		Normal: None
		Hard: None
		Very Hard: None
		Overkill: None
		Death Wish: None
´func_instance_set_params_009´ ElementInstanceSetParams 101561
	Change parameters of instance levels/instances/shared/obj_link/009 (-10300.0, 3800.0, 4800.0): 
		Objective: heist_short1_stage2_09
		State: Disabled
		Normal: None
		Hard: None
		Very Hard: None
		Overkill: None
		Death Wish: None
´func_instance_set_params_010´ ElementInstanceSetParams 101577
	Change parameters of instance levels/instances/shared/obj_link/010 (-10800.0, 3800.0, 4800.0): 
		Objective: heist_short1_stage2_10
		State: Disabled
		Normal: None
		Hard: None
		Very Hard: None
		Overkill: None
		Death Wish: None
´func_instance_set_params_011´ ElementInstanceSetParams 101629
	Change parameters of instance levels/instances/shared/obj_link/011 (-10300.0, 2700.0, 4800.0): 
		Objective: heist_short1_stage2_11
		State: Disabled
		Normal: None
		Hard: None
		Very Hard: None
		Overkill: None
		Death Wish: None
´func_instance_set_params_012´ ElementInstanceSetParams 101640
	Change parameters of instance levels/instances/shared/obj_link/012 (-10800.0, 2700.0, 4800.0): 
		Objective: heist_short1_stage2_12
		State: Disabled
		Normal: None
		Hard: None
		Very Hard: None
		Overkill: None
		Death Wish: None
´func_instance_set_params_013´ ElementInstanceSetParams 101643
	Change parameters of instance levels/instances/shared/obj_link/013 (-5300.0, 3700.0, 4800.0): 
		Objective: heist_short1_stage2_13
		State: Disabled
		Normal: None
		Hard: None
		Very Hard: None
		Overkill: None
		Death Wish: None
´func_instance_set_params_014´ ElementInstanceSetParams 101644
	Change parameters of instance levels/instances/shared/obj_link/014 (-5900.0, 3700.0, 4800.0): 
		Objective: heist_short1_stage2_14
		State: Disabled
		Normal: None
		Hard: None
		Very Hard: None
		Overkill: None
		Death Wish: None
´func_instance_set_params_015´ ElementInstanceSetParams 101645
	Change parameters of instance levels/instances/shared/obj_link/015 (-6500.0, 3700.0, 4800.0): 
		Objective: heist_short1_stage2_15
		State: Disabled
		Normal: None
		Hard: None
		Very Hard: None
		Overkill: None
		Death Wish: None
´func_instance_set_params_016´ ElementInstanceSetParams 101664
	Change parameters of instance levels/instances/shared/obj_link/016 (-7100.0, 3700.0, 4800.0): 
		Objective: heist_short1_stage2_16
		State: Disabled
		Normal: None
		Hard: None
		Very Hard: None
		Overkill: None
		Death Wish: None
´func_instance_set_params_017´ ElementInstanceSetParams 101667
	Change parameters of instance levels/instances/shared/obj_link/017 (-7700.0, 3700.0, 4800.0): 
		Objective: heist_short1_stage2_17
		State: Disabled
		Normal: None
		Hard: None
		Very Hard: None
		Overkill: None
		Death Wish: None
´func_instance_set_params_018´ ElementInstanceSetParams 101686
	Change parameters of instance levels/instances/shared/obj_link/018 (-8300.0, 3700.0, 4800.0): 
		Objective: heist_short1_stage2_18
		State: Disabled
		Normal: None
		Hard: None
		Very Hard: None
		Overkill: None
		Death Wish: None
´func_instance_set_params_019´ ElementInstanceSetParams 101687
	Change parameters of instance levels/instances/shared/obj_link/019 (-8900.0, 3700.0, 4800.0): 
		Objective: heist_short1_stage2_19
		State: Disabled
		Normal: None
		Hard: None
		Very Hard: None
		Overkill: None
		Death Wish: None
´func_instance_set_params_020´ ElementInstanceSetParams 101695
	Change parameters of instance levels/instances/shared/obj_link/020 (-9500.0, 3700.0, 4800.0): 
		Objective: heist_short1_stage2_20
		State: Disabled
		Normal: None
		Hard: None
		Very Hard: None
		Overkill: None
		Death Wish: None
´instance_next_001´ ElementInstanceOutputEvent 101834
	Upon instance event "link_objective_next" - levels/instances/shared/obj_link/001 (-1600.0, 3700.0, 4800.0):
		Send mission event "link_objective_start" to instance levels/instances/shared/obj_link/002 (-2200.0, 3700.0, 4800.0)
´instance_next_002´ ElementInstanceOutputEvent 101835
	Upon instance event "link_objective_next" - levels/instances/shared/obj_link/002 (-2200.0, 3700.0, 4800.0):
		Send mission event "link_objective_start" to instance levels/instances/shared/obj_link/003 (-2800.0, 3700.0, 4800.0)
´instance_next_003´ ElementInstanceOutputEvent 101836
	Upon instance event "link_objective_next" - levels/instances/shared/obj_link/003 (-2800.0, 3700.0, 4800.0):
		´choose_filter001´
		´instance_start_004´ (DELAY 0.1)
´instance_next_004´ ElementInstanceOutputEvent 101916
	Upon instance event "link_objective_next" - levels/instances/shared/obj_link/004 (-3400.0, 2700.0, 4800.0):
		Send mission event "link_objective_start" to instance levels/instances/shared/obj_link/005 (-4000.0, 2700.0, 4800.0)
´instance_next_005´ ElementInstanceOutputEvent 101944
	Upon instance event "link_objective_next" - levels/instances/shared/obj_link/005 (-4000.0, 2700.0, 4800.0):
		Send mission event "link_objective_start" to instance levels/instances/shared/obj_link/006 (-4600.0, 2700.0, 4802.5)
´instance_next_006´ ElementInstanceOutputEvent 101954
	Upon instance event "link_objective_next" - levels/instances/shared/obj_link/006 (-4600.0, 2700.0, 4802.5):
		Send mission event "link_objective_start" to instance levels/instances/shared/obj_link/007 (-5200.0, 2700.0, 4800.0)
´instance_next_007´ ElementInstanceOutputEvent 101959
	Upon instance event "link_objective_next" - levels/instances/shared/obj_link/007 (-5200.0, 2700.0, 4800.0):
		Send mission event "link_objective_start" to instance levels/instances/shared/obj_link/008 (-3500.0, 3700.0, 4800.0)
´instance_next_008´ ElementInstanceOutputEvent 101960
	Upon instance event "link_objective_next" - levels/instances/shared/obj_link/008 (-3500.0, 3700.0, 4800.0):
		Send mission event "link_objective_start" to instance levels/instances/shared/obj_link/021 (-4100.0, 3700.0, 4800.0)
´instance_next_009´ ElementInstanceOutputEvent 101994
	Upon instance event "link_objective_next" - levels/instances/shared/obj_link/009 (-10300.0, 3800.0, 4800.0):
		Send mission event "link_objective_start" to instance levels/instances/shared/obj_link/010 (-10800.0, 3800.0, 4800.0)
´instance_next_013´ ElementInstanceOutputEvent 102457
	Upon instance event "link_objective_next" - levels/instances/shared/obj_link/013 (-5300.0, 3700.0, 4800.0):
		Send mission event "link_objective_start" to instance levels/instances/shared/obj_link/014 (-5900.0, 3700.0, 4800.0)
´instance_next_014´ ElementInstanceOutputEvent 102458
	Upon instance event "link_objective_next" - levels/instances/shared/obj_link/014 (-5900.0, 3700.0, 4800.0):
		Send mission event "link_objective_start" to instance levels/instances/shared/obj_link/015 (-6500.0, 3700.0, 4800.0)
´instance_next_015´ ElementInstanceOutputEvent 102459
	Upon instance event "link_objective_next" - levels/instances/shared/obj_link/015 (-6500.0, 3700.0, 4800.0):
		Send mission event "link_objective_start" to instance levels/instances/shared/obj_link/016 (-7100.0, 3700.0, 4800.0)
´instance_next_016´ ElementInstanceOutputEvent 102461
	Upon instance event "link_objective_next" - levels/instances/shared/obj_link/016 (-7100.0, 3700.0, 4800.0):
		Send mission event "link_objective_start" to instance levels/instances/shared/obj_link/017 (-7700.0, 3700.0, 4800.0)
´instance_next_017´ ElementInstanceOutputEvent 102467
	Upon instance event "link_objective_next" - levels/instances/shared/obj_link/017 (-7700.0, 3700.0, 4800.0):
		Send mission event "link_objective_start" to instance levels/instances/shared/obj_link/018 (-8300.0, 3700.0, 4800.0)
´instance_next_018´ ElementInstanceOutputEvent 102468
	Upon instance event "link_objective_next" - levels/instances/shared/obj_link/018 (-8300.0, 3700.0, 4800.0):
		Send mission event "link_objective_start" to instance levels/instances/shared/obj_link/019 (-8900.0, 3700.0, 4800.0) (DELAY 0.1)
´instance_next_019´ ElementInstanceOutputEvent 102471
	Upon instance event "link_objective_next" - levels/instances/shared/obj_link/019 (-8900.0, 3700.0, 4800.0):
		Send mission event "link_objective_start" to instance levels/instances/shared/obj_link/020 (-9500.0, 3700.0, 4800.0)
´instance_started_002´ ElementInstanceOutputEvent 102479
	Upon instance event "objective_started" - levels/instances/shared/obj_link/002 (-2200.0, 3700.0, 4800.0):
		Show hint: short_deployable
´instance_started_003´ ElementInstanceOutputEvent 102485
	Upon instance event "objective_started" - levels/instances/shared/obj_link/003 (-2800.0, 3700.0, 4800.0):
		´activate_waypoint_003´
´instance_started_004´ ElementInstanceOutputEvent 102488
	Upon instance event "objective_started" - levels/instances/shared/obj_link/004 (-3400.0, 2700.0, 4800.0):
		Toggle on, trigger times 1: ´trigger_area_017´
		Debug message: Access the 2nd floor
		´activate_waypoint_004´
´instance_started_005´ ElementInstanceOutputEvent 102503
	Upon instance event "objective_started" - levels/instances/shared/obj_link/005 (-4000.0, 2700.0, 4800.0):
		´guard_inc_VO´
		´Spawn_Ending_Guard´ (2725.0, -795.0, 0.0)
´guard_inc_VO´ MissionScriptElement 102672
	TRIGGER TIMES 1
	Debug message: Bain: Damn! Incoming security guard outside! Deal with him before he sees the broken camera and triggers the alarm!
	Quit all current dialogue. Play dialogue: Play_pln_sh12_10
´instance_started_007´ ElementInstanceOutputEvent 102514
	Upon instance event "objective_started" - levels/instances/shared/obj_link/007 (-5200.0, 2700.0, 4800.0):
		´activate_waypoint_007´
´instance_started_008´ ElementInstanceOutputEvent 102516
	Upon instance event "objective_started" - levels/instances/shared/obj_link/008 (-3500.0, 3700.0, 4800.0):
		Debug message: start_keep_moving
		Debug message: look for the laptop
		´activate_waypoint_004´
´instance_started_009´ ElementInstanceOutputEvent 102523
	Upon instance event "objective_started" - levels/instances/shared/obj_link/009 (-10300.0, 3800.0, 4800.0):
		´logic_counter_003（0）´ = 1
		´logic_link_021´
´logic_link_021´ MissionScriptElement 102761
	TRIGGER TIMES 1
	Debug message: We have another guard over here and a camera. I can't sneak by.
	´deploy_ECM´ (DELAY 2)
´deploy_ECM´ MissionScriptElement 101961
	BASE DELAY  (DELAY 1)
	TRIGGER TIMES 1
	Debug message: Bain: Don't worry, we got this. I knew the ECM Jammer would come in handy. Now, deploy it nearby. It will disable the camera for a few moments where you can use the opportunity and take care of that guard.
	Execute 1: (DELAY 10)
		´Bain:Make_sure_you_deploy_the_ECM_Jammer_before_going_after_the_guard._If_that_camera_sees_anything_suspicious_we_will_be_screwed.´
		´Bain:_Deploy_your_ECM_Jammer_and_disable_the_camera._Only_after_you've_done_that,_you_can_take_out_the_guard.´
´Bain:Make_sure_you_deploy_the_ECM_Jammer_before_going_after_the_guard._If_that_camera_sees_anything_suspicious_we_will_be_screwed.´ ElementDebug 102356
	Debug message: Bain:Make sure you deploy the ECM Jammer before going after the guard. If that camera sees anything suspicious we will be screwed.
	Execute 1: (DELAY 10)
		´Bain:Make_sure_you_deploy_the_ECM_Jammer_before_going_after_the_guard._If_that_camera_sees_anything_suspicious_we_will_be_screwed.´
		´Bain:_Deploy_your_ECM_Jammer_and_disable_the_camera._Only_after_you've_done_that,_you_can_take_out_the_guard.´
´Bain:_Deploy_your_ECM_Jammer_and_disable_the_camera._Only_after_you've_done_that,_you_can_take_out_the_guard.´ ElementDebug 102357
	Debug message: Bain: Deploy your ECM Jammer and disable the camera. Only after you've done that, you can take out the guard.
	Execute 1: (DELAY 10)
		´Bain:Make_sure_you_deploy_the_ECM_Jammer_before_going_after_the_guard._If_that_camera_sees_anything_suspicious_we_will_be_screwed.´
		´Bain:_Deploy_your_ECM_Jammer_and_disable_the_camera._Only_after_you've_done_that,_you_can_take_out_the_guard.´
´instance_started_010´ ElementInstanceOutputEvent 102527
	Upon instance event "objective_started" - levels/instances/shared/obj_link/010 (-10800.0, 3800.0, 4800.0):
´instance_started_011´ ElementInstanceOutputEvent 102529
	Upon instance event "objective_started" - levels/instances/shared/obj_link/011 (-10300.0, 2700.0, 4800.0):
		Toggle on, trigger times 1: ´trigger_global_event_004´
		Toggle off: ´point_interaction_002´
		Toggle off: ´point_waypoint_007´
´trigger_global_event_004´ ElementGlobalEventTrigger 100863
	DISABLED
	TRIGGER TIMES 1
	Upon global event "player_answer_pager":
		Send mission event "objective_complete" to instance levels/instances/shared/obj_link/011 (-10300.0, 2700.0, 4800.0)
		´logic_counter_006（0）´ += 1
		´bodyhidden002´
´bodyhidden002´ ElementDebug 100016
	TRIGGER TIMES 1
	Debug message: Bain: Is that a janitor closet over there? Excellent place for hiding the body.
´instance_started_013´ ElementInstanceOutputEvent 102539
	Upon instance event "objective_started" - levels/instances/shared/obj_link/013 (-5300.0, 3700.0, 4800.0):
		´activate_waypoint_013´
´instance_started_014´ ElementInstanceOutputEvent 102557
	Upon instance event "objective_started" - levels/instances/shared/obj_link/014 (-5900.0, 3700.0, 4800.0):
		´activate_waypoint_014´
´instance_started_016´ ElementInstanceOutputEvent 102608
	Upon instance event "objective_started" - levels/instances/shared/obj_link/016 (-7100.0, 3700.0, 4800.0):
		Toggle on, trigger times 1: ´trigger_global_event_005´
´trigger_global_event_005´ ElementGlobalEventTrigger 100884
	DISABLED
	TRIGGER TIMES 1
	Upon global event "player_answer_pager":
		Send mission event "objective_complete" to instance levels/instances/shared/obj_link/016 (-7100.0, 3700.0, 4800.0)
´instance_started_017´ ElementInstanceOutputEvent 102646
	Upon instance event "objective_started" - levels/instances/shared/obj_link/017 (-7700.0, 3700.0, 4800.0):
		Execute sequence: "state_interaction_enabled" - units/payday2/props/gen_prop_security_console/002 (1277.0, -2873.0, 475.0)
		´point_waypoint_018´
´instance_started_018´ ElementInstanceOutputEvent 102652
	Upon instance event "objective_started" - levels/instances/shared/obj_link/018 (-8300.0, 3700.0, 4800.0):
		´point_waypoint_004´
		´enable_double_doors´
´enable_double_doors´ ElementUnitSequence 101951
	TRIGGER TIMES 1
	Execute sequence: "interaction_enabled" - units/payday2/equipment/gen_interactable_door_hcm_double/001 (-1408.0, -2000.0, 400.0)
´instance_started_020´ ElementInstanceOutputEvent 102668
	Upon instance event "objective_started" - levels/instances/shared/obj_link/020 (-9500.0, 3700.0, 4800.0):
		Execute sequence: "show" - units/pd2_dlc_casino/dev/cas_gen_square_goal_marker_2_4x4_35/001 (2550.0, 2099.0, 0.0)
		Toggle on: ´Escape_trigger_area´
		Place waypoint with icon "pd2_escape" at position (2537.0, 2081.0, 200.0)
		´pointNOreturnChecker（0）´ = 1
		Toggle on, trigger times 1: ´trigger_area_035´
		Toggle on, trigger times 1: ´trigger_area_039´
´trigger_area_035´ ElementAreaTrigger 104253
	DISABLED
	TRIGGER TIMES 1
	Box, width 1040.0, height 510.0, depth 1256.5, at position (2300.0, 1704.0, 100.0) with rotation (0.0, 0.0, 0.0, -1.0)
	Amount: 1
	Instigator: player
	Interval: 0.1
	Upon on_enter, execute:
		Execute 1:
			´logic_link_052´
			´logic_link_053´
			´logic_link_054´
´trigger_area_039´ ElementAreaTrigger 104397
	DISABLED
	TRIGGER TIMES 1
	Box, width 500.0, height 500.0, depth 500.0, at position (2250.0, -1975.0, 100.0) with rotation (0.0, 0.0, 0.0, -1.0)
	Amount: 1
	Instigator: player
	Interval: 0.1
	Upon on_enter, execute:
		Debug message: Bain: Get back to the van and make sure they dont see on your way out!
		Play dialogue: Play_rb4_sh12_17
		Play dialogue: Play_pln_sh12_25 (DELAY 5)
´logic_link_052´ ElementTeammateComment 104247
	DISABLED
	Make instigator say: g24
´logic_link_053´ ElementTeammateComment 104245
	DISABLED
	Make instigator say: g24
´logic_link_054´ ElementTeammateComment 104248
	DISABLED
	Make instigator say: g24
´trigger_area_019´ ElementAreaTrigger 100900
	TRIGGER TIMES 1
	Box, width 500.0, height 500.0, depth 500.0, at position (-173.0, -2050.0, 427.0) with rotation (0.0, 0.0, 0.0, -1.0)
	Amount: 1
	Instigator: player
	Interval: 0.1
	Upon on_enter, execute:
		remove ´point_waypoint_025´
		Toggle off: ´point_waypoint_025´
´trigger_area_020´ ElementAreaTrigger 103831
	TRIGGER TIMES 1
	Box, width 480.0, height 500.0, depth 300.0, at position (2775.0, -991.0, 17.0) with rotation (0.0, 0.0, 0.0, -1.0)
	Amount: 1
	Instigator: enemies
	Interval: 0.1
	Upon on_enter, execute:
		Enable outline: ´Spawn_Ending_Guard´
´trigger_area_021´ ElementAreaTrigger 103837
	Box, width 500.0, height 500.0, depth 500.0, at position (2175.0, -575.0, 200.0) with rotation (0.0, 0.0, 0.0, -1.0)
	Amount: 1
	Instigator: player
	Interval: 0.1
	Upon while_inside, execute:
		Set preset "custom_server_room" to object: units/dev_tools/level_tools/ai_attention_object/007 (1870.0, -575.0, 175.0)
´func_sequence_trigger_016´ ElementUnitSequenceTrigger 103849
	Upon sequence "interact" - units/payday2/props/str_prop_alley_trash_container/001 (2740.0, -2051.0, 0.0):
		Execute sequence: "interaction_enabled" - units/payday2/props/str_prop_alley_trash_container/001 (2740.0, -2051.0, 0.0)
´func_sequence_trigger_017´ ElementUnitSequenceTrigger 103930
	TRIGGER TIMES 1
	Upon sequence "done_opened" - units/payday2/equipment/gen_interactable_door_hcm_double/001 (-1408.0, -2000.0, 400.0):
		remove ´point_waypoint_004´
´func_sequence_trigger_005´ ElementUnitSequenceTrigger 100409
	Upon sequence "anim_close_door" - units/pd2_dlc_arena/equipment/gen_interactable_door_reinforced_v2/002 (-95.0002, -2204.0, 399.0):
		Toggle on: ´point_interaction_001´
		Debug message: door_closed
		Debug message: door_closed
´func_sequence_trigger_018´ ElementUnitSequenceTrigger 100483
	Upon sequence "done_opened" - units/pd2_dlc_arena/equipment/gen_interactable_door_reinforced_v2/002 (-95.0002, -2204.0, 399.0):
		Toggle on, trigger times 1: ´func_sequence_015´
		Debug message: door_open
		´logic_toggle_019´
´logic_toggle_019´ ElementToggle 100664
	Toggle off: ´logic_toggle_019´
	Toggle off: ´point_interaction_001´
´trigger_global_event_003´ ElementGlobalEventTrigger 100862
	TRIGGER TIMES 1
	Upon global event "player_answer_pager":
		Send mission event "objective_complete" to instance levels/instances/shared/obj_link/006 (-4600.0, 2700.0, 4802.5)
´trigger_area_023´ ElementAreaTrigger 101025
	TRIGGER TIMES 1
	Box, width 505.0, height 500.0, depth 444.6, at position (1700.0, -2000.0, 100.0) with rotation (0.0, 0.0, 0.0, -1.0)
	Amount: 1
	Instigator: player
	Interval: 0.1
	Upon on_enter, execute:
		Send mission event "objective_complete" to instance levels/instances/shared/obj_link/002 (-2200.0, 3700.0, 4800.0)
		´VO002.5´ (DELAY 1)
´trigger_global_event_008´ ElementGlobalEventTrigger 101048
	TRIGGER TIMES 1
	Upon global event "player_pickup_bodybag":
		´logic_link_039´
´logic_link_039´ MissionScriptElement 101032
	TRIGGER TIMES 1
	Debug message: Dallas: Damn, he's heavy...
	Play dialogue: Play_rb4_sh12_06
´trigger_special_objective_002´ ElementSpecialObjectiveTrigger 101654
	Upon special objective event "anim_start" - ´point_special_objective_010´:
		Toggle off: ´point_teammate_comment_004´
		Toggle off: ´logic_link_050´
		Toggle off: ´logic_link_051´
		Toggle on, trigger times 1: ´logic_link_054´
		´logic_link_048´
´point_teammate_comment_004´ ElementTeammateComment 101732
	Make instigator say: p32
´logic_link_050´ ElementTeammateComment 101674
	Make instigator say: p32
´logic_link_051´ ElementTeammateComment 101657
	Make instigator say: p32
´logic_link_048´ ElementTeammateComment 100971
	Make instigator say: p32
´trigger_special_objective_003´ ElementSpecialObjectiveTrigger 101656
	Upon special objective event "anim_start" - ´point_special_objective_011´:
		Toggle off: ´logic_link_050´
		Toggle off: ´point_teammate_comment_004´
		Toggle off: ´logic_link_048´
		´logic_link_051´
´trigger_special_objective_004´ ElementSpecialObjectiveTrigger 101671
	Upon special objective event "anim_start" - ´point_special_objective_008´:
		Toggle off: ´logic_link_051´
		Toggle off: ´point_teammate_comment_004´
		Toggle off: ´logic_link_048´
		Toggle on, trigger times 1: ´logic_link_052´
		´logic_link_050´
´trigger_special_objective_005´ ElementSpecialObjectiveTrigger 101730
	Upon special objective event "anim_start" - ´point_special_objective_009´:
		Toggle off: ´logic_link_048´
		Toggle off: ´logic_link_050´
		Toggle off: ´logic_link_051´
		Toggle on, trigger times 1: ´logic_link_053´
		´point_teammate_comment_004´
´trigger_area_024´ ElementAreaTrigger 102314
	TRIGGER TIMES 1
	Box, width 500.0, height 500.0, depth 500.0, at position (-1675.0, -2000.0, 500.0) with rotation (0.0, 0.0, 0.0, -1.0)
	Amount: 1
	Instigator: player
	Interval: 0.1
	Upon on_enter, execute:
		´point_waypoint_005´
´trigger_area_025´ ElementAreaTrigger 103032
	TRIGGER TIMES 1
	Box, width 670.0, height 500.0, depth 715.0, at position (-1100.0, -2500.0, 500.0) with rotation (0.0, 0.0, 0.0, -1.0)
	Amount: 1
	Instigator: player
	Interval: 0.1
	Upon on_enter, execute:
		remove ´activate_waypoint_013´
		Execute sequence: "switch_to_glow_mtr" - units/payday2/pickups/gen_pku_keycard/001 (-1070.62, -2463.32, 442.0)
		Execute sequence: "enable_interaction" - units/payday2/pickups/gen_pku_keycard/001 (-1070.62, -2463.32, 442.0)
		Send mission event "objective_complete" to instance levels/instances/shared/obj_link/022 (-4700.0, 3700.0, 4800.0)
		remove ´logic_link_045´
		remove ´point_waypoint_025´
´trigger_global_event_002´ ElementGlobalEventTrigger 103038
	TRIGGER TIMES 1
	Upon global event "keycard":
		Debug message: Dallas: Okay, I got the keycard.
		Play dialogue: Play_rb4_sh12_09
´trigger_area_026´ ElementAreaTrigger 103054
	TRIGGER TIMES 1
	Box, width 500.0, height 500.0, depth 500.0, at position (-548.0, -2050.0, 427.0) with rotation (0.0, 0.0, 0.0, -1.0)
	Amount: 1
	Instigator: player
	Interval: 0.1
	Upon on_enter, execute:
		´activate_waypoint_013´
´func_instance_output_event_001´ ElementInstanceOutputEvent 103057
	Upon instance event "link_objective_next" - levels/instances/shared/obj_link/021 (-4100.0, 3700.0, 4800.0):
		Send mission event "link_objective_start" to instance levels/instances/shared/obj_link/022 (-4700.0, 3700.0, 4800.0)
´func_instance_output_event_002´ ElementInstanceOutputEvent 103059
	Upon instance event "objective_started" - levels/instances/shared/obj_link/021 (-4100.0, 3700.0, 4800.0):
		Toggle on, trigger times 1: ´activate_waypoint_013´
		´logic_link_045´
´func_instance_set_params_021´ ElementInstanceSetParams 103073
	Change parameters of instance levels/instances/shared/obj_link/021 (-4100.0, 3700.0, 4800.0): 
		Objective: heist_short1_stage2_22
		State: Disabled
		Normal: None
		Hard: None
		Very Hard: None
		Overkill: None
		Death Wish: None
´func_instance_output_event_003´ ElementInstanceOutputEvent 103077
	Upon instance event "link_objective_next" - levels/instances/shared/obj_link/022 (-4700.0, 3700.0, 4800.0):
		Send mission event "link_objective_start" to instance levels/instances/shared/obj_link/013 (-5300.0, 3700.0, 4800.0)
´func_instance_output_event_004´ ElementInstanceOutputEvent 103125
	Upon instance event "objective_started" - levels/instances/shared/obj_link/022 (-4700.0, 3700.0, 4800.0):
		Toggle on, trigger times 1: ´trigger_area_027´
		´point_waypoint_030´
´trigger_area_027´ ElementAreaTrigger 103131
	DISABLED
	TRIGGER TIMES 1
	Box, width 500.0, height 500.0, depth 500.0, at position (100.0, -2000.0, 500.0) with rotation (0.0, 0.0, 0.0, -1.0)
	Amount: 1
	Instigator: player
	Interval: 0.1
	Upon on_enter, execute:
		remove ´point_waypoint_030´
		´point_waypoint_025´
		Debug message: Stay under the cameras and they wont be able to spot you. (DELAY 2)
		Quit all current dialogue. Play dialogue: Play_pln_sh12_16 (DELAY 2)
´point_waypoint_030´ ElementWaypoint 103128
	Place waypoint with icon "pd2_goto" at position (271.0, -2000.0, 525.0)
´func_instance_set_params_022´ ElementInstanceSetParams 103126
	Change parameters of instance levels/instances/shared/obj_link/022 (-4700.0, 3700.0, 4800.0): 
		Objective: heist_short1_stage2_23
		State: Disabled
		Normal: None
		Hard: None
		Very Hard: None
		Overkill: None
		Death Wish: None
´func_sequence_trigger_019´ ElementUnitSequenceTrigger 103260
	TRIGGER TIMES 1
	Upon sequence "stop" - units/payday2/equipment/gen_equipment_security_camera/010 (-375.0, -1800.0, 625.0):
		´ene_security_3´ (-1675.0, -3775.0, 400.0)
´func_sequence_trigger_020´ ElementUnitSequenceTrigger 103261
	TRIGGER TIMES 1
	Upon sequence "stop" - units/payday2/equipment/gen_equipment_security_camera/007 (-24.9999, -2200.0, 625.0):
		´ene_security_1´ (-1675.0, -3850.0, 400.0)
´trigger_area_028´ ElementAreaTrigger 103274
	TRIGGER TIMES 1
	Box, width 500.0, height 500.0, depth 500.0, at position (625.0, -3775.0, 400.0) with rotation (0.0, 0.0, 0.0, -1.0)
	Amount: 1
	Instigator: enemies
	Interval: 0.1
	Upon on_enter, execute:
		Execute sequence: "open" - units/world/architecture/street/exit/consulate_door/001 (700.0, -3600.0, 402.0)
		Execute sequence: "open" - units/world/architecture/street/exit/consulate_door/002 (499.0, -3592.0, 402.0)
´trigger_area_029´ ElementAreaTrigger 103278
	TRIGGER TIMES 1
	Box, width 500.0, height 500.0, depth 500.0, at position (-1225.0, -3775.0, 425.0) with rotation (0.0, 0.0, 0.0, -1.0)
	Amount: 1
	Instigator: enemies
	Interval: 0.1
	Upon on_enter, execute:
		Execute sequence: "open" - units/world/architecture/street/exit/consulate_door/004 (-1301.0, -3592.0, 403.0)
		Execute sequence: "open" - units/world/architecture/street/exit/consulate_door/007 (-1100.0, -3600.0, 403.0)
´ai_enemy_trigger_009´ ElementEnemyDummyTrigger 103279
	Upon event "spawn" of ´ene_security_2´:
		Make instigator path towards (1350.0, -1950.0, 400.0) and show "None".
		Enable outline: ´ene_security_2´ (DELAY 5)
´ai_enemy_trigger_010´ ElementEnemyDummyTrigger 103283
	Upon event "spawn" of ´ene_security_1´:
		Make instigator path towards (-25.0, -2100.0, 400.0) and show "None".
		Enable outline: ´ene_security_1´ (DELAY 5)
´ai_enemy_trigger_011´ ElementEnemyDummyTrigger 103284
	Upon event "spawn" of ´ene_security_3´:
		Make instigator path towards (-400.0, -1950.0, 400.0) and show "None".
		Enable outline: ´ene_security_3´ (DELAY 5)
´ai_enemy_trigger_012´ ElementEnemyDummyTrigger 103306
	Upon event "death" of ´ene_security_2´:
		Disable outline: ´ene_security_2´
´ai_enemy_trigger_013´ ElementEnemyDummyTrigger 103361
	Upon event "death" of ´ene_security_3´:
		Disable outline: ´ene_security_3´
´ai_enemy_trigger_014´ ElementEnemyDummyTrigger 103365
	Upon event "death" of ´ene_security_1´:
		Disable outline: ´ene_security_1´
´computer_room002´ ElementAreaTrigger 103679
	Box, width 548.563, height 500.0, depth 605.0, at position (-2359.0, -2525.0, 550.0) with rotation (0.0, 0.0, 0.0, -1.0)
	Amount: 1
	Instigator: player
	Interval: 0.1
	Upon on_enter, execute:
		Execute sequence: "state_contour_off" - units/payday2/equipment/gen_interactable_objective_laptop/mcm_laptop/001 (-1952.0, -2577.0, 475.159)
´trigger_area_030´ ElementAreaTrigger 103692
	Use shape: ´point_shape_006´ (1069.0, -2900.0, 475.0)
	Amount: 1
	Instigator: player
	Interval: 0.1
	Upon on_enter, execute:
		´logic_counter_009（0）´ += 1
´point_shape_006´ ElementShape 103859
	Box, width 491.399993896, height 475, depth 1044.09997559, at position (1069.0, -2900.0, 475.0) with rotation (0.0, 0.0, 0.0, -1.0)
´logic_counter_009（0）´ ElementCounter 103855
´trigger_area_032´ ElementAreaTrigger 103840
	TRIGGER TIMES 1
	Use shape: ´point_shape_003´ (-725.0, -1922.0, 500.0)
	Amount: 1
	Instigator: player
	Interval: 0.1
	Upon on_enter, execute:
		´logic_counter_009（0）´ += 1
´point_shape_003´ ElementShape 103809
	Box, width 4986.04980469, height 500, depth 500, at position (-725.0, -1922.0, 500.0) with rotation (0.0, 0.0, 0.0, -1.0)
´trigger_area_033´ ElementAreaTrigger 103858
	Use shape: ´point_shape_007´ (1100.0, -3000.0, 475.0)
	Amount: 1
	Instigator: player
	Interval: 0.1
	Upon on_exit, execute:
		´logic_counter_009（0）´ -= 1
´point_shape_007´ ElementShape 103866
	Box, width 585, height 500, depth 945.599975586, at position (1100.0, -3000.0, 475.0) with rotation (0.0, 0.0, 0.0, -1.0)
´trigger_area_034´ ElementAreaTrigger 103924
	Amount: 1
	Instigator: unique_loot
	Interval: 0.1
	Use shapes:
		´point_shape_012´ (-463.0, -2455.0, 426.0)
		´point_shape_011´ (1050.0, -2523.0, 500.0)
	Upon on_enter, execute:
		Loot action: remove (DELAY 0.5)
´point_shape_012´ ElementShape 103935
	Box, width 165.143005371, height 521.42401123, depth 132.679992676, at position (-463.0, -2455.0, 426.0) with rotation (0.0, 0.0, 0.0, -1.0)
´point_shape_011´ ElementShape 103934
	Box, width 149.100006104, height 710, depth 153.75, at position (1050.0, -2523.0, 500.0) with rotation (0.0, 0.0, 0.0, -1.0)
´func_sequence_trigger_021´ ElementUnitSequenceTrigger 104242
	TRIGGER TIMES 1
	Upon sequence "load" - units/pd2_dlc_short/props/gen_fbi_usb_stick/001 (-1950.0, -2601.0, 477.0):
		remove ´point_waypoint_007´
		Toggle on, trigger times 1: ´Spawn_Security_guard´
		Send mission event "objective_complete" to instance levels/instances/shared/obj_link/019 (-8900.0, 3700.0, 4800.0)
		remove ´point_waypoint_007´
´trigger_area_036´ ElementAreaTrigger 104256
	TRIGGER TIMES 1
	Box, width 75.0, height 500.0, depth 85.0, at position (2218.0, 2230.0, 200.0) with rotation (0.0, 0.0, 0.0, -1.0)
	Amount: 1
	Instigator: ai_teammates
	Interval: 0.1
	Upon on_enter, execute:
		´point_teammate_comment_004´
´func_sequence_trigger_022´ ElementUnitSequenceTrigger 104384
	TRIGGER TIMES 1
	Upon sequence "interact" - units/pd2_dlc_cro/lockpick_interactable/002 (1558.0, -2233.0, 497.0):
		Execute sequence: "open_door" - units/payday2/equipment/gen_interactable_door_reinforced/006 (1545.0, -2222.0, 399.0)
		Send mission event "objective_complete" to instance levels/instances/shared/obj_link/008 (-3500.0, 3700.0, 4800.0)
		Debug message: complete_keep_moving
		remove ´activate_waypoint_004´
		´logic_link_017´
´logic_link_017´ MissionScriptElement 102755
	TRIGGER TIMES 1
	Debug message: Dallas: Another camera here.
	Play dialogue: Play_rb4_sh12_07
	´logic_link_019´ (DELAY 2)
´logic_link_019´ MissionScriptElement 102757
	TRIGGER TIMES 1
	Debug message: Bain: Okay, new plan: sneak past that one and find the security room. That way we can disable all cameras at once. 
	Quit all current dialogue. Play dialogue: Play_pln_sh12_13
´trigger_area_038´ ElementAreaTrigger 104393
	TRIGGER TIMES 1
	Box, width 500.0, height 500.0, depth 500.0, at position (-2950.0, -1910.0, 525.0) with rotation (0.0, 0.0, 0.0, -1.0)
	Amount: 1
	Instigator: enemies
	Interval: 0.1
	Upon on_enter, execute:
		Debug message: Dallas: Shit, there's another guard here
		Play dialogue: Play_rb4_sh12_13
		Debug message: Bain: Ok, try to sneak by him. As long as he doesn't spot anything suspicious you should be fine. (DELAY 2.5)
		Quit all current dialogue. Play dialogue: Play_pln_sh12_21 (DELAY 2.5)
´func_sequence_trigger_023´ ElementUnitSequenceTrigger 104399
	TRIGGER TIMES 1
	Upon any sequence:
		"stop" - units/payday2/equipment/gen_equipment_security_camera/001 (1350.0, -1801.0, 625.0)
		"stop" - units/payday2/equipment/gen_equipment_security_camera/003 (-1150.0, 500.0, 250.0)
		"stop" - units/payday2/equipment/gen_equipment_security_camera/004 (0.0, 725.0, 250.0)
		"stop" - units/payday2/equipment/gen_equipment_security_camera/005 (-1600.0, -1701.0, 633.659)
		"stop" - units/payday2/equipment/gen_equipment_security_camera/006 (-2400.0, 575.0, 250.0)
		"stop" - units/payday2/equipment/gen_equipment_security_camera/007 (-24.9999, -2200.0, 625.0)
		"stop" - units/payday2/equipment/gen_equipment_security_camera/009 (1403.0, -900.0, 270.0)
		"stop" - units/payday2/equipment/gen_equipment_security_camera/010 (-375.0, -1800.0, 625.0)
		"stop" - units/payday2/equipment/gen_equipment_security_camera/021 (-3200.0, -2254.0, 637.0)
		"stop" - units/payday2/equipment/gen_equipment_security_camera/023 (-1700.0, -2800.0, 658.0)
	Execute:
		Play dialogue: Play_pln_sh12_28
´ai_enemy_trigger_spawn´ ElementEnemyDummyTrigger 101724
	Upon event "spawn" of ´ene_security_1_3´:
		´point_special_objective_036´
´point_special_objective_036´ ElementSpecialObjective 101700
	Make instigator path towards (600.0, -2000.0, 400.0) and show "None". Afterwards, choose new objective: ´point_special_objective_037´
´point_special_objective_037´ ElementSpecialObjective 101739
	Make instigator path towards (-2175.0, -2050.0, 400.0) and show "None". Afterwards, choose new objective: ´point_special_objective_038´
´point_special_objective_038´ ElementSpecialObjective 101747
	Make instigator path towards (675.0, -2850.0, 400.0) and show "None". Afterwards, choose new objective: ´point_special_objective_036´
´On_Guard_Tied´ ElementEnemyDummyTrigger 102222
	Upon event "tied" of ´Spawn_Ending_Guard´:
		Send mission event "objective_complete" to instance levels/instances/shared/obj_link/005 (-4000.0, 2700.0, 4800.0)
		Send mission event "objective_complete" to instance levels/instances/shared/obj_link/007 (-5200.0, 2700.0, 4800.0)
		remove ´activate_waypoint_007´
		Execute sequence: "enable" - units/pd2_dlc_cro/lockpick_interactable/002 (1558.0, -2233.0, 497.0)
		Toggle off: ´VO_when_player_kills_last_guard´
		Toggle off: ´VO_when_player_kills_last_guard001´
		´logic_link_038´
´ai_enemy_trigger_015´ ElementEnemyDummyTrigger 102650
	Upon event "tied" of ´Spawn_Security_Room_Guard´:
		Send mission event "objective_complete" to instance levels/instances/shared/obj_link/015 (-6500.0, 3700.0, 4800.0)
		´disable_all_cameras´
´door_opened´ ElementUnitSequenceTrigger 102661
	TRIGGER TIMES 1
	Upon sequence "done_opened" - units/payday2/equipment/gen_interactable_door_reinforced/001 (1997.0, -2105.0, 0.0):
		Toggle off: ´Camera_dead´
