ID range vs continent name:
	100000: world

statics
	100050 units/dev_tools/level_tools/dev_collision_1x3m/pillar_right_collision (-1413.13, 1979.2, 0.0)
	100051 units/dev_tools/level_tools/dev_collision_1x3m/pillar_right_collision001 (-1448.48, 1943.85, 0.0)
	100052 units/dev_tools/level_tools/dev_collision_1x3m/pillar_right_collision002 (-870.488, 1949.85, 0.0)
	100053 units/dev_tools/level_tools/dev_collision_1x3m/pillar_right_collision003 (-835.132, 1985.2, 0.0)
	100214 units/dev_tools/level_tools/dev_collision_1x3m/pillar_right_collision004 (-910.52, 816.877, 0.0)
	100215 units/dev_tools/level_tools/dev_collision_1x3m/pillar_right_collision005 (-839.809, 887.583, 0.0)
	100216 units/dev_tools/level_tools/dev_collision_1x3m/pillar_right_collision006 (-1572.13, 810.2, 0.0)
	100217 units/dev_tools/level_tools/dev_collision_1x3m/pillar_right_collision007 (-1536.78, 845.55, 0.0)
	100036 units/dev_tools/level_tools/dev_collision_1x3m/queue_2_collision_001 (-500.0, 1400.0, 0.0)
	100038 units/dev_tools/level_tools/dev_collision_1x3m/queue_2_collision_002 (-575.0, 1400.0, 0.0)
	100039 units/dev_tools/level_tools/dev_collision_1x3m/queue_2_collision_003 (-575.0, 1350.0, 0.0)
	100040 units/dev_tools/level_tools/dev_collision_1x3m/queue_2_collision_004 (-500.0, 1350.0, 0.0)
	100037 units/dev_tools/level_tools/dev_collision_1x3m/queue_2_collision_long_001 (-675.0, 1400.0, 0.0)
	100041 units/dev_tools/level_tools/dev_collision_1x3m/queue_2_collision_long_002 (-775.0, 1400.0, 0.0)
	100042 units/dev_tools/level_tools/dev_collision_1x3m/queue_2_collision_long_003 (-775.0, 1350.0, 0.0)
	100043 units/dev_tools/level_tools/dev_collision_1x3m/queue_2_collision_long_004 (-675.0, 1350.0, 0.0)
	100076 units/dev_tools/level_tools/dev_collision_1x3m/queue_3_collision_001 (-500.0, 509.0, 0.0)
	100078 units/dev_tools/level_tools/dev_collision_1x3m/queue_3_collision_002 (-500.0, 559.0, 0.0)
	100079 units/dev_tools/level_tools/dev_collision_1x3m/queue_3_collision_003 (-550.0, 509.0, 0.0)
	100080 units/dev_tools/level_tools/dev_collision_1x3m/queue_3_collision_004 (-550.0, 559.0, 0.0)
	100077 units/dev_tools/level_tools/dev_collision_1x3m/queue_3_collision_long_001 (-650.0, 559.0, 0.0)
	100081 units/dev_tools/level_tools/dev_collision_1x3m/queue_3_collision_long_002 (-725.0, 559.0, 0.0)
	100082 units/dev_tools/level_tools/dev_collision_1x3m/queue_3_collision_long_003 (-650.0, 509.0, 0.0)
	100083 units/dev_tools/level_tools/dev_collision_1x3m/queue_3_collision_long_004 (-725.0, 509.0, 0.0)
	100030 units/dev_tools/level_tools/dev_collision_4x3m/queue_1_collision_001 (-1805.73, 1272.0, 0.0)
	100028 units/dev_tools/level_tools/dev_collision_4x3m/queue_1_collision_003 (-1793.57, 1317.4, 0.0)
	100029 units/dev_tools/level_tools/dev_collision_4x3m/queue_1_collision_long_001 (-1515.95, 1194.36, 0.0)
	100031 units/dev_tools/level_tools/dev_collision_4x3m/queue_1_collision_long_002 (-1503.79, 1239.76, 0.0)
	100252 units/dev_tools/level_tools/dev_door_blocker_1x1x3/001 (-1300.0, 700.0, 0.0)
	100253 units/dev_tools/level_tools/dev_door_blocker_1x1x3/002 (-1000.0, 700.0, 0.0)
	100254 units/dev_tools/level_tools/dev_door_blocker_1x1x3/003 (-700.0, 2000.0, 0.0)
	100256 units/dev_tools/level_tools/dev_door_blocker_1x1x3/004 (-1600.0, 2000.0, 0.0)
	100092 units/dev_tools/level_tools/dev_door_blocker_1x2x3/queue_1_short (-1700.0, 1350.0, 0.0)
	100089 units/dev_tools/level_tools/dev_door_blocker_1x2x3/queue_2_short (-500.0, 1425.0, 0.0)
	100094 units/dev_tools/level_tools/dev_door_blocker_1x2x3/queue_3_short (-500.0, 600.0, 0.0)
	100091 units/dev_tools/level_tools/dev_door_blocker_1x4x3/queue_1_long (-1575.0, 1350.0, 0.0)
	100090 units/dev_tools/level_tools/dev_door_blocker_1x4x3/queue_2_long (-500.0, 1425.0, 0.0)
	100093 units/dev_tools/level_tools/dev_door_blocker_1x4x3/queue_3_long (-500.0, 600.0, 0.0)
	100317 units/dev_tools/level_tools/dev_door_blocker_1x4x3/side_left_block (-300.0, 2025.0, 0.0)
	100319 units/dev_tools/level_tools/dev_door_blocker_1x4x3/side_left_block001 (-2000.0, 2025.0, 0.0)
	100320 units/dev_tools/level_tools/dev_door_blocker_1x4x3/side_left_block002 (-425.0, 1125.0, 0.0)
	100260 units/payday2/props/gen_prop_square_goal_marker_4x15/escape_zone_001 (-600.0, -700.0, 0.000244141)
		mesh_variation hide
	100261 units/payday2/props/gen_prop_square_goal_marker_4x15/escape_zone_002 (-1200.0, -700.0, 0.000244141)
		mesh_variation hide
	100262 units/payday2/props/gen_prop_square_goal_marker_4x15/escape_zone_003 (-1800.0, -700.0, 0.000244141)
		mesh_variation hide
	100087 units/payday2/vehicles/anim_vehicle_van_player/escape_van (9163.94, -905.839, 6.34178)
		1
			clipping_values 10000.0, -10000.0, 0.0
			color 1.0, 0.861333, 0.584
			enabled True
			falloff_exponent 4
			far_range 150
			multiplier identity
			name lo_omni_1
			near_range 0
			spot_angle_end 0
			spot_angle_start 0
		2
			clipping_values 10000.0, -10000.0, 0.0
			color 1.0, 0.861, 0.584
			enabled True
			falloff_exponent 4
			far_range 150
			multiplier identity
			name lo_omni_2
			near_range 0
			spot_angle_end 0
			spot_angle_start 0
		mesh_variation state_vis_show
