ID range vs continent name:
	100000: world

statics
	100001 units/dev_tools/level_tools/door_blocker/001 (25.0, 0.0, 0.0)
		disable_on_ai_graph True
	100000 units/payday2/equipment/gen_interactable_door_wooden_a/001 (25.0, -50.0, 0.0)
		disable_on_ai_graph True
