ID range vs continent name:
	100000: world

statics
	100000 units/payday2/equipment/gen_interactable_roadflare_unlimited_highlight/001 (0.0, 0.0, 0.0)
	100001 units/payday2/props/gen_prop_roadflare/002 (0.0, 0.0, 0.0)
