ID range vs continent name:
	100000: world

statics
	100000 units/payday2/architecture/com_int_election_glass_4x4m/001_001 (10.0, 39.0, 0.0)
		disable_shadows True
	100031 units/payday2/architecture/com_int_election_glass_4x4m/001_002 (10.0, 39.0, 0.0)
		disable_shadows True
	100040 units/payday2/architecture/com_int_election_glass_4x4m/001_003 (10.0, 39.0, 0.0)
		disable_shadows True
	100049 units/payday2/architecture/com_int_election_glass_4x4m/001_004 (10.0, 39.0, 0.0)
		disable_shadows True
	100058 units/payday2/architecture/com_int_election_glass_4x4m/001_005 (10.0, 39.0, 0.0)
		disable_shadows True
	100014 units/payday2/architecture/com_int_election_glass_4x4m/002_001 (10.0, -211.0, 0.0)
		disable_shadows True
	100030 units/payday2/architecture/com_int_election_glass_4x4m/002_002 (10.0, -211.0, 0.0)
		disable_shadows True
	100039 units/payday2/architecture/com_int_election_glass_4x4m/002_003 (10.0, -211.0, 0.0)
		disable_shadows True
	100048 units/payday2/architecture/com_int_election_glass_4x4m/002_004 (10.0, -211.0, 0.0)
		disable_shadows True
	100057 units/payday2/architecture/com_int_election_glass_4x4m/002_005 (10.0, -211.0, 0.0)
		disable_shadows True
	100015 units/payday2/architecture/com_int_election_glass_4x4m/003_001 (-365.0, -211.0, 0.0)
		disable_shadows True
	100026 units/payday2/architecture/com_int_election_glass_4x4m/003_002 (-365.0, -211.0, 0.0)
		disable_shadows True
	100035 units/payday2/architecture/com_int_election_glass_4x4m/003_003 (-365.0, -211.0, 0.0)
		disable_shadows True
	100044 units/payday2/architecture/com_int_election_glass_4x4m/003_004 (-365.0, -211.0, 0.0)
		disable_shadows True
	100053 units/payday2/architecture/com_int_election_glass_4x4m/003_005 (-365.0, -211.0, 0.0)
		disable_shadows True
	100016 units/payday2/architecture/com_int_election_glass_4x4m/004_001 (-365.0, 39.0, 0.0)
		disable_shadows True
	100032 units/payday2/architecture/com_int_election_glass_4x4m/004_002 (-365.0, 39.0, 0.0)
		disable_shadows True
	100041 units/payday2/architecture/com_int_election_glass_4x4m/004_003 (-365.0, 39.0, 0.0)
		disable_shadows True
	100050 units/payday2/architecture/com_int_election_glass_4x4m/004_004 (-365.0, 39.0, 0.0)
		disable_shadows True
	100059 units/payday2/architecture/com_int_election_glass_4x4m/004_005 (-365.0, 39.0, 0.0)
		disable_shadows True
	100017 units/payday2/architecture/com_int_election_glass_4x4m/005_001 (-740.0, -211.0, 0.0)
		disable_shadows True
	100025 units/payday2/architecture/com_int_election_glass_4x4m/005_002 (-740.0, -211.0, 0.0)
		disable_shadows True
	100034 units/payday2/architecture/com_int_election_glass_4x4m/005_003 (-740.0, -211.0, 0.0)
		disable_shadows True
	100043 units/payday2/architecture/com_int_election_glass_4x4m/005_004 (-740.0, -211.0, 0.0)
		disable_shadows True
	100052 units/payday2/architecture/com_int_election_glass_4x4m/005_005 (-740.0, -211.0, 0.0)
		disable_shadows True
	100018 units/payday2/architecture/com_int_election_glass_4x4m/006_001 (-740.0, 39.0, 0.0)
		disable_shadows True
	100024 units/payday2/architecture/com_int_election_glass_4x4m/006_002 (-740.0, 39.0, 0.0)
		disable_shadows True
	100033 units/payday2/architecture/com_int_election_glass_4x4m/006_003 (-740.0, 39.0, 0.0)
		disable_shadows True
	100042 units/payday2/architecture/com_int_election_glass_4x4m/006_004 (-740.0, 39.0, 0.0)
		disable_shadows True
	100051 units/payday2/architecture/com_int_election_glass_4x4m/006_005 (-740.0, 39.0, 0.0)
		disable_shadows True
	100019 units/payday2/architecture/com_int_election_glass_4x4m/007_001 (-365.0, -461.0, 0.0)
		disable_shadows True
	100028 units/payday2/architecture/com_int_election_glass_4x4m/007_002 (-365.0, -461.0, 0.0)
		disable_shadows True
	100037 units/payday2/architecture/com_int_election_glass_4x4m/007_003 (-365.0, -461.0, 0.0)
		disable_shadows True
	100046 units/payday2/architecture/com_int_election_glass_4x4m/007_004 (-365.0, -461.0, 0.0)
		disable_shadows True
	100055 units/payday2/architecture/com_int_election_glass_4x4m/007_005 (-365.0, -461.0, 0.0)
		disable_shadows True
	100020 units/payday2/architecture/com_int_election_glass_4x4m/008_001 (-740.0, -461.0, 0.0)
		disable_shadows True
	100027 units/payday2/architecture/com_int_election_glass_4x4m/008_002 (-740.0, -461.0, 0.0)
		disable_shadows True
	100036 units/payday2/architecture/com_int_election_glass_4x4m/008_003 (-740.0, -461.0, 0.0)
		disable_shadows True
	100045 units/payday2/architecture/com_int_election_glass_4x4m/008_004 (-740.0, -461.0, 0.0)
		disable_shadows True
	100054 units/payday2/architecture/com_int_election_glass_4x4m/008_005 (-740.0, -461.0, 0.0)
		disable_shadows True
	100021 units/payday2/architecture/com_int_election_glass_4x4m/009_001 (10.0, -461.0, 0.0)
		disable_shadows True
	100029 units/payday2/architecture/com_int_election_glass_4x4m/009_002 (10.0, -461.0, 0.0)
		disable_shadows True
	100038 units/payday2/architecture/com_int_election_glass_4x4m/009_003 (10.0, -461.0, 0.0)
		disable_shadows True
	100047 units/payday2/architecture/com_int_election_glass_4x4m/009_004 (10.0, -461.0, 0.0)
		disable_shadows True
	100056 units/payday2/architecture/com_int_election_glass_4x4m/009_005 (10.0, -461.0, 0.0)
		disable_shadows True
	100002 units/payday2/props/gen_prop_methlab_meth/001 (-600.0, -400.0, 0.0)
		disable_shadows True
	100080 units/payday2/props/gen_prop_methlab_meth/002 (100.0, -400.0, 0.0)
		disable_shadows True
	100081 units/payday2/props/gen_prop_methlab_meth/003 (100.0, -400.0, 0.0)
		disable_shadows True
	100082 units/payday2/props/gen_prop_methlab_meth/004 (100.0, -400.0, 0.0)
		disable_shadows True
	100083 units/payday2/props/gen_prop_methlab_meth/005 (100.0, -400.0, 0.0)
		disable_shadows True
	100011 units/payday2/props/hwn_prop_baby_cry_mask/001 (-600.0, -400.0, 0.0)
		disable_shadows True
		mesh_variation state_vis_show
