ID range vs continent name:
	100000: world

statics
	100008 units/payday2/vehicles/eus_vehicle_train_cargo_carriage_lowres/001 (0.0, 0.0, 0.0)
	100004 units/payday2/vehicles/vehicle_train/eus_interactable_door_cargo_shout/001 (2.0, -775.0, 150.0)
	100005 units/payday2/vehicles/vehicle_train/eus_interactable_door_cargo_shout/002 (0.0, 826.0, 149.0)
	100006 units/payday2/vehicles/vehicle_train/eus_interactable_door_cargo_shout/003 (0.0, 825.0, 150.0)
	100007 units/payday2/vehicles/vehicle_train/eus_interactable_door_cargo_shout/004 (0.0, -775.0, 149.0)
	100009 units/payday2/vehicles/vehicle_train/eus_static_door_carriage_lowres/001 (-50.0, -1183.0, 150.0)
	100000 units/payday2/vehicles/vehicle_train/eus_static_door_carriage_lowres/002 (50.0, 1235.0, 150.0)
