ID range vs continent name:
	100000: world

statics
	100008 units/payday2/equipment/hlm_interactable_win_planks/001 (20.0, 98.0, 231.0)
		mesh_variation enable_interaction
	100000 units/world/architecture/secret_stash/props/secret_stash_vent_7/001 (75.0, 100.0, 150.0)
