ID range vs continent name:
	100000: world

statics
	100004 units/payday2/props/gen_prop_square_drop_marker_2x3/001 (0.0, 0.0, 0.0)
	100000 units/pd2_dlc2/vehicles/air_vehicle_cessna_206_csgo/001 (0.0, 0.0, 0.0)
