ID range vs continent name:
	100000: world

statics
	100002 units/dev_tools/level_tools/door_blocker/001 (25.0, -12.0, 0.0)
		disable_on_ai_graph True
	100000 units/world/architecture/suburbia_sewer_gate/001 (25.0, 50.0001, -25.0)
		mesh_variation open
