ID range vs continent name:
	100000: world

statics
	100009 units/dev_tools/level_tools/dev_door_blocker_1x1x3/door_blocker (-100.0, -50.0, 0.0)
	100000 units/equipment/suburbia_door_crowbar_interaction/001 (0.0, 0.0, 0.0)
		disable_on_ai_graph True
		mesh_variation a_open_90
