ID range vs continent name:
	100000: world

statics
	100004 units/payday2/props/bnk_prop_security_fusebox/001 (-30.0, 54.001, 144.95)
		mesh_variation state_interaction_disable
	100003 units/payday2/props/ind_prop_train_signalbox/001 (0.0, 0.00114441, -9.15489e-11)
