ID range vs continent name:
	100000: world

statics
	100069 core/units/light_omni/S1_light_omni_004 (1540.0, -1038.0, 207.134)
		1
			clipping_values 10000.0, -10000.0, 0.0
			color 1.0, 0.713726, 0.576471
			enabled True
			falloff_exponent 1
			far_range 400
			multiplier identity
			name lo_omni
			near_range 80
			spot_angle_end -1
			spot_angle_start -1
	100161 core/units/light_omni/S2_light_omni_006 (1540.0, -1038.0, 207.134)
		1
			clipping_values 10000.0, -10000.0, 0.0
			color 1.0, 0.713726, 0.576471
			enabled True
			falloff_exponent 1
			far_range 400
			multiplier identity
			name lo_omni
			near_range 80
			spot_angle_end -1
			spot_angle_start -1
	100282 core/units/light_omni/S3_light_omni_008 (1540.0, -1038.0, 207.134)
		1
			clipping_values 10000.0, -10000.0, 0.0
			color 1.0, 0.713726, 0.576471
			enabled True
			falloff_exponent 1
			far_range 400
			multiplier identity
			name lo_omni
			near_range 80
			spot_angle_end -1
			spot_angle_start -1
	100004 units/dev_tools/level_tools/dev_collision_1x3m/001 (1322.0, -820.0, -2.0)
	100006 units/dev_tools/level_tools/dev_collision_1x3m/002 (1322.0, -920.0, -2.0)
	100071 units/lights/01/light_projection_02/S1_light_projection_02_009 (1526.5, -967.8, 288.319)
		1
			clipping_values 10000.0, -10000.0, 0.0
			color 1.0, 1.0, 1.0
			enabled True
			falloff_exponent 1
			far_range 500
			multiplier sun
			name ls_spot
			near_range 0
			spot_angle_end 75
			spot_angle_start 44
		projection_light ls_spot
		ls_spot units/lights/spot_light_projection_textures/spotprojection_09_halogen_df
	100072 units/lights/01/light_projection_02/S1_light_projection_02_010 (1558.15, -1117.3, 306.417)
		1
			clipping_values 10000.0, -10000.0, 0.0
			color 0.509804, 0.992157, 0.882353
			enabled True
			falloff_exponent 1
			far_range 500
			multiplier sun
			name ls_spot
			near_range 0
			spot_angle_end 84
			spot_angle_start 40
		projection_light ls_spot
		ls_spot units/lights/spot_light_projection_textures/spotprojection_09_halogen_df
	100163 units/lights/01/light_projection_02/S2_light_projection_02_016 (1526.5, -967.8, 288.319)
		1
			clipping_values 10000.0, -10000.0, 0.0
			color 1.0, 1.0, 1.0
			enabled True
			falloff_exponent 1
			far_range 500
			multiplier sun
			name ls_spot
			near_range 0
			spot_angle_end 75
			spot_angle_start 44
		projection_light ls_spot
		ls_spot units/lights/spot_light_projection_textures/spotprojection_09_halogen_df
	100164 units/lights/01/light_projection_02/S2_light_projection_02_017 (1558.15, -1117.3, 306.417)
		1
			clipping_values 10000.0, -10000.0, 0.0
			color 0.509804, 0.992157, 0.882353
			enabled True
			falloff_exponent 1
			far_range 500
			multiplier sun
			name ls_spot
			near_range 0
			spot_angle_end 84
			spot_angle_start 40
		projection_light ls_spot
		ls_spot units/lights/spot_light_projection_textures/spotprojection_09_halogen_df
	100165 units/lights/01/light_projection_02/S2_light_projection_02_018 (1522.64, -1237.95, 297.011)
		1
			clipping_values 10000.0, -10000.0, 0.0
			color 0.607843, 0.992157, 0.992157
			enabled True
			falloff_exponent 1
			far_range 500
			multiplier sun
			name ls_spot
			near_range 0
			spot_angle_end 84
			spot_angle_start 40
		projection_light ls_spot
		ls_spot units/lights/spot_light_projection_textures/spotprojection_09_halogen_df
	100329 units/lights/01/light_projection_02/S3_light_projection_02_019 (1507.64, -1292.95, 430.011)
		1
			clipping_values 10000.0, -10000.0, 0.0
			color 0.607843, 0.992157, 0.992157
			enabled True
			falloff_exponent 1
			far_range 500
			multiplier sun
			name ls_spot
			near_range 190
			spot_angle_end 84
			spot_angle_start 40
		projection_light ls_spot
		ls_spot units/lights/spot_light_projection_textures/spotprojection_03_square_df
	100026 units/lights/01/light_projection_02/S3_light_projection_02_019 (1526.5, -967.8, 288.319)
		1
			clipping_values 10000.0, -10000.0, 0.0
			color 1.0, 1.0, 1.0
			enabled True
			falloff_exponent 1
			far_range 500
			multiplier sun
			name ls_spot
			near_range 0
			spot_angle_end 75
			spot_angle_start 44
		projection_light ls_spot
		ls_spot units/lights/spot_light_projection_textures/spotprojection_09_halogen_df
	100285 units/lights/01/light_projection_02/S3_light_projection_02_019 (1558.15, -1117.3, 306.417)
		1
			clipping_values 10000.0, -10000.0, 0.0
			color 0.592157, 0.94902, 0.992157
			enabled True
			falloff_exponent 1
			far_range 500
			multiplier inside of borg queen
			name ls_spot
			near_range 0
			spot_angle_end 84
			spot_angle_start 40
		projection_light ls_spot
		ls_spot units/lights/spot_light_projection_textures/spotprojection_09_halogen_df
	100286 units/lights/01/light_projection_02/S3_light_projection_02_020 (1522.64, -1237.95, 297.011)
		1
			clipping_values 10000.0, -10000.0, 0.0
			color 0.592157, 0.94902, 0.992157
			enabled True
			falloff_exponent 1.5
			far_range 500
			multiplier sun
			name ls_spot
			near_range 0
			spot_angle_end 84
			spot_angle_start 40
		projection_light ls_spot
		ls_spot units/lights/spot_light_projection_textures/spotprojection_06_downlight_df
	100020 units/payday2/architecture/com_ext_parking_garage_decal_a_4m/S1_com_ext_parking_garage_decal_a_4m_012 (1231.0, -1200.0, -1.42577)
		delayed_load True
	100021 units/payday2/architecture/com_ext_parking_garage_decal_a_4m/S1_com_ext_parking_garage_decal_a_4m_017 (1631.0, -1400.0, -1.42577)
		delayed_load True
	100022 units/payday2/architecture/com_ext_parking_garage_decal_a_4m/S1_com_ext_parking_garage_decal_a_4m_018 (1231.0, -1600.0, -1.42577)
		delayed_load True
	100023 units/payday2/architecture/com_ext_parking_garage_decal_a_4m/S1_com_ext_parking_garage_decal_a_4m_019 (2031.0, -1400.0, -1.42577)
		delayed_load True
	100110 units/payday2/architecture/com_ext_parking_garage_decal_a_4m/S2_com_ext_parking_garage_decal_a_4m_008 (1211.0, -1200.0, -1.42577)
		delayed_load True
	100111 units/payday2/architecture/com_ext_parking_garage_decal_a_4m/S2_com_ext_parking_garage_decal_a_4m_013 (2007.0, -1400.0, -1.42577)
		delayed_load True
	100112 units/payday2/architecture/com_ext_parking_garage_decal_a_4m/S2_com_ext_parking_garage_decal_a_4m_014 (1607.0, -1400.0, -1.42577)
		delayed_load True
	100113 units/payday2/architecture/com_ext_parking_garage_decal_a_4m/S2_com_ext_parking_garage_decal_a_4m_015 (1211.0, -1600.0, -1.42577)
		delayed_load True
	100237 units/payday2/architecture/com_ext_parking_garage_decal_a_4m/S3_com_ext_parking_garage_decal_a_4m_005 (1200.0, -1200.0, -1.42577)
		delayed_load True
	100238 units/payday2/architecture/com_ext_parking_garage_decal_a_4m/S3_com_ext_parking_garage_decal_a_4m_006 (1200.0, -1600.0, -1.42577)
		delayed_load True
	100239 units/payday2/architecture/com_ext_parking_garage_decal_a_4m/S3_com_ext_parking_garage_decal_a_4m_007 (1600.0, -1400.0, -1.42577)
		delayed_load True
	100240 units/payday2/architecture/com_ext_parking_garage_decal_a_4m/S3_com_ext_parking_garage_decal_a_4m_008 (2000.0, -1400.0, -1.42577)
		delayed_load True
	100038 units/payday2/architecture/ind/bld/ind_ext_dock_beam_small_2m/S1_ind_ext_dock_beam_small_2m_013 (1773.0, -1001.0, 318.175)
		delayed_load True
	100039 units/payday2/architecture/ind/bld/ind_ext_dock_beam_small_2m/S1_ind_ext_dock_beam_small_2m_014 (1596.0, -1001.0, 318.175)
		delayed_load True
	100040 units/payday2/architecture/ind/bld/ind_ext_dock_beam_small_2m/S1_ind_ext_dock_beam_small_2m_015 (1413.0, -1001.0, 318.175)
		delayed_load True
	100041 units/payday2/architecture/ind/bld/ind_ext_dock_beam_small_2m/S1_ind_ext_dock_beam_small_2m_016 (1230.0, -1001.0, 318.175)
		delayed_load True
	100129 units/payday2/architecture/ind/bld/ind_ext_dock_beam_small_2m/S2_ind_ext_dock_beam_small_2m_021 (1413.0, -1001.0, 318.175)
		delayed_load True
	100130 units/payday2/architecture/ind/bld/ind_ext_dock_beam_small_2m/S2_ind_ext_dock_beam_small_2m_022 (1230.0, -1001.0, 318.175)
		delayed_load True
	100131 units/payday2/architecture/ind/bld/ind_ext_dock_beam_small_2m/S2_ind_ext_dock_beam_small_2m_023 (1596.0, -1001.0, 318.175)
		delayed_load True
	100132 units/payday2/architecture/ind/bld/ind_ext_dock_beam_small_2m/S2_ind_ext_dock_beam_small_2m_024 (1773.0, -1001.0, 318.175)
		delayed_load True
	100260 units/payday2/architecture/ind/bld/ind_ext_dock_beam_small_2m/S3_ind_ext_dock_beam_small_2m_025 (1773.0, -1001.0, 318.175)
		delayed_load True
	100261 units/payday2/architecture/ind/bld/ind_ext_dock_beam_small_2m/S3_ind_ext_dock_beam_small_2m_026 (1596.0, -1001.0, 318.175)
		delayed_load True
	100262 units/payday2/architecture/ind/bld/ind_ext_dock_beam_small_2m/S3_ind_ext_dock_beam_small_2m_027 (1413.0, -1001.0, 318.175)
		delayed_load True
	100263 units/payday2/architecture/ind/bld/ind_ext_dock_beam_small_2m/S3_ind_ext_dock_beam_small_2m_028 (1230.0, -1001.0, 318.175)
		delayed_load True
	100042 units/payday2/architecture/ind/bld/ind_ext_dock_beam_small_4m/S1_ind_ext_dock_beam_small_4m_013 (1773.0, -1401.0, 318.175)
		delayed_load True
	100043 units/payday2/architecture/ind/bld/ind_ext_dock_beam_small_4m/S1_ind_ext_dock_beam_small_4m_014 (1596.0, -1401.0, 318.175)
		delayed_load True
	100044 units/payday2/architecture/ind/bld/ind_ext_dock_beam_small_4m/S1_ind_ext_dock_beam_small_4m_015 (1413.0, -1401.0, 318.175)
		delayed_load True
	100045 units/payday2/architecture/ind/bld/ind_ext_dock_beam_small_4m/S1_ind_ext_dock_beam_small_4m_016 (1230.0, -1401.0, 318.175)
		delayed_load True
	100133 units/payday2/architecture/ind/bld/ind_ext_dock_beam_small_4m/S2_ind_ext_dock_beam_small_4m_021 (1413.0, -1401.0, 318.175)
		delayed_load True
	100134 units/payday2/architecture/ind/bld/ind_ext_dock_beam_small_4m/S2_ind_ext_dock_beam_small_4m_022 (1230.0, -1401.0, 318.175)
		delayed_load True
	100135 units/payday2/architecture/ind/bld/ind_ext_dock_beam_small_4m/S2_ind_ext_dock_beam_small_4m_023 (1596.0, -1401.0, 318.175)
		delayed_load True
	100136 units/payday2/architecture/ind/bld/ind_ext_dock_beam_small_4m/S2_ind_ext_dock_beam_small_4m_024 (1773.0, -1401.0, 318.175)
		delayed_load True
	100264 units/payday2/architecture/ind/bld/ind_ext_dock_beam_small_4m/S3_ind_ext_dock_beam_small_4m_025 (1773.0, -1401.0, 318.175)
		delayed_load True
	100265 units/payday2/architecture/ind/bld/ind_ext_dock_beam_small_4m/S3_ind_ext_dock_beam_small_4m_026 (1596.0, -1401.0, 318.175)
		delayed_load True
	100266 units/payday2/architecture/ind/bld/ind_ext_dock_beam_small_4m/S3_ind_ext_dock_beam_small_4m_027 (1413.0, -1401.0, 318.175)
		delayed_load True
	100267 units/payday2/architecture/ind/bld/ind_ext_dock_beam_small_4m/S3_ind_ext_dock_beam_small_4m_028 (1230.0, -1401.0, 318.175)
		delayed_load True
	100046 units/payday2/architecture/ind/bld/ind_ext_dock_beam_small_8m/S1_ind_ext_dock_beam_small_8m_004 (2013.0, -832.0, 318.175)
		delayed_load True
	100137 units/payday2/architecture/ind/bld/ind_ext_dock_beam_small_8m/S2_ind_ext_dock_beam_small_8m_006 (2013.0, -832.0, 318.175)
		delayed_load True
	100268 units/payday2/architecture/ind/bld/ind_ext_dock_beam_small_8m/S3_ind_ext_dock_beam_small_8m_007 (2013.0, -832.0, 318.175)
		delayed_load True
	100287 units/payday2/architecture/lux_int_books_a/S3_lux_int_books_a_002 (1285.0, -1139.0, 1.71631)
		delayed_load True
	100288 units/payday2/architecture/lux_int_books_b/S3_lux_int_books_b_002 (1283.0, -1040.0, 32.1335)
		delayed_load True
	100027 units/payday2/props/are_prop_backstage_videorecorder/S3_are_prop_backstage_videorecorder_001 (1286.0, -1154.0, 31.5742)
		delayed_load True
		disable_shadows True
	100025 units/payday2/props/com_prop_election_table/S1_com_prop_election_table_004 (1299.0, -1010.0, -1.40366)
		delayed_load True
		disable_shadows True
	100127 units/payday2/props/gen_prop_weapon_case_1x1_closed/S2_gen_prop_weapon_case_1x1_closed_006 (1749.0, -1327.0, 137.2)
		delayed_load True
		disable_shadows True
	100258 units/payday2/props/gen_prop_weapon_case_1x1_closed/S3_gen_prop_weapon_case_1x1_closed_007 (1749.0, -1327.0, 137.2)
		delayed_load True
		disable_shadows True
	100289 units/payday2/props/lxa_prop_balcony_table_large/S3_lxa_prop_balcony_table_large_008 (1504.0, -1332.0, -2.0)
		delayed_load True
		disable_shadows True
	100166 units/payday2/props/lxa_prop_balcony_table_small/S2_lxa_prop_balcony_table_small_006 (1738.0, -948.0, -1.8665)
		delayed_load True
		disable_shadows True
	100290 units/payday2/props/lxa_prop_balcony_table_small/S3_lxa_prop_balcony_table_small_007 (1737.0, -953.0, -1.8665)
		delayed_load True
		disable_shadows True
	100074 units/payday2/props/off_prop_officehigh_drawer_standard_large_glass_doors/S1_off_prop_officehigh_drawer_standard_large_glass_doors_004 (1717.22, -1392.22, 1.2658)
		delayed_load True
		disable_shadows True
	100172 units/payday2/props/off_prop_officehigh_drawer_standard_large_glass_doors/S2_off_prop_officehigh_drawer_standard_large_glass_doors_006 (1717.22, -1392.22, 1.2658)
		delayed_load True
		disable_shadows True
	100297 units/payday2/props/off_prop_officehigh_drawer_standard_large_glass_doors/S3_off_prop_officehigh_drawer_standard_large_glass_doors_007 (1717.22, -1392.22, 1.2658)
		delayed_load True
		disable_shadows True
	100173 units/payday2/props/off_prop_officehigh_drawer_standard_small_shelves_3/S2_off_prop_officehigh_drawer_standard_small_shelves_3_015 (1257.0, -990.0, -37.8665)
		delayed_load True
		disable_shadows True
	100174 units/payday2/props/off_prop_officehigh_drawer_standard_small_shelves_3/S2_off_prop_officehigh_drawer_standard_small_shelves_3_016 (1257.0, -1090.0, -37.8665)
		delayed_load True
		disable_shadows True
	100298 units/payday2/props/off_prop_officehigh_drawer_standard_small_shelves_3/S3_off_prop_officehigh_drawer_standard_small_shelves_3_017 (1257.0, -990.0, -37.8665)
		delayed_load True
		disable_shadows True
	100299 units/payday2/props/off_prop_officehigh_drawer_standard_small_shelves_3/S3_off_prop_officehigh_drawer_standard_small_shelves_3_018 (1257.0, -1090.0, -37.8665)
		delayed_load True
		disable_shadows True
	100310 units/payday2/props/res_prop_livingroom_tv/S3_res_prop_livingroom_tv_008 (1282.0, -1090.0, 63.0682)
		delayed_load True
		disable_shadows True
	100149 units/payday2/props/set/ind_prop_warehouse_box_a/S2_ind_prop_warehouse_box_a_002 (1278.0, -1041.0, -0.866455)
		delayed_load True
	100150 units/payday2/props/set/ind_prop_warehouse_box_b/S2_ind_prop_warehouse_box_b_004 (1571.0, -1363.0, 51.1335)
		delayed_load True
	100151 units/payday2/props/set/ind_prop_warehouse_box_b/S2_ind_prop_warehouse_box_b_005 (1465.0, -1311.0, -2.86646)
		delayed_load True
	100152 units/payday2/props/set/ind_prop_warehouse_box_b/S2_ind_prop_warehouse_box_b_006 (1398.0, -1345.0, -1.86646)
		delayed_load True
	100058 units/payday2/props/set/ind_prop_warehouse_box_c/S1_ind_prop_warehouse_box_c_003 (1300.0, -1350.0, 106.629)
		delayed_load True
	100059 units/payday2/props/set/ind_prop_warehouse_box_c/S1_ind_prop_warehouse_box_c_004 (1755.0, -951.0, 41.1335)
		delayed_load True
	100060 units/payday2/props/set/ind_prop_warehouse_box_d/S1_ind_prop_warehouse_box_d_011 (1271.0, -1232.0, -1.86646)
		delayed_load True
		disable_shadows True
	100061 units/payday2/props/set/ind_prop_warehouse_box_d/S1_ind_prop_warehouse_box_d_012 (1287.0, -1050.0, -1.40364)
		delayed_load True
		disable_shadows True
	100062 units/payday2/props/set/ind_prop_warehouse_box_d/S1_ind_prop_warehouse_box_d_013 (1300.0, -980.0, -1.40364)
		delayed_load True
		disable_shadows True
	100063 units/payday2/props/set/ind_prop_warehouse_box_d/S1_ind_prop_warehouse_box_d_014 (1701.0, -1251.0, -1.40366)
		delayed_load True
		disable_shadows True
	100064 units/payday2/props/set/ind_prop_warehouse_box_d/S1_ind_prop_warehouse_box_d_015 (1565.0, -1351.0, 103.613)
		delayed_load True
		disable_shadows True
	100153 units/payday2/props/set/ind_prop_warehouse_box_d/S2_ind_prop_warehouse_box_d_002 (1484.0, -1359.0, -1.40366)
		delayed_load True
	100154 units/payday2/props/set/ind_prop_warehouse_box_e/S2_ind_prop_warehouse_box_e_003 (1283.0, -1141.0, -0.403656)
		delayed_load True
	100155 units/payday2/props/set/ind_prop_warehouse_box_e/S2_ind_prop_warehouse_box_e_004 (1465.0, -1311.0, 51.1335)
		delayed_load True
	100065 units/payday2/props/set/ind_prop_warehouse_box_f/S1_ind_prop_warehouse_box_f_002 (1753.0, -950.0, -0.866455)
		delayed_load True
	100156 units/payday2/props/set/ind_prop_warehouse_box_f/S2_ind_prop_warehouse_box_f_002 (1638.0, -1346.0, -0.866455)
		delayed_load True
	100157 units/payday2/props/set/ind_prop_warehouse_box_g/S2_ind_prop_warehouse_box_g_004 (1571.0, -1360.0, -1.86646)
		delayed_load True
	100158 units/payday2/props/set/ind_prop_warehouse_box_g/S2_ind_prop_warehouse_box_g_005 (1485.1, -1364.27, 53.1335)
		delayed_load True
	100159 units/payday2/props/set/ind_prop_warehouse_box_g/S2_ind_prop_warehouse_box_g_006 (1723.0, -1251.0, -1.86646)
		delayed_load True
	100066 units/payday2/props/set/ind_prop_warehouse_box_stack_4/S1_ind_prop_warehouse_box_stack_4_004 (1620.0, -1355.0, -1.86646)
		delayed_load True
		disable_shadows True
	100067 units/payday2/props/set/ind_prop_warehouse_box_stack_4/S1_ind_prop_warehouse_box_stack_4_006 (1286.0, -1339.0, -1.86646)
		delayed_load True
		disable_shadows True
	100160 units/payday2/props/set/ind_prop_warehouse_box_stack_4/S2_ind_prop_warehouse_box_stack_4_002 (1276.0, -1242.0, -1.86646)
		delayed_load True
	100068 units/payday2/props/set/ind_prop_warehouse_box_stack_8/S1_ind_prop_warehouse_box_stack_8_004 (1490.0, -1330.0, -3.0)
		delayed_load True
		disable_shadows True
	100075 units/payday2/props/shelves/off_prop_officehigh_shelf_standard/S1_off_prop_officehigh_shelf_standard_005 (1700.0, -1397.0, 284.0)
		delayed_load True
		disable_shadows True
	100076 units/payday2/props/shelves/off_prop_officehigh_shelf_standard/S1_off_prop_officehigh_shelf_standard_007 (1506.0, -1397.0, 284.0)
		delayed_load True
		disable_shadows True
	100077 units/payday2/props/shelves/off_prop_officehigh_shelf_standard/S1_off_prop_officehigh_shelf_standard_010 (1312.0, -1397.0, 284.0)
		delayed_load True
		disable_shadows True
	100175 units/payday2/props/shelves/off_prop_officehigh_shelf_standard/S2_off_prop_officehigh_shelf_standard_015 (1312.0, -1397.0, 284.0)
		delayed_load True
		disable_shadows True
	100176 units/payday2/props/shelves/off_prop_officehigh_shelf_standard/S2_off_prop_officehigh_shelf_standard_016 (1506.0, -1397.0, 284.0)
		delayed_load True
		disable_shadows True
	100177 units/payday2/props/shelves/off_prop_officehigh_shelf_standard/S2_off_prop_officehigh_shelf_standard_017 (1700.0, -1397.0, 284.0)
		delayed_load True
		disable_shadows True
	100300 units/payday2/props/shelves/off_prop_officehigh_shelf_standard/S3_off_prop_officehigh_shelf_standard_009 (1700.0, -1397.0, 284.0)
		delayed_load True
		disable_shadows True
	100301 units/payday2/props/shelves/off_prop_officehigh_shelf_standard/S3_off_prop_officehigh_shelf_standard_017 (1506.0, -1397.0, 284.0)
		delayed_load True
		disable_shadows True
	100302 units/payday2/props/shelves/off_prop_officehigh_shelf_standard/S3_off_prop_officehigh_shelf_standard_018 (1312.0, -1397.0, 284.0)
		delayed_load True
		disable_shadows True
	100303 units/payday2/props/shelves/off_prop_officehigh_shelf_standard/S3_off_prop_officehigh_shelf_standard_046 (1623.0, -1424.0, 184.0)
		delayed_load True
		disable_shadows True
	100304 units/payday2/props/shelves/off_prop_officehigh_shelf_standard/S3_off_prop_officehigh_shelf_standard_047 (1383.0, -1424.0, 184.0)
		delayed_load True
		disable_shadows True
	100305 units/payday2/props/shelves/off_prop_officehigh_shelf_standard/S3_off_prop_officehigh_shelf_standard_048 (1502.0, -1425.0, 2.0)
		delayed_load True
		disable_shadows True
	100306 units/payday2/props/shelves/off_prop_officehigh_shelf_standard/S3_off_prop_officehigh_shelf_standard_049 (1623.0, -1424.0, -4.0)
		delayed_load True
		disable_shadows True
	100307 units/payday2/props/shelves/off_prop_officehigh_shelf_standard/S3_off_prop_officehigh_shelf_standard_050 (1314.0, -1425.0, 2.0)
		delayed_load True
		disable_shadows True
	100308 units/payday2/props/shelves/off_prop_officehigh_shelf_standard/S3_off_prop_officehigh_shelf_standard_051 (1690.0, -1425.0, 2.0)
		delayed_load True
		disable_shadows True
	100309 units/payday2/props/shelves/off_prop_officehigh_shelf_standard/S3_off_prop_officehigh_shelf_standard_052 (1383.0, -1424.0, -4.0)
		delayed_load True
		disable_shadows True
	100028 units/payday2/props/spotlight/com_prop_store_spot_light_b_1/S1_com_prop_store_spot_light_b_1_006 (1543.0, -1100.0, 344.701)
		delayed_load True
		disable_shadows True
	100118 units/payday2/props/spotlight/com_prop_store_spot_light_b_1/S2_com_prop_store_spot_light_b_1_011 (1543.0, -1100.0, 344.701)
		delayed_load True
		disable_shadows True
	100119 units/payday2/props/spotlight/com_prop_store_spot_light_b_1/S2_com_prop_store_spot_light_b_1_012 (1543.0, -1225.0, 344.701)
		delayed_load True
		disable_shadows True
	100249 units/payday2/props/spotlight/com_prop_store_spot_light_b_1/S3_com_prop_store_spot_light_b_1_013 (1543.0, -1100.0, 344.701)
		delayed_load True
		disable_shadows True
	100250 units/payday2/props/spotlight/com_prop_store_spot_light_b_1/S3_com_prop_store_spot_light_b_1_014 (1543.0, -1225.0, 344.701)
		delayed_load True
		disable_shadows True
	100029 units/payday2/props/spotlight/com_prop_store_spot_light_b_2/S1_com_prop_store_spot_light_b_2_004 (1543.0, -975.0, 344.701)
		delayed_load True
		disable_shadows True
	100120 units/payday2/props/spotlight/com_prop_store_spot_light_b_2/S2_com_prop_store_spot_light_b_2_006 (1543.0, -975.0, 344.701)
		delayed_load True
		disable_shadows True
	100251 units/payday2/props/spotlight/com_prop_store_spot_light_b_2/S3_com_prop_store_spot_light_b_2_007 (1543.0, -975.0, 344.701)
		delayed_load True
		disable_shadows True
	100030 units/payday2/props/spotlight/com_prop_store_spot_rail_b/S1_com_prop_store_spot_rail_b_010 (1543.0, -900.0, 350.701)
		delayed_load True
		disable_shadows True
	100031 units/payday2/props/spotlight/com_prop_store_spot_rail_b/S1_com_prop_store_spot_rail_b_011 (1543.0, -1100.0, 350.701)
		delayed_load True
		disable_shadows True
	100032 units/payday2/props/spotlight/com_prop_store_spot_rail_b/S1_com_prop_store_spot_rail_b_012 (1543.0, -1300.0, 350.701)
		delayed_load True
		disable_shadows True
	100121 units/payday2/props/spotlight/com_prop_store_spot_rail_b/S2_com_prop_store_spot_rail_b_016 (1543.0, -900.0, 350.701)
		delayed_load True
		disable_shadows True
	100122 units/payday2/props/spotlight/com_prop_store_spot_rail_b/S2_com_prop_store_spot_rail_b_017 (1543.0, -1100.0, 350.701)
		delayed_load True
		disable_shadows True
	100123 units/payday2/props/spotlight/com_prop_store_spot_rail_b/S2_com_prop_store_spot_rail_b_018 (1543.0, -1300.0, 350.701)
		delayed_load True
		disable_shadows True
	100252 units/payday2/props/spotlight/com_prop_store_spot_rail_b/S3_com_prop_store_spot_rail_b_019 (1543.0, -900.0, 350.701)
		delayed_load True
		disable_shadows True
	100253 units/payday2/props/spotlight/com_prop_store_spot_rail_b/S3_com_prop_store_spot_rail_b_020 (1543.0, -1100.0, 350.701)
		delayed_load True
		disable_shadows True
	100254 units/payday2/props/spotlight/com_prop_store_spot_rail_b/S3_com_prop_store_spot_rail_b_021 (1543.0, -1300.0, 350.701)
		delayed_load True
		disable_shadows True
	100181 units/payday2/props/stn_prop_lobby_plant_b/S2_stn_prop_lobby_plant_b_007 (1274.0, -1348.0, -1.8665)
		delayed_load True
		disable_shadows True
	100316 units/payday2/props/stn_prop_lobby_plant_b/S3_stn_prop_lobby_plant_b_008 (1274.0, -1348.0, -1.8665)
		delayed_load True
		disable_shadows True
	100047 units/pd2_dlc1/props/details/ind_ext_prop_cable_corner/S1_ind_ext_prop_cable_corner_007 (1579.0, -912.0, 350.701)
		delayed_load True
		disable_shadows True
	100048 units/pd2_dlc1/props/details/ind_ext_prop_cable_corner/S1_ind_ext_prop_cable_corner_008 (1567.0, -1316.0, 350.701)
		delayed_load True
		disable_shadows True
	100138 units/pd2_dlc1/props/details/ind_ext_prop_cable_corner/S2_ind_ext_prop_cable_corner_011 (1579.0, -912.0, 350.701)
		delayed_load True
		disable_shadows True
	100139 units/pd2_dlc1/props/details/ind_ext_prop_cable_corner/S2_ind_ext_prop_cable_corner_012 (1567.0, -1316.0, 350.701)
		delayed_load True
		disable_shadows True
	100269 units/pd2_dlc1/props/details/ind_ext_prop_cable_corner/S3_ind_ext_prop_cable_corner_013 (1579.0, -912.0, 350.701)
		delayed_load True
		disable_shadows True
	100270 units/pd2_dlc1/props/details/ind_ext_prop_cable_corner/S3_ind_ext_prop_cable_corner_014 (1567.0, -1316.0, 350.701)
		delayed_load True
		disable_shadows True
	100049 units/pd2_dlc1/props/details/ind_ext_prop_cable_straight_01/S1_ind_ext_prop_cable_straight_01_004 (1272.0, -1316.0, 350.701)
		delayed_load True
		disable_shadows True
	100140 units/pd2_dlc1/props/details/ind_ext_prop_cable_straight_01/S2_ind_ext_prop_cable_straight_01_006 (1272.0, -1316.0, 350.701)
		delayed_load True
		disable_shadows True
	100271 units/pd2_dlc1/props/details/ind_ext_prop_cable_straight_01/S3_ind_ext_prop_cable_straight_01_007 (1272.0, -1316.0, 350.701)
		delayed_load True
		disable_shadows True
	100050 units/pd2_dlc1/props/details/ind_ext_prop_cable_straight_01_1m/S1_ind_ext_prop_cable_straight_01_1m_010 (1573.0, -1112.0, 350.701)
		delayed_load True
		disable_shadows True
	100051 units/pd2_dlc1/props/details/ind_ext_prop_cable_straight_01_1m/S1_ind_ext_prop_cable_straight_01_1m_011 (1573.0, -1212.0, 350.701)
		delayed_load True
		disable_shadows True
	100052 units/pd2_dlc1/props/details/ind_ext_prop_cable_straight_01_1m/S1_ind_ext_prop_cable_straight_01_1m_012 (1372.0, -1316.0, 350.701)
		delayed_load True
		disable_shadows True
	100141 units/pd2_dlc1/props/details/ind_ext_prop_cable_straight_01_1m/S2_ind_ext_prop_cable_straight_01_1m_016 (1573.0, -1112.0, 350.701)
		delayed_load True
		disable_shadows True
	100142 units/pd2_dlc1/props/details/ind_ext_prop_cable_straight_01_1m/S2_ind_ext_prop_cable_straight_01_1m_017 (1573.0, -1212.0, 350.701)
		delayed_load True
		disable_shadows True
	100143 units/pd2_dlc1/props/details/ind_ext_prop_cable_straight_01_1m/S2_ind_ext_prop_cable_straight_01_1m_018 (1372.0, -1316.0, 350.701)
		delayed_load True
		disable_shadows True
	100272 units/pd2_dlc1/props/details/ind_ext_prop_cable_straight_01_1m/S3_ind_ext_prop_cable_straight_01_1m_019 (1573.0, -1112.0, 350.701)
		delayed_load True
		disable_shadows True
	100273 units/pd2_dlc1/props/details/ind_ext_prop_cable_straight_01_1m/S3_ind_ext_prop_cable_straight_01_1m_020 (1573.0, -1212.0, 350.701)
		delayed_load True
		disable_shadows True
	100274 units/pd2_dlc1/props/details/ind_ext_prop_cable_straight_01_1m/S3_ind_ext_prop_cable_straight_01_1m_021 (1372.0, -1316.0, 350.701)
		delayed_load True
		disable_shadows True
	100053 units/pd2_dlc1/props/details/ind_ext_prop_cable_straight_01_2m/S1_ind_ext_prop_cable_straight_01_2m_004 (1572.0, -1316.0, 350.701)
		delayed_load True
		disable_shadows True
	100054 units/pd2_dlc1/props/details/ind_ext_prop_cable_straight_01_2m/S1_ind_ext_prop_cable_straight_01_2m_006 (1573.0, -912.0, 350.701)
		delayed_load True
		disable_shadows True
	100144 units/pd2_dlc1/props/details/ind_ext_prop_cable_straight_01_2m/S2_ind_ext_prop_cable_straight_01_2m_010 (1573.0, -912.0, 350.701)
		delayed_load True
		disable_shadows True
	100145 units/pd2_dlc1/props/details/ind_ext_prop_cable_straight_01_2m/S2_ind_ext_prop_cable_straight_01_2m_011 (1572.0, -1316.0, 350.701)
		delayed_load True
		disable_shadows True
	100275 units/pd2_dlc1/props/details/ind_ext_prop_cable_straight_01_2m/S3_ind_ext_prop_cable_straight_01_2m_012 (1573.0, -912.0, 350.701)
		delayed_load True
		disable_shadows True
	100276 units/pd2_dlc1/props/details/ind_ext_prop_cable_straight_01_2m/S3_ind_ext_prop_cable_straight_01_2m_013 (1572.0, -1316.0, 350.701)
		delayed_load True
		disable_shadows True
	100055 units/pd2_dlc1/props/details/ind_ext_prop_cable_straight_01_4m/S1_ind_ext_prop_cable_straight_01_4m_007 (1980.0, -912.0, 350.701)
		delayed_load True
		disable_shadows True
	100056 units/pd2_dlc1/props/details/ind_ext_prop_cable_straight_01_4m/S1_ind_ext_prop_cable_straight_01_4m_008 (1788.0, -913.0, -25.2995)
		delayed_load True
		disable_shadows True
	100146 units/pd2_dlc1/props/details/ind_ext_prop_cable_straight_01_4m/S2_ind_ext_prop_cable_straight_01_4m_011 (1980.0, -912.0, 350.701)
		delayed_load True
		disable_shadows True
	100147 units/pd2_dlc1/props/details/ind_ext_prop_cable_straight_01_4m/S2_ind_ext_prop_cable_straight_01_4m_012 (1788.0, -913.0, -25.2995)
		delayed_load True
		disable_shadows True
	100277 units/pd2_dlc1/props/details/ind_ext_prop_cable_straight_01_4m/S3_ind_ext_prop_cable_straight_01_4m_013 (1980.0, -912.0, 350.701)
		delayed_load True
		disable_shadows True
	100278 units/pd2_dlc1/props/details/ind_ext_prop_cable_straight_01_4m/S3_ind_ext_prop_cable_straight_01_4m_014 (1788.0, -912.0, -25.2995)
		delayed_load True
		disable_shadows True
	100037 units/pd2_dlc2/architecture/gov_d_int_decal_mull_3x3m/S1_gov_d_int_decal_mull_3x3m_007 (1747.0, -1100.0, -1.86645)
		delayed_load True
	100128 units/pd2_dlc2/architecture/gov_d_int_decal_mull_3x3m/S2_gov_d_int_decal_mull_3x3m_006 (1761.0, -1108.0, -1.86645)
		delayed_load True
	100259 units/pd2_dlc2/architecture/gov_d_int_decal_mull_3x3m/S3_gov_d_int_decal_mull_3x3m_004 (1764.0, -1077.0, -1.86646)
		delayed_load True
	100183 units/pd2_dlc_arena/architecture/are_int_stage_speakers_03/S3_are_int_stage_speakers_03_015 (1282.59, -949.941, -1.8665)
		delayed_load True
		disable_shadows True
	100184 units/pd2_dlc_arena/architecture/are_int_stage_speakers_03/S3_are_int_stage_speakers_03_016 (1269.99, -1236.23, -3.8665)
		delayed_load True
		disable_shadows True
	100057 units/pd2_dlc_cage/props/armchair_set/ind_prop_cardealership_couch/S1_ind_prop_cardealership_couch_004 (1725.0, -1100.0, -1.8665)
		delayed_load True
		disable_shadows True
	100148 units/pd2_dlc_cage/props/armchair_set/ind_prop_cardealership_couch/S2_ind_prop_cardealership_couch_006 (1725.0, -1100.0, -1.8665)
		delayed_load True
		disable_shadows True
	100281 units/pd2_dlc_cage/props/armchair_set/ind_prop_cardealership_couch/S3_ind_prop_cardealership_couch_007 (1725.0, -1100.0, -1.8665)
		delayed_load True
		disable_shadows True
	100279 units/pd2_dlc_cage/props/set/ind_prop_cardealership_armchair/S3_ind_prop_cardealership_armchair_015 (1649.33, -1302.49, -2.0)
		delayed_load True
		disable_shadows True
	100280 units/pd2_dlc_cage/props/set/ind_prop_cardealership_armchair/S3_ind_prop_cardealership_armchair_016 (1364.27, -1315.17, -2.0)
		delayed_load True
		disable_shadows True
	100097 units/pd2_dlc_chill/architecture/chl_ext_livingroom_tvunit_props_b/S2_chl_ext_livingroom_tvunit_props_b_007 (1736.72, -1343.84, -75.0)
		delayed_load True
		disable_shadows True
	100218 units/pd2_dlc_chill/architecture/chl_ext_livingroom_tvunit_props_b/S3_chl_ext_livingroom_tvunit_props_b_008 (1736.72, -1343.84, -75.0)
		delayed_load True
		disable_shadows True
	100168 units/pd2_dlc_chill/characters/npc_acc_whiskey_glass/S2_npc_acc_whiskey_glass_024 (1715.58, -1347.91, 92.0745)
		delayed_load True
		disable_shadows True
	100169 units/pd2_dlc_chill/characters/npc_acc_whiskey_glass/S2_npc_acc_whiskey_glass_025 (1711.58, -1354.91, 92.0745)
		delayed_load True
		disable_shadows True
	100170 units/pd2_dlc_chill/characters/npc_acc_whiskey_glass/S2_npc_acc_whiskey_glass_026 (1719.58, -1354.91, 92.0745)
		delayed_load True
		disable_shadows True
	100171 units/pd2_dlc_chill/characters/npc_acc_whiskey_glass/S2_npc_acc_whiskey_glass_027 (1478.0, -1347.0, 107.304)
		delayed_load True
		disable_shadows True
	100293 units/pd2_dlc_chill/characters/npc_acc_whiskey_glass/S3_npc_acc_whiskey_glass_028 (1715.58, -1347.91, 92.0745)
		delayed_load True
		disable_shadows True
	100294 units/pd2_dlc_chill/characters/npc_acc_whiskey_glass/S3_npc_acc_whiskey_glass_029 (1719.58, -1354.91, 92.0745)
		delayed_load True
		disable_shadows True
	100295 units/pd2_dlc_chill/characters/npc_acc_whiskey_glass/S3_npc_acc_whiskey_glass_030 (1711.58, -1354.91, 92.0745)
		delayed_load True
		disable_shadows True
	100296 units/pd2_dlc_chill/characters/npc_acc_whiskey_glass/S3_npc_acc_whiskey_glass_031 (1451.0, -1291.0, 38.618)
		delayed_load True
		disable_shadows True
	100013 units/pd2_dlc_chill/props/chl_prop_clothes_hanger/S1_chl_prop_clothes_hanger_004 (1326.47, -867.002, -2.5589)
		delayed_load True
		disable_shadows True
	100098 units/pd2_dlc_chill/props/chl_prop_clothes_hanger/S2_chl_prop_clothes_hanger_006 (1326.47, -867.002, -2.5589)
		delayed_load True
		disable_shadows True
	100220 units/pd2_dlc_chill/props/chl_prop_clothes_hanger/S3_chl_prop_clothes_hanger_007 (1326.47, -867.002, -2.5589)
		delayed_load True
		disable_shadows True
	100108 units/pd2_dlc_chill/props/chl_prop_fan_table/S1_chl_prop_fan_table_001 (1716.51, -1372.63, 176.201)
		delayed_load True
		disable_shadows True
	100115 units/pd2_dlc_chill/props/chl_prop_fan_table/S2_chl_prop_fan_table_002 (1716.51, -1372.63, 176.201)
		delayed_load True
		disable_shadows True
	100116 units/pd2_dlc_chill/props/chl_prop_fan_table/S3_chl_prop_fan_table_003 (1716.51, -1372.63, 176.201)
		delayed_load True
		disable_shadows True
	100015 units/pd2_dlc_chill/props/chl_prop_motel_tv/S1_chl_prop_motel_tv_004 (1279.0, -1031.0, 73.0682)
		delayed_load True
		disable_shadows True
	100100 units/pd2_dlc_chill/props/chl_prop_motel_tv/S2_chl_prop_motel_tv_010 (1271.0, -1047.0, 62.0682)
		delayed_load True
		disable_shadows True
	100016 units/pd2_dlc_chill/props/chl_prop_sicario_candles/S1_chl_prop_sicario_candles_030 (1306.14, -962.374, 70.7408)
		delayed_load True
		disable_shadows True
		1
			clipping_values 10000.0, -10000.0, 0.0
			color 1.0, 0.388235, 0.0901961
			enabled True
			falloff_exponent 7
			far_range 175
			multiplier identity
			name lo_omni
			near_range 0
			spot_angle_end 0
			spot_angle_start 0
		projection_light lo_omni
	100017 units/pd2_dlc_chill/props/chl_prop_sicario_candles/S1_chl_prop_sicario_candles_037 (1337.84, -1382.96, 285.875)
		delayed_load True
		disable_shadows True
		1
			clipping_values 10000.0, -10000.0, 0.0
			color 1.0, 0.388235, 0.0901961
			enabled True
			falloff_exponent 7
			far_range 150
			multiplier identity
			name lo_omni
			near_range 0
			spot_angle_end 0
			spot_angle_start 0
		projection_light lo_omni
	100101 units/pd2_dlc_chill/props/chl_prop_sicario_candles/S2_chl_prop_sicario_candles_015 (1345.23, -1382.57, 285.875)
		delayed_load True
		disable_shadows True
		1
			clipping_values 10000.0, -10000.0, 0.0
			color 1.0, 0.388235, 0.0901961
			enabled True
			falloff_exponent 7
			far_range 175
			multiplier identity
			name lo_omni
			near_range 0
			spot_angle_end 0
			spot_angle_start 0
		projection_light lo_omni
	100102 units/pd2_dlc_chill/props/chl_prop_sicario_candles/S2_chl_prop_sicario_candles_050 (1291.33, -1144.98, 59.4951)
		delayed_load True
		disable_shadows True
		1
			clipping_values 10000.0, -10000.0, 0.0
			color 1.0, 0.388235, 0.0901961
			enabled True
			falloff_exponent 7
			far_range 175
			multiplier identity
			name lo_omni
			near_range 0
			spot_angle_end 0
			spot_angle_start 0
		projection_light lo_omni
	100103 units/pd2_dlc_chill/props/chl_prop_sicario_candles/S2_chl_prop_sicario_candles_052 (1421.41, -1381.73, 286.2)
		delayed_load True
		disable_shadows True
		1
			clipping_values 10000.0, -10000.0, 0.0
			color 1.0, 0.388235, 0.0901961
			enabled True
			falloff_exponent 7
			far_range 175
			multiplier identity
			name lo_omni
			near_range 0
			spot_angle_end 0
			spot_angle_start 0
		projection_light lo_omni
	100104 units/pd2_dlc_chill/props/chl_prop_sicario_candles/S2_chl_prop_sicario_candles_057 (1285.84, -1384.96, 285.875)
		delayed_load True
		disable_shadows True
		1
			clipping_values 10000.0, -10000.0, 0.0
			color 1.0, 0.388235, 0.0901961
			enabled True
			falloff_exponent 7
			far_range 100
			multiplier identity
			name lo_omni
			near_range 0
			spot_angle_end 0
			spot_angle_start 0
		projection_light lo_omni
	100105 units/pd2_dlc_chill/props/chl_prop_sicario_candles/S2_chl_prop_sicario_candles_058 (1563.97, -1381.15, 285.2)
		delayed_load True
		disable_shadows True
		1
			clipping_values 10000.0, -10000.0, 0.0
			color 1.0, 0.388235, 0.0901961
			enabled True
			falloff_exponent 7
			far_range 175
			multiplier identity
			name lo_omni
			near_range 0
			spot_angle_end 0
			spot_angle_start 0
		projection_light lo_omni
	100106 units/pd2_dlc_chill/props/chl_prop_sicario_candles/S2_chl_prop_sicario_candles_059 (1619.84, -1382.96, 285.875)
		delayed_load True
		disable_shadows True
		1
			clipping_values 10000.0, -10000.0, 0.0
			color 1.0, 0.388235, 0.0901961
			enabled True
			falloff_exponent 7
			far_range 175
			multiplier identity
			name lo_omni
			near_range 0
			spot_angle_end 0
			spot_angle_start 0
		projection_light lo_omni
	100107 units/pd2_dlc_chill/props/chl_prop_sicario_candles/S2_chl_prop_sicario_candles_060 (1727.84, -1380.96, 285.875)
		delayed_load True
		disable_shadows True
		1
			clipping_values 10000.0, -10000.0, 0.0
			color 1.0, 0.388235, 0.0901961
			enabled True
			falloff_exponent 7
			far_range 175
			multiplier identity
			name lo_omni
			near_range 0
			spot_angle_end 0
			spot_angle_start 0
		projection_light lo_omni
	100223 units/pd2_dlc_chill/props/chl_prop_sicario_candles/S3_chl_prop_sicario_candles_012 (1324.23, -1382.57, 285.875)
		delayed_load True
		disable_shadows True
		1
			clipping_values 10000.0, -10000.0, 0.0
			color 1.0, 0.388235, 0.0901961
			enabled True
			falloff_exponent 7
			far_range 175
			multiplier identity
			name lo_omni
			near_range 0
			spot_angle_end 0
			spot_angle_start 0
		projection_light lo_omni
	100224 units/pd2_dlc_chill/props/chl_prop_sicario_candles/S3_chl_prop_sicario_candles_018 (1560.99, -1364.42, 35.618)
		delayed_load True
		disable_shadows True
		1
			clipping_values 10000.0, -10000.0, 0.0
			color 1.0, 0.388235, 0.0901961
			enabled True
			falloff_exponent 7
			far_range 175
			multiplier identity
			name lo_omni
			near_range 0
			spot_angle_end 0
			spot_angle_start 0
		projection_light lo_omni
	100225 units/pd2_dlc_chill/props/chl_prop_sicario_candles/S3_chl_prop_sicario_candles_019 (1750.0, -955.0, 45.5413)
		delayed_load True
		disable_shadows True
		1
			clipping_values 10000.0, -10000.0, 0.0
			color 1.0, 0.388235, 0.0901961
			enabled True
			falloff_exponent 7
			far_range 175
			multiplier identity
			name lo_omni
			near_range 0
			spot_angle_end 0
			spot_angle_start 0
		projection_light lo_omni
	100226 units/pd2_dlc_chill/props/chl_prop_sicario_candles/S3_chl_prop_sicario_candles_068 (1727.84, -1380.96, 285.875)
		delayed_load True
		1
			clipping_values 10000.0, -10000.0, 0.0
			color 1.0, 0.388235, 0.0901961
			enabled True
			falloff_exponent 7
			far_range 175
			multiplier identity
			name lo_omni
			near_range 0
			spot_angle_end 0
			spot_angle_start 0
		projection_light lo_omni
	100227 units/pd2_dlc_chill/props/chl_prop_sicario_candles/S3_chl_prop_sicario_candles_069 (1619.84, -1382.96, 285.875)
		delayed_load True
		1
			clipping_values 10000.0, -10000.0, 0.0
			color 1.0, 0.388235, 0.0901961
			enabled True
			falloff_exponent 7
			far_range 175
			multiplier identity
			name lo_omni
			near_range 0
			spot_angle_end 0
			spot_angle_start 0
		projection_light lo_omni
	100228 units/pd2_dlc_chill/props/chl_prop_sicario_candles/S3_chl_prop_sicario_candles_070 (1538.32, -1373.58, 282.2)
		delayed_load True
		disable_shadows True
		1
			clipping_values 10000.0, -10000.0, 0.0
			color 1.0, 0.388235, 0.0901961
			enabled True
			falloff_exponent 7
			far_range 175
			multiplier identity
			name lo_omni
			near_range 0
			spot_angle_end 0
			spot_angle_start 0
		projection_light lo_omni
	100229 units/pd2_dlc_chill/props/chl_prop_sicario_candles/S3_chl_prop_sicario_candles_071 (1563.97, -1381.15, 285.2)
		delayed_load True
		disable_shadows True
		1
			clipping_values 10000.0, -10000.0, 0.0
			color 1.0, 0.388235, 0.0901961
			enabled True
			falloff_exponent 7
			far_range 175
			multiplier identity
			name lo_omni
			near_range 0
			spot_angle_end 0
			spot_angle_start 0
		projection_light lo_omni
	100230 units/pd2_dlc_chill/props/chl_prop_sicario_candles/S3_chl_prop_sicario_candles_072 (1449.69, -1380.74, 282.2)
		delayed_load True
		disable_shadows True
		1
			clipping_values 10000.0, -10000.0, 0.0
			color 1.0, 0.388235, 0.0901961
			enabled True
			falloff_exponent 7
			far_range 175
			multiplier identity
			name lo_omni
			near_range 0
			spot_angle_end 0
			spot_angle_start 0
		projection_light lo_omni
	100231 units/pd2_dlc_chill/props/chl_prop_sicario_candles/S3_chl_prop_sicario_candles_073 (1280.64, -1226.61, 130.8)
		delayed_load True
		disable_shadows True
		1
			clipping_values 10000.0, -10000.0, 0.0
			color 1.0, 0.388235, 0.0901961
			enabled True
			falloff_exponent 7
			far_range 175
			multiplier identity
			name lo_omni
			near_range 0
			spot_angle_end 0
			spot_angle_start 0
		projection_light lo_omni
	100232 units/pd2_dlc_chill/props/chl_prop_sicario_candles/S3_chl_prop_sicario_candles_074 (1421.41, -1381.73, 286.2)
		delayed_load True
		disable_shadows True
		1
			clipping_values 10000.0, -10000.0, 0.0
			color 1.0, 0.388235, 0.0901961
			enabled True
			falloff_exponent 7
			far_range 175
			multiplier identity
			name lo_omni
			near_range 0
			spot_angle_end 0
			spot_angle_start 0
		projection_light lo_omni
	100233 units/pd2_dlc_chill/props/chl_prop_sicario_candles/S3_chl_prop_sicario_candles_075 (1261.84, -1384.96, 285.875)
		delayed_load True
		disable_shadows True
		1
			clipping_values 10000.0, -10000.0, 0.0
			color 1.0, 0.388235, 0.0901961
			enabled True
			falloff_exponent 7
			far_range 175
			multiplier identity
			name lo_omni
			near_range 0
			spot_angle_end 0
			spot_angle_start 0
		projection_light lo_omni
	100234 units/pd2_dlc_chill/props/chl_prop_sicario_candles/S3_chl_prop_sicario_candles_076 (1450.48, -1365.78, 35.618)
		delayed_load True
		disable_shadows True
		1
			clipping_values 10000.0, -10000.0, 0.0
			color 1.0, 0.388235, 0.0901961
			enabled True
			falloff_exponent 7
			far_range 175
			multiplier identity
			name lo_omni
			near_range 0
			spot_angle_end 0
			spot_angle_start 0
		projection_light lo_omni
	100284 units/pd2_dlc_chill/props/chl_prop_sicario_fridge/S1_chl_prop_sicario_fridge_001 (1669.39, -823.678, -1.8665)
		delayed_load True
		disable_shadows True
	100328 units/pd2_dlc_chill/props/chl_prop_sicario_fridge/S2_chl_prop_sicario_fridge_002 (1669.39, -823.678, -1.8665)
		delayed_load True
		disable_shadows True
	100333 units/pd2_dlc_chill/props/chl_prop_sicario_fridge/S3_chl_prop_sicario_fridge_003 (1669.39, -823.678, -1.8665)
		delayed_load True
		disable_shadows True
	100002 units/pd2_dlc_chill/props/chl_prop_tequila_bottle/S1_chl_prop_tequila_bottle_001 (1464.0, -1352.0, 123.304)
		delayed_load True
		disable_shadows True
	100003 units/pd2_dlc_chill/props/chl_prop_tequila_bottle/S2_chl_prop_tequila_bottle_002 (1464.0, -1352.0, 123.304)
		delayed_load True
	100000 units/pd2_dlc_chill/props/chl_prop_tequila_bottle/S3_chl_prop_tequila_bottle_001 (1452.62, -1328.14, 55.618)
	100001 units/pd2_dlc_chill/props/chl_prop_tequila_bottle/S3_chl_prop_tequila_bottle_002 (1735.75, -1352.57, 108.538)
	100216 units/pd2_dlc_chill/props/dos_calveras/chl_prop_sicario_beer_crate/S1_chl_prop_sicario_beer_crate_001 (1739.47, -885.154, 6.1335)
		delayed_load True
		disable_shadows True
	100179 units/pd2_dlc_chill/props/dos_calveras/chl_prop_sicario_beer_crate/S2_chl_prop_sicario_beer_crate_001 (1657.24, -852.91, 43.1335)
		delayed_load True
		disable_shadows True
	100024 units/pd2_dlc_chill/props/dos_calveras/chl_prop_sicario_beer_crate/S2_chl_prop_sicario_beer_crate_002 (1739.47, -885.154, 6.1335)
		delayed_load True
		disable_shadows True
	100114 units/pd2_dlc_chill/props/dos_calveras/chl_prop_sicario_beer_crate/S2_chl_prop_sicario_beer_crate_003 (1654.24, -864.91, 8.1335)
		delayed_load True
		disable_shadows True
	100178 units/pd2_dlc_chill/props/dos_calveras/chl_prop_sicario_beer_crate/S3_chl_prop_sicario_beer_crate_001 (1654.24, -864.91, 8.1335)
		delayed_load True
		disable_shadows True
	100180 units/pd2_dlc_chill/props/dos_calveras/chl_prop_sicario_beer_crate/S3_chl_prop_sicario_beer_crate_002 (1657.24, -852.91, 43.1335)
		delayed_load True
		disable_shadows True
	100241 units/pd2_dlc_chill/props/dos_calveras/chl_prop_sicario_beer_crate/S3_chl_prop_sicario_beer_crate_003 (1742.11, -880.912, 43.1335)
		delayed_load True
		disable_shadows True
	100312 units/pd2_dlc_chill/props/dos_calveras/chl_prop_sicario_beer_crate/S3_chl_prop_sicario_beer_crate_004 (1655.24, -858.91, 79.1335)
		delayed_load True
		disable_shadows True
	100311 units/pd2_dlc_chill/props/dos_calveras/chl_prop_sicario_beer_crate/S3_chl_prop_sicario_beer_crate_005 (1739.47, -885.154, 6.1335)
		delayed_load True
		disable_shadows True
	100221 units/pd2_dlc_chill/props/longlamp/chl_prop_long_lamp_v2/S3_chl_prop_long_lamp_v2_008 (1504.0, -1392.0, 272.698)
		delayed_load True
		disable_shadows True
	100008 units/pd2_dlc_chill/props/pictureframes/chl_prop_sicario_pictureframe_01/S1_chl_prop_sicario_pictureframe_01_001 (1305.03, -982.351, 73.7408)
		delayed_load True
		disable_shadows True
	100010 units/pd2_dlc_chill/props/pictureframes/chl_prop_sicario_pictureframe_01/S2_chl_prop_sicario_pictureframe_01_002 (1288.62, -1161.84, 62.4951)
		delayed_load True
		disable_shadows True
	100011 units/pd2_dlc_chill/props/pictureframes/chl_prop_sicario_pictureframe_01/S3_chl_prop_sicario_pictureframe_01_003 (1286.44, -1242.67, 133.8)
		delayed_load True
		disable_shadows True
	100019 units/pd2_dlc_chill/props/pictureframes/chl_prop_sicario_pictureframe_maria/S1_chl_prop_sicario_pictureframe_maria_006 (1283.0, -963.0, 73.3138)
		delayed_load True
		disable_shadows True
	100109 units/pd2_dlc_chill/props/pictureframes/chl_prop_sicario_pictureframe_maria/S2_chl_prop_sicario_pictureframe_maria_011 (1275.0, -1125.0, 62.0681)
		delayed_load True
		disable_shadows True
	100236 units/pd2_dlc_chill/props/pictureframes/chl_prop_sicario_pictureframe_maria/S3_chl_prop_sicario_pictureframe_maria_013 (1258.3, -1234.44, 133.373)
		delayed_load True
		disable_shadows True
	100162 units/pd2_dlc_chill/props/prop_dos_calveras/chl_sicario_beer_a/S1_chl_sicario_beer_a_001 (1676.0, -954.0, 2.1335)
		delayed_load True
		disable_shadows True
	100078 units/pd2_dlc_chill/props/prop_dos_calveras/chl_sicario_beer_a/S1_chl_sicario_beer_a_002 (1670.0, -968.0, -1.8665)
		delayed_load True
		disable_shadows True
	100313 units/pd2_dlc_chill/props/prop_dos_calveras/chl_sicario_beer_a/S1_chl_sicario_beer_a_003 (1680.0, -961.0, -1.8665)
		delayed_load True
		disable_shadows True
	100080 units/pd2_dlc_chill/props/prop_dos_calveras/chl_sicario_beer_a/S1_chl_sicario_beer_a_004 (1671.92, -838.987, 120.134)
		delayed_load True
		disable_shadows True
	100081 units/pd2_dlc_chill/props/prop_dos_calveras/chl_sicario_beer_a/S1_chl_sicario_beer_a_005 (1679.38, -844.022, 120.134)
		delayed_load True
		disable_shadows True
	100082 units/pd2_dlc_chill/props/prop_dos_calveras/chl_sicario_beer_a/S1_chl_sicario_beer_a_006 (1687.47, -847.967, 120.134)
		delayed_load True
		disable_shadows True
	100083 units/pd2_dlc_chill/props/prop_dos_calveras/chl_sicario_beer_a/S1_chl_sicario_beer_a_007 (1728.15, -876.824, 117.133)
		delayed_load True
		disable_shadows True
	100084 units/pd2_dlc_chill/props/prop_dos_calveras/chl_sicario_beer_a/S1_chl_sicario_beer_a_008 (1734.58, -881.81, 117.133)
		delayed_load True
		disable_shadows True
	100085 units/pd2_dlc_chill/props/prop_dos_calveras/chl_sicario_beer_a/S1_chl_sicario_beer_a_009 (1703.12, -875.135, 79.1335)
		delayed_load True
		disable_shadows True
	100086 units/pd2_dlc_chill/props/prop_dos_calveras/chl_sicario_beer_a/S1_chl_sicario_beer_a_010 (1725.97, -879.115, 79.1335)
		delayed_load True
		disable_shadows True
	100087 units/pd2_dlc_chill/props/prop_dos_calveras/chl_sicario_beer_a/S1_chl_sicario_beer_a_011 (1732.4, -884.101, 79.1335)
		delayed_load True
		disable_shadows True
	100186 units/pd2_dlc_chill/props/prop_dos_calveras/chl_sicario_beer_a/S2_chl_sicario_beer_a_002 (1671.92, -838.987, 120.134)
		delayed_load True
		disable_shadows True
	100187 units/pd2_dlc_chill/props/prop_dos_calveras/chl_sicario_beer_a/S2_chl_sicario_beer_a_003 (1679.38, -844.022, 120.134)
		delayed_load True
		disable_shadows True
	100188 units/pd2_dlc_chill/props/prop_dos_calveras/chl_sicario_beer_a/S2_chl_sicario_beer_a_004 (1687.47, -847.967, 120.134)
		delayed_load True
		disable_shadows True
	100189 units/pd2_dlc_chill/props/prop_dos_calveras/chl_sicario_beer_a/S2_chl_sicario_beer_a_005 (1693.05, -866.773, 117.133)
		delayed_load True
		disable_shadows True
	100190 units/pd2_dlc_chill/props/prop_dos_calveras/chl_sicario_beer_a/S2_chl_sicario_beer_a_006 (1694.77, -875.605, 117.133)
		delayed_load True
		disable_shadows True
	100191 units/pd2_dlc_chill/props/prop_dos_calveras/chl_sicario_beer_a/S2_chl_sicario_beer_a_007 (1714.04, -867.335, 117.133)
		delayed_load True
		disable_shadows True
	100192 units/pd2_dlc_chill/props/prop_dos_calveras/chl_sicario_beer_a/S2_chl_sicario_beer_a_008 (1720.47, -872.321, 117.133)
		delayed_load True
		disable_shadows True
	100193 units/pd2_dlc_chill/props/prop_dos_calveras/chl_sicario_beer_a/S2_chl_sicario_beer_a_009 (1728.15, -876.824, 117.133)
		delayed_load True
		disable_shadows True
	100194 units/pd2_dlc_chill/props/prop_dos_calveras/chl_sicario_beer_a/S2_chl_sicario_beer_a_010 (1734.58, -881.81, 117.133)
		delayed_load True
		disable_shadows True
	100195 units/pd2_dlc_chill/props/prop_dos_calveras/chl_sicario_beer_a/S2_chl_sicario_beer_a_011 (1719.5, -874.823, 79.1335)
		delayed_load True
		disable_shadows True
	100196 units/pd2_dlc_chill/props/prop_dos_calveras/chl_sicario_beer_a/S2_chl_sicario_beer_a_012 (1725.97, -879.115, 79.1335)
		delayed_load True
		disable_shadows True
	100197 units/pd2_dlc_chill/props/prop_dos_calveras/chl_sicario_beer_a/S2_chl_sicario_beer_a_013 (1732.4, -884.101, 79.1335)
		delayed_load True
		disable_shadows True
	100198 units/pd2_dlc_chill/props/prop_dos_calveras/chl_sicario_beer_a/S2_chl_sicario_beer_a_014 (1720.94, -886.583, 79.1335)
		delayed_load True
		disable_shadows True
	100005 units/pd2_dlc_chill/props/prop_dos_calveras/chl_sicario_beer_a/S3_chl_sicario_beer_a_004 (1669.95, -848.558, 155.133)
		delayed_load True
		disable_shadows True
	100007 units/pd2_dlc_chill/props/prop_dos_calveras/chl_sicario_beer_a/S3_chl_sicario_beer_a_005 (1671.67, -857.396, 155.133)
		delayed_load True
		disable_shadows True
	100009 units/pd2_dlc_chill/props/prop_dos_calveras/chl_sicario_beer_a/S3_chl_sicario_beer_a_006 (1678.02, -847.537, 155.133)
		delayed_load True
		disable_shadows True
	100314 units/pd2_dlc_chill/props/prop_dos_calveras/chl_sicario_beer_a/S3_chl_sicario_beer_a_007 (1679.74, -856.369, 155.133)
		delayed_load True
		disable_shadows True
	100315 units/pd2_dlc_chill/props/prop_dos_calveras/chl_sicario_beer_a/S3_chl_sicario_beer_a_008 (1684.86, -863.921, 154.133)
		delayed_load True
		disable_shadows True
	100334 units/pd2_dlc_chill/props/prop_dos_calveras/chl_sicario_beer_a/S3_chl_sicario_beer_a_009 (1689.89, -856.461, 154.133)
		delayed_load True
		disable_shadows True
	100335 units/pd2_dlc_chill/props/prop_dos_calveras/chl_sicario_beer_a/S3_chl_sicario_beer_a_010 (1696.32, -861.44, 154.133)
		delayed_load True
		disable_shadows True
	100336 units/pd2_dlc_chill/props/prop_dos_calveras/chl_sicario_beer_a/S3_chl_sicario_beer_a_011 (1703.99, -865.95, 154.133)
		delayed_load True
		disable_shadows True
	100337 units/pd2_dlc_chill/props/prop_dos_calveras/chl_sicario_beer_a/S3_chl_sicario_beer_a_012 (1718.07, -875.474, 154.133)
		delayed_load True
		disable_shadows True
	100338 units/pd2_dlc_chill/props/prop_dos_calveras/chl_sicario_beer_a/S3_chl_sicario_beer_a_013 (1724.5, -880.452, 154.133)
		delayed_load True
		disable_shadows True
	100339 units/pd2_dlc_chill/props/prop_dos_calveras/chl_sicario_beer_a/S3_chl_sicario_beer_a_014 (1732.18, -884.962, 154.133)
		delayed_load True
		disable_shadows True
	100340 units/pd2_dlc_chill/props/prop_dos_calveras/chl_sicario_beer_a/S3_chl_sicario_beer_a_015 (1727.15, -892.422, 154.133)
		delayed_load True
		disable_shadows True
	100341 units/pd2_dlc_chill/props/prop_dos_calveras/chl_sicario_beer_a/S3_chl_sicario_beer_a_016 (1738.61, -889.94, 154.133)
		delayed_load True
		disable_shadows True
	100342 units/pd2_dlc_chill/props/prop_dos_calveras/chl_sicario_beer_a/S3_chl_sicario_beer_a_017 (1733.58, -897.409, 154.133)
		delayed_load True
		disable_shadows True
	100343 units/pd2_dlc_chill/props/prop_dos_calveras/chl_sicario_beer_a/S3_chl_sicario_beer_a_018 (1671.92, -838.987, 120.134)
		delayed_load True
		disable_shadows True
	100344 units/pd2_dlc_chill/props/prop_dos_calveras/chl_sicario_beer_a/S3_chl_sicario_beer_a_019 (1679.38, -844.022, 120.134)
		delayed_load True
		disable_shadows True
	100345 units/pd2_dlc_chill/props/prop_dos_calveras/chl_sicario_beer_a/S3_chl_sicario_beer_a_020 (1687.47, -847.967, 120.134)
		delayed_load True
		disable_shadows True
	100346 units/pd2_dlc_chill/props/prop_dos_calveras/chl_sicario_beer_a/S3_chl_sicario_beer_a_021 (1686.7, -876.631, 117.133)
		delayed_load True
		disable_shadows True
	100347 units/pd2_dlc_chill/props/prop_dos_calveras/chl_sicario_beer_a/S3_chl_sicario_beer_a_022 (1694.77, -875.605, 117.133)
		delayed_load True
		disable_shadows True
	100348 units/pd2_dlc_chill/props/prop_dos_calveras/chl_sicario_beer_a/S3_chl_sicario_beer_a_023 (1693.05, -866.773, 117.133)
		delayed_load True
		disable_shadows True
	100349 units/pd2_dlc_chill/props/prop_dos_calveras/chl_sicario_beer_a/S3_chl_sicario_beer_a_024 (1714.04, -867.335, 117.133)
		delayed_load True
		disable_shadows True
	100350 units/pd2_dlc_chill/props/prop_dos_calveras/chl_sicario_beer_a/S3_chl_sicario_beer_a_025 (1713.16, -877.599, 117.133)
		delayed_load True
		disable_shadows True
	100351 units/pd2_dlc_chill/props/prop_dos_calveras/chl_sicario_beer_a/S3_chl_sicario_beer_a_026 (1720.47, -872.321, 117.133)
		delayed_load True
		disable_shadows True
	100352 units/pd2_dlc_chill/props/prop_dos_calveras/chl_sicario_beer_a/S3_chl_sicario_beer_a_027 (1728.15, -876.824, 117.133)
		delayed_load True
		disable_shadows True
	100353 units/pd2_dlc_chill/props/prop_dos_calveras/chl_sicario_beer_a/S3_chl_sicario_beer_a_028 (1734.58, -881.81, 117.133)
		delayed_load True
		disable_shadows True
	100354 units/pd2_dlc_chill/props/prop_dos_calveras/chl_sicario_beer_a/S3_chl_sicario_beer_a_029 (1703.12, -875.135, 79.1335)
		delayed_load True
		disable_shadows True
	100355 units/pd2_dlc_chill/props/prop_dos_calveras/chl_sicario_beer_a/S3_chl_sicario_beer_a_030 (1719.5, -874.823, 79.1335)
		delayed_load True
		disable_shadows True
	100356 units/pd2_dlc_chill/props/prop_dos_calveras/chl_sicario_beer_a/S3_chl_sicario_beer_a_031 (1725.97, -879.115, 79.1335)
		delayed_load True
		disable_shadows True
	100357 units/pd2_dlc_chill/props/prop_dos_calveras/chl_sicario_beer_a/S3_chl_sicario_beer_a_032 (1732.4, -884.101, 79.1335)
		delayed_load True
		disable_shadows True
	100358 units/pd2_dlc_chill/props/prop_dos_calveras/chl_sicario_beer_a/S3_chl_sicario_beer_a_033 (1720.94, -886.583, 79.1335)
		delayed_load True
		disable_shadows True
	100219 units/pd2_dlc_chill/props/props_graffiti/chl_graffiti_maria/S3_chl_graffiti_maria_008 (1507.0, -1397.0, 135.0)
		delayed_load True
		disable_shadows True
	100014 units/pd2_dlc_chill/props/sicario_flag_mexico/chl_prop_mexican_flag/S1_chl_prop_mexican_flag_004 (1774.0, -1095.0, 209.618)
		delayed_load True
		disable_shadows True
	100099 units/pd2_dlc_chill/props/sicario_flag_mexico/chl_prop_mexican_flag/S2_chl_prop_mexican_flag_006 (1774.0, -1095.0, 209.618)
		delayed_load True
		disable_shadows True
	100222 units/pd2_dlc_chill/props/sicario_flag_mexico/chl_prop_mexican_flag/S3_chl_prop_mexican_flag_007 (1774.0, -1095.0, 209.618)
		delayed_load True
		disable_shadows True
	100034 units/pd2_dlc_flat/props/flt_prop_ashtray/S1_flt_prop_ashtray_004 (1690.0, -990.0, 66.2591)
		delayed_load True
		disable_shadows True
	100125 units/pd2_dlc_flat/props/flt_prop_ashtray/S2_flt_prop_ashtray_009 (1730.0, -955.0, 51.5413)
		delayed_load True
		disable_shadows True
	100256 units/pd2_dlc_flat/props/flt_prop_ashtray/S3_flt_prop_ashtray_012 (1453.64, -1305.49, 38.618)
		delayed_load True
		disable_shadows True
	100012 units/pd2_dlc_max/props/max_prop_castigos/S1_max_prop_castigos_001 (1455.0, -1298.0, 104.976)
		delayed_load True
		disable_shadows True
	100018 units/pd2_dlc_max/props/max_prop_sicario_gunbox/S2_max_prop_sicario_gunbox_001 (1287.49, -1241.99, 109.629)
		delayed_load True
		disable_shadows True
		mesh_variation enable_interaction
	100036 units/pd2_dlc_max/props/max_prop_sicario_gunbox/S3_max_prop_sicario_gunbox_002 (1517.0, -1321.0, 44.0)
		delayed_load True
		disable_shadows True
		mesh_variation enable_interaction
	100070 units/pd2_dlc_max/props/prop_shirts/max_shirt_01/S3_max_shirt_01_001 (1360.36, -860.783, 168.441)
		delayed_load True
		disable_shadows True
	100079 units/pd2_dlc_max/props/prop_shirts/max_shirt_02/S3_max_shirt_02_001 (1382.3, -857.309, 169.441)
		delayed_load True
		disable_shadows True
	100095 units/pd2_dlc_max/props/prop_shirts/max_shirt_03/S2_max_shirt_03_002 (1374.74, -859.629, 169.441)
		delayed_load True
		disable_shadows True
	100088 units/pd2_dlc_max/props/prop_shirts/max_shirt_03/S3_max_shirt_03_001 (1314.94, -868.635, 168.441)
		delayed_load True
		disable_shadows True
	100200 units/pd2_dlc_max/props/prop_shirts/max_shirt_04/S1_max_shirt_04_003 (1316.91, -867.845, 169.441)
		delayed_load True
		disable_shadows True
	100094 units/pd2_dlc_max/props/prop_shirts/max_shirt_04/S2_max_shirt_04_002 (1348.0, -863.386, 169.441)
		delayed_load True
		disable_shadows True
	100089 units/pd2_dlc_max/props/prop_shirts/max_shirt_04/S3_max_shirt_04_001 (1340.66, -862.892, 168.441)
		delayed_load True
		disable_shadows True
	100093 units/pd2_dlc_max/props/prop_shirts/max_shirt_05/S2_max_shirt_05_002 (1327.07, -865.354, 169.441)
		delayed_load True
		disable_shadows True
	100090 units/pd2_dlc_max/props/prop_shirts/max_shirt_05/S3_max_shirt_05_001 (1272.82, -875.661, 168.441)
		delayed_load True
		disable_shadows True
	100185 units/pd2_dlc_max/props/prop_shirts/max_shirt_06/S1_max_shirt_06_003 (1289.04, -871.292, 169.441)
		delayed_load True
		disable_shadows True
	100092 units/pd2_dlc_max/props/prop_shirts/max_shirt_06/S2_max_shirt_06_002 (1260.86, -875.634, 169.441)
		delayed_load True
		disable_shadows True
	100091 units/pd2_dlc_max/props/prop_shirts/max_shirt_06/S3_max_shirt_06_001 (1300.17, -869.306, 168.441)
		delayed_load True
		disable_shadows True
	100215 units/world/props/bottle_3/S3_bottle_3_014 (1750.96, -1322.84, 91.0157)
		delayed_load True
		disable_shadows True
	100096 units/world/props/bottle_6/S2_bottle_6_007 (1715.0, -1369.73, 91.0157)
		delayed_load True
		disable_shadows True
	100217 units/world/props/bottle_6/S3_bottle_6_008 (1750.0, -1336.73, 91.0157)
		delayed_load True
		disable_shadows True
	100033 units/world/props/diamond_heist/apartment/apartment_room/flowerpot/S1_flowerpot_006 (1284.34, -987.802, 73.7408)
		delayed_load True
		disable_shadows True
	100124 units/world/props/diamond_heist/apartment/apartment_room/flowerpot/S2_flowerpot_011 (1267.61, -1165.84, 62.4951)
		delayed_load True
		disable_shadows True
	100255 units/world/props/diamond_heist/apartment/apartment_room/flowerpot/S3_flowerpot_013 (1270.0, -1256.35, 133.8)
		delayed_load True
		disable_shadows True
	100073 units/world/props/mansion/carpets/man_prop_int_carpet_short/S1_man_prop_int_carpet_short_004 (1499.0, -1084.0, -1.8665)
		delayed_load True
		disable_shadows True
	100167 units/world/props/mansion/carpets/man_prop_int_carpet_short/S2_man_prop_int_carpet_short_006 (1499.0, -1084.0, -1.8665)
		delayed_load True
		disable_shadows True
	100291 units/world/props/mansion/carpets/man_prop_int_carpet_short/S3_man_prop_int_carpet_short_007 (1499.0, -1084.0, -1.8665)
		delayed_load True
		disable_shadows True
