ID range vs continent name:
	100000: world

statics
	100023 units/dev_tools/level_tools/dev_bag_collision_1x3m/001 (616.359, 263.0, 99.5577)
	100024 units/dev_tools/level_tools/dev_bag_collision_1x3m/002 (322.359, 267.0, 99.5577)
	100025 units/dev_tools/level_tools/dev_bag_collision_1x3m/003 (323.359, 556.0, 99.5577)
	100026 units/dev_tools/level_tools/dev_bag_collision_1x3m/004 (623.359, 554.0, 99.5577)
	100001 units/dev_tools/level_tools/dev_bag_collision_4x3m/001 (636.0, 200.0, -300.0)
	100002 units/dev_tools/level_tools/dev_bag_collision_4x3m/002 (310.0, 625.0, -300.0)
	100017 units/dev_tools/level_tools/dev_bag_collision_4x3m/003 (675.0, 215.0, -300.0)
	100018 units/dev_tools/level_tools/dev_bag_collision_4x3m/004 (675.0, 583.0, -300.0)
	100054 units/dev_tools/level_tools/dev_collision_4x3m/001 (316.0, 200.0, 25.0)
	100000 units/payday2/architecture/sub/sub_int_service_tracks_plain_01_hole/001 (0.0, 0.0, 0.0)
	100093 units/pd2_dlc_cane/props/props_chimney/cne_prop_chimney/001 (468.0, 411.0, 24.0)
